
     Program PWSCF v.6.7MaX starts on 18Jan2023 at 18: 6:36 

     This program is part of the open-source Quantum ESPRESSO suite
     for quantum simulation of materials; please cite
         "P. Giannozzi et al., J. Phys.:Condens. Matter 21 395502 (2009);
         "P. Giannozzi et al., J. Phys.:Condens. Matter 29 465901 (2017);
          URL http://www.quantum-espresso.org", 
     in publications or presentations arising from this work. More details at
     http://www.quantum-espresso.org/quote

     Parallel version (MPI), running on     8 processors

     MPI processes distributed on     1 nodes
     R & G space division:  proc/nbgrp/npool/nimage =       8
     Reading input from MoS2_1T.in

     Current dimensions of program PWSCF are:
     Max number of different atomic species (ntypx) = 10
     Max number of k-points (npk) =  40000
     Max angular momentum in pseudopotentials (lmaxx) =  3
     file Mo.pbe-spn-rrkjus_psl.1.0.0.UPF: wavefunction(s)  4S renormalized

     IMPORTANT: XC functional enforced from input :
     Exchange-correlation= PBE
                           (   1   4   3   4   0   0   0)
     Any further DFT definition will be discarded
     Please, verify this is what you really want


     Subspace diagonalization in iterative solution of the eigenvalue problem:
     one sub-group per band group will be used
     scalapack distributed-memory algorithm (size of sub-group:  2*  2 procs)


     Parallelization info
     --------------------
     sticks:   dense  smooth     PW     G-vecs:    dense   smooth      PW
     Min         191      75     23                30785     7773    1253
     Max         192      78     24                30802     7779    1264
     Sum        1531     613    187               246355    62205   10085



     bravais-lattice index     =           12
     lattice parameter (alat)  =       7.4644  a.u.
     unit-cell volume          =    1823.6917 (a.u.)^3
     number of atoms/cell      =            3
     number of atomic types    =            2
     number of electrons       =        26.00
     number of Kohn-Sham states=           18
     kinetic-energy cutoff     =      40.0000  Ry
     charge density cutoff     =     400.0000  Ry
     scf convergence threshold =      1.0E-06
     mixing beta               =       0.1000
     number of iterations used =            8  plain     mixing
     energy convergence thresh.=      1.0E-04
     force convergence thresh. =      1.0E-03
     Exchange-correlation= PBE
                           (   1   4   3   4   0   0   0)
     nstep                     =           50


     celldm(1)=   7.464418  celldm(2)=   1.000000  celldm(3)=   5.063291
     celldm(4)=   0.500000  celldm(5)=   0.000000  celldm(6)=   0.000000

     crystal axes: (cart. coord. in units of alat)
               a(1) = (   1.000000   0.000000   0.000000 )  
               a(2) = (   0.500000   0.866025   0.000000 )  
               a(3) = (   0.000000   0.000000   5.063291 )  

     reciprocal axes: (cart. coord. in units 2 pi/alat)
               b(1) = (  1.000000 -0.577350  0.000000 )  
               b(2) = (  0.000000  1.154701  0.000000 )  
               b(3) = (  0.000000  0.000000  0.197500 )  


     PseudoPot. # 1 for Mo read from file:
     /home/zronyj/Desktop/MoS2/pseudo/Mo.pbe-spn-rrkjus_psl.1.0.0.UPF
     MD5 check sum: 03f09b12e49601d1a456a78ce8b2d514
     Pseudo is Ultrasoft + core correction, Zval = 14.0
     Generated using &quot;atomic&quot; code by A. Dal Corso  v.6.3
     Using radial grid of 1229 points,  6 beta functions with: 
                l(1) =   0
                l(2) =   0
                l(3) =   1
                l(4) =   1
                l(5) =   2
                l(6) =   2
     Q(r) pseudized with 0 coefficients 


     PseudoPot. # 2 for S  read from file:
     /home/zronyj/Desktop/MoS2/pseudo/S.pbe-n-rrkjus_psl.1.0.0.UPF
     MD5 check sum: 9d0fe39aa2a799ea84730884c9b010f4
     Pseudo is Ultrasoft + core correction, Zval =  6.0
     Generated using &quot;atomic&quot; code by A. Dal Corso  v.6.3
     Using radial grid of 1151 points,  6 beta functions with: 
                l(1) =   0
                l(2) =   0
                l(3) =   1
                l(4) =   1
                l(5) =   2
                l(6) =   2
     Q(r) pseudized with 0 coefficients 


     atomic species   valence    mass     pseudopotential
        Mo            14.00    95.95000     Mo( 1.00)
        S              6.00    32.06500     S ( 1.00)

     12 Sym. Ops., with inversion, found


                                    s                        frac. trans.

      isym =  1     identity                                     

 cryst.   s( 1) = (     1          0          0      )
                  (     0          1          0      )
                  (     0          0          1      )

 cart.    s( 1) = (  1.0000000  0.0000000  0.0000000 )
                  (  0.0000000  1.0000000  0.0000000 )
                  (  0.0000000  0.0000000  1.0000000 )


      isym =  2     180 deg rotation - cart. axis [1,0,0]        

 cryst.   s( 2) = (     1          0          0      )
                  (     1         -1          0      )
                  (     0          0         -1      )

 cart.    s( 2) = (  1.0000000  0.0000000  0.0000000 )
                  (  0.0000000 -1.0000000  0.0000000 )
                  (  0.0000000  0.0000000 -1.0000000 )


      isym =  3     120 deg rotation - cryst. axis [0,0,1]       

 cryst.   s( 3) = (    -1          1          0      )
                  (    -1          0          0      )
                  (     0          0          1      )

 cart.    s( 3) = ( -0.5000000 -0.8660254  0.0000000 )
                  (  0.8660254 -0.5000000  0.0000000 )
                  (  0.0000000  0.0000000  1.0000000 )


      isym =  4     120 deg rotation - cryst. axis [0,0,-1]      

 cryst.   s( 4) = (     0         -1          0      )
                  (     1         -1          0      )
                  (     0          0          1      )

 cart.    s( 4) = ( -0.5000000  0.8660254  0.0000000 )
                  ( -0.8660254 -0.5000000  0.0000000 )
                  (  0.0000000  0.0000000  1.0000000 )


      isym =  5     180 deg rotation - cryst. axis [0,1,0]       

 cryst.   s( 5) = (     0         -1          0      )
                  (    -1          0          0      )
                  (     0          0         -1      )

 cart.    s( 5) = ( -0.5000000 -0.8660254  0.0000000 )
                  ( -0.8660254  0.5000000  0.0000000 )
                  (  0.0000000  0.0000000 -1.0000000 )


      isym =  6     180 deg rotation - cryst. axis [1,1,0]       

 cryst.   s( 6) = (    -1          1          0      )
                  (     0          1          0      )
                  (     0          0         -1      )

 cart.    s( 6) = ( -0.5000000  0.8660254  0.0000000 )
                  (  0.8660254  0.5000000  0.0000000 )
                  (  0.0000000  0.0000000 -1.0000000 )


      isym =  7     inversion                                    

 cryst.   s( 7) = (    -1          0          0      )
                  (     0         -1          0      )
                  (     0          0         -1      )

 cart.    s( 7) = ( -1.0000000  0.0000000  0.0000000 )
                  (  0.0000000 -1.0000000  0.0000000 )
                  (  0.0000000  0.0000000 -1.0000000 )


      isym =  8     inv. 180 deg rotation - cart. axis [1,0,0]   

 cryst.   s( 8) = (    -1          0          0      )
                  (    -1          1          0      )
                  (     0          0          1      )

 cart.    s( 8) = ( -1.0000000  0.0000000  0.0000000 )
                  (  0.0000000  1.0000000  0.0000000 )
                  (  0.0000000  0.0000000  1.0000000 )


      isym =  9     inv. 120 deg rotation - cryst. axis [0,0,1]  

 cryst.   s( 9) = (     1         -1          0      )
                  (     1          0          0      )
                  (     0          0         -1      )

 cart.    s( 9) = (  0.5000000  0.8660254  0.0000000 )
                  ( -0.8660254  0.5000000  0.0000000 )
                  (  0.0000000  0.0000000 -1.0000000 )


      isym = 10     inv. 120 deg rotation - cryst. axis [0,0,-1] 

 cryst.   s(10) = (     0          1          0      )
                  (    -1          1          0      )
                  (     0          0         -1      )

 cart.    s(10) = (  0.5000000 -0.8660254  0.0000000 )
                  (  0.8660254  0.5000000  0.0000000 )
                  (  0.0000000  0.0000000 -1.0000000 )


      isym = 11     inv. 180 deg rotation - cryst. axis [0,1,0]  

 cryst.   s(11) = (     0          1          0      )
                  (     1          0          0      )
                  (     0          0          1      )

 cart.    s(11) = (  0.5000000  0.8660254  0.0000000 )
                  (  0.8660254 -0.5000000  0.0000000 )
                  (  0.0000000  0.0000000  1.0000000 )


      isym = 12     inv. 180 deg rotation - cryst. axis [1,1,0]  

 cryst.   s(12) = (     1         -1          0      )
                  (     0         -1          0      )
                  (     0          0          1      )

 cart.    s(12) = (  0.5000000 -0.8660254  0.0000000 )
                  ( -0.8660254 -0.5000000  0.0000000 )
                  (  0.0000000  0.0000000  1.0000000 )


     point group D_3d (-3m) 
     there are  6 classes
     the character table:

       E     2C3   3C2'  i     2S6   3s_d 
A_1g   1.00  1.00  1.00  1.00  1.00  1.00
A_2g   1.00  1.00 -1.00  1.00  1.00 -1.00
E_g    2.00 -1.00  0.00  2.00 -1.00  0.00
A_1u   1.00  1.00  1.00 -1.00 -1.00 -1.00
A_2u   1.00  1.00 -1.00 -1.00 -1.00  1.00
E_u    2.00 -1.00  0.00 -2.00  1.00  0.00

     the symmetry operations in each class and the name of the first element:

     E        1
          identity                                               
     2C3      3    4
          120 deg rotation - cryst. axis [0,0,1]                 
     3C2'     2    5    6
          180 deg rotation - cart. axis [1,0,0]                  
     i        7
          inversion                                              
     2S6      9   10
          inv. 120 deg rotation - cryst. axis [0,0,1]            
     3s_d     8   11   12
          inv. 180 deg rotation - cart. axis [1,0,0]             

   Cartesian axes

     site n.     atom                  positions (alat units)
         1           Mo  tau(   1) = (   0.0000000   0.0000000   2.5316456  )
         2           S   tau(   2) = (   0.5000000   0.2886751   2.7848101  )
         3           S   tau(   3) = (   1.0000000   0.5773503   2.2784810  )

   Crystallographic axes

     site n.     atom                  positions (cryst. coord.)
         1           Mo  tau(   1) = (  0.0000000  0.0000000  0.5000000  )
         2           S   tau(   2) = (  0.3333333  0.3333333  0.5500000  )
         3           S   tau(   3) = (  0.6666667  0.6666667  0.4500000  )

     number of k points=    12  Marzari-Vanderbilt smearing, width (Ry)=  0.0001
                       cart. coord. in units 2pi/alat
        k(    1) = (   0.0000000   0.0000000   0.0000000), wk =   0.0246914
        k(    2) = (   0.0000000   0.1283001   0.0000000), wk =   0.1481481
        k(    3) = (   0.0000000   0.2566001   0.0000000), wk =   0.1481481
        k(    4) = (   0.0000000   0.3849002   0.0000000), wk =   0.1481481
        k(    5) = (   0.0000000   0.5132002   0.0000000), wk =   0.1481481
        k(    6) = (   0.1111111   0.1924501   0.0000000), wk =   0.1481481
        k(    7) = (   0.1111111   0.3207501   0.0000000), wk =   0.2962963
        k(    8) = (   0.1111111   0.4490502   0.0000000), wk =   0.2962963
        k(    9) = (   0.1111111  -0.5773503   0.0000000), wk =   0.1481481
        k(   10) = (   0.2222222   0.3849002   0.0000000), wk =   0.1481481
        k(   11) = (   0.2222222  -0.6415003   0.0000000), wk =   0.2962963
        k(   12) = (   0.3333333  -0.5773503   0.0000000), wk =   0.0493827

                       cryst. coord.
        k(    1) = (   0.0000000   0.0000000   0.0000000), wk =   0.0246914
        k(    2) = (   0.0000000   0.1111111   0.0000000), wk =   0.1481481
        k(    3) = (   0.0000000   0.2222222   0.0000000), wk =   0.1481481
        k(    4) = (   0.0000000   0.3333333   0.0000000), wk =   0.1481481
        k(    5) = (   0.0000000   0.4444444   0.0000000), wk =   0.1481481
        k(    6) = (   0.1111111   0.2222222   0.0000000), wk =   0.1481481
        k(    7) = (   0.1111111   0.3333333   0.0000000), wk =   0.2962963
        k(    8) = (   0.1111111   0.4444444   0.0000000), wk =   0.2962963
        k(    9) = (   0.1111111  -0.4444444   0.0000000), wk =   0.1481481
        k(   10) = (   0.2222222   0.4444444   0.0000000), wk =   0.1481481
        k(   11) = (   0.2222222  -0.4444444   0.0000000), wk =   0.2962963
        k(   12) = (   0.3333333  -0.3333333   0.0000000), wk =   0.0493827

     Dense  grid:   246355 G-vectors     FFT dimensions: (  48,  48, 243)

     Smooth grid:    62205 G-vectors     FFT dimensions: (  32,  32, 160)

     Dynamical RAM for                 wfc:       0.27 MB

     Dynamical RAM for     wfc (w. buffer):       3.47 MB

     Dynamical RAM for           str. fact:       0.94 MB

     Dynamical RAM for           local pot:       0.00 MB

     Dynamical RAM for          nlocal pot:       0.80 MB

     Dynamical RAM for                qrad:       3.21 MB

     Dynamical RAM for          rho,v,vnew:       3.04 MB

     Dynamical RAM for               rhoin:       1.01 MB

     Dynamical RAM for            rho*nmix:       7.52 MB

     Dynamical RAM for           G-vectors:       1.82 MB

     Dynamical RAM for          h,s,v(r/c):       0.01 MB

     Dynamical RAM for          <psi|beta>:       0.01 MB

     Dynamical RAM for                 psi:       0.53 MB

     Dynamical RAM for                hpsi:       0.53 MB

     Dynamical RAM for                spsi:       0.53 MB

     Dynamical RAM for      wfcinit/wfcrot:       0.54 MB

     Dynamical RAM for           addusdens:      88.31 MB

     Dynamical RAM for          addusforce:      89.49 MB

     Estimated static dynamical RAM per process >      25.96 MB

     Estimated max dynamical RAM per process >     115.45 MB

     Estimated total dynamical RAM >     923.59 MB

     Initial potential from superposition of free atoms

     starting charge   25.99905, renormalised to   26.00000

     negative rho (up, down):  8.168E-05 0.000E+00
     Starting wfcs are   18 randomized atomic wfcs

     total cpu time spent up to now is        1.4 secs

     Self-consistent Calculation

     iteration #  1     ecut=    40.00 Ry     beta= 0.10
     Davidson diagonalization with overlap
     ethr =  1.00E-02,  avg # of iterations =  5.5

     Threshold (ethr) on eigenvalues was too large:
     Diagonalizing with lowered threshold

     Davidson diagonalization with overlap
     ethr =  3.30E-04,  avg # of iterations =  3.8

     negative rho (up, down):  7.867E-05 0.000E+00

     total cpu time spent up to now is        3.5 secs

     total energy              =    -181.39268732 Ry
     estimated scf accuracy    <       0.09947744 Ry

     iteration #  2     ecut=    40.00 Ry     beta= 0.10
     Davidson diagonalization with overlap
     ethr =  3.83E-04,  avg # of iterations =  1.0

     negative rho (up, down):  2.638E-04 0.000E+00

     total cpu time spent up to now is        4.6 secs

     total energy              =    -181.37411367 Ry
     estimated scf accuracy    <       0.06093955 Ry

     iteration #  3     ecut=    40.00 Ry     beta= 0.10
     Davidson diagonalization with overlap
     ethr =  2.34E-04,  avg # of iterations =  4.6

     negative rho (up, down):  3.525E-04 0.000E+00

     total cpu time spent up to now is        5.8 secs

     total energy              =    -181.37913530 Ry
     estimated scf accuracy    <       0.01204323 Ry

     iteration #  4     ecut=    40.00 Ry     beta= 0.10
     Davidson diagonalization with overlap
     ethr =  4.63E-05,  avg # of iterations =  5.0

     negative rho (up, down):  7.350E-04 0.000E+00

     total cpu time spent up to now is        7.0 secs

     total energy              =    -181.37968518 Ry
     estimated scf accuracy    <       0.00494890 Ry

     iteration #  5     ecut=    40.00 Ry     beta= 0.10
     Davidson diagonalization with overlap
     ethr =  1.90E-05,  avg # of iterations =  5.8

     negative rho (up, down):  7.822E-04 0.000E+00

     total cpu time spent up to now is        8.3 secs

     total energy              =    -181.37880549 Ry
     estimated scf accuracy    <       0.00550733 Ry

     iteration #  6     ecut=    40.00 Ry     beta= 0.10
     Davidson diagonalization with overlap
     ethr =  1.90E-05,  avg # of iterations =  2.0

     negative rho (up, down):  6.862E-04 0.000E+00

     total cpu time spent up to now is        9.4 secs

     total energy              =    -181.37971415 Ry
     estimated scf accuracy    <       0.00017868 Ry

     iteration #  7     ecut=    40.00 Ry     beta= 0.10
     Davidson diagonalization with overlap
     ethr =  6.87E-07,  avg # of iterations =  5.1

     negative rho (up, down):  6.795E-04 0.000E+00

     total cpu time spent up to now is       10.6 secs

     total energy              =    -181.37968538 Ry
     estimated scf accuracy    <       0.00027892 Ry

     iteration #  8     ecut=    40.00 Ry     beta= 0.10
     Davidson diagonalization with overlap
     ethr =  6.87E-07,  avg # of iterations =  2.8

     negative rho (up, down):  6.008E-04 0.000E+00

     total cpu time spent up to now is       11.9 secs

     total energy              =    -181.37971673 Ry
     estimated scf accuracy    <       0.00024906 Ry

     iteration #  9     ecut=    40.00 Ry     beta= 0.10
     Davidson diagonalization with overlap
     ethr =  6.87E-07,  avg # of iterations =  1.2

     negative rho (up, down):  5.359E-04 0.000E+00

     total cpu time spent up to now is       12.9 secs

     total energy              =    -181.37972402 Ry
     estimated scf accuracy    <       0.00011959 Ry

     iteration # 10     ecut=    40.00 Ry     beta= 0.10
     Davidson diagonalization with overlap
     ethr =  4.60E-07,  avg # of iterations =  1.4

     negative rho (up, down):  4.799E-04 0.000E+00

     total cpu time spent up to now is       14.0 secs

     total energy              =    -181.37966834 Ry
     estimated scf accuracy    <       0.00011009 Ry

     iteration # 11     ecut=    40.00 Ry     beta= 0.10
     Davidson diagonalization with overlap
     ethr =  4.23E-07,  avg # of iterations =  2.0

     negative rho (up, down):  6.271E-05 0.000E+00

     total cpu time spent up to now is       15.2 secs

     End of self-consistent calculation

          k = 0.0000 0.0000 0.0000 (  7811 PWs)   bands (ev):

   -63.5435 -37.6284 -37.6284 -37.5858 -16.0543 -13.7703  -7.2216  -7.2216
    -6.2344  -3.5231  -3.2513  -3.2513  -2.8161  -2.8161  -0.9817   2.0018
     2.0018   2.3827

     occupation numbers 
     1.0000   1.0000   1.0000   1.0000   1.0000   1.0000   1.0000   1.0000
     1.0000   1.0000   1.0000   1.0000   1.0000   1.0000   0.0000   0.0000
     0.0000   0.0000

          k = 0.0000 0.1283 0.0000 (  7815 PWs)   bands (ev):

   -63.5432 -37.6340 -37.6297 -37.5851 -15.9431 -13.8494  -7.1689  -7.1140
    -6.1731  -4.0484  -3.7527  -3.3581  -2.3466  -2.3419  -0.9499   1.3193
     1.7503   2.6117

     occupation numbers 
     1.0000   1.0000   1.0000   1.0000   1.0000   1.0000   1.0000   1.0000
     1.0000   1.0000   1.0000   1.0000   1.0000   1.0000   0.0000   0.0000
     0.0000   0.0000

          k = 0.0000 0.2566 0.0000 (  7851 PWs)   bands (ev):

   -63.5427 -37.6482 -37.6329 -37.5832 -15.6386 -14.0479  -7.0508  -6.8116
    -6.1350  -4.8250  -4.3383  -3.1849  -1.9536  -1.8857  -1.1757   0.4842
     1.4148   3.1015

     occupation numbers 
     1.0000   1.0000   1.0000   1.0000   1.0000   1.0000   1.0000   1.0000
     1.0000   1.0000   1.0000   1.0000   0.0000   0.0000   0.0000   0.0000
     0.0000   0.0000

          k = 0.0000 0.3849 0.0000 (  7811 PWs)   bands (ev):

   -63.5420 -37.6642 -37.6365 -37.5810 -15.2276 -14.2896  -7.1940  -6.3816
    -6.1858  -4.8472  -4.8122  -3.2767  -1.9908  -1.7627  -1.6816   0.3988
     1.4299   3.3837

     occupation numbers 
     1.0000   1.0000   1.0000   1.0000   1.0000   1.0000   1.0000   1.0000
     1.0000   1.0000   1.0000   1.0000   0.0000   0.0000   0.0000   0.0000
     0.0000   0.0000

          k = 0.0000 0.5132 0.0000 (  7763 PWs)   bands (ev):

   -63.5416 -37.6746 -37.6389 -37.5795 -14.8356 -14.5373  -7.5809  -5.9762
    -5.9095  -5.1532  -4.7153  -3.3982  -2.3417  -2.2023  -1.7521   0.8264
     1.6097   3.8062

     occupation numbers 
     1.0000   1.0000   1.0000   1.0000   1.0000   1.0000   1.0000   1.0000
     1.0000   1.0000   1.0000   1.0000   1.0000   1.0000   0.0000   0.0000
     0.0000   0.0000

          k = 0.1111 0.1925 0.0000 (  7839 PWs)   bands (ev):

   -63.5428 -37.6434 -37.6324 -37.5837 -15.7352 -13.9870  -7.0632  -6.9203
    -6.1225  -4.6164  -4.3503  -3.0280  -2.3107  -1.7769  -1.0808   0.7335
     1.2982   3.0376

     occupation numbers 
     1.0000   1.0000   1.0000   1.0000   1.0000   1.0000   1.0000   1.0000
     1.0000   1.0000   1.0000   1.0000   1.0000   0.0000   0.0000   0.0000
     0.0000   0.0000

          k = 0.1111 0.3208 0.0000 (  7804 PWs)   bands (ev):

   -63.5422 -37.6573 -37.6370 -37.5817 -15.3771 -14.1994  -6.9607  -6.5883
    -6.3065  -4.9367  -4.7314  -3.0145  -2.1761  -1.5761  -1.4182   0.3868
     1.0794   3.5481

     occupation numbers 
     1.0000   1.0000   1.0000   1.0000   1.0000   1.0000   1.0000   1.0000
     1.0000   1.0000   1.0000   1.0000   0.9167   0.0000   0.0000   0.0000
     0.0000   0.0000

          k = 0.1111 0.4491 0.0000 (  7789 PWs)   bands (ev):

   -63.5417 -37.6694 -37.6411 -37.5799 -14.9811 -14.4228  -7.3055  -6.3523
    -6.0820  -5.0788  -4.6846  -3.3262  -2.2960  -1.9922  -1.4992   0.6343
     1.2269   3.8549

     occupation numbers 
     1.0000   1.0000   1.0000   1.0000   1.0000   1.0000   1.0000   1.0000
     1.0000   1.0000   1.0000   1.0000   1.0000   0.0000   0.0000   0.0000
     0.0000   0.0000

          k = 0.1111-0.5774 0.0000 (  7756 PWs)   bands (ev):

   -63.5414 -37.6741 -37.6427 -37.5792 -14.6691 -14.6527  -7.5448  -6.2576
    -5.6756  -5.3903  -4.5438  -3.4860  -2.4604  -2.1084  -1.6250   0.8724
     1.3395   4.5156

     occupation numbers 
     1.0000   1.0000   1.0000   1.0000   1.0000   1.0000   1.0000   1.0000
     1.0000   1.0000   1.0000   1.0000   1.0000   0.0000   0.0000   0.0000
     0.0000   0.0000

          k = 0.2222 0.3849 0.0000 (  7767 PWs)   bands (ev):

   -63.5417 -37.6649 -37.6444 -37.5800 -15.0365 -14.3761  -6.8009  -6.7728
    -6.3919  -4.8435  -4.8430  -3.2030  -2.3201  -1.9352  -1.2279   0.6207
     0.8290   4.0496

     occupation numbers 
     1.0000   1.0000   1.0000   1.0000   1.0000   1.0000   1.0000   1.0000
     1.0000   1.0000   1.0000   1.0000   1.0000   0.0000   0.0000   0.0000
     0.0000   0.0000

          k = 0.2222-0.6415 0.0000 (  7755 PWs)   bands (ev):

   -63.5414 -37.6685 -37.6506 -37.5789 -14.7408 -14.5380  -7.2132  -6.5676
    -6.3360  -4.8723  -4.5289  -3.6512  -2.5060  -1.8672  -1.3589   0.7798
     0.9091   4.6235

     occupation numbers 
     1.0000   1.0000   1.0000   1.0000   1.0000   1.0000   1.0000   1.0000
     1.0000   1.0000   1.0000   1.0000   1.0000   0.0000   0.0000   0.0000
     0.0000   0.0000

          k = 0.3333-0.5774 0.0000 (  7770 PWs)   bands (ev):

   -63.5413 -37.6613 -37.6613 -37.5786 -14.6110 -14.6110  -7.0406  -6.6629
    -6.6629  -4.4964  -4.4964  -3.9923  -2.5973  -1.5216  -1.5216   0.7911
     0.7911   5.3588

     occupation numbers 
     1.0000   1.0000   1.0000   1.0000   1.0000   1.0000   1.0000   1.0000
     1.0000   1.0000   1.0000   1.0000   1.0000   0.0000   0.0000   0.0000
     0.0000   0.0000

     the Fermi energy is    -2.1751 ev

!    total energy              =    -181.37969285 Ry
     estimated scf accuracy    <       0.00000094 Ry
     smearing contrib. (-TS)   =       0.00000038 Ry
     internal energy E=F+TS    =    -181.37969323 Ry

     The total energy is F=E-TS. E is the sum of the following terms:
     one-electron contribution =    -851.24734214 Ry
     hartree contribution      =     424.38649384 Ry
     xc contribution           =     -29.42630533 Ry
     ewald contribution        =     274.90746040 Ry

     convergence has been achieved in  11 iterations

     negative rho (up, down):  6.271E-05 0.000E+00

     Forces acting on atoms (cartesian axes, Ry/au):

     atom    1 type  1   force =    -0.00000000    0.00000000    0.00000000
     atom    2 type  2   force =     0.00000000    0.00000000    0.00045312
     atom    3 type  2   force =     0.00000000    0.00000000   -0.00045312
     The non-local contrib.  to forces
     atom    1 type  1   force =     0.00000000    0.00000000    0.00000000
     atom    2 type  2   force =     0.00000000    0.00000000   -0.06943599
     atom    3 type  2   force =     0.00000000   -0.00000000    0.06943599
     The ionic contribution  to forces
     atom    1 type  1   force =    -0.00000003   -0.00000002    0.00000000
     atom    2 type  2   force =     0.00000001    0.00000001   19.40842430
     atom    3 type  2   force =     0.00000002    0.00000001  -19.40842430
     The local contribution  to forces
     atom    1 type  1   force =    -0.00000000   -0.00000000   -0.00000000
     atom    2 type  2   force =     0.00000001    0.00000001  -19.33850510
     atom    3 type  2   force =     0.00000002    0.00000001   19.33850510
     The core correction contribution to forces
     atom    1 type  1   force =    -0.00000000   -0.00000000   -0.00000000
     atom    2 type  2   force =    -0.00000000   -0.00000000   -0.00068037
     atom    3 type  2   force =    -0.00000000   -0.00000000    0.00068037
     The Hubbard contrib.    to forces
     atom    1 type  1   force =     0.00000000    0.00000000    0.00000000
     atom    2 type  2   force =     0.00000000    0.00000000    0.00000000
     atom    3 type  2   force =     0.00000000    0.00000000    0.00000000
     The SCF correction term to forces
     atom    1 type  1   force =     0.00000000    0.00000000   -0.00000000
     atom    2 type  2   force =     0.00000000    0.00000000    0.00065028
     atom    3 type  2   force =     0.00000000    0.00000000   -0.00065028

     Total force =     0.000641     Total SCF correction =     0.000920
     SCF correction compared to forces is large: reduce conv_thr to get better values

     BFGS Geometry Optimization
     Energy error            =      0.0E+00
     Gradient error          =      4.5E-04

     bfgs converged in   1 scf cycles and   0 bfgs steps
     (criteria: energy <  1.0E-04 Ry, force <  1.0E-03 Ry/Bohr)

     End of BFGS Geometry Optimization

     Final energy   =    -181.3796928511 Ry
Begin final coordinates

ATOMIC_POSITIONS (crystal)
Mo            0.0000000000        0.0000000000        0.5000000000    0   0   0
S             0.3333333330        0.3333333330        0.5500000000    0   0   1
S             0.6666666660        0.6666666660        0.4500000000    0   0   1
End final coordinates



     Writing output data file ./outdir/MoS2.save/

     init_run     :      1.06s CPU      1.23s WALL (       1 calls)
     electrons    :     10.96s CPU     13.80s WALL (       1 calls)
     forces       :      0.83s CPU      0.97s WALL (       1 calls)

     Called by init_run:
     wfcinit      :      0.10s CPU      0.14s WALL (       1 calls)
     wfcinit:atom :      0.00s CPU      0.00s WALL (      12 calls)
     wfcinit:wfcr :      0.09s CPU      0.12s WALL (      12 calls)
     potinit      :      0.27s CPU      0.28s WALL (       1 calls)
     hinit0       :      0.45s CPU      0.45s WALL (       1 calls)

     Called by electrons:
     c_bands      :      4.83s CPU      5.02s WALL (      12 calls)
     sum_band     :      3.08s CPU      4.52s WALL (      12 calls)
     v_of_rho     :      0.72s CPU      0.83s WALL (      12 calls)
     v_h          :      0.06s CPU      0.06s WALL (      12 calls)
     v_xc         :      0.73s CPU      0.83s WALL (      13 calls)
     newd         :      2.36s CPU      3.57s WALL (      12 calls)
     mix_rho      :      0.12s CPU      0.12s WALL (      12 calls)

     Called by c_bands:
     init_us_2    :      0.12s CPU      0.12s WALL (     312 calls)
     cegterg      :      4.47s CPU      4.65s WALL (     144 calls)

     Called by sum_band:
     sum_band:wei :      0.00s CPU      0.00s WALL (      12 calls)
     sum_band:loo :      0.55s CPU      0.59s WALL (      12 calls)
     sum_band:buf :      0.02s CPU      0.02s WALL (     144 calls)
     sum_band:ini :      0.05s CPU      0.05s WALL (     144 calls)
     sum_band:cal :      0.17s CPU      0.18s WALL (     144 calls)
     sum_band:bec :      0.00s CPU      0.00s WALL (     144 calls)
     addusdens    :      2.43s CPU      3.81s WALL (      12 calls)
     addusd:skk   :      0.01s CPU      0.02s WALL (      24 calls)
     addusd:dgemm :      0.95s CPU      2.16s WALL (      24 calls)
     addusd:qvan2 :      1.35s CPU      1.35s WALL (      24 calls)

     Called by *egterg:
     cdiaghg      :      0.28s CPU      0.29s WALL (     613 calls)
     cegterg:over :      0.41s CPU      0.42s WALL (     481 calls)
     cegterg:upda :      0.24s CPU      0.25s WALL (     481 calls)
     cegterg:last :      0.40s CPU      0.40s WALL (     259 calls)
     cdiaghg:chol :      0.03s CPU      0.03s WALL (     613 calls)
     cdiaghg:inve :      0.01s CPU      0.01s WALL (     613 calls)
     cdiaghg:para :      0.04s CPU      0.04s WALL (    1226 calls)
     h_psi        :      2.63s CPU      2.80s WALL (     637 calls)
     s_psi        :      0.40s CPU      0.41s WALL (     637 calls)
     g_psi        :      0.02s CPU      0.02s WALL (     481 calls)

     Called by h_psi:
     h_psi:calbec :      0.58s CPU      0.62s WALL (     637 calls)
     vloc_psi     :      1.62s CPU      1.72s WALL (     637 calls)
     add_vuspsi   :      0.39s CPU      0.42s WALL (     637 calls)

     General routines
     calbec       :      0.80s CPU      0.86s WALL (     829 calls)
     fft          :      0.38s CPU      0.41s WALL (     166 calls)
     ffts         :      0.01s CPU      0.01s WALL (      24 calls)
     fftw         :      1.55s CPU      1.65s WALL (   15376 calls)
     interpolate  :      0.05s CPU      0.05s WALL (      12 calls)

     Parallel routines
     fft_scatt_xy :      0.34s CPU      0.37s WALL (   15566 calls)
     fft_scatt_yz :      0.65s CPU      0.70s WALL (   15566 calls)

     PWSCF        :     13.00s CPU     16.18s WALL


   This run was terminated on:  18: 6:52  18Jan2023            

=------------------------------------------------------------------------------=
   JOB DONE.
=------------------------------------------------------------------------------=
