
     Program PWSCF v.6.7MaX starts on 20Jan2023 at 22:41:51 

     This program is part of the open-source Quantum ESPRESSO suite
     for quantum simulation of materials; please cite
         "P. Giannozzi et al., J. Phys.:Condens. Matter 21 395502 (2009);
         "P. Giannozzi et al., J. Phys.:Condens. Matter 29 465901 (2017);
          URL http://www.quantum-espresso.org", 
     in publications or presentations arising from this work. More details at
     http://www.quantum-espresso.org/quote

     Parallel version (MPI), running on     8 processors

     MPI processes distributed on     1 nodes
     R & G space division:  proc/nbgrp/npool/nimage =       8
     Reading input from Bands.in
Warning: card &IONS ignored
Warning: card  ION_DYNAMICS='BFGS' ignored
Warning: card / ignored

     Current dimensions of program PWSCF are:
     Max number of different atomic species (ntypx) = 10
     Max number of k-points (npk) =  40000
     Max angular momentum in pseudopotentials (lmaxx) =  3

     Atomic positions and unit cell read from directory:
     ./outdir/MoS2.save/
     Atomic positions from file used, from input discarded

     file Mo.pbe-spn-rrkjus_psl.1.0.0.UPF: wavefunction(s)  4S renormalized

     IMPORTANT: XC functional enforced from input :
     Exchange-correlation= PBE
                           (   1   4   3   4   0   0   0)
     Any further DFT definition will be discarded
     Please, verify this is what you really want


     Subspace diagonalization in iterative solution of the eigenvalue problem:
     one sub-group per band group will be used
     scalapack distributed-memory algorithm (size of sub-group:  2*  2 procs)


     Parallelization info
     --------------------
     sticks:   dense  smooth     PW     G-vecs:    dense   smooth      PW
     Min         126      50     15                20225     5095     867
     Max         128      52     16                20238     5098     892
     Sum        1015     409    121               161851    40773    6997



     bravais-lattice index     =           12
     lattice parameter (alat)  =       6.0471  a.u.
     unit-cell volume          =    1196.8981 (a.u.)^3
     number of atoms/cell      =            3
     number of atomic types    =            2
     number of electrons       =        26.00
     number of Kohn-Sham states=           18
     kinetic-energy cutoff     =      40.0000  Ry
     charge density cutoff     =     400.0000  Ry
     Exchange-correlation= PBE
                           (   1   4   3   4   0   0   0)

     celldm(1)=   6.047124  celldm(2)=   1.000000  celldm(3)=   6.250000
     celldm(4)=   0.500000  celldm(5)=   0.000000  celldm(6)=   0.000000

     crystal axes: (cart. coord. in units of alat)
               a(1) = (   1.000000   0.000000   0.000000 )  
               a(2) = (   0.500000   0.866025   0.000000 )  
               a(3) = (   0.000000   0.000000   6.250000 )  

     reciprocal axes: (cart. coord. in units 2 pi/alat)
               b(1) = (  1.000000 -0.577350  0.000000 )  
               b(2) = (  0.000000  1.154701  0.000000 )  
               b(3) = (  0.000000  0.000000  0.160000 )  


     PseudoPot. # 1 for Mo read from file:
     /home/zronyj/Desktop/MoS2/pseudo/Mo.pbe-spn-rrkjus_psl.1.0.0.UPF
     MD5 check sum: 03f09b12e49601d1a456a78ce8b2d514
     Pseudo is Ultrasoft + core correction, Zval = 14.0
     Generated using &quot;atomic&quot; code by A. Dal Corso  v.6.3
     Using radial grid of 1229 points,  6 beta functions with: 
                l(1) =   0
                l(2) =   0
                l(3) =   1
                l(4) =   1
                l(5) =   2
                l(6) =   2
     Q(r) pseudized with 0 coefficients 


     PseudoPot. # 2 for S  read from file:
     /home/zronyj/Desktop/MoS2/pseudo/S.pbe-n-rrkjus_psl.1.0.0.UPF
     MD5 check sum: 9d0fe39aa2a799ea84730884c9b010f4
     Pseudo is Ultrasoft + core correction, Zval =  6.0
     Generated using &quot;atomic&quot; code by A. Dal Corso  v.6.3
     Using radial grid of 1151 points,  6 beta functions with: 
                l(1) =   0
                l(2) =   0
                l(3) =   1
                l(4) =   1
                l(5) =   2
                l(6) =   2
     Q(r) pseudized with 0 coefficients 


     atomic species   valence    mass     pseudopotential
        Mo            14.00    95.95000     Mo( 1.00)
        S              6.00    32.06500     S ( 1.00)

     12 Sym. Ops., with inversion, found


                                    s                        frac. trans.

      isym =  1     identity                                     

 cryst.   s( 1) = (     1          0          0      )
                  (     0          1          0      )
                  (     0          0          1      )

 cart.    s( 1) = (  1.0000000  0.0000000  0.0000000 )
                  (  0.0000000  1.0000000  0.0000000 )
                  (  0.0000000  0.0000000  1.0000000 )


      isym =  2     180 deg rotation - cart. axis [1,0,0]        

 cryst.   s( 2) = (     1          0          0      )
                  (     1         -1          0      )
                  (     0          0         -1      )

 cart.    s( 2) = (  1.0000000  0.0000000  0.0000000 )
                  (  0.0000000 -1.0000000  0.0000000 )
                  (  0.0000000  0.0000000 -1.0000000 )


      isym =  3     120 deg rotation - cryst. axis [0,0,1]       

 cryst.   s( 3) = (    -1          1          0      )
                  (    -1          0          0      )
                  (     0          0          1      )

 cart.    s( 3) = ( -0.5000000 -0.8660254  0.0000000 )
                  (  0.8660254 -0.5000000  0.0000000 )
                  (  0.0000000  0.0000000  1.0000000 )


      isym =  4     120 deg rotation - cryst. axis [0,0,-1]      

 cryst.   s( 4) = (     0         -1          0      )
                  (     1         -1          0      )
                  (     0          0          1      )

 cart.    s( 4) = ( -0.5000000  0.8660254  0.0000000 )
                  ( -0.8660254 -0.5000000  0.0000000 )
                  (  0.0000000  0.0000000  1.0000000 )


      isym =  5     180 deg rotation - cryst. axis [0,1,0]       

 cryst.   s( 5) = (     0         -1          0      )
                  (    -1          0          0      )
                  (     0          0         -1      )

 cart.    s( 5) = ( -0.5000000 -0.8660254  0.0000000 )
                  ( -0.8660254  0.5000000  0.0000000 )
                  (  0.0000000  0.0000000 -1.0000000 )


      isym =  6     180 deg rotation - cryst. axis [1,1,0]       

 cryst.   s( 6) = (    -1          1          0      )
                  (     0          1          0      )
                  (     0          0         -1      )

 cart.    s( 6) = ( -0.5000000  0.8660254  0.0000000 )
                  (  0.8660254  0.5000000  0.0000000 )
                  (  0.0000000  0.0000000 -1.0000000 )


      isym =  7     inversion                                    

 cryst.   s( 7) = (    -1          0          0      )
                  (     0         -1          0      )
                  (     0          0         -1      )

 cart.    s( 7) = ( -1.0000000  0.0000000  0.0000000 )
                  (  0.0000000 -1.0000000  0.0000000 )
                  (  0.0000000  0.0000000 -1.0000000 )


      isym =  8     inv. 180 deg rotation - cart. axis [1,0,0]   

 cryst.   s( 8) = (    -1          0          0      )
                  (    -1          1          0      )
                  (     0          0          1      )

 cart.    s( 8) = ( -1.0000000  0.0000000  0.0000000 )
                  (  0.0000000  1.0000000  0.0000000 )
                  (  0.0000000  0.0000000  1.0000000 )


      isym =  9     inv. 120 deg rotation - cryst. axis [0,0,1]  

 cryst.   s( 9) = (     1         -1          0      )
                  (     1          0          0      )
                  (     0          0         -1      )

 cart.    s( 9) = (  0.5000000  0.8660254  0.0000000 )
                  ( -0.8660254  0.5000000  0.0000000 )
                  (  0.0000000  0.0000000 -1.0000000 )


      isym = 10     inv. 120 deg rotation - cryst. axis [0,0,-1] 

 cryst.   s(10) = (     0          1          0      )
                  (    -1          1          0      )
                  (     0          0         -1      )

 cart.    s(10) = (  0.5000000 -0.8660254  0.0000000 )
                  (  0.8660254  0.5000000  0.0000000 )
                  (  0.0000000  0.0000000 -1.0000000 )


      isym = 11     inv. 180 deg rotation - cryst. axis [0,1,0]  

 cryst.   s(11) = (     0          1          0      )
                  (     1          0          0      )
                  (     0          0          1      )

 cart.    s(11) = (  0.5000000  0.8660254  0.0000000 )
                  (  0.8660254 -0.5000000  0.0000000 )
                  (  0.0000000  0.0000000  1.0000000 )


      isym = 12     inv. 180 deg rotation - cryst. axis [1,1,0]  

 cryst.   s(12) = (     1         -1          0      )
                  (     0         -1          0      )
                  (     0          0          1      )

 cart.    s(12) = (  0.5000000 -0.8660254  0.0000000 )
                  ( -0.8660254 -0.5000000  0.0000000 )
                  (  0.0000000  0.0000000  1.0000000 )


     point group D_3d (-3m) 
     there are  6 classes
     the character table:

       E     2C3   3C2'  i     2S6   3s_d 
A_1g   1.00  1.00  1.00  1.00  1.00  1.00
A_2g   1.00  1.00 -1.00  1.00  1.00 -1.00
E_g    2.00 -1.00  0.00  2.00 -1.00  0.00
A_1u   1.00  1.00  1.00 -1.00 -1.00 -1.00
A_2u   1.00  1.00 -1.00 -1.00 -1.00  1.00
E_u    2.00 -1.00  0.00 -2.00  1.00  0.00

     the symmetry operations in each class and the name of the first element:

     E        1
          identity                                               
     2C3      3    4
          120 deg rotation - cryst. axis [0,0,1]                 
     3C2'     2    5    6
          180 deg rotation - cart. axis [1,0,0]                  
     i        7
          inversion                                              
     2S6      9   10
          inv. 120 deg rotation - cryst. axis [0,0,1]            
     3s_d     8   11   12
          inv. 180 deg rotation - cart. axis [1,0,0]             

   Cartesian axes

     site n.     atom                  positions (alat units)
         1           Mo  tau(   1) = (   0.0000000   0.0000000   3.1250000  )
         2           S   tau(   2) = (   0.5000000   0.2886751   3.6192744  )
         3           S   tau(   3) = (   1.0000000   0.5773503   2.6307256  )

   Crystallographic axes

     site n.     atom                  positions (cryst. coord.)
         1           Mo  tau(   1) = (  0.0000000  0.0000000  0.5000000  )
         2           S   tau(   2) = (  0.3333333  0.3333333  0.5790839  )
         3           S   tau(   3) = (  0.6666667  0.6666667  0.4209161  )

     number of k points=   151  Marzari-Vanderbilt smearing, width (Ry)=  0.0010
                       cart. coord. in units 2pi/alat
        k(    1) = (   0.0000000   0.0000000   0.0000000), wk =   0.0132450
        k(    2) = (   0.0066667   0.0115470   0.0000000), wk =   0.0132450
        k(    3) = (   0.0133333   0.0230940   0.0000000), wk =   0.0132450
        k(    4) = (   0.0200000   0.0346410   0.0000000), wk =   0.0132450
        k(    5) = (   0.0266667   0.0461880   0.0000000), wk =   0.0132450
        k(    6) = (   0.0333333   0.0577350   0.0000000), wk =   0.0132450
        k(    7) = (   0.0400000   0.0692820   0.0000000), wk =   0.0132450
        k(    8) = (   0.0466667   0.0808290   0.0000000), wk =   0.0132450
        k(    9) = (   0.0533333   0.0923760   0.0000000), wk =   0.0132450
        k(   10) = (   0.0600000   0.1039230   0.0000000), wk =   0.0132450
        k(   11) = (   0.0666667   0.1154701   0.0000000), wk =   0.0132450
        k(   12) = (   0.0733333   0.1270171   0.0000000), wk =   0.0132450
        k(   13) = (   0.0800000   0.1385641   0.0000000), wk =   0.0132450
        k(   14) = (   0.0866667   0.1501111   0.0000000), wk =   0.0132450
        k(   15) = (   0.0933333   0.1616581   0.0000000), wk =   0.0132450
        k(   16) = (   0.1000000   0.1732051   0.0000000), wk =   0.0132450
        k(   17) = (   0.1066667   0.1847521   0.0000000), wk =   0.0132450
        k(   18) = (   0.1133333   0.1962991   0.0000000), wk =   0.0132450
        k(   19) = (   0.1200000   0.2078461   0.0000000), wk =   0.0132450
        k(   20) = (   0.1266667   0.2193931   0.0000000), wk =   0.0132450
        k(   21) = (   0.1333333   0.2309401   0.0000000), wk =   0.0132450
        k(   22) = (   0.1400000   0.2424871   0.0000000), wk =   0.0132450
        k(   23) = (   0.1466667   0.2540341   0.0000000), wk =   0.0132450
        k(   24) = (   0.1533333   0.2655811   0.0000000), wk =   0.0132450
        k(   25) = (   0.1600000   0.2771281   0.0000000), wk =   0.0132450
        k(   26) = (   0.1666667   0.2886751   0.0000000), wk =   0.0132450
        k(   27) = (   0.1733333   0.3002221   0.0000000), wk =   0.0132450
        k(   28) = (   0.1800000   0.3117691   0.0000000), wk =   0.0132450
        k(   29) = (   0.1866667   0.3233162   0.0000000), wk =   0.0132450
        k(   30) = (   0.1933333   0.3348632   0.0000000), wk =   0.0132450
        k(   31) = (   0.2000000   0.3464102   0.0000000), wk =   0.0132450
        k(   32) = (   0.2066667   0.3579572   0.0000000), wk =   0.0132450
        k(   33) = (   0.2133333   0.3695042   0.0000000), wk =   0.0132450
        k(   34) = (   0.2200000   0.3810512   0.0000000), wk =   0.0132450
        k(   35) = (   0.2266667   0.3925982   0.0000000), wk =   0.0132450
        k(   36) = (   0.2333333   0.4041452   0.0000000), wk =   0.0132450
        k(   37) = (   0.2400000   0.4156922   0.0000000), wk =   0.0132450
        k(   38) = (   0.2466667   0.4272392   0.0000000), wk =   0.0132450
        k(   39) = (   0.2533333   0.4387862   0.0000000), wk =   0.0132450
        k(   40) = (   0.2600000   0.4503332   0.0000000), wk =   0.0132450
        k(   41) = (   0.2666667   0.4618802   0.0000000), wk =   0.0132450
        k(   42) = (   0.2733333   0.4734272   0.0000000), wk =   0.0132450
        k(   43) = (   0.2800000   0.4849742   0.0000000), wk =   0.0132450
        k(   44) = (   0.2866667   0.4965212   0.0000000), wk =   0.0132450
        k(   45) = (   0.2933333   0.5080682   0.0000000), wk =   0.0132450
        k(   46) = (   0.3000000   0.5196152   0.0000000), wk =   0.0132450
        k(   47) = (   0.3066667   0.5311622   0.0000000), wk =   0.0132450
        k(   48) = (   0.3133333   0.5427093   0.0000000), wk =   0.0132450
        k(   49) = (   0.3200000   0.5542563   0.0000000), wk =   0.0132450
        k(   50) = (   0.3266667   0.5658033   0.0000000), wk =   0.0132450
        k(   51) = (   0.3333333   0.5773503   0.0000000), wk =   0.0132450
        k(   52) = (   0.3266667   0.5773503   0.0000000), wk =   0.0132450
        k(   53) = (   0.3200000   0.5773503   0.0000000), wk =   0.0132450
        k(   54) = (   0.3133333   0.5773503   0.0000000), wk =   0.0132450
        k(   55) = (   0.3066667   0.5773503   0.0000000), wk =   0.0132450
        k(   56) = (   0.3000000   0.5773503   0.0000000), wk =   0.0132450
        k(   57) = (   0.2933333   0.5773503   0.0000000), wk =   0.0132450
        k(   58) = (   0.2866667   0.5773503   0.0000000), wk =   0.0132450
        k(   59) = (   0.2800000   0.5773503   0.0000000), wk =   0.0132450
        k(   60) = (   0.2733333   0.5773503   0.0000000), wk =   0.0132450
        k(   61) = (   0.2666667   0.5773503   0.0000000), wk =   0.0132450
        k(   62) = (   0.2600000   0.5773503   0.0000000), wk =   0.0132450
        k(   63) = (   0.2533333   0.5773503   0.0000000), wk =   0.0132450
        k(   64) = (   0.2466667   0.5773503   0.0000000), wk =   0.0132450
        k(   65) = (   0.2400000   0.5773503   0.0000000), wk =   0.0132450
        k(   66) = (   0.2333333   0.5773503   0.0000000), wk =   0.0132450
        k(   67) = (   0.2266667   0.5773503   0.0000000), wk =   0.0132450
        k(   68) = (   0.2200000   0.5773503   0.0000000), wk =   0.0132450
        k(   69) = (   0.2133333   0.5773503   0.0000000), wk =   0.0132450
        k(   70) = (   0.2066667   0.5773503   0.0000000), wk =   0.0132450
        k(   71) = (   0.2000000   0.5773503   0.0000000), wk =   0.0132450
        k(   72) = (   0.1933333   0.5773503   0.0000000), wk =   0.0132450
        k(   73) = (   0.1866667   0.5773503   0.0000000), wk =   0.0132450
        k(   74) = (   0.1800000   0.5773503   0.0000000), wk =   0.0132450
        k(   75) = (   0.1733333   0.5773503   0.0000000), wk =   0.0132450
        k(   76) = (   0.1666667   0.5773503   0.0000000), wk =   0.0132450
        k(   77) = (   0.1600000   0.5773503   0.0000000), wk =   0.0132450
        k(   78) = (   0.1533333   0.5773503   0.0000000), wk =   0.0132450
        k(   79) = (   0.1466667   0.5773503   0.0000000), wk =   0.0132450
        k(   80) = (   0.1400000   0.5773503   0.0000000), wk =   0.0132450
        k(   81) = (   0.1333333   0.5773503   0.0000000), wk =   0.0132450
        k(   82) = (   0.1266667   0.5773503   0.0000000), wk =   0.0132450
        k(   83) = (   0.1200000   0.5773503   0.0000000), wk =   0.0132450
        k(   84) = (   0.1133333   0.5773503   0.0000000), wk =   0.0132450
        k(   85) = (   0.1066667   0.5773503   0.0000000), wk =   0.0132450
        k(   86) = (   0.1000000   0.5773503   0.0000000), wk =   0.0132450
        k(   87) = (   0.0933333   0.5773503   0.0000000), wk =   0.0132450
        k(   88) = (   0.0866667   0.5773503   0.0000000), wk =   0.0132450
        k(   89) = (   0.0800000   0.5773503   0.0000000), wk =   0.0132450
        k(   90) = (   0.0733333   0.5773503   0.0000000), wk =   0.0132450
        k(   91) = (   0.0666667   0.5773503   0.0000000), wk =   0.0132450
        k(   92) = (   0.0600000   0.5773503   0.0000000), wk =   0.0132450
        k(   93) = (   0.0533333   0.5773503   0.0000000), wk =   0.0132450
        k(   94) = (   0.0466667   0.5773503   0.0000000), wk =   0.0132450
        k(   95) = (   0.0400000   0.5773503   0.0000000), wk =   0.0132450
        k(   96) = (   0.0333333   0.5773503   0.0000000), wk =   0.0132450
        k(   97) = (   0.0266667   0.5773503   0.0000000), wk =   0.0132450
        k(   98) = (   0.0200000   0.5773503   0.0000000), wk =   0.0132450
        k(   99) = (   0.0133333   0.5773503   0.0000000), wk =   0.0132450
        k(  100) = (   0.0066667   0.5773503   0.0000000), wk =   0.0132450
        k(  101) = (   0.0000000   0.5773503   0.0000000), wk =   0.0132450
        k(  102) = (   0.0000000   0.5658033   0.0000000), wk =   0.0132450
        k(  103) = (   0.0000000   0.5542563   0.0000000), wk =   0.0132450
        k(  104) = (   0.0000000   0.5427093   0.0000000), wk =   0.0132450
        k(  105) = (   0.0000000   0.5311622   0.0000000), wk =   0.0132450
        k(  106) = (   0.0000000   0.5196152   0.0000000), wk =   0.0132450
        k(  107) = (   0.0000000   0.5080682   0.0000000), wk =   0.0132450
        k(  108) = (   0.0000000   0.4965212   0.0000000), wk =   0.0132450
        k(  109) = (   0.0000000   0.4849742   0.0000000), wk =   0.0132450
        k(  110) = (   0.0000000   0.4734272   0.0000000), wk =   0.0132450
        k(  111) = (   0.0000000   0.4618802   0.0000000), wk =   0.0132450
        k(  112) = (   0.0000000   0.4503332   0.0000000), wk =   0.0132450
        k(  113) = (   0.0000000   0.4387862   0.0000000), wk =   0.0132450
        k(  114) = (   0.0000000   0.4272392   0.0000000), wk =   0.0132450
        k(  115) = (   0.0000000   0.4156922   0.0000000), wk =   0.0132450
        k(  116) = (   0.0000000   0.4041452   0.0000000), wk =   0.0132450
        k(  117) = (   0.0000000   0.3925982   0.0000000), wk =   0.0132450
        k(  118) = (   0.0000000   0.3810512   0.0000000), wk =   0.0132450
        k(  119) = (   0.0000000   0.3695042   0.0000000), wk =   0.0132450
        k(  120) = (   0.0000000   0.3579572   0.0000000), wk =   0.0132450
        k(  121) = (   0.0000000   0.3464102   0.0000000), wk =   0.0132450
        k(  122) = (   0.0000000   0.3348632   0.0000000), wk =   0.0132450
        k(  123) = (   0.0000000   0.3233162   0.0000000), wk =   0.0132450
        k(  124) = (   0.0000000   0.3117691   0.0000000), wk =   0.0132450
        k(  125) = (   0.0000000   0.3002221   0.0000000), wk =   0.0132450
        k(  126) = (   0.0000000   0.2886751   0.0000000), wk =   0.0132450
        k(  127) = (   0.0000000   0.2771281   0.0000000), wk =   0.0132450
        k(  128) = (   0.0000000   0.2655811   0.0000000), wk =   0.0132450
        k(  129) = (   0.0000000   0.2540341   0.0000000), wk =   0.0132450
        k(  130) = (   0.0000000   0.2424871   0.0000000), wk =   0.0132450
        k(  131) = (   0.0000000   0.2309401   0.0000000), wk =   0.0132450
        k(  132) = (   0.0000000   0.2193931   0.0000000), wk =   0.0132450
        k(  133) = (   0.0000000   0.2078461   0.0000000), wk =   0.0132450
        k(  134) = (   0.0000000   0.1962991   0.0000000), wk =   0.0132450
        k(  135) = (   0.0000000   0.1847521   0.0000000), wk =   0.0132450
        k(  136) = (   0.0000000   0.1732051   0.0000000), wk =   0.0132450
        k(  137) = (   0.0000000   0.1616581   0.0000000), wk =   0.0132450
        k(  138) = (   0.0000000   0.1501111   0.0000000), wk =   0.0132450
        k(  139) = (   0.0000000   0.1385641   0.0000000), wk =   0.0132450
        k(  140) = (   0.0000000   0.1270171   0.0000000), wk =   0.0132450
        k(  141) = (   0.0000000   0.1154701   0.0000000), wk =   0.0132450
        k(  142) = (   0.0000000   0.1039230   0.0000000), wk =   0.0132450
        k(  143) = (   0.0000000   0.0923760   0.0000000), wk =   0.0132450
        k(  144) = (   0.0000000   0.0808290   0.0000000), wk =   0.0132450
        k(  145) = (   0.0000000   0.0692820   0.0000000), wk =   0.0132450
        k(  146) = (   0.0000000   0.0577350   0.0000000), wk =   0.0132450
        k(  147) = (   0.0000000   0.0461880   0.0000000), wk =   0.0132450
        k(  148) = (   0.0000000   0.0346410   0.0000000), wk =   0.0132450
        k(  149) = (   0.0000000   0.0230940   0.0000000), wk =   0.0132450
        k(  150) = (   0.0000000   0.0115470   0.0000000), wk =   0.0132450
        k(  151) = (   0.0000000   0.0000000   0.0000000), wk =   0.0132450

                       cryst. coord.
        k(    1) = (   0.0000000   0.0000000   0.0000000), wk =   0.0132450
        k(    2) = (   0.0066667   0.0133333   0.0000000), wk =   0.0132450
        k(    3) = (   0.0133333   0.0266667   0.0000000), wk =   0.0132450
        k(    4) = (   0.0200000   0.0400000   0.0000000), wk =   0.0132450
        k(    5) = (   0.0266667   0.0533333   0.0000000), wk =   0.0132450
        k(    6) = (   0.0333333   0.0666667   0.0000000), wk =   0.0132450
        k(    7) = (   0.0400000   0.0800000   0.0000000), wk =   0.0132450
        k(    8) = (   0.0466667   0.0933333   0.0000000), wk =   0.0132450
        k(    9) = (   0.0533333   0.1066667   0.0000000), wk =   0.0132450
        k(   10) = (   0.0600000   0.1200000   0.0000000), wk =   0.0132450
        k(   11) = (   0.0666667   0.1333333   0.0000000), wk =   0.0132450
        k(   12) = (   0.0733333   0.1466667   0.0000000), wk =   0.0132450
        k(   13) = (   0.0800000   0.1600000   0.0000000), wk =   0.0132450
        k(   14) = (   0.0866667   0.1733333   0.0000000), wk =   0.0132450
        k(   15) = (   0.0933333   0.1866667   0.0000000), wk =   0.0132450
        k(   16) = (   0.1000000   0.2000000   0.0000000), wk =   0.0132450
        k(   17) = (   0.1066667   0.2133333   0.0000000), wk =   0.0132450
        k(   18) = (   0.1133333   0.2266667   0.0000000), wk =   0.0132450
        k(   19) = (   0.1200000   0.2400000   0.0000000), wk =   0.0132450
        k(   20) = (   0.1266667   0.2533333   0.0000000), wk =   0.0132450
        k(   21) = (   0.1333333   0.2666667   0.0000000), wk =   0.0132450
        k(   22) = (   0.1400000   0.2800000   0.0000000), wk =   0.0132450
        k(   23) = (   0.1466667   0.2933333   0.0000000), wk =   0.0132450
        k(   24) = (   0.1533333   0.3066667   0.0000000), wk =   0.0132450
        k(   25) = (   0.1600000   0.3200000   0.0000000), wk =   0.0132450
        k(   26) = (   0.1666667   0.3333333   0.0000000), wk =   0.0132450
        k(   27) = (   0.1733333   0.3466667   0.0000000), wk =   0.0132450
        k(   28) = (   0.1800000   0.3600000   0.0000000), wk =   0.0132450
        k(   29) = (   0.1866667   0.3733333   0.0000000), wk =   0.0132450
        k(   30) = (   0.1933333   0.3866667   0.0000000), wk =   0.0132450
        k(   31) = (   0.2000000   0.4000000   0.0000000), wk =   0.0132450
        k(   32) = (   0.2066667   0.4133333   0.0000000), wk =   0.0132450
        k(   33) = (   0.2133333   0.4266667   0.0000000), wk =   0.0132450
        k(   34) = (   0.2200000   0.4400000   0.0000000), wk =   0.0132450
        k(   35) = (   0.2266667   0.4533333   0.0000000), wk =   0.0132450
        k(   36) = (   0.2333333   0.4666667   0.0000000), wk =   0.0132450
        k(   37) = (   0.2400000   0.4800000   0.0000000), wk =   0.0132450
        k(   38) = (   0.2466667   0.4933333   0.0000000), wk =   0.0132450
        k(   39) = (   0.2533333   0.5066667   0.0000000), wk =   0.0132450
        k(   40) = (   0.2600000   0.5200000   0.0000000), wk =   0.0132450
        k(   41) = (   0.2666667   0.5333333   0.0000000), wk =   0.0132450
        k(   42) = (   0.2733333   0.5466667   0.0000000), wk =   0.0132450
        k(   43) = (   0.2800000   0.5600000   0.0000000), wk =   0.0132450
        k(   44) = (   0.2866667   0.5733333   0.0000000), wk =   0.0132450
        k(   45) = (   0.2933333   0.5866667   0.0000000), wk =   0.0132450
        k(   46) = (   0.3000000   0.6000000   0.0000000), wk =   0.0132450
        k(   47) = (   0.3066667   0.6133333   0.0000000), wk =   0.0132450
        k(   48) = (   0.3133333   0.6266667   0.0000000), wk =   0.0132450
        k(   49) = (   0.3200000   0.6400000   0.0000000), wk =   0.0132450
        k(   50) = (   0.3266667   0.6533333   0.0000000), wk =   0.0132450
        k(   51) = (   0.3333333   0.6666667   0.0000000), wk =   0.0132450
        k(   52) = (   0.3266667   0.6633333   0.0000000), wk =   0.0132450
        k(   53) = (   0.3200000   0.6600000   0.0000000), wk =   0.0132450
        k(   54) = (   0.3133333   0.6566667   0.0000000), wk =   0.0132450
        k(   55) = (   0.3066667   0.6533333   0.0000000), wk =   0.0132450
        k(   56) = (   0.3000000   0.6500000   0.0000000), wk =   0.0132450
        k(   57) = (   0.2933333   0.6466667   0.0000000), wk =   0.0132450
        k(   58) = (   0.2866667   0.6433333   0.0000000), wk =   0.0132450
        k(   59) = (   0.2800000   0.6400000   0.0000000), wk =   0.0132450
        k(   60) = (   0.2733333   0.6366667   0.0000000), wk =   0.0132450
        k(   61) = (   0.2666667   0.6333333   0.0000000), wk =   0.0132450
        k(   62) = (   0.2600000   0.6300000   0.0000000), wk =   0.0132450
        k(   63) = (   0.2533333   0.6266667   0.0000000), wk =   0.0132450
        k(   64) = (   0.2466667   0.6233333   0.0000000), wk =   0.0132450
        k(   65) = (   0.2400000   0.6200000   0.0000000), wk =   0.0132450
        k(   66) = (   0.2333333   0.6166667   0.0000000), wk =   0.0132450
        k(   67) = (   0.2266667   0.6133333   0.0000000), wk =   0.0132450
        k(   68) = (   0.2200000   0.6100000   0.0000000), wk =   0.0132450
        k(   69) = (   0.2133333   0.6066667   0.0000000), wk =   0.0132450
        k(   70) = (   0.2066667   0.6033333   0.0000000), wk =   0.0132450
        k(   71) = (   0.2000000   0.6000000   0.0000000), wk =   0.0132450
        k(   72) = (   0.1933333   0.5966667   0.0000000), wk =   0.0132450
        k(   73) = (   0.1866667   0.5933333   0.0000000), wk =   0.0132450
        k(   74) = (   0.1800000   0.5900000   0.0000000), wk =   0.0132450
        k(   75) = (   0.1733333   0.5866667   0.0000000), wk =   0.0132450
        k(   76) = (   0.1666667   0.5833333   0.0000000), wk =   0.0132450
        k(   77) = (   0.1600000   0.5800000   0.0000000), wk =   0.0132450
        k(   78) = (   0.1533333   0.5766667   0.0000000), wk =   0.0132450
        k(   79) = (   0.1466667   0.5733333   0.0000000), wk =   0.0132450
        k(   80) = (   0.1400000   0.5700000   0.0000000), wk =   0.0132450
        k(   81) = (   0.1333333   0.5666667   0.0000000), wk =   0.0132450
        k(   82) = (   0.1266667   0.5633333   0.0000000), wk =   0.0132450
        k(   83) = (   0.1200000   0.5600000   0.0000000), wk =   0.0132450
        k(   84) = (   0.1133333   0.5566667   0.0000000), wk =   0.0132450
        k(   85) = (   0.1066667   0.5533333   0.0000000), wk =   0.0132450
        k(   86) = (   0.1000000   0.5500000   0.0000000), wk =   0.0132450
        k(   87) = (   0.0933333   0.5466667   0.0000000), wk =   0.0132450
        k(   88) = (   0.0866667   0.5433333   0.0000000), wk =   0.0132450
        k(   89) = (   0.0800000   0.5400000   0.0000000), wk =   0.0132450
        k(   90) = (   0.0733333   0.5366667   0.0000000), wk =   0.0132450
        k(   91) = (   0.0666667   0.5333333   0.0000000), wk =   0.0132450
        k(   92) = (   0.0600000   0.5300000   0.0000000), wk =   0.0132450
        k(   93) = (   0.0533333   0.5266667   0.0000000), wk =   0.0132450
        k(   94) = (   0.0466667   0.5233333   0.0000000), wk =   0.0132450
        k(   95) = (   0.0400000   0.5200000   0.0000000), wk =   0.0132450
        k(   96) = (   0.0333333   0.5166667   0.0000000), wk =   0.0132450
        k(   97) = (   0.0266667   0.5133333   0.0000000), wk =   0.0132450
        k(   98) = (   0.0200000   0.5100000   0.0000000), wk =   0.0132450
        k(   99) = (   0.0133333   0.5066667   0.0000000), wk =   0.0132450
        k(  100) = (   0.0066667   0.5033333   0.0000000), wk =   0.0132450
        k(  101) = (   0.0000000   0.5000000   0.0000000), wk =   0.0132450
        k(  102) = (   0.0000000   0.4900000   0.0000000), wk =   0.0132450
        k(  103) = (   0.0000000   0.4800000   0.0000000), wk =   0.0132450
        k(  104) = (   0.0000000   0.4700000   0.0000000), wk =   0.0132450
        k(  105) = (   0.0000000   0.4600000   0.0000000), wk =   0.0132450
        k(  106) = (   0.0000000   0.4500000   0.0000000), wk =   0.0132450
        k(  107) = (   0.0000000   0.4400000   0.0000000), wk =   0.0132450
        k(  108) = (   0.0000000   0.4300000   0.0000000), wk =   0.0132450
        k(  109) = (   0.0000000   0.4200000   0.0000000), wk =   0.0132450
        k(  110) = (   0.0000000   0.4100000   0.0000000), wk =   0.0132450
        k(  111) = (   0.0000000   0.4000000   0.0000000), wk =   0.0132450
        k(  112) = (   0.0000000   0.3900000   0.0000000), wk =   0.0132450
        k(  113) = (   0.0000000   0.3800000   0.0000000), wk =   0.0132450
        k(  114) = (   0.0000000   0.3700000   0.0000000), wk =   0.0132450
        k(  115) = (   0.0000000   0.3600000   0.0000000), wk =   0.0132450
        k(  116) = (   0.0000000   0.3500000   0.0000000), wk =   0.0132450
        k(  117) = (   0.0000000   0.3400000   0.0000000), wk =   0.0132450
        k(  118) = (   0.0000000   0.3300000   0.0000000), wk =   0.0132450
        k(  119) = (   0.0000000   0.3200000   0.0000000), wk =   0.0132450
        k(  120) = (   0.0000000   0.3100000   0.0000000), wk =   0.0132450
        k(  121) = (   0.0000000   0.3000000   0.0000000), wk =   0.0132450
        k(  122) = (   0.0000000   0.2900000   0.0000000), wk =   0.0132450
        k(  123) = (   0.0000000   0.2800000   0.0000000), wk =   0.0132450
        k(  124) = (   0.0000000   0.2700000   0.0000000), wk =   0.0132450
        k(  125) = (   0.0000000   0.2600000   0.0000000), wk =   0.0132450
        k(  126) = (   0.0000000   0.2500000   0.0000000), wk =   0.0132450
        k(  127) = (   0.0000000   0.2400000   0.0000000), wk =   0.0132450
        k(  128) = (   0.0000000   0.2300000   0.0000000), wk =   0.0132450
        k(  129) = (   0.0000000   0.2200000   0.0000000), wk =   0.0132450
        k(  130) = (   0.0000000   0.2100000   0.0000000), wk =   0.0132450
        k(  131) = (   0.0000000   0.2000000   0.0000000), wk =   0.0132450
        k(  132) = (   0.0000000   0.1900000   0.0000000), wk =   0.0132450
        k(  133) = (   0.0000000   0.1800000   0.0000000), wk =   0.0132450
        k(  134) = (   0.0000000   0.1700000   0.0000000), wk =   0.0132450
        k(  135) = (   0.0000000   0.1600000   0.0000000), wk =   0.0132450
        k(  136) = (   0.0000000   0.1500000   0.0000000), wk =   0.0132450
        k(  137) = (   0.0000000   0.1400000   0.0000000), wk =   0.0132450
        k(  138) = (   0.0000000   0.1300000   0.0000000), wk =   0.0132450
        k(  139) = (   0.0000000   0.1200000   0.0000000), wk =   0.0132450
        k(  140) = (   0.0000000   0.1100000   0.0000000), wk =   0.0132450
        k(  141) = (   0.0000000   0.1000000   0.0000000), wk =   0.0132450
        k(  142) = (   0.0000000   0.0900000   0.0000000), wk =   0.0132450
        k(  143) = (   0.0000000   0.0800000   0.0000000), wk =   0.0132450
        k(  144) = (   0.0000000   0.0700000   0.0000000), wk =   0.0132450
        k(  145) = (   0.0000000   0.0600000   0.0000000), wk =   0.0132450
        k(  146) = (   0.0000000   0.0500000   0.0000000), wk =   0.0132450
        k(  147) = (   0.0000000   0.0400000   0.0000000), wk =   0.0132450
        k(  148) = (   0.0000000   0.0300000   0.0000000), wk =   0.0132450
        k(  149) = (   0.0000000   0.0200000   0.0000000), wk =   0.0132450
        k(  150) = (   0.0000000   0.0100000   0.0000000), wk =   0.0132450
        k(  151) = (   0.0000000   0.0000000   0.0000000), wk =   0.0132450

     Dense  grid:   161851 G-vectors     FFT dimensions: (  40,  40, 243)

     Smooth grid:    40773 G-vectors     FFT dimensions: (  25,  25, 160)

     Dynamical RAM for                 wfc:       0.18 MB

     Dynamical RAM for     wfc (w. buffer):       0.18 MB

     Dynamical RAM for           str. fact:       0.62 MB

     Dynamical RAM for           local pot:       0.00 MB

     Dynamical RAM for          nlocal pot:       0.53 MB

     Dynamical RAM for                qrad:       3.21 MB

     Dynamical RAM for          rho,v,vnew:       2.06 MB

     Dynamical RAM for           G-vectors:       1.20 MB

     Dynamical RAM for          h,s,v(r/c):       0.01 MB

     Dynamical RAM for          <psi|beta>:       0.01 MB

     Dynamical RAM for                 psi:       0.35 MB

     Dynamical RAM for                hpsi:       0.35 MB

     Dynamical RAM for                spsi:       0.35 MB

     Dynamical RAM for      wfcinit/wfcrot:       0.36 MB

     Dynamical RAM for           addusdens:      58.06 MB

     Estimated static dynamical RAM per process >      10.61 MB

     Estimated max dynamical RAM per process >      68.66 MB

     Estimated total dynamical RAM >     549.31 MB

     The potential is recalculated from file :
     ./outdir/MoS2.save/charge-density


     negative rho (up, down):  3.827E-05 0.000E+00
     Starting wfcs are   18 randomized atomic wfcs

     Band Structure Calculation
     Davidson diagonalization with overlap

     Computing kpt #:     1  of   151
     total cpu time spent up to now is        1.2 secs

     Computing kpt #:     2  of   151
     total cpu time spent up to now is        1.4 secs

     Computing kpt #:     3  of   151
     total cpu time spent up to now is        1.5 secs

     Computing kpt #:     4  of   151
     total cpu time spent up to now is        1.7 secs

     Computing kpt #:     5  of   151
     total cpu time spent up to now is        1.9 secs

     Computing kpt #:     6  of   151
     total cpu time spent up to now is        2.0 secs

     Computing kpt #:     7  of   151
     total cpu time spent up to now is        2.2 secs

     Computing kpt #:     8  of   151
     total cpu time spent up to now is        2.4 secs

     Computing kpt #:     9  of   151
     total cpu time spent up to now is        2.5 secs

     Computing kpt #:    10  of   151
     total cpu time spent up to now is        2.7 secs

     Computing kpt #:    11  of   151
     total cpu time spent up to now is        2.9 secs

     Computing kpt #:    12  of   151
     total cpu time spent up to now is        3.0 secs

     Computing kpt #:    13  of   151
     total cpu time spent up to now is        3.2 secs

     Computing kpt #:    14  of   151
     total cpu time spent up to now is        3.3 secs

     Computing kpt #:    15  of   151
     total cpu time spent up to now is        3.5 secs

     Computing kpt #:    16  of   151
     total cpu time spent up to now is        3.7 secs

     Computing kpt #:    17  of   151
     total cpu time spent up to now is        3.8 secs

     Computing kpt #:    18  of   151
     total cpu time spent up to now is        4.0 secs

     Computing kpt #:    19  of   151
     total cpu time spent up to now is        4.2 secs

     Computing kpt #:    20  of   151
     total cpu time spent up to now is        4.3 secs

     Computing kpt #:    21  of   151
     total cpu time spent up to now is        4.5 secs

     Computing kpt #:    22  of   151
     total cpu time spent up to now is        4.7 secs

     Computing kpt #:    23  of   151
     total cpu time spent up to now is        4.9 secs

     Computing kpt #:    24  of   151
     total cpu time spent up to now is        5.0 secs

     Computing kpt #:    25  of   151
     total cpu time spent up to now is        5.2 secs

     Computing kpt #:    26  of   151
     total cpu time spent up to now is        5.4 secs

     Computing kpt #:    27  of   151
     total cpu time spent up to now is        5.5 secs

     Computing kpt #:    28  of   151
     total cpu time spent up to now is        5.7 secs

     Computing kpt #:    29  of   151
     total cpu time spent up to now is        5.9 secs

     Computing kpt #:    30  of   151
     total cpu time spent up to now is        6.1 secs

     Computing kpt #:    31  of   151
     total cpu time spent up to now is        6.3 secs

     Computing kpt #:    32  of   151
     total cpu time spent up to now is        6.5 secs

     Computing kpt #:    33  of   151
     total cpu time spent up to now is        6.7 secs

     Computing kpt #:    34  of   151
     total cpu time spent up to now is        6.9 secs

     Computing kpt #:    35  of   151
     total cpu time spent up to now is        7.1 secs

     Computing kpt #:    36  of   151
     total cpu time spent up to now is        7.3 secs

     Computing kpt #:    37  of   151
     total cpu time spent up to now is        7.5 secs

     Computing kpt #:    38  of   151
     total cpu time spent up to now is        7.6 secs

     Computing kpt #:    39  of   151
     total cpu time spent up to now is        7.8 secs

     Computing kpt #:    40  of   151
     total cpu time spent up to now is        8.0 secs

     Computing kpt #:    41  of   151
     total cpu time spent up to now is        8.2 secs

     Computing kpt #:    42  of   151
     total cpu time spent up to now is        8.4 secs

     Computing kpt #:    43  of   151
     total cpu time spent up to now is        8.5 secs

     Computing kpt #:    44  of   151
     total cpu time spent up to now is        8.7 secs

     Computing kpt #:    45  of   151
     total cpu time spent up to now is        8.9 secs

     Computing kpt #:    46  of   151
     total cpu time spent up to now is        9.1 secs

     Computing kpt #:    47  of   151
     total cpu time spent up to now is        9.2 secs

     Computing kpt #:    48  of   151
     total cpu time spent up to now is        9.4 secs

     Computing kpt #:    49  of   151
     total cpu time spent up to now is        9.6 secs

     Computing kpt #:    50  of   151
     total cpu time spent up to now is        9.7 secs

     Computing kpt #:    51  of   151
     total cpu time spent up to now is        9.9 secs

     Computing kpt #:    52  of   151
     total cpu time spent up to now is       10.1 secs

     Computing kpt #:    53  of   151
     total cpu time spent up to now is       10.3 secs

     Computing kpt #:    54  of   151
     total cpu time spent up to now is       10.4 secs

     Computing kpt #:    55  of   151
     total cpu time spent up to now is       10.6 secs

     Computing kpt #:    56  of   151
     total cpu time spent up to now is       10.8 secs

     Computing kpt #:    57  of   151
     total cpu time spent up to now is       10.9 secs

     Computing kpt #:    58  of   151
     total cpu time spent up to now is       11.1 secs

     Computing kpt #:    59  of   151
     total cpu time spent up to now is       11.3 secs

     Computing kpt #:    60  of   151
     total cpu time spent up to now is       11.5 secs

     Computing kpt #:    61  of   151
     total cpu time spent up to now is       11.6 secs

     Computing kpt #:    62  of   151
     total cpu time spent up to now is       11.8 secs

     Computing kpt #:    63  of   151
     total cpu time spent up to now is       12.0 secs

     Computing kpt #:    64  of   151
     total cpu time spent up to now is       12.1 secs

     Computing kpt #:    65  of   151
     total cpu time spent up to now is       12.3 secs

     Computing kpt #:    66  of   151
     total cpu time spent up to now is       12.4 secs

     Computing kpt #:    67  of   151
     total cpu time spent up to now is       12.6 secs

     Computing kpt #:    68  of   151
     total cpu time spent up to now is       12.8 secs

     Computing kpt #:    69  of   151
     total cpu time spent up to now is       13.0 secs

     Computing kpt #:    70  of   151
     total cpu time spent up to now is       13.1 secs

     Computing kpt #:    71  of   151
     total cpu time spent up to now is       13.3 secs

     Computing kpt #:    72  of   151
     total cpu time spent up to now is       13.5 secs

     Computing kpt #:    73  of   151
     total cpu time spent up to now is       13.7 secs

     Computing kpt #:    74  of   151
     total cpu time spent up to now is       13.9 secs

     Computing kpt #:    75  of   151
     total cpu time spent up to now is       14.0 secs

     Computing kpt #:    76  of   151
     total cpu time spent up to now is       14.2 secs

     Computing kpt #:    77  of   151
     total cpu time spent up to now is       14.4 secs

     Computing kpt #:    78  of   151
     total cpu time spent up to now is       14.6 secs

     Computing kpt #:    79  of   151
     total cpu time spent up to now is       14.8 secs

     Computing kpt #:    80  of   151
     total cpu time spent up to now is       15.0 secs

     Computing kpt #:    81  of   151
     total cpu time spent up to now is       15.2 secs

     Computing kpt #:    82  of   151
     total cpu time spent up to now is       15.3 secs

     Computing kpt #:    83  of   151
     total cpu time spent up to now is       15.5 secs

     Computing kpt #:    84  of   151
     total cpu time spent up to now is       15.7 secs

     Computing kpt #:    85  of   151
     total cpu time spent up to now is       15.9 secs

     Computing kpt #:    86  of   151
     total cpu time spent up to now is       16.0 secs

     Computing kpt #:    87  of   151
     total cpu time spent up to now is       16.2 secs

     Computing kpt #:    88  of   151
     total cpu time spent up to now is       16.4 secs

     Computing kpt #:    89  of   151
     total cpu time spent up to now is       16.6 secs

     Computing kpt #:    90  of   151
     total cpu time spent up to now is       16.7 secs

     Computing kpt #:    91  of   151
     total cpu time spent up to now is       16.9 secs

     Computing kpt #:    92  of   151
     total cpu time spent up to now is       17.1 secs

     Computing kpt #:    93  of   151
     total cpu time spent up to now is       17.2 secs

     Computing kpt #:    94  of   151
     total cpu time spent up to now is       17.4 secs

     Computing kpt #:    95  of   151
     total cpu time spent up to now is       17.6 secs

     Computing kpt #:    96  of   151
     total cpu time spent up to now is       17.8 secs

     Computing kpt #:    97  of   151
     total cpu time spent up to now is       17.9 secs

     Computing kpt #:    98  of   151
     total cpu time spent up to now is       18.1 secs

     Computing kpt #:    99  of   151
     total cpu time spent up to now is       18.3 secs

     Computing kpt #:   100  of   151
     total cpu time spent up to now is       18.4 secs

     Computing kpt #:   101  of   151
     total cpu time spent up to now is       18.6 secs

     Computing kpt #:   102  of   151
     total cpu time spent up to now is       18.8 secs

     Computing kpt #:   103  of   151
     total cpu time spent up to now is       18.9 secs

     Computing kpt #:   104  of   151
     total cpu time spent up to now is       19.1 secs

     Computing kpt #:   105  of   151
     total cpu time spent up to now is       19.3 secs

     Computing kpt #:   106  of   151
     total cpu time spent up to now is       19.4 secs

     Computing kpt #:   107  of   151
     total cpu time spent up to now is       19.6 secs

     Computing kpt #:   108  of   151
     total cpu time spent up to now is       19.7 secs

     Computing kpt #:   109  of   151
     total cpu time spent up to now is       19.9 secs

     Computing kpt #:   110  of   151
     total cpu time spent up to now is       20.1 secs

     Computing kpt #:   111  of   151
     total cpu time spent up to now is       20.3 secs

     Computing kpt #:   112  of   151
     total cpu time spent up to now is       20.4 secs

     Computing kpt #:   113  of   151
     total cpu time spent up to now is       20.6 secs

     Computing kpt #:   114  of   151
     total cpu time spent up to now is       20.8 secs

     Computing kpt #:   115  of   151
     total cpu time spent up to now is       21.0 secs

     Computing kpt #:   116  of   151
     total cpu time spent up to now is       21.1 secs

     Computing kpt #:   117  of   151
     total cpu time spent up to now is       21.3 secs

     Computing kpt #:   118  of   151
     total cpu time spent up to now is       21.5 secs

     Computing kpt #:   119  of   151
     total cpu time spent up to now is       21.8 secs

     Computing kpt #:   120  of   151
     total cpu time spent up to now is       22.0 secs

     Computing kpt #:   121  of   151
     total cpu time spent up to now is       22.2 secs

     Computing kpt #:   122  of   151
     total cpu time spent up to now is       22.3 secs

     Computing kpt #:   123  of   151
     total cpu time spent up to now is       22.5 secs

     Computing kpt #:   124  of   151
     total cpu time spent up to now is       22.7 secs

     Computing kpt #:   125  of   151
     total cpu time spent up to now is       22.9 secs

     Computing kpt #:   126  of   151
     total cpu time spent up to now is       23.0 secs

     Computing kpt #:   127  of   151
     total cpu time spent up to now is       23.2 secs

     Computing kpt #:   128  of   151
     total cpu time spent up to now is       23.4 secs

     Computing kpt #:   129  of   151
     total cpu time spent up to now is       23.5 secs

     Computing kpt #:   130  of   151
     total cpu time spent up to now is       23.7 secs

     Computing kpt #:   131  of   151
     total cpu time spent up to now is       23.9 secs

     Computing kpt #:   132  of   151
     total cpu time spent up to now is       24.1 secs

     Computing kpt #:   133  of   151
     total cpu time spent up to now is       24.2 secs

     Computing kpt #:   134  of   151
     total cpu time spent up to now is       24.4 secs

     Computing kpt #:   135  of   151
     total cpu time spent up to now is       24.6 secs

     Computing kpt #:   136  of   151
     total cpu time spent up to now is       24.8 secs

     Computing kpt #:   137  of   151
     total cpu time spent up to now is       24.9 secs

     Computing kpt #:   138  of   151
     total cpu time spent up to now is       25.1 secs

     Computing kpt #:   139  of   151
     total cpu time spent up to now is       25.3 secs

     Computing kpt #:   140  of   151
     total cpu time spent up to now is       25.4 secs

     Computing kpt #:   141  of   151
     total cpu time spent up to now is       25.6 secs

     Computing kpt #:   142  of   151
     total cpu time spent up to now is       25.8 secs

     Computing kpt #:   143  of   151
     total cpu time spent up to now is       26.0 secs

     Computing kpt #:   144  of   151
     total cpu time spent up to now is       26.1 secs

     Computing kpt #:   145  of   151
     total cpu time spent up to now is       26.3 secs

     Computing kpt #:   146  of   151
     total cpu time spent up to now is       26.5 secs

     Computing kpt #:   147  of   151
     total cpu time spent up to now is       26.7 secs

     Computing kpt #:   148  of   151
     total cpu time spent up to now is       26.9 secs

     Computing kpt #:   149  of   151
     total cpu time spent up to now is       27.1 secs

     Computing kpt #:   150  of   151
     total cpu time spent up to now is       27.3 secs

     Computing kpt #:   151  of   151
     total cpu time spent up to now is       27.4 secs

     ethr =  3.85E-09,  avg # of iterations = 36.5

     total cpu time spent up to now is       27.4 secs

     End of band structure calculation

          k = 0.0000 0.0000 0.0000 (  5021 PWs)   bands (ev):

   -61.9957 -36.0427 -35.9930 -35.9930 -14.9509 -13.8185  -6.4846  -4.0302
    -4.0302  -3.0976  -1.0910  -1.0910  -1.0495  -0.4309  -0.4309   2.9846
     2.9846   4.3583

          k = 0.0067 0.0115 0.0000 (  5015 PWs)   bands (ev):

   -61.9956 -36.0427 -35.9934 -35.9931 -14.9488 -13.8178  -6.4819  -4.0417
    -4.0289  -3.0875  -1.1055  -1.1049  -1.0531  -0.4206  -0.4185   2.9764
     2.9833   4.3615

          k = 0.0133 0.0231 0.0000 (  5027 PWs)   bands (ev):

   -61.9955 -36.0424 -35.9949 -35.9934 -14.9427 -13.8159  -6.4739  -4.0748
    -4.0254  -3.0588  -1.1508  -1.1465  -1.0571  -0.3927  -0.3843   2.9523
     2.9793   4.3710

          k = 0.0200 0.0346 0.0000 (  5049 PWs)   bands (ev):

   -61.9953 -36.0419 -35.9972 -35.9940 -14.9324 -13.8126  -6.4606  -4.1257
    -4.0194  -3.0156  -1.2245  -1.2073  -1.0593  -0.3528  -0.3350   2.9137
     2.9725   4.3866

          k = 0.0267 0.0462 0.0000 (  5061 PWs)   bands (ev):

   -61.9950 -36.0413 -36.0004 -35.9947 -14.9181 -13.8081  -6.4421  -4.1894
    -4.0112  -2.9626  -1.3187  -1.2810  -1.0606  -0.3062  -0.2770   2.8632
     2.9628   4.4082

          k = 0.0333 0.0577 0.0000 (  5079 PWs)   bands (ev):

   -61.9946 -36.0405 -36.0045 -35.9957 -14.8998 -13.8023  -6.4184  -4.2621
    -4.0010  -2.9043  -1.4283  -1.3633  -1.0617  -0.2563  -0.2150   2.8035
     2.9498   4.4355

          k = 0.0400 0.0693 0.0000 (  5073 PWs)   bands (ev):

   -61.9941 -36.0395 -36.0095 -35.9968 -14.8774 -13.7952  -6.3895  -4.3405
    -3.9890  -2.8444  -1.5495  -1.4502  -1.0627  -0.2046  -0.1523   2.7378
     2.9334   4.4683

          k = 0.0467 0.0808 0.0000 (  5076 PWs)   bands (ev):

   -61.9935 -36.0384 -36.0152 -35.9982 -14.8512 -13.7869  -6.3556  -4.4226
    -3.9755  -2.7859  -1.6802  -1.5397  -1.0639  -0.1522  -0.0916   2.6693
     2.9132   4.5062

          k = 0.0533 0.0924 0.0000 (  5080 PWs)   bands (ev):

   -61.9929 -36.0371 -36.0218 -35.9998 -14.8211 -13.7774  -6.3168  -4.5063
    -3.9612  -2.7319  -1.8182  -1.6290  -1.0652  -0.0992  -0.0347   2.6014
     2.8892   4.5492

          k = 0.0600 0.1039 0.0000 (  5080 PWs)   bands (ev):

   -61.9921 -36.0356 -36.0291 -36.0017 -14.7873 -13.7668  -6.2733  -4.5906
    -3.9465  -2.6853  -1.9617  -1.7159  -1.0667  -0.0455   0.0164   2.5373
     2.8613   4.5968

          k = 0.0667 0.1155 0.0000 (  5096 PWs)   bands (ev):

   -61.9913 -36.0370 -36.0341 -36.0037 -14.7498 -13.7550  -6.2252  -4.6744
    -3.9323  -2.6496  -2.1091  -1.7974  -1.0684   0.0089   0.0601   2.4800
     2.8295   4.6490

          k = 0.0733 0.1270 0.0000 (  5088 PWs)   bands (ev):

   -61.9905 -36.0456 -36.0323 -36.0059 -14.7088 -13.7421  -6.1726  -4.7567
    -3.9194  -2.6287  -2.2584  -1.8696  -1.0699   0.0645   0.0950   2.4327
     2.7940   4.7057

          k = 0.0800 0.1386 0.0000 (  5092 PWs)   bands (ev):

   -61.9895 -36.0548 -36.0305 -36.0084 -14.6643 -13.7281  -6.1158  -4.8372
    -3.9093  -2.6271  -2.4077  -1.9289  -1.0713   0.1196   0.1214   2.3977
     2.7550   4.7666

          k = 0.0867 0.1501 0.0000 (  5080 PWs)   bands (ev):

   -61.9885 -36.0644 -36.0286 -36.0110 -14.6165 -13.7131  -6.0551  -4.9150
    -3.9038  -2.6477  -2.5549  -1.9723  -1.0722   0.1336   0.1799   2.3771
     2.7127   4.8318

          k = 0.0933 0.1617 0.0000 (  5092 PWs)   bands (ev):

   -61.9875 -36.0745 -36.0266 -36.0139 -14.5656 -13.6972  -5.9905  -4.9900
    -3.9053  -2.6971  -2.6907  -2.0002  -1.0728   0.1365   0.2401   2.3717
     2.6674   4.9011

          k = 0.1000 0.1732 0.0000 (  5104 PWs)   bands (ev):

   -61.9864 -36.0850 -36.0247 -36.0167 -14.5116 -13.6803  -5.9224  -5.0618
    -3.9169  -2.8312  -2.7529  -2.0161  -1.0723   0.1292   0.3019   2.3821
     2.6194   4.9746

          k = 0.1067 0.1848 0.0000 (  5108 PWs)   bands (ev):

   -61.9853 -36.0958 -36.0234 -36.0190 -14.4549 -13.6626  -5.8510  -5.1299
    -3.9421  -2.9533  -2.8294  -2.0251  -1.0704   0.1130   0.3658   2.4078
     2.5695   5.0522

          k = 0.1133 0.1963 0.0000 (  5110 PWs)   bands (ev):

   -61.9841 -36.1068 -36.0251 -36.0186 -14.3954 -13.6440  -5.7767  -5.1941
    -3.9850  -3.0597  -2.9156  -2.0322  -1.0666   0.0900   0.4313   2.4477
     2.5179   5.1339

          k = 0.1200 0.2078 0.0000 (  5110 PWs)   bands (ev):

   -61.9829 -36.1179 -36.0285 -36.0166 -14.3336 -13.6247  -5.6996  -5.2541
    -4.0480  -3.1477  -3.0080  -2.0410  -1.0603   0.0622   0.4987   2.4652
     2.5001   5.2196

          k = 0.1267 0.2194 0.0000 (  5106 PWs)   bands (ev):

   -61.9816 -36.1292 -36.0324 -36.0142 -14.2694 -13.6046  -5.6201  -5.3099
    -4.1315  -3.2173  -3.1040  -2.0540  -1.0512   0.0320   0.5675   2.4119
     2.5635   5.3093

          k = 0.1333 0.2309 0.0000 (  5108 PWs)   bands (ev):

   -61.9804 -36.1404 -36.0365 -36.0118 -14.2033 -13.5839  -5.5387  -5.3613
    -4.2328  -3.2715  -3.2020  -2.0732  -1.0385   0.0013   0.6376   2.3584
     2.6355   5.4028

          k = 0.1400 0.2425 0.0000 (  5106 PWs)   bands (ev):

   -61.9791 -36.1516 -36.0409 -36.0093 -14.1354 -13.5626  -5.4556  -5.4081
    -4.3473  -3.3149  -3.3007  -2.0995  -1.0216  -0.0279   0.7086   2.3055
     2.7146   5.5002

          k = 0.1467 0.2540 0.0000 (  5106 PWs)   bands (ev):

   -61.9778 -36.1627 -36.0456 -36.0067 -14.0659 -13.5407  -5.4504  -5.3715
    -4.4705  -3.3992  -3.3521  -2.1332  -0.9999  -0.0545   0.7800   2.2536
     2.7991   5.6013

          k = 0.1533 0.2656 0.0000 (  5102 PWs)   bands (ev):

   -61.9766 -36.1735 -36.0504 -36.0042 -13.9953 -13.5183  -5.4880  -5.2872
    -4.5977  -3.4966  -3.3872  -2.1745  -0.9735  -0.0774   0.8515   2.2034
     2.8874   5.7058

          k = 0.1600 0.2771 0.0000 (  5102 PWs)   bands (ev):

   -61.9753 -36.1841 -36.0555 -36.0017 -13.9237 -13.4955  -5.5210  -5.2043
    -4.7249  -3.5925  -3.4231  -2.2229  -0.9419  -0.0962   0.9223   2.1555
     2.9781   5.8137

          k = 0.1667 0.2887 0.0000 (  5102 PWs)   bands (ev):

   -61.9740 -36.1944 -36.0607 -35.9991 -13.8514 -13.4722  -5.5495  -5.1281
    -4.8447  -3.6863  -3.4619  -2.2780  -0.9052  -0.1106   0.9917   2.1106
     3.0698   5.9245

          k = 0.1733 0.3002 0.0000 (  5100 PWs)   bands (ev):

   -61.9728 -36.2042 -36.0662 -35.9966 -13.7789 -13.4486  -5.5735  -5.0894
    -4.9249  -3.7775  -3.5051  -2.3388  -0.8632  -0.1209   1.0588   2.0693
     3.1615   6.0379

          k = 0.1800 0.3118 0.0000 (  5090 PWs)   bands (ev):

   -61.9715 -36.2136 -36.0718 -35.9942 -13.7065 -13.4247  -5.5931  -5.1558
    -4.8971  -3.8656  -3.5534  -2.4045  -0.8165  -0.1272   1.1230   2.0323
     3.2519   6.1534

          k = 0.1867 0.3233 0.0000 (  5104 PWs)   bands (ev):

   -61.9703 -36.2225 -36.0776 -35.9918 -13.6345 -13.4005  -5.6088  -5.2641
    -4.8239  -3.9502  -3.6074  -2.4742  -0.7656  -0.1303   1.1826   2.0003
     3.3398   6.2701

          k = 0.1933 0.3349 0.0000 (  5106 PWs)   bands (ev):

   -61.9691 -36.2308 -36.0837 -35.9894 -13.5634 -13.3762  -5.6207  -5.3754
    -4.7434  -4.0307  -3.6670  -2.5470  -0.7110  -0.1302   1.2370   1.9741
     3.4242   6.3869

          k = 0.2000 0.3464 0.0000 (  5102 PWs)   bands (ev):

   -61.9680 -36.2385 -36.0898 -35.9871 -13.4935 -13.3516  -5.6291  -5.4830
    -4.6623  -4.1066  -3.7322  -2.6220  -0.6536  -0.1272   1.2853   1.9542
     3.5039   6.5020

          k = 0.2067 0.3580 0.0000 (  5112 PWs)   bands (ev):

   -61.9669 -36.2455 -36.0962 -35.9849 -13.4253 -13.3270  -5.6345  -5.5845
    -4.5825  -4.1775  -3.8028  -2.6984  -0.5942  -0.1221   1.3264   1.9410
     3.5773   6.6124

          k = 0.2133 0.3695 0.0000 (  5112 PWs)   bands (ev):

   -61.9658 -36.2519 -36.1027 -35.9828 -13.3592 -13.3023  -5.6790  -5.6374
    -4.5050  -4.2425  -3.8782  -2.7756  -0.5335  -0.1149   1.3603   1.9348
     3.6436   6.7127

          k = 0.2200 0.3811 0.0000 (  5116 PWs)   bands (ev):

   -61.9648 -36.2575 -36.1094 -35.9808 -13.2956 -13.2776  -5.7654  -5.6384
    -4.4307  -4.3012  -3.9580  -2.8529  -0.4727  -0.1059   1.3863   1.9355
     3.7010   6.7921

          k = 0.2267 0.3926 0.0000 (  5128 PWs)   bands (ev):

   -61.9639 -36.2624 -36.1162 -35.9789 -13.2529 -13.2351  -5.8432  -5.6383
    -4.3605  -4.3527  -4.0413  -2.9299  -0.4121  -0.0956   1.4041   1.9427
     3.7486   6.8353

          k = 0.2333 0.4041 0.0000 (  5136 PWs)   bands (ev):

   -61.9630 -36.2664 -36.1231 -35.9771 -13.2283 -13.1780  -5.9116  -5.6376
    -4.3963  -4.2965  -4.1263  -3.0062  -0.3527  -0.0836   1.4135   1.9566
     3.7850   6.8404

          k = 0.2400 0.4157 0.0000 (  5144 PWs)   bands (ev):

   -61.9621 -36.2697 -36.1302 -35.9754 -13.2038 -13.1248  -5.9703  -5.6372
    -4.4312  -4.2583  -4.1936  -3.0813  -0.2948  -0.0702   1.4141   1.9773
     3.8090   6.8237

          k = 0.2467 0.4272 0.0000 (  5144 PWs)   bands (ev):

   -61.9613 -36.2722 -36.1373 -35.9739 -13.1795 -13.0758  -6.0186  -5.6376
    -4.4568  -4.3246  -4.1642  -3.1549  -0.2385  -0.0552   1.4049   2.0056
     3.8202   6.7974

          k = 0.2533 0.4388 0.0000 (  5148 PWs)   bands (ev):

   -61.9606 -36.2738 -36.1446 -35.9724 -13.1554 -13.0313  -6.0562  -5.6396
    -4.4725  -4.4175  -4.1164  -3.2269  -0.1842  -0.0389   1.3850   2.0422
     3.8177   6.7660

          k = 0.2600 0.4503 0.0000 (  5152 PWs)   bands (ev):

   -61.9599 -36.2746 -36.1519 -35.9711 -13.1316 -12.9919  -6.0829  -5.6434
    -4.5143  -4.4779  -4.0728  -3.2970  -0.1316  -0.0209   1.3538   2.0876
     3.8015   6.7317

          k = 0.2667 0.4619 0.0000 (  5156 PWs)   bands (ev):

   -61.9593 -36.2746 -36.1593 -35.9699 -13.1081 -12.9575  -6.0982  -5.6493
    -4.6130  -4.4732  -4.0354  -3.3651  -0.0804  -0.0011   1.3110   2.1419
     3.7719   6.6957

          k = 0.2733 0.4734 0.0000 (  5152 PWs)   bands (ev):

   -61.9588 -36.2737 -36.1667 -35.9688 -13.0850 -12.9285  -6.1022  -5.6570
    -4.7129  -4.4583  -4.0047  -3.4310  -0.0301   0.0205   1.2572   2.2050
     3.7297   6.6593

          k = 0.2800 0.4850 0.0000 (  5166 PWs)   bands (ev):

   -61.9583 -36.2721 -36.1742 -35.9678 -13.0623 -12.9050  -6.0947  -5.6664
    -4.8135  -4.4340  -3.9812  -3.4947   0.0196   0.0440   1.1931   2.2759
     3.6756   6.6238

          k = 0.2867 0.4965 0.0000 (  5154 PWs)   bands (ev):

   -61.9579 -36.2697 -36.1817 -35.9670 -13.0400 -12.8869  -6.0758  -5.6768
    -4.9143  -4.4008  -3.9649  -3.5560   0.0694   0.0698   1.1205   2.3539
     3.6115   6.5904

          k = 0.2933 0.5081 0.0000 (  5152 PWs)   bands (ev):

   -61.9575 -36.2665 -36.1893 -35.9663 -13.0183 -12.8743  -6.0458  -5.6877
    -5.0149  -4.3597  -3.9559  -3.6147   0.0977   0.1194   1.0401   2.4377
     3.5384   6.5600

          k = 0.3000 0.5196 0.0000 (  5166 PWs)   bands (ev):

   -61.9572 -36.2626 -36.1968 -35.9657 -12.9972 -12.8671  -6.0051  -5.6985
    -5.1149  -4.3118  -3.9540  -3.6708   0.1277   0.1696   0.9541   2.5261
     3.4575   6.5333

          k = 0.3067 0.5312 0.0000 (  5178 PWs)   bands (ev):

   -61.9570 -36.2581 -36.2043 -35.9653 -12.9767 -12.8649  -5.9543  -5.7085
    -5.2135  -4.2581  -3.9591  -3.7239   0.1602   0.2194   0.8645   2.6180
     3.3709   6.5108

          k = 0.3133 0.5427 0.0000 (  5182 PWs)   bands (ev):

   -61.9568 -36.2528 -36.2117 -35.9649 -12.9569 -12.8677  -5.8946  -5.7171
    -5.3096  -4.2001  -3.9706  -3.7734   0.1952   0.2673   0.7744   2.7121
     3.2803   6.4931

          k = 0.3200 0.5543 0.0000 (  5176 PWs)   bands (ev):

   -61.9567 -36.2470 -36.2191 -35.9647 -12.9378 -12.8750  -5.8287  -5.7238
    -5.4009  -4.1400  -3.9881  -3.8180   0.2326   0.3089   0.6895   2.8077
     3.1871   6.4804

          k = 0.3267 0.5658 0.0000 (  5172 PWs)   bands (ev):

   -61.9566 -36.2405 -36.2264 -35.9645 -12.9194 -12.8866  -5.7642  -5.7282
    -5.4800  -4.0821  -4.0109  -3.8542   0.2724   0.3319   0.6230   2.9033
     3.0925   6.4728

          k = 0.3333 0.5774 0.0000 (  5172 PWs)   bands (ev):

   -61.9566 -36.2336 -36.2336 -35.9645 -12.9019 -12.9019  -5.7301  -5.7301
    -5.5186  -4.0383  -4.0383  -3.8710   0.3142   0.3142   0.5974   2.9980
     2.9980   6.4703

          k = 0.3267 0.5774 0.0000 (  5164 PWs)   bands (ev):

   -61.9566 -36.2372 -36.2300 -35.9645 -12.9109 -12.8934  -5.7399  -5.7300
    -5.5074  -4.0535  -4.0285  -3.8655   0.2874   0.3359   0.6032   2.9513
     3.0448   6.4709

          k = 0.3200 0.5774 0.0000 (  5168 PWs)   bands (ev):

   -61.9566 -36.2407 -36.2262 -35.9645 -12.9207 -12.8852  -5.7656  -5.7292
    -5.4779  -4.0695  -4.0285  -3.8492   0.2519   0.3579   0.6177   2.9051
     3.0909   6.4727

          k = 0.3133 0.5774 0.0000 (  5172 PWs)   bands (ev):

   -61.9567 -36.2442 -36.2224 -35.9646 -12.9312 -12.8772  -5.8002  -5.7276
    -5.4373  -4.0862  -4.0358  -3.8245   0.2107   0.3803   0.6380   2.8597
     3.1364   6.4757

          k = 0.3067 0.5774 0.0000 (  5164 PWs)   bands (ev):

   -61.9567 -36.2477 -36.2184 -35.9646 -12.9424 -12.8693  -5.8391  -5.7252
    -5.3903  -4.1034  -4.0474  -3.7947   0.1663   0.4031   0.6623   2.8153
     3.1812   6.4798

          k = 0.3000 0.5774 0.0000 (  5160 PWs)   bands (ev):

   -61.9567 -36.2511 -36.2144 -35.9647 -12.9542 -12.8617  -5.8801  -5.7220
    -5.3393  -4.1210  -4.0612  -3.7618   0.1195   0.4261   0.6892   2.7721
     3.2250   6.4850

          k = 0.2933 0.5774 0.0000 (  5168 PWs)   bands (ev):

   -61.9568 -36.2545 -36.2103 -35.9648 -12.9666 -12.8544  -5.9220  -5.7181
    -5.2855  -4.1388  -4.0761  -3.7272   0.0715   0.4490   0.7176   2.7300
     3.2678   6.4910

          k = 0.2867 0.5774 0.0000 (  5166 PWs)   bands (ev):

   -61.9569 -36.2579 -36.2061 -35.9650 -12.9796 -12.8472  -5.9642  -5.7135
    -5.2298  -4.1566  -4.0914  -3.6915   0.0228   0.4722   0.7470   2.6896
     3.3097   6.4979

          k = 0.2800 0.5774 0.0000 (  5170 PWs)   bands (ev):

   -61.9569 -36.2612 -36.2019 -35.9651 -12.9930 -12.8403  -6.0065  -5.7080
    -5.1726  -4.1740  -4.1068  -3.6553  -0.0263   0.4953   0.7771   2.6508
     3.3503   6.5055

          k = 0.2733 0.5774 0.0000 (  5166 PWs)   bands (ev):

   -61.9570 -36.2645 -36.1976 -35.9653 -13.0068 -12.8336  -6.0486  -5.7018
    -5.1146  -4.1908  -4.1219  -3.6189  -0.0755   0.5183   0.8079   2.6141
     3.3900   6.5136

          k = 0.2667 0.5774 0.0000 (  5164 PWs)   bands (ev):

   -61.9571 -36.2677 -36.1933 -35.9655 -13.0210 -12.8271  -6.0903  -5.6949
    -5.0563  -4.2066  -4.1366  -3.5824  -0.1246   0.5410   0.8389   2.5795
     3.4283   6.5221

          k = 0.2600 0.5774 0.0000 (  5160 PWs)   bands (ev):

   -61.9572 -36.2709 -36.1889 -35.9656 -13.0354 -12.8209  -6.1315  -5.6873
    -4.9983  -4.2208  -4.1509  -3.5462  -0.1735   0.5634   0.8700   2.5473
     3.4655   6.5308

          k = 0.2533 0.5774 0.0000 (  5152 PWs)   bands (ev):

   -61.9573 -36.2740 -36.1845 -35.9658 -13.0502 -12.8148  -6.1723  -5.6789
    -4.9413  -4.2326  -4.1646  -3.5102  -0.2222   0.5855   0.9011   2.5177
     3.5013   6.5394

          k = 0.2467 0.5774 0.0000 (  5156 PWs)   bands (ev):

   -61.9574 -36.2771 -36.1801 -35.9660 -13.0651 -12.8090  -6.2124  -5.6700
    -4.8865  -4.2412  -4.1777  -3.4748  -0.2706   0.6066   0.9320   2.4906
     3.5357   6.5476

          k = 0.2400 0.5774 0.0000 (  5156 PWs)   bands (ev):

   -61.9575 -36.2801 -36.1757 -35.9663 -13.0803 -12.8035  -6.2519  -5.6604
    -4.8351  -4.2452  -4.1902  -3.4400  -0.3186   0.6271   0.9627   2.4666
     3.5688   6.5553

          k = 0.2333 0.5774 0.0000 (  5160 PWs)   bands (ev):

   -61.9576 -36.2831 -36.1713 -35.9665 -13.0955 -12.7981  -6.2907  -5.6502
    -4.7889  -4.2430  -4.2020  -3.4059  -0.3663   0.6467   0.9932   2.4457
     3.6005   6.5620

          k = 0.2267 0.5774 0.0000 (  5160 PWs)   bands (ev):

   -61.9578 -36.2860 -36.1668 -35.9667 -13.1108 -12.7930  -6.3288  -5.6395
    -4.7496  -4.2328  -4.2130  -3.3727  -0.4134   0.6653   1.0234   2.4283
     3.6308   6.5676

          k = 0.2200 0.5774 0.0000 (  5160 PWs)   bands (ev):

   -61.9579 -36.2888 -36.1624 -35.9670 -13.1261 -12.7880  -6.3662  -5.6282
    -4.7189  -4.2233  -4.2131  -3.3405  -0.4602   0.6828   1.0531   2.4145
     3.6597   6.5717

          k = 0.2133 0.5774 0.0000 (  5152 PWs)   bands (ev):

   -61.9580 -36.2916 -36.1580 -35.9672 -13.1414 -12.7833  -6.4027  -5.6165
    -4.6974  -4.2328  -4.1830  -3.3093  -0.5064   0.6991   1.0824   2.4043
     3.6874   6.5740

          k = 0.2067 0.5774 0.0000 (  5152 PWs)   bands (ev):

   -61.9581 -36.2943 -36.1537 -35.9675 -13.1566 -12.7788  -6.4384  -5.6044
    -4.6851  -4.2415  -4.1429  -3.2792  -0.5522   0.7141   1.1112   2.3979
     3.7136   6.5105

          k = 0.2000 0.5774 0.0000 (  5140 PWs)   bands (ev):

   -61.9583 -36.2969 -36.1494 -35.9677 -13.1718 -12.7746  -6.4733  -5.5920
    -4.6806  -4.2494  -4.0940  -3.2504  -0.5975   0.7279   1.1395   2.3955
     3.7386   6.4289

          k = 0.1933 0.5774 0.0000 (  5140 PWs)   bands (ev):

   -61.9584 -36.2995 -36.1451 -35.9680 -13.1867 -12.7705  -6.5073  -5.5792
    -4.6823  -4.2564  -4.0381  -3.2229  -0.6424   0.7402   1.1669   2.3969
     3.7623   6.3482

          k = 0.1867 0.5774 0.0000 (  5144 PWs)   bands (ev):

   -61.9585 -36.3020 -36.1409 -35.9683 -13.2016 -12.7666  -6.5405  -5.5663
    -4.6886  -4.2626  -3.9768  -3.1968  -0.6869   0.7512   1.1937   2.4020
     3.7846   6.2683

          k = 0.1800 0.5774 0.0000 (  5136 PWs)   bands (ev):

   -61.9587 -36.3045 -36.1367 -35.9685 -13.2162 -12.7629  -6.5726  -5.5532
    -4.6982  -4.2678  -3.9114  -3.1722  -0.7309   0.7610   1.2200   2.4112
     3.8057   6.1894

          k = 0.1733 0.5774 0.0000 (  5138 PWs)   bands (ev):

   -61.9588 -36.3068 -36.1327 -35.9688 -13.2305 -12.7594  -6.6039  -5.5400
    -4.7102  -4.2722  -3.8430  -3.1491  -0.7746   0.7695   1.2452   2.4239
     3.8256   6.1115

          k = 0.1667 0.5774 0.0000 (  5138 PWs)   bands (ev):

   -61.9589 -36.3091 -36.1287 -35.9690 -13.2446 -12.7561  -6.6342  -5.5268
    -4.7237  -4.2757  -3.7725  -3.1276  -0.8179   0.7769   1.2698   2.4404
     3.8444   6.0348

          k = 0.1600 0.5774 0.0000 (  5128 PWs)   bands (ev):

   -61.9591 -36.3113 -36.1248 -35.9693 -13.2584 -12.7530  -6.6634  -5.5135
    -4.7382  -4.2782  -3.7003  -3.1077  -0.8609   0.7836   1.2934   2.4604
     3.8621   5.9593

          k = 0.1533 0.5774 0.0000 (  5128 PWs)   bands (ev):

   -61.9592 -36.3135 -36.1209 -35.9696 -13.2718 -12.7500  -6.6917  -5.5004
    -4.7533  -4.2799  -3.6269  -3.0894  -0.9036   0.7890   1.3162   2.4836
     3.8786   5.8850

          k = 0.1467 0.5774 0.0000 (  5122 PWs)   bands (ev):

   -61.9593 -36.3155 -36.1172 -35.9698 -13.2849 -12.7473  -6.7189  -5.4875
    -4.7688  -4.2806  -3.5528  -3.0729  -0.9461   0.7939   1.3382   2.5099
     3.8942   5.8122

          k = 0.1400 0.5774 0.0000 (  5126 PWs)   bands (ev):

   -61.9595 -36.3175 -36.1136 -35.9701 -13.2975 -12.7447  -6.7450  -5.4748
    -4.7843  -4.2805  -3.4783  -3.0580  -0.9885   0.7982   1.3591   2.5387
     3.9087   5.7408

          k = 0.1333 0.5774 0.0000 (  5126 PWs)   bands (ev):

   -61.9596 -36.3194 -36.1102 -35.9703 -13.3098 -12.7422  -6.7701  -5.4624
    -4.7998  -4.2795  -3.4035  -3.0447  -1.0307   0.8020   1.3792   2.5701
     3.9222   5.6709

          k = 0.1267 0.5774 0.0000 (  5122 PWs)   bands (ev):

   -61.9597 -36.3212 -36.1068 -35.9705 -13.3216 -12.7399  -6.7940  -5.4504
    -4.8150  -4.2777  -3.3287  -3.0331  -1.0727   0.8055   1.3984   2.6038
     3.9349   5.6028

          k = 0.1200 0.5774 0.0000 (  5118 PWs)   bands (ev):

   -61.9598 -36.3229 -36.1036 -35.9708 -13.3329 -12.7378  -6.8169  -5.4387
    -4.8298  -4.2751  -3.2541  -3.0230  -1.1147   0.8089   1.4165   2.6393
     3.9467   5.5363

          k = 0.1133 0.5774 0.0000 (  5106 PWs)   bands (ev):

   -61.9599 -36.3246 -36.1005 -35.9710 -13.3437 -12.7358  -6.8386  -5.4276
    -4.8441  -4.2717  -3.1799  -3.0145  -1.1567   0.8121   1.4339   2.6765
     3.9578   5.4718

          k = 0.1067 0.5774 0.0000 (  5110 PWs)   bands (ev):

   -61.9600 -36.3261 -36.0975 -35.9712 -13.3540 -12.7340  -6.8592  -5.4169
    -4.8579  -4.2677  -3.1063  -3.0075  -1.1987   0.8152   1.4500   2.7148
     3.9679   5.4093

          k = 0.1000 0.5774 0.0000 (  5102 PWs)   bands (ev):

   -61.9601 -36.3276 -36.0947 -35.9714 -13.3638 -12.7323  -6.8786  -5.4067
    -4.8711  -4.2631  -3.0333  -3.0018  -1.2409   0.8183   1.4652   2.7542
     3.9773   5.3488

          k = 0.0933 0.5774 0.0000 (  5106 PWs)   bands (ev):

   -61.9602 -36.3289 -36.0921 -35.9716 -13.3731 -12.7307  -6.8968  -5.3972
    -4.8837  -4.2580  -2.9974  -2.9612  -1.2831   0.8212   1.4794   2.7939
     3.9859   5.2906

          k = 0.0867 0.5774 0.0000 (  5106 PWs)   bands (ev):

   -61.9603 -36.3302 -36.0896 -35.9718 -13.3818 -12.7292  -6.9139  -5.3882
    -4.8956  -4.2526  -2.9942  -2.8901  -1.3255   0.8244   1.4926   2.8337
     3.9938   5.2348

          k = 0.0800 0.5774 0.0000 (  5114 PWs)   bands (ev):

   -61.9604 -36.3314 -36.0873 -35.9720 -13.3899 -12.7279  -6.9297  -5.3799
    -4.9067  -4.2469  -2.9920  -2.8201  -1.3681   0.8274   1.5045   2.8732
     4.0010   5.1816

          k = 0.0733 0.5774 0.0000 (  5112 PWs)   bands (ev):

   -61.9605 -36.3325 -36.0851 -35.9721 -13.3974 -12.7267  -6.9443  -5.3722
    -4.9170  -4.2409  -2.9908  -2.7515  -1.4107   0.8305   1.5156   2.9124
     4.0076   5.1311

          k = 0.0667 0.5774 0.0000 (  5112 PWs)   bands (ev):

   -61.9606 -36.3335 -36.0831 -35.9723 -13.4043 -12.7257  -6.9577  -5.3652
    -4.9265  -4.2349  -2.9902  -2.6845  -1.4536   0.8336   1.5257   2.9505
     4.0135   5.0837

          k = 0.0600 0.5774 0.0000 (  5112 PWs)   bands (ev):

   -61.9607 -36.3344 -36.0813 -35.9724 -13.4105 -12.7247  -6.9699  -5.3588
    -4.9352  -4.2289  -2.9904  -2.6191  -1.4965   0.8365   1.5349   2.9870
     4.0188   5.0394

          k = 0.0533 0.5774 0.0000 (  5106 PWs)   bands (ev):

   -61.9607 -36.3352 -36.0797 -35.9725 -13.4162 -12.7238  -6.9808  -5.3531
    -4.9431  -4.2230  -2.9910  -2.5558  -1.5393   0.8397   1.5432   3.0218
     4.0235   4.9986

          k = 0.0467 0.5774 0.0000 (  5118 PWs)   bands (ev):

   -61.9608 -36.3360 -36.0783 -35.9726 -13.4212 -12.7231  -6.9904  -5.3481
    -4.9502  -4.2176  -2.9919  -2.4950  -1.5819   0.8421   1.5503   3.0538
     4.0275   4.9615

          k = 0.0400 0.5774 0.0000 (  5122 PWs)   bands (ev):

   -61.9608 -36.3366 -36.0770 -35.9727 -13.4255 -12.7224  -6.9987  -5.3438
    -4.9562  -4.2126  -2.9931  -2.4370  -1.6237   0.8445   1.5566   3.0829
     4.0310   4.9284

          k = 0.0333 0.5774 0.0000 (  5112 PWs)   bands (ev):

   -61.9609 -36.3371 -36.0760 -35.9728 -13.4292 -12.7219  -7.0058  -5.3401
    -4.9614  -4.2080  -2.9943  -2.3826  -1.6642   0.8471   1.5619   3.1088
     4.0340   4.8998

          k = 0.0267 0.5774 0.0000 (  5122 PWs)   bands (ev):

   -61.9609 -36.3376 -36.0751 -35.9729 -13.4323 -12.7215  -7.0116  -5.3371
    -4.9656  -4.2043  -2.9954  -2.3329  -1.7025   0.8488   1.5660   3.1306
     4.0363   4.8757

          k = 0.0200 0.5774 0.0000 (  5126 PWs)   bands (ev):

   -61.9609 -36.3379 -36.0744 -35.9729 -13.4346 -12.7211  -7.0162  -5.3348
    -4.9690  -4.2012  -2.9965  -2.2896  -1.7369   0.8504   1.5693   3.1481
     4.0381   4.8567

          k = 0.0133 0.5774 0.0000 (  5118 PWs)   bands (ev):

   -61.9609 -36.3381 -36.0739 -35.9730 -13.4363 -12.7209  -7.0194  -5.3332
    -4.9713  -4.1990  -2.9973  -2.2547  -1.7651   0.8516   1.5717   3.1609
     4.0396   4.8429

          k = 0.0067 0.5774 0.0000 (  5122 PWs)   bands (ev):

   -61.9610 -36.3383 -36.0736 -35.9730 -13.4373 -12.7207  -7.0213  -5.3322
    -4.9727  -4.1976  -2.9978  -2.2318  -1.7842   0.8522   1.5732   3.1686
     4.0403   4.8345

          k = 0.0000 0.5774 0.0000 (  5128 PWs)   bands (ev):

   -61.9610 -36.3383 -36.0735 -35.9730 -13.4377 -12.7207  -7.0220  -5.3318
    -4.9732  -4.1972  -2.9979  -2.2238  -1.7910   0.8523   1.5736   3.1712
     4.0405   4.8317

          k = 0.0000 0.5658 0.0000 (  5126 PWs)   bands (ev):

   -61.9610 -36.3380 -36.0735 -35.9731 -13.4384 -12.7237  -7.0169  -5.3402
    -4.9628  -4.1962  -3.0010  -2.2220  -1.7919   0.8515   1.5693   3.1708
     4.0349   4.8405

          k = 0.0000 0.5543 0.0000 (  5116 PWs)   bands (ev):

   -61.9611 -36.3370 -36.0732 -35.9733 -13.4404 -12.7325  -7.0017  -5.3625
    -4.9342  -4.1935  -3.0100  -2.2164  -1.7946   0.8488   1.5565   3.1694
     4.0185   4.8663

          k = 0.0000 0.5427 0.0000 (  5120 PWs)   bands (ev):

   -61.9613 -36.3354 -36.0728 -35.9736 -13.4439 -12.7471  -6.9765  -5.3934
    -4.8932  -4.1889  -3.0243  -2.2077  -1.7991   0.8438   1.5352   3.1671
     3.9922   4.9071

          k = 0.0000 0.5312 0.0000 (  5120 PWs)   bands (ev):

   -61.9615 -36.3331 -36.0723 -35.9741 -13.4487 -12.7672  -6.9417  -5.4280
    -4.8451  -4.1826  -3.0428  -2.1961  -1.8055   0.8371   1.5064   3.1637
     3.9572   4.9607

          k = 0.0000 0.5196 0.0000 (  5116 PWs)   bands (ev):

   -61.9618 -36.3301 -36.0716 -35.9747 -13.4550 -12.7925  -6.8974  -5.4632
    -4.7937  -4.1745  -3.0642  -2.1820  -1.8136   0.8289   1.4707   3.1595
     3.9144   5.0246

          k = 0.0000 0.5081 0.0000 (  5112 PWs)   bands (ev):

   -61.9622 -36.3265 -36.0707 -35.9755 -13.4628 -12.8226  -6.8441  -5.4972
    -4.7418  -4.1647  -3.0868  -2.1660  -1.8235   0.8193   1.4289   3.1543
     3.8646   5.0966

          k = 0.0000 0.4965 0.0000 (  5124 PWs)   bands (ev):

   -61.9626 -36.3223 -36.0697 -35.9763 -13.4722 -12.8571  -6.7823  -5.5287
    -4.6919  -4.1534  -3.1088  -2.1485  -1.8351   0.8082   1.3818   3.1480
     3.8079   5.1747

          k = 0.0000 0.4850 0.0000 (  5128 PWs)   bands (ev):

   -61.9631 -36.3175 -36.0686 -35.9773 -13.4833 -12.8954  -6.7126  -5.5567
    -4.6462  -4.1404  -3.1280  -2.1297  -1.8484   0.7963   1.3304   3.1408
     3.7449   5.2575

          k = 0.0000 0.4734 0.0000 (  5118 PWs)   bands (ev):

   -61.9637 -36.3121 -36.0673 -35.9785 -13.4961 -12.9371  -6.6355  -5.5805
    -4.6072  -4.1260  -3.1422  -2.1098  -1.8633   0.7840   1.2760   3.1328
     3.6761   5.3440

          k = 0.0000 0.4619 0.0000 (  5118 PWs)   bands (ev):

   -61.9643 -36.3062 -36.0659 -35.9797 -13.5109 -12.9814  -6.5521  -5.5995
    -4.5768  -4.1101  -3.1494  -2.0891  -1.8797   0.7709   1.2187   3.1238
     3.6016   5.4334

          k = 0.0000 0.4503 0.0000 (  5108 PWs)   bands (ev):

   -61.9650 -36.2997 -36.0644 -35.9810 -13.5279 -13.0277  -6.4633  -5.6127
    -4.5572  -4.0930  -3.1473  -2.0674  -1.8975   0.7578   1.1598   3.1139
     3.5223   5.5256

          k = 0.0000 0.4388 0.0000 (  5116 PWs)   bands (ev):

   -61.9657 -36.2926 -36.0627 -35.9825 -13.5473 -13.0753  -6.3705  -5.6192
    -4.5497  -4.0748  -3.1348  -2.0450  -1.9166   0.7440   1.0996   3.1031
     3.4385   5.6203

          k = 0.0000 0.4272 0.0000 (  5126 PWs)   bands (ev):

   -61.9665 -36.2851 -36.0609 -35.9841 -13.5695 -13.1233  -6.2755  -5.6175
    -4.5549  -4.0556  -3.1112  -2.0217  -1.9366   0.7306   1.0386   3.0914
     3.3512   5.7177

          k = 0.0000 0.4157 0.0000 (  5132 PWs)   bands (ev):

   -61.9673 -36.2771 -36.0590 -35.9857 -13.5948 -13.1710  -6.1810  -5.6053
    -4.5728  -4.0357  -3.0767  -1.9974  -1.9575   0.7175   0.9777   3.0789
     3.2614   5.8180

          k = 0.0000 0.4041 0.0000 (  5126 PWs)   bands (ev):

   -61.9681 -36.2687 -36.0570 -35.9874 -13.6237 -13.2175  -6.0907  -5.5791
    -4.6022  -4.0150  -3.0325  -1.9788  -1.9717   0.7049   0.9174   3.0658
     3.1699   5.9206

          k = 0.0000 0.3926 0.0000 (  5122 PWs)   bands (ev):

   -61.9691 -36.2598 -36.0550 -35.9893 -13.6565 -13.2620  -6.0096  -5.5347
    -4.6418  -3.9940  -2.9802  -2.0004  -1.9446   0.6925   0.8579   3.0520
     3.0774   6.0234

          k = 0.0000 0.3811 0.0000 (  5122 PWs)   bands (ev):

   -61.9700 -36.2506 -36.0528 -35.9912 -13.6935 -13.3038  -5.9415  -5.4687
    -4.6898  -3.9729  -2.9219  -2.0217  -1.9157   0.6806   0.7995   2.9846
     3.0375   6.1142

          k = 0.0000 0.3695 0.0000 (  5110 PWs)   bands (ev):

   -61.9710 -36.2411 -36.0505 -35.9931 -13.7347 -13.3427  -5.8875  -5.3807
    -4.7443  -3.9518  -2.8596  -2.0423  -1.8848   0.6691   0.7427   2.8926
     3.0229   6.1375

          k = 0.0000 0.3580 0.0000 (  5110 PWs)   bands (ev):

   -61.9720 -36.2313 -36.0482 -35.9951 -13.7798 -13.3784  -5.8448  -5.2740
    -4.8036  -3.9313  -2.7956  -2.0619  -1.8516   0.6577   0.6876   2.8020
     3.0077   6.0835

          k = 0.0000 0.3464 0.0000 (  5098 PWs)   bands (ev):

   -61.9730 -36.2211 -36.0459 -35.9972 -13.8285 -13.4110  -5.8096  -5.1534
    -4.8656  -3.9116  -2.7316  -2.0800  -1.8156   0.6347   0.6464   2.7136
     2.9923   6.0035

          k = 0.0000 0.3349 0.0000 (  5092 PWs)   bands (ev):

   -61.9740 -36.2108 -36.0434 -35.9993 -13.8801 -13.4409  -5.7793  -5.0261
    -4.9253  -3.8929  -2.6695  -2.0960  -1.7767   0.5837   0.6348   2.6286
     2.9769   5.9152

          k = 0.0000 0.3233 0.0000 (  5080 PWs)   bands (ev):

   -61.9751 -36.2003 -36.0410 -36.0014 -13.9339 -13.4684  -5.7519  -5.0018
    -4.8742  -3.8757  -2.6108  -2.1093  -1.7350   0.5350   0.6231   2.5476
     2.9617   5.8246

          k = 0.0000 0.3118 0.0000 (  5077 PWs)   bands (ev):

   -61.9762 -36.1896 -36.0385 -36.0036 -13.9892 -13.4939  -5.7274  -5.0606
    -4.7321  -3.8603  -2.5568  -2.1194  -1.6904   0.4886   0.6108   2.4712
     2.9468   5.7342

          k = 0.0000 0.3002 0.0000 (  5085 PWs)   bands (ev):

   -61.9773 -36.1788 -36.0360 -36.0058 -14.0456 -13.5176  -5.7067  -5.1172
    -4.5830  -3.8471  -2.5084  -2.1260  -1.6436   0.4445   0.5975   2.4004
     2.9324   5.6450

          k = 0.0000 0.2887 0.0000 (  5093 PWs)   bands (ev):

   -61.9784 -36.1680 -36.0334 -36.0080 -14.1023 -13.5400  -5.6920  -5.1661
    -4.4298  -3.8363  -2.4663  -2.1284  -1.5948   0.4028   0.5828   2.3364
     2.9188   5.5576

          k = 0.0000 0.2771 0.0000 (  5101 PWs)   bands (ev):

   -61.9794 -36.1572 -36.0309 -36.0102 -14.1590 -13.5611  -5.6866  -5.2028
    -4.2738  -3.8281  -2.4307  -2.1262  -1.5451   0.3635   0.5667   2.2799
     2.9063   5.4725

          k = 0.0000 0.2656 0.0000 (  5105 PWs)   bands (ev):

   -61.9805 -36.1464 -36.0284 -36.0123 -14.2153 -13.5813  -5.6941  -5.2231
    -4.1156  -3.8228  -2.4019  -2.1192  -1.4954   0.3265   0.5486   2.2322
     2.8950   5.3899

          k = 0.0000 0.2540 0.0000 (  5105 PWs)   bands (ev):

   -61.9816 -36.1356 -36.0259 -36.0145 -14.2708 -13.6005  -5.7161  -5.2249
    -3.9560  -3.8203  -2.3796  -2.1069  -1.4466   0.2913   0.5285   2.1938
     2.8853   5.3099

          k = 0.0000 0.2425 0.0000 (  5099 PWs)   bands (ev):

   -61.9827 -36.1250 -36.0234 -36.0166 -14.3253 -13.6188  -5.7512  -5.2091
    -3.8207  -3.7955  -2.3636  -2.0894  -1.3997   0.2577   0.5057   2.1658
     2.8772   5.2326

          k = 0.0000 0.2309 0.0000 (  5097 PWs)   bands (ev):

   -61.9837 -36.1145 -36.0210 -36.0187 -14.3784 -13.6364  -5.7958  -5.1793
    -3.8238  -3.6349  -2.3535  -2.0665  -1.3556   0.2252   0.4802   2.1485
     2.8710   5.1581

          k = 0.0000 0.2194 0.0000 (  5095 PWs)   bands (ev):

   -61.9847 -36.1042 -36.0208 -36.0186 -14.4300 -13.6532  -5.8461  -5.1388
    -3.8297  -3.4750  -2.3490  -2.0384  -1.3149   0.1936   0.4515   2.1427
     2.8667   5.0866

          k = 0.0000 0.2078 0.0000 (  5093 PWs)   bands (ev):

   -61.9857 -36.0941 -36.0228 -36.0163 -14.4798 -13.6693  -5.8994  -5.0904
    -3.8379  -3.3169  -2.3491  -2.0052  -1.2779   0.1623   0.4198   2.1481
     2.8645   5.0179

          k = 0.0000 0.1963 0.0000 (  5089 PWs)   bands (ev):

   -61.9867 -36.0843 -36.0247 -36.0140 -14.5278 -13.6846  -5.9538  -5.0358
    -3.8482  -3.1621  -2.3526  -1.9672  -1.2448   0.1311   0.3845   2.1648
     2.8642   4.9523

          k = 0.0000 0.1848 0.0000 (  5093 PWs)   bands (ev):

   -61.9877 -36.0749 -36.0266 -36.0118 -14.5737 -13.6992  -6.0078  -4.9765
    -3.8602  -3.0135  -2.3571  -1.9246  -1.2156   0.0995   0.3458   2.1922
     2.8660   4.8897

          k = 0.0000 0.1732 0.0000 (  5091 PWs)   bands (ev):

   -61.9886 -36.0658 -36.0284 -36.0097 -14.6174 -13.7131  -6.0606  -4.9134
    -3.8736  -2.8765  -2.3576  -1.8777  -1.1899   0.0674   0.3037   2.2295
     2.8697   4.8302

          k = 0.0000 0.1617 0.0000 (  5073 PWs)   bands (ev):

   -61.9894 -36.0571 -36.0301 -36.0077 -14.6588 -13.7262  -6.1115  -4.8471
    -3.8878  -2.7621  -2.3430  -1.8268  -1.1676   0.0349   0.2584   2.2758
     2.8754   4.7737

          k = 0.0000 0.1501 0.0000 (  5081 PWs)   bands (ev):

   -61.9902 -36.0488 -36.0317 -36.0058 -14.6978 -13.7385  -6.1602  -4.7785
    -3.9028  -2.6885  -2.2959  -1.7727  -1.1485   0.0014   0.2098   2.3293
     2.8825   4.7204

          k = 0.0000 0.1386 0.0000 (  5083 PWs)   bands (ev):

   -61.9910 -36.0410 -36.0332 -36.0040 -14.7342 -13.7500  -6.2061  -4.7078
    -3.9180  -2.6635  -2.2082  -1.7155  -1.1321  -0.0329   0.1581   2.3891
     2.8909   4.6703

          k = 0.0000 0.1270 0.0000 (  5077 PWs)   bands (ev):

   -61.9917 -36.0353 -36.0331 -36.0023 -14.7681 -13.7607  -6.2491  -4.6357
    -3.9330  -2.6736  -2.0938  -1.6557  -1.1180  -0.0678   0.1038   2.4535
     2.9005   4.6234

          k = 0.0000 0.1155 0.0000 (  5077 PWs)   bands (ev):

   -61.9924 -36.0362 -36.0267 -36.0007 -14.7993 -13.7705  -6.2889  -4.5628
    -3.9479  -2.7032  -1.9684  -1.5940  -1.1060  -0.1037   0.0470   2.5209
     2.9108   4.5799

          k = 0.0000 0.1039 0.0000 (  5077 PWs)   bands (ev):

   -61.9930 -36.0374 -36.0205 -35.9993 -14.8277 -13.7795  -6.3253  -4.4896
    -3.9621  -2.7436  -1.8407  -1.5307  -1.0958  -0.1404  -0.0116   2.5894
     2.9215   4.5398

          k = 0.0000 0.0924 0.0000 (  5077 PWs)   bands (ev):

   -61.9936 -36.0385 -36.0149 -35.9980 -14.8532 -13.7876  -6.3583  -4.4170
    -3.9754  -2.7904  -1.7153  -1.4665  -1.0871  -0.1782  -0.0716   2.6575
     2.9323   4.5033

          k = 0.0000 0.0808 0.0000 (  5077 PWs)   bands (ev):

   -61.9941 -36.0395 -36.0099 -35.9969 -14.8759 -13.7947  -6.3875  -4.3458
    -3.9876  -2.8408  -1.5946  -1.4023  -1.0798  -0.2169  -0.1321   2.7234
     2.9428   4.4704

          k = 0.0000 0.0693 0.0000 (  5071 PWs)   bands (ev):

   -61.9945 -36.0403 -36.0054 -35.9958 -14.8957 -13.8010  -6.4131  -4.2772
    -3.9985  -2.8926  -1.4807  -1.3388  -1.0737  -0.2562  -0.1923   2.7853
     2.9528   4.4415

          k = 0.0000 0.0577 0.0000 (  5065 PWs)   bands (ev):

   -61.9948 -36.0411 -36.0017 -35.9950 -14.9125 -13.8063  -6.4349  -4.2126
    -4.0080  -2.9438  -1.3757  -1.2774  -1.0687  -0.2958  -0.2508   2.8416
     2.9618   4.4165

          k = 0.0000 0.0462 0.0000 (  5057 PWs)   bands (ev):

   -61.9951 -36.0417 -35.9986 -35.9943 -14.9263 -13.8107  -6.4527  -4.1539
    -4.0159  -2.9919  -1.2819  -1.2200  -1.0644  -0.3347  -0.3059   2.8904
     2.9696   4.3959

          k = 0.0000 0.0346 0.0000 (  5045 PWs)   bands (ev):

   -61.9954 -36.0421 -35.9961 -35.9937 -14.9370 -13.8141  -6.4666  -4.1035
    -4.0221  -3.0344  -1.2021  -1.1691  -1.0606  -0.3710  -0.3551   2.9304
     2.9760   4.3796

          k = 0.0000 0.0231 0.0000 (  5019 PWs)   bands (ev):

   -61.9955 -36.0425 -35.9944 -35.9933 -14.9447 -13.8165  -6.4766  -4.0641
    -4.0265  -3.0681  -1.1404  -1.1278  -1.0568  -0.4019  -0.3950   2.9602
     2.9808   4.3678

          k = 0.0000 0.0115 0.0000 (  5015 PWs)   bands (ev):

   -61.9956 -36.0427 -35.9933 -35.9931 -14.9493 -13.8180  -6.4826  -4.0389
    -4.0292  -3.0900  -1.1027  -1.1005  -1.0524  -0.4232  -0.4215   2.9784
     2.9836   4.3607

          k = 0.0000 0.0000 0.0000 (  5021 PWs)   bands (ev):

   -61.9957 -36.0427 -35.9930 -35.9930 -14.9509 -13.8185  -6.4846  -4.0302
    -4.0302  -3.0976  -1.0910  -1.0910  -1.0495  -0.4309  -0.4309   2.9846
     2.9846   4.3583

     Writing output data file ./outdir/MoS2.save/

     init_run     :      0.62s CPU      0.70s WALL (       1 calls)
     electrons    :     25.16s CPU     26.41s WALL (       1 calls)

     Called by init_run:
     wfcinit      :      0.00s CPU      0.00s WALL (       1 calls)
     wfcinit:atom :      0.02s CPU      0.02s WALL (     151 calls)
     wfcinit:wfcr :      0.88s CPU      0.97s WALL (     151 calls)
     potinit      :      0.04s CPU      0.05s WALL (       1 calls)
     hinit0       :      0.42s CPU      0.43s WALL (       1 calls)

     Called by electrons:
     c_bands      :     25.15s CPU     26.41s WALL (       1 calls)
     v_of_rho     :      0.04s CPU      0.04s WALL (       1 calls)
     v_h          :      0.00s CPU      0.00s WALL (       1 calls)
     v_xc         :      0.03s CPU      0.04s WALL (       1 calls)
     newd         :      0.13s CPU      0.19s WALL (       1 calls)

     Called by c_bands:
     init_us_2    :      0.03s CPU      0.03s WALL (     151 calls)
     cegterg      :     23.97s CPU     25.11s WALL (     317 calls)

     Called by sum_band:

     Called by *egterg:
     cdiaghg      :      2.48s CPU      2.57s WALL (    5661 calls)
     cegterg:over :      2.91s CPU      3.04s WALL (    5510 calls)
     cegterg:upda :      1.39s CPU      1.42s WALL (    5510 calls)
     cegterg:last :      3.74s CPU      3.82s WALL (    2598 calls)
     cdiaghg:chol :      0.21s CPU      0.23s WALL (    5661 calls)
     cdiaghg:inve :      0.05s CPU      0.05s WALL (    5661 calls)
     cdiaghg:para :      0.39s CPU      0.41s WALL (   11322 calls)
     h_psi        :     11.81s CPU     12.58s WALL (    5978 calls)
     s_psi        :      1.79s CPU      1.91s WALL (    5978 calls)
     g_psi        :      0.16s CPU      0.16s WALL (    5510 calls)

     Called by h_psi:
     h_psi:calbec :      2.27s CPU      2.47s WALL (    5978 calls)
     vloc_psi     :      7.69s CPU      8.11s WALL (    5978 calls)
     add_vuspsi   :      1.77s CPU      1.91s WALL (    5978 calls)

     General routines
     calbec       :      2.26s CPU      2.46s WALL (    5978 calls)
     fft          :      0.06s CPU      0.06s WALL (      13 calls)
     ffts         :      0.00s CPU      0.00s WALL (       1 calls)
     fftw         :      6.61s CPU      6.97s WALL (   97232 calls)
     interpolate  :      0.00s CPU      0.00s WALL (       1 calls)
     davcio       :      0.04s CPU      0.05s WALL (     302 calls)

     Parallel routines
     fft_scatt_xy :      0.85s CPU      0.90s WALL (   97246 calls)
     fft_scatt_yz :      2.36s CPU      2.50s WALL (   97246 calls)

     PWSCF        :     26.20s CPU     27.73s WALL


   This run was terminated on:  22:42:19  20Jan2023            

=------------------------------------------------------------------------------=
   JOB DONE.
=------------------------------------------------------------------------------=
