
     Program PWSCF v.6.7MaX starts on 18Jan2023 at 19:37: 6 

     This program is part of the open-source Quantum ESPRESSO suite
     for quantum simulation of materials; please cite
         "P. Giannozzi et al., J. Phys.:Condens. Matter 21 395502 (2009);
         "P. Giannozzi et al., J. Phys.:Condens. Matter 29 465901 (2017);
          URL http://www.quantum-espresso.org", 
     in publications or presentations arising from this work. More details at
     http://www.quantum-espresso.org/quote

     Parallel version (MPI), running on     8 processors

     MPI processes distributed on     1 nodes
     R & G space division:  proc/nbgrp/npool/nimage =       8
     Reading input from MoS2_2H.in

     Current dimensions of program PWSCF are:
     Max number of different atomic species (ntypx) = 10
     Max number of k-points (npk) =  40000
     Max angular momentum in pseudopotentials (lmaxx) =  3
     file Mo.pbe-spn-rrkjus_psl.1.0.0.UPF: wavefunction(s)  4S renormalized

     IMPORTANT: XC functional enforced from input :
     Exchange-correlation= PBE
                           (   1   4   3   4   0   0   0)
     Any further DFT definition will be discarded
     Please, verify this is what you really want


     Subspace diagonalization in iterative solution of the eigenvalue problem:
     one sub-group per band group will be used
     scalapack distributed-memory algorithm (size of sub-group:  2*  2 procs)


     Parallelization info
     --------------------
     sticks:   dense  smooth     PW     G-vecs:    dense   smooth      PW
     Min         126      50     15                20225     5095     875
     Max         128      52     16                20238     5098     902
     Sum        1015     409    121               161851    40773    7069



     bravais-lattice index     =           12
     lattice parameter (alat)  =       6.0471  a.u.
     unit-cell volume          =    1196.8981 (a.u.)^3
     number of atoms/cell      =            3
     number of atomic types    =            2
     number of electrons       =        26.00
     number of Kohn-Sham states=           18
     kinetic-energy cutoff     =      40.0000  Ry
     charge density cutoff     =     400.0000  Ry
     scf convergence threshold =      1.0E-06
     mixing beta               =       0.1000
     number of iterations used =            8  plain     mixing
     energy convergence thresh.=      1.0E-04
     force convergence thresh. =      1.0E-03
     Exchange-correlation= PBE
                           (   1   4   3   4   0   0   0)
     nstep                     =           50


     celldm(1)=   6.047124  celldm(2)=   1.000000  celldm(3)=   6.250000
     celldm(4)=   0.500000  celldm(5)=   0.000000  celldm(6)=   0.000000

     crystal axes: (cart. coord. in units of alat)
               a(1) = (   1.000000   0.000000   0.000000 )  
               a(2) = (   0.500000   0.866025   0.000000 )  
               a(3) = (   0.000000   0.000000   6.250000 )  

     reciprocal axes: (cart. coord. in units 2 pi/alat)
               b(1) = (  1.000000 -0.577350  0.000000 )  
               b(2) = (  0.000000  1.154701  0.000000 )  
               b(3) = (  0.000000  0.000000  0.160000 )  


     PseudoPot. # 1 for Mo read from file:
     /home/zronyj/Desktop/MoS2/pseudo/Mo.pbe-spn-rrkjus_psl.1.0.0.UPF
     MD5 check sum: 03f09b12e49601d1a456a78ce8b2d514
     Pseudo is Ultrasoft + core correction, Zval = 14.0
     Generated using &quot;atomic&quot; code by A. Dal Corso  v.6.3
     Using radial grid of 1229 points,  6 beta functions with: 
                l(1) =   0
                l(2) =   0
                l(3) =   1
                l(4) =   1
                l(5) =   2
                l(6) =   2
     Q(r) pseudized with 0 coefficients 


     PseudoPot. # 2 for S  read from file:
     /home/zronyj/Desktop/MoS2/pseudo/S.pbe-n-rrkjus_psl.1.0.0.UPF
     MD5 check sum: 9d0fe39aa2a799ea84730884c9b010f4
     Pseudo is Ultrasoft + core correction, Zval =  6.0
     Generated using &quot;atomic&quot; code by A. Dal Corso  v.6.3
     Using radial grid of 1151 points,  6 beta functions with: 
                l(1) =   0
                l(2) =   0
                l(3) =   1
                l(4) =   1
                l(5) =   2
                l(6) =   2
     Q(r) pseudized with 0 coefficients 


     atomic species   valence    mass     pseudopotential
        Mo            14.00    95.95000     Mo( 1.00)
        S              6.00    32.06500     S ( 1.00)

     12 Sym. Ops. (no inversion) found


                                    s                        frac. trans.

      isym =  1     identity                                     

 cryst.   s( 1) = (     1          0          0      )
                  (     0          1          0      )
                  (     0          0          1      )

 cart.    s( 1) = (  1.0000000  0.0000000  0.0000000 )
                  (  0.0000000  1.0000000  0.0000000 )
                  (  0.0000000  0.0000000  1.0000000 )


      isym =  2     180 deg rotation - cart. axis [0,1,0]        

 cryst.   s( 2) = (    -1          0          0      )
                  (    -1          1          0      )
                  (     0          0         -1      )

 cart.    s( 2) = ( -1.0000000  0.0000000  0.0000000 )
                  (  0.0000000  1.0000000  0.0000000 )
                  (  0.0000000  0.0000000 -1.0000000 )


      isym =  3     120 deg rotation - cryst. axis [0,0,1]       

 cryst.   s( 3) = (    -1          1          0      )
                  (    -1          0          0      )
                  (     0          0          1      )

 cart.    s( 3) = ( -0.5000000 -0.8660254  0.0000000 )
                  (  0.8660254 -0.5000000  0.0000000 )
                  (  0.0000000  0.0000000  1.0000000 )


      isym =  4     120 deg rotation - cryst. axis [0,0,-1]      

 cryst.   s( 4) = (     0         -1          0      )
                  (     1         -1          0      )
                  (     0          0          1      )

 cart.    s( 4) = ( -0.5000000  0.8660254  0.0000000 )
                  ( -0.8660254 -0.5000000  0.0000000 )
                  (  0.0000000  0.0000000  1.0000000 )


      isym =  5     180 deg rotation - cryst. axis [1,-1,0]      

 cryst.   s( 5) = (     1         -1          0      )
                  (     0         -1          0      )
                  (     0          0         -1      )

 cart.    s( 5) = (  0.5000000 -0.8660254  0.0000000 )
                  ( -0.8660254 -0.5000000  0.0000000 )
                  (  0.0000000  0.0000000 -1.0000000 )


      isym =  6     180 deg rotation - cryst. axis [2,1,0]       

 cryst.   s( 6) = (     0          1          0      )
                  (     1          0          0      )
                  (     0          0         -1      )

 cart.    s( 6) = (  0.5000000  0.8660254  0.0000000 )
                  (  0.8660254 -0.5000000  0.0000000 )
                  (  0.0000000  0.0000000 -1.0000000 )


      isym =  7     inv. 180 deg rotation - cart. axis [0,0,1]   

 cryst.   s( 7) = (     1          0          0      )
                  (     0          1          0      )
                  (     0          0         -1      )

 cart.    s( 7) = (  1.0000000  0.0000000  0.0000000 )
                  (  0.0000000  1.0000000  0.0000000 )
                  (  0.0000000  0.0000000 -1.0000000 )


      isym =  8     inv. 180 deg rotation - cart. axis [1,0,0]   

 cryst.   s( 8) = (    -1          0          0      )
                  (    -1          1          0      )
                  (     0          0          1      )

 cart.    s( 8) = ( -1.0000000  0.0000000  0.0000000 )
                  (  0.0000000  1.0000000  0.0000000 )
                  (  0.0000000  0.0000000  1.0000000 )


      isym =  9     inv.  60 deg rotation - cryst. axis [0,0,1]  

 cryst.   s( 9) = (     0         -1          0      )
                  (     1         -1          0      )
                  (     0          0         -1      )

 cart.    s( 9) = ( -0.5000000  0.8660254  0.0000000 )
                  ( -0.8660254 -0.5000000  0.0000000 )
                  (  0.0000000  0.0000000 -1.0000000 )


      isym = 10     inv.  60 deg rotation - cryst. axis [0,0,-1] 

 cryst.   s(10) = (    -1          1          0      )
                  (    -1          0          0      )
                  (     0          0         -1      )

 cart.    s(10) = ( -0.5000000 -0.8660254  0.0000000 )
                  (  0.8660254 -0.5000000  0.0000000 )
                  (  0.0000000  0.0000000 -1.0000000 )


      isym = 11     inv. 180 deg rotation - cryst. axis [0,1,0]  

 cryst.   s(11) = (     0          1          0      )
                  (     1          0          0      )
                  (     0          0          1      )

 cart.    s(11) = (  0.5000000  0.8660254  0.0000000 )
                  (  0.8660254 -0.5000000  0.0000000 )
                  (  0.0000000  0.0000000  1.0000000 )


      isym = 12     inv. 180 deg rotation - cryst. axis [1,1,0]  

 cryst.   s(12) = (     1         -1          0      )
                  (     0         -1          0      )
                  (     0          0          1      )

 cart.    s(12) = (  0.5000000 -0.8660254  0.0000000 )
                  ( -0.8660254 -0.5000000  0.0000000 )
                  (  0.0000000  0.0000000  1.0000000 )


     point group D_3h (-62m)
     there are  6 classes
     the character table:

       E     2C3   3C2   s_h   2S3   3s_v 
A'_1   1.00  1.00  1.00  1.00  1.00  1.00
A'_2   1.00  1.00 -1.00  1.00  1.00 -1.00
E'     2.00 -1.00  0.00  2.00 -1.00  0.00
A''1   1.00  1.00  1.00 -1.00 -1.00 -1.00
A''2   1.00  1.00 -1.00 -1.00 -1.00  1.00
E''    2.00 -1.00  0.00 -2.00  1.00  0.00

     the symmetry operations in each class and the name of the first element:

     E        1
          identity                                               
     2C3      3    4
          120 deg rotation - cryst. axis [0,0,1]                 
     3C2      2    6    5
          180 deg rotation - cart. axis [0,1,0]                  
     s_h      7
          inv. 180 deg rotation - cart. axis [0,0,1]             
     2S3      9   10
          inv.  60 deg rotation - cryst. axis [0,0,1]            
     3s_v     8   11   12
          inv. 180 deg rotation - cart. axis [1,0,0]             

   Cartesian axes

     site n.     atom                  positions (alat units)
         1           Mo  tau(   1) = (   0.0000000   0.0000000   3.1250000  )
         2           S   tau(   2) = (   1.0000000   0.5773503   3.4375000  )
         3           S   tau(   3) = (   1.0000000   0.5773503   2.8125000  )

   Crystallographic axes

     site n.     atom                  positions (cryst. coord.)
         1           Mo  tau(   1) = (  0.0000000  0.0000000  0.5000000  )
         2           S   tau(   2) = (  0.6666667  0.6666667  0.5500000  )
         3           S   tau(   3) = (  0.6666667  0.6666667  0.4500000  )

     number of k points=     7  Marzari-Vanderbilt smearing, width (Ry)=  0.0001
                       cart. coord. in units 2pi/alat
        k(    1) = (   0.0000000   0.0000000   0.0000000), wk =   0.0555556
        k(    2) = (   0.0000000   0.1924501   0.0000000), wk =   0.3333333
        k(    3) = (   0.0000000   0.3849002   0.0000000), wk =   0.3333333
        k(    4) = (   0.0000000  -0.5773503   0.0000000), wk =   0.1666667
        k(    5) = (   0.1666667   0.2886751   0.0000000), wk =   0.3333333
        k(    6) = (   0.1666667  -0.6735753   0.0000000), wk =   0.6666667
        k(    7) = (   0.3333333  -0.5773503   0.0000000), wk =   0.1111111

                       cryst. coord.
        k(    1) = (   0.0000000   0.0000000   0.0000000), wk =   0.0555556
        k(    2) = (   0.0000000   0.1666667   0.0000000), wk =   0.3333333
        k(    3) = (   0.0000000   0.3333333   0.0000000), wk =   0.3333333
        k(    4) = (   0.0000000  -0.5000000   0.0000000), wk =   0.1666667
        k(    5) = (   0.1666667   0.3333333   0.0000000), wk =   0.3333333
        k(    6) = (   0.1666667  -0.5000000   0.0000000), wk =   0.6666667
        k(    7) = (   0.3333333  -0.3333333   0.0000000), wk =   0.1111111

     Dense  grid:   161851 G-vectors     FFT dimensions: (  40,  40, 243)

     Smooth grid:    40773 G-vectors     FFT dimensions: (  25,  25, 160)

     Dynamical RAM for                 wfc:       0.18 MB

     Dynamical RAM for     wfc (w. buffer):       1.40 MB

     Dynamical RAM for           str. fact:       0.62 MB

     Dynamical RAM for           local pot:       0.00 MB

     Dynamical RAM for          nlocal pot:       0.53 MB

     Dynamical RAM for                qrad:       3.21 MB

     Dynamical RAM for          rho,v,vnew:       2.06 MB

     Dynamical RAM for               rhoin:       0.69 MB

     Dynamical RAM for            rho*nmix:       4.94 MB

     Dynamical RAM for           G-vectors:       1.20 MB

     Dynamical RAM for          h,s,v(r/c):       0.01 MB

     Dynamical RAM for          <psi|beta>:       0.01 MB

     Dynamical RAM for                 psi:       0.35 MB

     Dynamical RAM for                hpsi:       0.35 MB

     Dynamical RAM for                spsi:       0.35 MB

     Dynamical RAM for      wfcinit/wfcrot:       0.36 MB

     Dynamical RAM for           addusdens:      58.06 MB

     Dynamical RAM for          addusforce:      58.84 MB

     Estimated static dynamical RAM per process >      17.46 MB

     Estimated max dynamical RAM per process >      76.30 MB

     Estimated total dynamical RAM >     610.40 MB

     Initial potential from superposition of free atoms

     starting charge   25.99905, renormalised to   26.00000

     negative rho (up, down):  5.823E-05 0.000E+00
     Starting wfcs are   18 randomized atomic wfcs

     total cpu time spent up to now is        1.0 secs

     Self-consistent Calculation

     iteration #  1     ecut=    40.00 Ry     beta= 0.10
     Davidson diagonalization with overlap
     ethr =  1.00E-02,  avg # of iterations =  4.3

     negative rho (up, down):  3.747E-05 0.000E+00

     total cpu time spent up to now is        1.7 secs

     total energy              =    -181.01244799 Ry
     estimated scf accuracy    <       0.33106880 Ry

     iteration #  2     ecut=    40.00 Ry     beta= 0.10
     Davidson diagonalization with overlap
     ethr =  1.27E-03,  avg # of iterations =  1.7

     negative rho (up, down):  1.713E-04 0.000E+00

     total cpu time spent up to now is        2.3 secs

     total energy              =    -180.96428595 Ry
     estimated scf accuracy    <       0.17634353 Ry

     iteration #  3     ecut=    40.00 Ry     beta= 0.10
     Davidson diagonalization with overlap
     ethr =  6.78E-04,  avg # of iterations =  3.7

     negative rho (up, down):  1.555E-04 0.000E+00

     total cpu time spent up to now is        2.9 secs

     total energy              =    -180.99187867 Ry
     estimated scf accuracy    <       0.03419729 Ry

     iteration #  4     ecut=    40.00 Ry     beta= 0.10
     Davidson diagonalization with overlap
     ethr =  1.32E-04,  avg # of iterations =  1.7

     negative rho (up, down):  5.963E-04 0.000E+00

     total cpu time spent up to now is        3.5 secs

     total energy              =    -180.98507561 Ry
     estimated scf accuracy    <       0.02138367 Ry

     iteration #  5     ecut=    40.00 Ry     beta= 0.10
     Davidson diagonalization with overlap
     ethr =  8.22E-05,  avg # of iterations =  3.9

     negative rho (up, down):  4.766E-04 0.000E+00

     total cpu time spent up to now is        4.1 secs

     total energy              =    -180.98563345 Ry
     estimated scf accuracy    <       0.01060654 Ry

     iteration #  6     ecut=    40.00 Ry     beta= 0.10
     Davidson diagonalization with overlap
     ethr =  4.08E-05,  avg # of iterations =  4.1

     negative rho (up, down):  4.863E-04 0.000E+00

     total cpu time spent up to now is        4.8 secs

     total energy              =    -180.98770145 Ry
     estimated scf accuracy    <       0.01043835 Ry

     iteration #  7     ecut=    40.00 Ry     beta= 0.10
     Davidson diagonalization with overlap
     ethr =  4.01E-05,  avg # of iterations =  3.1

     negative rho (up, down):  5.612E-04 0.000E+00

     total cpu time spent up to now is        5.4 secs

     total energy              =    -180.98795982 Ry
     estimated scf accuracy    <       0.00204395 Ry

     iteration #  8     ecut=    40.00 Ry     beta= 0.10
     Davidson diagonalization with overlap
     ethr =  7.86E-06,  avg # of iterations =  3.0

     negative rho (up, down):  5.158E-04 0.000E+00

     total cpu time spent up to now is        6.0 secs

     total energy              =    -180.98848377 Ry
     estimated scf accuracy    <       0.00023575 Ry

     iteration #  9     ecut=    40.00 Ry     beta= 0.10
     Davidson diagonalization with overlap
     ethr =  9.07E-07,  avg # of iterations =  3.1

     negative rho (up, down):  4.798E-04 0.000E+00

     total cpu time spent up to now is        6.6 secs

     total energy              =    -180.98833808 Ry
     estimated scf accuracy    <       0.00043256 Ry

     iteration # 10     ecut=    40.00 Ry     beta= 0.10
     Davidson diagonalization with overlap
     ethr =  9.07E-07,  avg # of iterations =  2.0

     negative rho (up, down):  4.298E-04 0.000E+00

     total cpu time spent up to now is        7.2 secs

     total energy              =    -180.98839912 Ry
     estimated scf accuracy    <       0.00001022 Ry

     iteration # 11     ecut=    40.00 Ry     beta= 0.10
     Davidson diagonalization with overlap
     ethr =  3.93E-08,  avg # of iterations =  3.0

     negative rho (up, down):  3.862E-04 0.000E+00

     total cpu time spent up to now is        7.8 secs

     total energy              =    -180.98840090 Ry
     estimated scf accuracy    <       0.00000391 Ry

     iteration # 12     ecut=    40.00 Ry     beta= 0.10
     Davidson diagonalization with overlap
     ethr =  1.50E-08,  avg # of iterations =  2.0

     negative rho (up, down):  5.119E-05 0.000E+00

     total cpu time spent up to now is        8.4 secs

     End of self-consistent calculation

          k = 0.0000 0.0000 0.0000 (  5021 PWs)   bands (ev):

   -60.8501 -35.4365 -35.4365 -35.0817 -18.8516 -12.6373  -8.4367  -7.9517
    -7.9517  -4.2658  -4.2658   0.5254   1.8919   2.2828   2.2828   2.9069
     4.6387   4.6388

     occupation numbers 
     1.0000   1.0000   1.0000   1.0000   1.0000   1.0000   1.0000   1.0000
     1.0000   1.0000   1.0000   0.0000   0.0000   0.0000   0.0000   0.0000
     0.0000   0.0000

          k = 0.0000 0.1925 0.0000 (  5093 PWs)   bands (ev):

   -60.8355 -35.6205 -35.4724 -35.0518 -18.3878 -12.7688  -8.7038  -7.5620
    -7.3458  -4.7711  -4.5572   0.5524   0.7935   2.5808   3.3437   3.5705
     3.6310   4.3826

     occupation numbers 
     1.0000   1.0000   1.0000   1.0000   1.0000   1.0000   1.0000   1.0000
     1.0000   1.0000   1.0000   0.0000   0.0000   0.0000   0.0000   0.0000
     0.0000   0.0000

          k = 0.0000 0.3849 0.0000 (  5126 PWs)   bands (ev):

   -60.8061 -35.9698 -35.5434 -34.9913 -17.5039 -13.0307  -8.7667  -6.5821
    -5.8079  -5.5353  -5.0368  -1.4115   0.1632   1.8356   2.0773   4.3757
     5.3569   5.7408

     occupation numbers 
     1.0000   1.0000   1.0000   1.0000   1.0000   1.0000   1.0000   1.0000
     1.0000   1.0000   1.0000   1.0000   1.0000   0.0000   0.0000   0.0000
     0.0000   0.0000

          k = 0.0000-0.5774 0.0000 (  5128 PWs)   bands (ev):

   -60.7913 -36.1362 -35.5784 -34.9608 -17.1007 -13.1608  -8.3330  -6.3308
    -5.8456  -5.2590  -4.6878  -1.6838   0.0550   0.1155   0.6976   5.1684
     6.3493   6.4665

     occupation numbers 
     1.0000   1.0000   1.0000   1.0000   1.0000   1.0000   1.0000   1.0000
     1.0000   1.0000   1.0000   1.0000   1.0000   1.0000   0.0000   0.0000
     0.0000   0.0000

          k = 0.1667 0.2887 0.0000 (  5102 PWs)   bands (ev):

   -60.8134 -35.8566 -35.5556 -35.0065 -17.7034 -12.9492  -8.7833  -6.9896
    -6.1659  -5.9407  -4.2777  -0.9416   0.4329   1.7349   2.9966   3.1198
     5.4383   5.4971

     occupation numbers 
     1.0000   1.0000   1.0000   1.0000   1.0000   1.0000   1.0000   1.0000
     1.0000   1.0000   1.0000   1.0000   0.5000   0.0000   0.0000   0.0000
     0.0000   0.0000

          k = 0.1667-0.6736 0.0000 (  5131 PWs)   bands (ev):

   -60.7913 -36.0651 -35.6565 -34.9609 -17.0449 -13.0976  -8.1696  -6.9745
    -6.2586  -5.0943  -3.8223  -2.3986  -0.4414  -0.0167   2.2971   4.4992
     6.5186   6.5515

     occupation numbers 
     1.0000   1.0000   1.0000   1.0000   1.0000   1.0000   1.0000   1.0000
     1.0000   1.0000   1.0000   1.0000   1.0000   1.0000   0.0000   0.0000
     0.0000   0.0000

          k = 0.3333-0.5774 0.0000 (  5172 PWs)   bands (ev):

   -60.7839 -36.0453 -35.7834 -34.9457 -16.7881 -13.0807  -7.7112  -6.7698
    -6.4203  -5.9315  -2.7958  -2.5994  -1.5956  -0.5553   3.2725   4.8925
     5.7073   6.7524

     occupation numbers 
     1.0000   1.0000   1.0000   1.0000   1.0000   1.0000   1.0000   1.0000
     1.0000   1.0000   1.0000   1.0000   1.0000   1.0000   0.0000   0.0000
     0.0000   0.0000

     the Fermi energy is     0.4331 ev

!    total energy              =    -180.98840283 Ry
     estimated scf accuracy    <       0.00000033 Ry
     smearing contrib. (-TS)   =      -0.00000547 Ry
     internal energy E=F+TS    =    -180.98839736 Ry

     The total energy is F=E-TS. E is the sum of the following terms:
     one-electron contribution =   -1253.35206029 Ry
     hartree contribution      =     627.10125997 Ry
     xc contribution           =     -30.81254771 Ry
     ewald contribution        =     476.07495068 Ry

     convergence has been achieved in  12 iterations

     negative rho (up, down):  5.119E-05 0.000E+00

     Forces acting on atoms (cartesian axes, Ry/au):

     atom    1 type  1   force =    -0.00000000    0.00000000    0.00000000
     atom    2 type  2   force =     0.00000000   -0.00000000    0.54524993
     atom    3 type  2   force =     0.00000000   -0.00000000   -0.54524993
     The non-local contrib.  to forces
     atom    1 type  1   force =     0.00000000    0.00000000    0.00000000
     atom    2 type  2   force =    -0.00000000    0.00000000   -0.15423764
     atom    3 type  2   force =     0.00000000    0.00000000    0.15423764
     The ionic contribution  to forces
     atom    1 type  1   force =    -0.00000005   -0.00000003   -0.00000000
     atom    2 type  2   force =     0.00000002    0.00000001   34.63553153
     atom    3 type  2   force =     0.00000002    0.00000001  -34.63553153
     The local contribution  to forces
     atom    1 type  1   force =     0.00000000    0.00000000    0.00000000
     atom    2 type  2   force =     0.00000001    0.00000001  -33.93056002
     atom    3 type  2   force =     0.00000001    0.00000001   33.93056002
     The core correction contribution to forces
     atom    1 type  1   force =     0.00000000    0.00000000   -0.00000000
     atom    2 type  2   force =    -0.00000000   -0.00000000   -0.00614377
     atom    3 type  2   force =    -0.00000000   -0.00000000    0.00614377
     The Hubbard contrib.    to forces
     atom    1 type  1   force =     0.00000000    0.00000000    0.00000000
     atom    2 type  2   force =     0.00000000    0.00000000    0.00000000
     atom    3 type  2   force =     0.00000000    0.00000000    0.00000000
     The SCF correction term to forces
     atom    1 type  1   force =     0.00000000    0.00000000   -0.00000000
     atom    2 type  2   force =    -0.00000000   -0.00000000    0.00065984
     atom    3 type  2   force =    -0.00000000   -0.00000000   -0.00065984

     Total force =     0.771100     Total SCF correction =     0.000933

     BFGS Geometry Optimization
     Energy error            =      0.0E+00
     Gradient error          =      5.5E-01

     number of scf cycles    =   1
     number of bfgs steps    =   0

     energy   new            =    -180.9884028272 Ry

     new trust radius        =       0.5000000000 bohr
     new conv_thr            =       0.0000010000 Ry


ATOMIC_POSITIONS (crystal)
Mo            0.0000000000        0.0000000000        0.5000000000    0   0   0
S             0.6666666660        0.6666666660        0.5632294303    0   0   1
S             0.6666666660        0.6666666660        0.4367705697    0   0   1



     Writing output data file ./outdir/MoS2.save/
     NEW-OLD atomic charge density approx. for the potential

     negative rho (up, down):  5.556E-05 0.000E+00

     total cpu time spent up to now is        9.6 secs

     Self-consistent Calculation

     iteration #  1     ecut=    40.00 Ry     beta= 0.10
     Davidson diagonalization with overlap
     c_bands:  1 eigenvalues not converged
     ethr =  1.00E-06,  avg # of iterations = 13.3

     negative rho (up, down):  5.329E-05 0.000E+00

     total cpu time spent up to now is       10.7 secs

     total energy              =    -181.42744056 Ry
     estimated scf accuracy    <       0.20662546 Ry

     iteration #  2     ecut=    40.00 Ry     beta= 0.10
     Davidson diagonalization with overlap
     ethr =  7.95E-04,  avg # of iterations =  1.0

     negative rho (up, down):  5.421E-05 0.000E+00

     total cpu time spent up to now is       11.3 secs

     total energy              =    -181.41475601 Ry
     estimated scf accuracy    <       0.06122011 Ry

     iteration #  3     ecut=    40.00 Ry     beta= 0.10
     Davidson diagonalization with overlap
     ethr =  2.35E-04,  avg # of iterations =  2.0

     negative rho (up, down):  5.896E-05 0.000E+00

     total cpu time spent up to now is       11.9 secs

     total energy              =    -181.42376756 Ry
     estimated scf accuracy    <       0.00423000 Ry

     iteration #  4     ecut=    40.00 Ry     beta= 0.10
     Davidson diagonalization with overlap
     ethr =  1.63E-05,  avg # of iterations =  2.3

     negative rho (up, down):  1.110E-04 0.000E+00

     total cpu time spent up to now is       12.5 secs

     total energy              =    -181.42369624 Ry
     estimated scf accuracy    <       0.00234904 Ry

     iteration #  5     ecut=    40.00 Ry     beta= 0.10
     Davidson diagonalization with overlap
     ethr =  9.03E-06,  avg # of iterations =  2.0

     negative rho (up, down):  9.959E-05 0.000E+00

     total cpu time spent up to now is       13.0 secs

     total energy              =    -181.42384962 Ry
     estimated scf accuracy    <       0.00011316 Ry

     iteration #  6     ecut=    40.00 Ry     beta= 0.10
     Davidson diagonalization with overlap
     ethr =  4.35E-07,  avg # of iterations =  2.7

     negative rho (up, down):  1.016E-04 0.000E+00

     total cpu time spent up to now is       13.6 secs

     total energy              =    -181.42384007 Ry
     estimated scf accuracy    <       0.00008061 Ry

     iteration #  7     ecut=    40.00 Ry     beta= 0.10
     Davidson diagonalization with overlap
     ethr =  3.10E-07,  avg # of iterations =  2.0

     negative rho (up, down):  9.404E-05 0.000E+00

     total cpu time spent up to now is       14.2 secs

     total energy              =    -181.42385268 Ry
     estimated scf accuracy    <       0.00000992 Ry

     iteration #  8     ecut=    40.00 Ry     beta= 0.10
     Davidson diagonalization with overlap
     ethr =  3.82E-08,  avg # of iterations =  1.9

     negative rho (up, down):  8.649E-05 0.000E+00

     total cpu time spent up to now is       14.8 secs

     total energy              =    -181.42385253 Ry
     estimated scf accuracy    <       0.00000191 Ry

     iteration #  9     ecut=    40.00 Ry     beta= 0.10
     Davidson diagonalization with overlap
     ethr =  7.35E-09,  avg # of iterations =  2.1

     negative rho (up, down):  4.210E-05 0.000E+00

     total cpu time spent up to now is       15.4 secs

     End of self-consistent calculation

          k = 0.0000 0.0000 0.0000 (  5021 PWs)   bands (ev):

   -62.0339 -36.2381 -36.2156 -36.2156 -16.6370 -13.6684  -7.7884  -5.9623
    -5.9623  -4.0366  -4.0366  -1.7561   0.0672   1.6009   1.6009   2.8364
     2.8364   4.4435

     occupation numbers 
     1.0000   1.0000   1.0000   1.0000   1.0000   1.0000   1.0000   1.0000
     1.0000   1.0000   1.0000   1.0000   0.0000   0.0000   0.0000   0.0000
     0.0000   0.0000

          k = 0.0000 0.1925 0.0000 (  5093 PWs)   bands (ev):

   -62.0232 -36.3350 -36.2414 -36.2146 -16.2166 -13.6539  -7.5856  -6.2692
    -5.4559  -4.7288  -4.5608  -1.4239  -0.6824   1.5760   2.1743   2.1865
     2.4732   4.9868

     occupation numbers 
     1.0000   1.0000   1.0000   1.0000   1.0000   1.0000   1.0000   1.0000
     1.0000   1.0000   1.0000   1.0000   0.8333   0.0000   0.0000   0.0000
     0.0000   0.0000

          k = 0.0000 0.3849 0.0000 (  5126 PWs)   bands (ev):

   -62.0017 -36.5665 -36.2924 -36.1672 -15.3296 -13.6249  -7.7767  -5.8568
    -5.6303  -5.3398  -4.2271  -2.1737  -1.7736   1.1138   1.6933   2.8312
     3.8762   5.8815

     occupation numbers 
     1.0000   1.0000   1.0000   1.0000   1.0000   1.0000   1.0000   1.0000
     1.0000   1.0000   1.0000   1.0000   1.0000   0.0000   0.0000   0.0000
     0.0000   0.0000

          k = 0.0000-0.5774 0.0000 (  5128 PWs)   bands (ev):

   -61.9909 -36.6789 -36.3177 -36.1434 -14.8610 -13.6102  -7.7596  -6.0058
    -5.9896  -5.6536  -3.4133  -1.9803  -1.9620   0.5486   0.9116   3.4739
     4.4297   5.4285

     occupation numbers 
     1.0000   1.0000   1.0000   1.0000   1.0000   1.0000   1.0000   1.0000
     1.0000   1.0000   1.0000   1.0000   1.0000   0.0000   0.0000   0.0000
     0.0000   0.0000

          k = 0.1667 0.2887 0.0000 (  5102 PWs)   bands (ev):

   -62.0071 -36.4886 -36.3013 -36.1791 -15.5543 -13.6229  -7.6123  -6.0248
    -5.8455  -4.7957  -4.6703  -1.9385  -1.3837   1.2121   1.7883   1.9160
     3.9709   5.8500

     occupation numbers 
     1.0000   1.0000   1.0000   1.0000   1.0000   1.0000   1.0000   1.0000
     1.0000   1.0000   1.0000   1.0000   1.0000   0.0000   0.0000   0.0000
     0.0000   0.0000

          k = 0.1667-0.6736 0.0000 (  5131 PWs)   bands (ev):

   -61.9909 -36.6244 -36.3751 -36.1434 -14.8504 -13.5690  -7.4535  -6.9506
    -5.7203  -4.5767  -4.2643  -2.4624  -1.9297   0.2873   1.7198   2.9806
     4.4417   6.2464

     occupation numbers 
     1.0000   1.0000   1.0000   1.0000   1.0000   1.0000   1.0000   1.0000
     1.0000   1.0000   1.0000   1.0000   1.0000   0.0000   0.0000   0.0000
     0.0000   0.0000

          k = 0.3333-0.5774 0.0000 (  5172 PWs)   bands (ev):

   -61.9855 -36.5890 -36.4823 -36.1315 -14.6000 -13.5050  -7.6405  -6.2625
    -6.0189  -5.4571  -3.8158  -2.3957  -1.9716  -0.9384   2.8160   3.2030
     4.4894   5.8350

     occupation numbers 
     1.0000   1.0000   1.0000   1.0000   1.0000   1.0000   1.0000   1.0000
     1.0000   1.0000   1.0000   1.0000   1.0000   1.0000   0.0000   0.0000
     0.0000   0.0000

     the Fermi energy is    -0.6816 ev

!    total energy              =    -181.42385306 Ry
     estimated scf accuracy    <       0.00000054 Ry
     smearing contrib. (-TS)   =      -0.00000143 Ry
     internal energy E=F+TS    =    -181.42385164 Ry

     The total energy is F=E-TS. E is the sum of the following terms:
     one-electron contribution =   -1184.27467742 Ry
     hartree contribution      =     592.01393582 Ry
     xc contribution           =     -30.18127524 Ry
     ewald contribution        =     441.01816519 Ry

     convergence has been achieved in   9 iterations

     negative rho (up, down):  4.210E-05 0.000E+00

     Forces acting on atoms (cartesian axes, Ry/au):

     atom    1 type  1   force =     0.00000000   -0.00000000    0.00000000
     atom    2 type  2   force =     0.00000000    0.00000000    0.28988208
     atom    3 type  2   force =     0.00000000    0.00000000   -0.28988208
     The non-local contrib.  to forces
     atom    1 type  1   force =     0.00000000    0.00000000    0.00000000
     atom    2 type  2   force =     0.00000000    0.00000000   -0.16732674
     atom    3 type  2   force =     0.00000000   -0.00000000    0.16732674
     The ionic contribution  to forces
     atom    1 type  1   force =    -0.00000003   -0.00000002    0.00000000
     atom    2 type  2   force =     0.00000001    0.00000001   35.39352689
     atom    3 type  2   force =     0.00000001    0.00000001  -35.39352689
     The local contribution  to forces
     atom    1 type  1   force =    -0.00000000   -0.00000000    0.00000000
     atom    2 type  2   force =     0.00000002    0.00000001  -34.93308822
     atom    3 type  2   force =     0.00000002    0.00000001   34.93308822
     The core correction contribution to forces
     atom    1 type  1   force =    -0.00000000   -0.00000000   -0.00000000
     atom    2 type  2   force =    -0.00000000   -0.00000000   -0.00192020
     atom    3 type  2   force =    -0.00000000   -0.00000000    0.00192020
     The Hubbard contrib.    to forces
     atom    1 type  1   force =     0.00000000    0.00000000    0.00000000
     atom    2 type  2   force =     0.00000000    0.00000000    0.00000000
     atom    3 type  2   force =     0.00000000    0.00000000    0.00000000
     The SCF correction term to forces
     atom    1 type  1   force =    -0.00000000   -0.00000000    0.00000000
     atom    2 type  2   force =     0.00000000    0.00000000   -0.00130965
     atom    3 type  2   force =     0.00000000    0.00000000    0.00130965

     Total force =     0.409955     Total SCF correction =     0.001852
     Energy error            =      4.4E-01
     Gradient error          =      2.9E-01

     number of scf cycles    =   2
     number of bfgs steps    =   1

     energy   old            =    -180.9884028272 Ry
     energy   new            =    -181.4238530632 Ry

     CASE: energy  _new < energy  _old

     new trust radius        =       0.5675774807 bohr
     new conv_thr            =       0.0000010000 Ry


ATOMIC_POSITIONS (crystal)
Mo            0.0000000000        0.0000000000        0.5000000000    0   0   0
S             0.6666666660        0.6666666660        0.5782468837    0   0   1
S             0.6666666660        0.6666666660        0.4217531163    0   0   1



     Writing output data file ./outdir/MoS2.save/
     NEW-OLD atomic charge density approx. for the potential

     negative rho (up, down):  4.828E-05 0.000E+00

     total cpu time spent up to now is       16.7 secs

     Self-consistent Calculation

     iteration #  1     ecut=    40.00 Ry     beta= 0.10
     Davidson diagonalization with overlap
     ethr =  1.00E-06,  avg # of iterations = 12.6

     negative rho (up, down):  4.692E-05 0.000E+00

     total cpu time spent up to now is       17.7 secs

     total energy              =    -181.57346783 Ry
     estimated scf accuracy    <       0.03550256 Ry

     iteration #  2     ecut=    40.00 Ry     beta= 0.10
     Davidson diagonalization with overlap
     ethr =  1.37E-04,  avg # of iterations =  1.0

     negative rho (up, down):  4.787E-05 0.000E+00

     total cpu time spent up to now is       18.3 secs

     total energy              =    -181.57290350 Ry
     estimated scf accuracy    <       0.01216334 Ry

     iteration #  3     ecut=    40.00 Ry     beta= 0.10
     Davidson diagonalization with overlap
     ethr =  4.68E-05,  avg # of iterations =  1.0

     negative rho (up, down):  1.174E-04 0.000E+00

     total cpu time spent up to now is       18.9 secs

     total energy              =    -181.57202987 Ry
     estimated scf accuracy    <       0.00551165 Ry

     iteration #  4     ecut=    40.00 Ry     beta= 0.10
     Davidson diagonalization with overlap
     ethr =  2.12E-05,  avg # of iterations =  2.0

     negative rho (up, down):  1.255E-04 0.000E+00

     total cpu time spent up to now is       19.5 secs

     total energy              =    -181.57252444 Ry
     estimated scf accuracy    <       0.00056892 Ry

     iteration #  5     ecut=    40.00 Ry     beta= 0.10
     Davidson diagonalization with overlap
     ethr =  2.19E-06,  avg # of iterations =  4.3

     negative rho (up, down):  1.381E-04 0.000E+00

     total cpu time spent up to now is       20.1 secs

     total energy              =    -181.57254516 Ry
     estimated scf accuracy    <       0.00029827 Ry

     iteration #  6     ecut=    40.00 Ry     beta= 0.10
     Davidson diagonalization with overlap
     ethr =  1.15E-06,  avg # of iterations =  2.0

     negative rho (up, down):  1.253E-04 0.000E+00

     total cpu time spent up to now is       20.7 secs

     total energy              =    -181.57260549 Ry
     estimated scf accuracy    <       0.00008362 Ry

     iteration #  7     ecut=    40.00 Ry     beta= 0.10
     Davidson diagonalization with overlap
     ethr =  3.22E-07,  avg # of iterations =  1.0

     negative rho (up, down):  1.158E-04 0.000E+00

     total cpu time spent up to now is       21.2 secs

     total energy              =    -181.57257731 Ry
     estimated scf accuracy    <       0.00004605 Ry

     iteration #  8     ecut=    40.00 Ry     beta= 0.10
     Davidson diagonalization with overlap
     ethr =  1.77E-07,  avg # of iterations =  2.1

     negative rho (up, down):  1.048E-04 0.000E+00

     total cpu time spent up to now is       21.9 secs

     total energy              =    -181.57259414 Ry
     estimated scf accuracy    <       0.00000744 Ry

     iteration #  9     ecut=    40.00 Ry     beta= 0.10
     Davidson diagonalization with overlap
     ethr =  2.86E-08,  avg # of iterations =  1.1

     negative rho (up, down):  9.535E-05 0.000E+00

     total cpu time spent up to now is       22.4 secs

     total energy              =    -181.57259309 Ry
     estimated scf accuracy    <       0.00000228 Ry

     iteration # 10     ecut=    40.00 Ry     beta= 0.10
     Davidson diagonalization with overlap
     ethr =  8.79E-09,  avg # of iterations =  3.1

     negative rho (up, down):  8.689E-05 0.000E+00

     total cpu time spent up to now is       23.0 secs

     total energy              =    -181.57259419 Ry
     estimated scf accuracy    <       0.00000212 Ry

     iteration # 11     ecut=    40.00 Ry     beta= 0.10
     Davidson diagonalization with overlap
     ethr =  8.16E-09,  avg # of iterations =  2.0

     negative rho (up, down):  3.714E-05 0.000E+00

     total cpu time spent up to now is       23.6 secs

     End of self-consistent calculation

          k = 0.0000 0.0000 0.0000 (  5021 PWs)   bands (ev):

   -61.9205 -36.0644 -35.8732 -35.8732 -15.0445 -13.7594  -6.5692  -3.6246
    -3.6246  -2.7600  -2.5364  -2.5364  -1.0009   1.6883   1.6883   1.9296
     1.9296   4.3223

     occupation numbers 
     1.0000   1.0000   1.0000   1.0000   1.0000   1.0000   1.0000   1.0000
     1.0000   1.0000   1.0000   1.0000   1.0000   0.0000   0.0000   0.0000
     0.0000   0.0000

          k = 0.0000 0.1925 0.0000 (  5093 PWs)   bands (ev):

   -61.9118 -36.0470 -35.9622 -35.8936 -14.6616 -13.6011  -6.1655  -4.3690
    -3.8960  -3.2307  -3.0729  -2.1002  -1.2964   1.2530   1.5047   1.5539
     2.2663   4.9199

     occupation numbers 
     1.0000   1.0000   1.0000   1.0000   1.0000   1.0000   1.0000   1.0000
     1.0000   1.0000   1.0000   1.0000   1.0000   0.0000   0.0000   0.0000
     0.0000   0.0000

          k = 0.0000 0.3849 0.0000 (  5126 PWs)   bands (ev):

   -61.8944 -36.1367 -36.0119 -35.9341 -13.7750 -13.2409  -6.1958  -5.1423
    -4.8995  -3.8527  -2.6248  -2.4132  -1.9704   1.1428   1.2868   2.3131
     2.9924   6.1417

     occupation numbers 
     1.0000   1.0000   1.0000   1.0000   1.0000   1.0000   1.0000   1.0000
     1.0000   1.0000   1.0000   1.0000   1.0000   0.0000   0.0000   0.0000
     0.0000   0.0000

          k = 0.0000-0.5774 0.0000 (  5128 PWs)   bands (ev):

   -61.8857 -36.2221 -35.9943 -35.9542 -13.2329 -13.0311  -6.7210  -5.7409
    -5.0444  -4.1643  -2.8672  -2.0285  -1.6493   1.1581   1.6637   2.8001
     3.2134   5.0790

     occupation numbers 
     1.0000   1.0000   1.0000   1.0000   1.0000   1.0000   1.0000   1.0000
     1.0000   1.0000   1.0000   1.0000   1.0000   0.0000   0.0000   0.0000
     0.0000   0.0000

          k = 0.1667 0.2887 0.0000 (  5102 PWs)   bands (ev):

   -61.8988 -36.0771 -36.0207 -35.9408 -14.0190 -13.3345  -5.8893  -4.8268
    -4.6486  -4.1654  -2.9926  -2.0697  -1.7993   0.9006   1.4064   1.6050
     3.0740   5.9040

     occupation numbers 
     1.0000   1.0000   1.0000   1.0000   1.0000   1.0000   1.0000   1.0000
     1.0000   1.0000   1.0000   1.0000   1.0000   0.0000   0.0000   0.0000
     0.0000   0.0000

          k = 0.1667-0.6736 0.0000 (  5131 PWs)   bands (ev):

   -61.8857 -36.1786 -35.9994 -35.9944 -13.2530 -13.0160  -6.2649  -5.8425
    -4.8212  -4.1904  -3.3705  -2.7165  -1.5230   1.1409   1.7008   2.2835
     3.3318   5.9321

     occupation numbers 
     1.0000   1.0000   1.0000   1.0000   1.0000   1.0000   1.0000   1.0000
     1.0000   1.0000   1.0000   1.0000   1.0000   0.0000   0.0000   0.0000
     0.0000   0.0000

          k = 0.3333-0.5774 0.0000 (  5172 PWs)   bands (ev):

   -61.8814 -36.1363 -36.0960 -35.9856 -12.9770 -12.8784  -6.3492  -5.5539
    -5.0419  -4.5613  -3.8678  -3.1506  -1.0471   0.5885   2.0263   2.4472
     3.7353   6.1258

     occupation numbers 
     1.0000   1.0000   1.0000   1.0000   1.0000   1.0000   1.0000   1.0000
     1.0000   1.0000   1.0000   1.0000   1.0000   0.0000   0.0000   0.0000
     0.0000   0.0000

     the Fermi energy is    -0.2370 ev

!    total energy              =    -181.57259396 Ry
     estimated scf accuracy    <       0.00000051 Ry
     smearing contrib. (-TS)   =       0.00000000 Ry
     internal energy E=F+TS    =    -181.57259396 Ry

     The total energy is F=E-TS. E is the sum of the following terms:
     one-electron contribution =   -1105.58486959 Ry
     hartree contribution      =     552.95429320 Ry
     xc contribution           =     -29.66161077 Ry
     ewald contribution        =     400.71959320 Ry

     convergence has been achieved in  11 iterations

     negative rho (up, down):  3.714E-05 0.000E+00

     Forces acting on atoms (cartesian axes, Ry/au):

     atom    1 type  1   force =     0.00000000   -0.00000000    0.00000000
     atom    2 type  2   force =    -0.00000000    0.00000000   -0.00406858
     atom    3 type  2   force =     0.00000000    0.00000000    0.00406858
     The non-local contrib.  to forces
     atom    1 type  1   force =     0.00000000    0.00000000    0.00000000
     atom    2 type  2   force =    -0.00000000    0.00000000   -0.27666356
     atom    3 type  2   force =     0.00000000    0.00000000    0.27666356
     The ionic contribution  to forces
     atom    1 type  1   force =    -0.00000002   -0.00000001    0.00000000
     atom    2 type  2   force =     0.00000001    0.00000000   35.45750443
     atom    3 type  2   force =     0.00000001    0.00000000  -35.45750443
     The local contribution  to forces
     atom    1 type  1   force =    -0.00000000   -0.00000000    0.00000000
     atom    2 type  2   force =     0.00000002    0.00000001  -35.18889118
     atom    3 type  2   force =     0.00000002    0.00000001   35.18889118
     The core correction contribution to forces
     atom    1 type  1   force =    -0.00000000    0.00000000   -0.00000000
     atom    2 type  2   force =    -0.00000000   -0.00000000    0.00267164
     atom    3 type  2   force =    -0.00000000   -0.00000000   -0.00267164
     The Hubbard contrib.    to forces
     atom    1 type  1   force =     0.00000000    0.00000000    0.00000000
     atom    2 type  2   force =     0.00000000    0.00000000    0.00000000
     atom    3 type  2   force =     0.00000000    0.00000000    0.00000000
     The SCF correction term to forces
     atom    1 type  1   force =     0.00000000    0.00000000    0.00000000
     atom    2 type  2   force =    -0.00000000   -0.00000000    0.00131009
     atom    3 type  2   force =    -0.00000000   -0.00000000   -0.00131009

     Total force =     0.005754     Total SCF correction =     0.001853
     SCF correction compared to forces is large: reduce conv_thr to get better values
     Energy error            =      1.5E-01
     Gradient error          =      4.1E-03

     number of scf cycles    =   3
     number of bfgs steps    =   2

     energy   old            =    -181.4238530632 Ry
     energy   new            =    -181.5725939614 Ry

     CASE: energy  _new < energy  _old

     new trust radius        =       0.0078558561 bohr
     new conv_thr            =       0.0000000407 Ry


ATOMIC_POSITIONS (crystal)
Mo            0.0000000000        0.0000000000        0.5000000000    0   0   0
S             0.6666666660        0.6666666660        0.5780390267    0   0   1
S             0.6666666660        0.6666666660        0.4219609733    0   0   1



     Writing output data file ./outdir/MoS2.save/
     NEW-OLD atomic charge density approx. for the potential

     negative rho (up, down):  3.685E-05 0.000E+00

     total cpu time spent up to now is       24.9 secs

     Self-consistent Calculation

     iteration #  1     ecut=    40.00 Ry     beta= 0.10
     Davidson diagonalization with overlap
     ethr =  1.00E-06,  avg # of iterations =  4.1

     Threshold (ethr) on eigenvalues was too large:
     Diagonalizing with lowered threshold

     Davidson diagonalization with overlap
     ethr =  3.15E-08,  avg # of iterations =  3.9

     negative rho (up, down):  3.686E-05 0.000E+00

     total cpu time spent up to now is       25.9 secs

     total energy              =    -181.57263039 Ry
     estimated scf accuracy    <       0.00000676 Ry

     iteration #  2     ecut=    40.00 Ry     beta= 0.10
     Davidson diagonalization with overlap
     ethr =  2.60E-08,  avg # of iterations =  1.0

     negative rho (up, down):  3.689E-05 0.000E+00

     total cpu time spent up to now is       26.5 secs

     total energy              =    -181.57262995 Ry
     estimated scf accuracy    <       0.00000312 Ry

     iteration #  3     ecut=    40.00 Ry     beta= 0.10
     Davidson diagonalization with overlap
     ethr =  1.20E-08,  avg # of iterations =  1.0

     negative rho (up, down):  3.703E-05 0.000E+00

     total cpu time spent up to now is       27.0 secs

     total energy              =    -181.57262972 Ry
     estimated scf accuracy    <       0.00000120 Ry

     iteration #  4     ecut=    40.00 Ry     beta= 0.10
     Davidson diagonalization with overlap
     ethr =  4.63E-09,  avg # of iterations =  2.1

     negative rho (up, down):  3.703E-05 0.000E+00

     total cpu time spent up to now is       27.6 secs

     total energy              =    -181.57262990 Ry
     estimated scf accuracy    <       0.00000018 Ry

     iteration #  5     ecut=    40.00 Ry     beta= 0.10
     Davidson diagonalization with overlap
     ethr =  6.90E-10,  avg # of iterations =  1.1

     negative rho (up, down):  3.715E-05 0.000E+00

     total cpu time spent up to now is       28.2 secs

     total energy              =    -181.57262990 Ry
     estimated scf accuracy    <       0.00000011 Ry

     iteration #  6     ecut=    40.00 Ry     beta= 0.10
     Davidson diagonalization with overlap
     ethr =  4.09E-10,  avg # of iterations =  2.0

     negative rho (up, down):  3.705E-05 0.000E+00

     total cpu time spent up to now is       28.8 secs

     End of self-consistent calculation

          k = 0.0000 0.0000 0.0000 (  5021 PWs)   bands (ev):

   -61.9197 -36.0646 -35.8741 -35.8741 -15.0571 -13.7581  -6.5803  -3.6477
    -3.6477  -2.7492  -2.5537  -2.5537  -0.9871   1.6906   1.6906   1.9422
     1.9422   4.3410

     occupation numbers 
     1.0000   1.0000   1.0000   1.0000   1.0000   1.0000   1.0000   1.0000
     1.0000   1.0000   1.0000   1.0000   1.0000   0.0000   0.0000   0.0000
     0.0000   0.0000

          k = 0.0000 0.1925 0.0000 (  5093 PWs)   bands (ev):

   -61.9111 -36.0471 -35.9634 -35.8946 -14.6738 -13.6013  -6.1783  -4.3879
    -3.9030  -3.2525  -3.0903  -2.0956  -1.2880   1.2669   1.5088   1.5638
     2.2729   4.9417

     occupation numbers 
     1.0000   1.0000   1.0000   1.0000   1.0000   1.0000   1.0000   1.0000
     1.0000   1.0000   1.0000   1.0000   1.0000   0.0000   0.0000   0.0000
     0.0000   0.0000

          k = 0.0000 0.3849 0.0000 (  5126 PWs)   bands (ev):

   -61.8936 -36.1384 -36.0120 -35.9352 -13.7869 -13.2448  -6.2122  -5.1482
    -4.9072  -3.8703  -2.6154  -2.4302  -1.9706   1.1456   1.2971   2.3226
     3.0067   6.1473

     occupation numbers 
     1.0000   1.0000   1.0000   1.0000   1.0000   1.0000   1.0000   1.0000
     1.0000   1.0000   1.0000   1.0000   1.0000   0.0000   0.0000   0.0000
     0.0000   0.0000

          k = 0.0000-0.5774 0.0000 (  5128 PWs)   bands (ev):

   -61.8849 -36.2241 -35.9943 -35.9553 -13.2454 -13.0374  -6.7311  -5.7440
    -5.0545  -4.1820  -2.8577  -2.0405  -1.6491   1.1546   1.6647   2.8115
     3.2310   5.0837

     occupation numbers 
     1.0000   1.0000   1.0000   1.0000   1.0000   1.0000   1.0000   1.0000
     1.0000   1.0000   1.0000   1.0000   1.0000   0.0000   0.0000   0.0000
     0.0000   0.0000

          k = 0.1667 0.2887 0.0000 (  5102 PWs)   bands (ev):

   -61.8980 -36.0786 -36.0208 -35.9419 -14.0309 -13.3374  -5.9072  -4.8361
    -4.6605  -4.1735  -3.0069  -2.0636  -1.8014   0.9125   1.4122   1.6103
     3.0888   5.9203

     occupation numbers 
     1.0000   1.0000   1.0000   1.0000   1.0000   1.0000   1.0000   1.0000
     1.0000   1.0000   1.0000   1.0000   1.0000   0.0000   0.0000   0.0000
     0.0000   0.0000

          k = 0.1667-0.6736 0.0000 (  5131 PWs)   bands (ev):

   -61.8849 -36.1804 -36.0006 -35.9943 -13.2652 -13.0220  -6.2767  -5.8540
    -4.8300  -4.1960  -3.3779  -2.7087  -1.5299   1.1425   1.7022   2.2964
     3.3470   5.9400

     occupation numbers 
     1.0000   1.0000   1.0000   1.0000   1.0000   1.0000   1.0000   1.0000
     1.0000   1.0000   1.0000   1.0000   1.0000   0.0000   0.0000   0.0000
     0.0000   0.0000

          k = 0.3333-0.5774 0.0000 (  5172 PWs)   bands (ev):

   -61.8805 -36.1382 -36.0973 -35.9855 -12.9895 -12.8854  -6.3645  -5.5611
    -5.0512  -4.5701  -3.8670  -3.1429  -1.0518   0.5772   2.0437   2.4594
     3.7482   6.1262

     occupation numbers 
     1.0000   1.0000   1.0000   1.0000   1.0000   1.0000   1.0000   1.0000
     1.0000   1.0000   1.0000   1.0000   1.0000   0.0000   0.0000   0.0000
     0.0000   0.0000

     the Fermi energy is    -0.2317 ev

!    total energy              =    -181.57262992 Ry
     estimated scf accuracy    <       0.00000002 Ry
     smearing contrib. (-TS)   =       0.00000000 Ry
     internal energy E=F+TS    =    -181.57262992 Ry

     The total energy is F=E-TS. E is the sum of the following terms:
     one-electron contribution =   -1106.67102021 Ry
     hartree contribution      =     553.48957385 Ry
     xc contribution           =     -29.66791472 Ry
     ewald contribution        =     401.27673117 Ry

     convergence has been achieved in   6 iterations

     negative rho (up, down):  3.705E-05 0.000E+00

     Forces acting on atoms (cartesian axes, Ry/au):

     atom    1 type  1   force =     0.00000000    0.00000000    0.00000000
     atom    2 type  2   force =     0.00000000   -0.00000000   -0.00075912
     atom    3 type  2   force =    -0.00000000    0.00000000    0.00075912
     The non-local contrib.  to forces
     atom    1 type  1   force =     0.00000000    0.00000000    0.00000000
     atom    2 type  2   force =     0.00000000   -0.00000000   -0.27571808
     atom    3 type  2   force =    -0.00000000    0.00000000    0.27571808
     The ionic contribution  to forces
     atom    1 type  1   force =    -0.00000002   -0.00000001    0.00000000
     atom    2 type  2   force =     0.00000001    0.00000000   35.46255259
     atom    3 type  2   force =     0.00000001    0.00000000  -35.46255259
     The local contribution  to forces
     atom    1 type  1   force =    -0.00000000   -0.00000000    0.00000000
     atom    2 type  2   force =     0.00000002    0.00000001  -35.18993871
     atom    3 type  2   force =     0.00000002    0.00000001   35.18993871
     The core correction contribution to forces
     atom    1 type  1   force =    -0.00000000   -0.00000000   -0.00000000
     atom    2 type  2   force =    -0.00000000   -0.00000000    0.00263979
     atom    3 type  2   force =    -0.00000000   -0.00000000   -0.00263979
     The Hubbard contrib.    to forces
     atom    1 type  1   force =     0.00000000    0.00000000    0.00000000
     atom    2 type  2   force =     0.00000000    0.00000000    0.00000000
     atom    3 type  2   force =     0.00000000    0.00000000    0.00000000
     The SCF correction term to forces
     atom    1 type  1   force =     0.00000000    0.00000000   -0.00000000
     atom    2 type  2   force =    -0.00000000   -0.00000000   -0.00029470
     atom    3 type  2   force =    -0.00000000   -0.00000000    0.00029470

     Total force =     0.001074     Total SCF correction =     0.000417
     SCF correction compared to forces is large: reduce conv_thr to get better values
     Energy error            =      3.6E-05
     Gradient error          =      7.6E-04

     bfgs converged in   4 scf cycles and   3 bfgs steps
     (criteria: energy <  1.0E-04 Ry, force <  1.0E-03 Ry/Bohr)

     End of BFGS Geometry Optimization

     Final energy   =    -181.5726299186 Ry

     File ./outdir/MoS2.bfgs deleted, as requested
Begin final coordinates

ATOMIC_POSITIONS (crystal)
Mo            0.0000000000        0.0000000000        0.5000000000    0   0   0
S             0.6666666660        0.6666666660        0.5780390267    0   0   1
S             0.6666666660        0.6666666660        0.4219609733    0   0   1
End final coordinates



     Writing output data file ./outdir/MoS2.save/

     init_run     :      0.80s CPU      0.90s WALL (       1 calls)
     electrons    :     18.29s CPU     24.03s WALL (       4 calls)
     update_pot   :      1.28s CPU      1.28s WALL (       3 calls)
     forces       :      2.12s CPU      2.42s WALL (       4 calls)

     Called by init_run:
     wfcinit      :      0.04s CPU      0.05s WALL (       1 calls)
     wfcinit:atom :      0.00s CPU      0.00s WALL (       7 calls)
     wfcinit:wfcr :      0.04s CPU      0.05s WALL (       7 calls)
     potinit      :      0.17s CPU      0.18s WALL (       1 calls)
     hinit0       :      0.45s CPU      0.45s WALL (       1 calls)

     Called by electrons:
     c_bands      :      6.55s CPU      6.87s WALL (      39 calls)
     sum_band     :      5.16s CPU      7.90s WALL (      39 calls)
     v_of_rho     :      1.41s CPU      1.65s WALL (      42 calls)
     v_h          :      0.11s CPU      0.12s WALL (      42 calls)
     v_xc         :      1.42s CPU      1.68s WALL (      46 calls)
     newd         :      5.41s CPU      8.12s WALL (      42 calls)
     mix_rho      :      0.18s CPU      0.18s WALL (      39 calls)

     Called by c_bands:
     init_us_2    :      0.13s CPU      0.14s WALL (     581 calls)
     cegterg      :      6.11s CPU      6.41s WALL (     273 calls)

     Called by sum_band:
     sum_band:wei :      0.00s CPU      0.00s WALL (      39 calls)
     sum_band:loo :      0.69s CPU      0.72s WALL (      39 calls)
     sum_band:buf :      0.02s CPU      0.02s WALL (     273 calls)
     sum_band:ini :      0.05s CPU      0.05s WALL (     273 calls)
     sum_band:cal :      0.20s CPU      0.22s WALL (     273 calls)
     sum_band:bec :      0.00s CPU      0.01s WALL (     273 calls)
     addusdens    :      4.33s CPU      6.99s WALL (      39 calls)
     addusd:skk   :      0.02s CPU      0.03s WALL (      78 calls)
     addusd:dgemm :      1.78s CPU      4.04s WALL (      78 calls)
     addusd:qvan2 :      2.30s CPU      2.31s WALL (      78 calls)

     Called by *egterg:
     cdiaghg      :      0.47s CPU      0.48s WALL (    1033 calls)
     cegterg:over :      0.60s CPU      0.62s WALL (     788 calls)
     cegterg:upda :      0.29s CPU      0.29s WALL (     788 calls)
     cegterg:last :      0.67s CPU      0.68s WALL (     608 calls)
     cdiaghg:chol :      0.05s CPU      0.05s WALL (    1033 calls)
     cdiaghg:inve :      0.01s CPU      0.01s WALL (    1033 calls)
     cdiaghg:para :      0.07s CPU      0.07s WALL (    2066 calls)
     h_psi        :      3.35s CPU      3.59s WALL (    1068 calls)
     s_psi        :      0.52s CPU      0.55s WALL (    1068 calls)
     g_psi        :      0.04s CPU      0.04s WALL (     788 calls)

     Called by h_psi:
     h_psi:calbec :      0.61s CPU      0.67s WALL (    1068 calls)
     vloc_psi     :      2.19s CPU      2.32s WALL (    1068 calls)
     add_vuspsi   :      0.52s CPU      0.56s WALL (    1068 calls)

     General routines
     calbec       :      0.90s CPU      0.97s WALL (    1453 calls)
     fft          :      0.82s CPU      0.88s WALL (     586 calls)
     ffts         :      0.02s CPU      0.02s WALL (      81 calls)
     fftw         :      2.19s CPU      2.32s WALL (   31564 calls)
     interpolate  :      0.08s CPU      0.09s WALL (      42 calls)

     Parallel routines
     fft_scatt_xy :      0.35s CPU      0.38s WALL (   32231 calls)
     fft_scatt_yz :      1.22s CPU      1.31s WALL (   32231 calls)

     PWSCF        :     23.02s CPU     29.41s WALL


   This run was terminated on:  19:37:35  18Jan2023            

=------------------------------------------------------------------------------=
   JOB DONE.
=------------------------------------------------------------------------------=
