
     Program PWSCF v.6.7MaX starts on 18Jan2023 at 19:12:57 

     This program is part of the open-source Quantum ESPRESSO suite
     for quantum simulation of materials; please cite
         "P. Giannozzi et al., J. Phys.:Condens. Matter 21 395502 (2009);
         "P. Giannozzi et al., J. Phys.:Condens. Matter 29 465901 (2017);
          URL http://www.quantum-espresso.org", 
     in publications or presentations arising from this work. More details at
     http://www.quantum-espresso.org/quote

     Parallel version (MPI), running on     8 processors

     MPI processes distributed on     1 nodes
     R & G space division:  proc/nbgrp/npool/nimage =       8
     Reading input from MoS2_2H.in

     Current dimensions of program PWSCF are:
     Max number of different atomic species (ntypx) = 10
     Max number of k-points (npk) =  40000
     Max angular momentum in pseudopotentials (lmaxx) =  3
     file Mo.pbe-spn-rrkjus_psl.1.0.0.UPF: wavefunction(s)  4S renormalized

     IMPORTANT: XC functional enforced from input :
     Exchange-correlation= PBE
                           (   1   4   3   4   0   0   0)
     Any further DFT definition will be discarded
     Please, verify this is what you really want


     Subspace diagonalization in iterative solution of the eigenvalue problem:
     one sub-group per band group will be used
     scalapack distributed-memory algorithm (size of sub-group:  2*  2 procs)


     Parallelization info
     --------------------
     sticks:   dense  smooth     PW     G-vecs:    dense   smooth      PW
     Min         143      56     17                22825     5762     963
     Max         145      57     18                22834     5771     977
     Sum        1147     451    139               182623    46119    7759



     bravais-lattice index     =           12
     lattice parameter (alat)  =       6.4251  a.u.
     unit-cell volume          =    1351.1858 (a.u.)^3
     number of atoms/cell      =            3
     number of atomic types    =            2
     number of electrons       =        26.00
     number of Kohn-Sham states=           18
     kinetic-energy cutoff     =      40.0000  Ry
     charge density cutoff     =     400.0000  Ry
     scf convergence threshold =      1.0E-06
     mixing beta               =       0.1000
     number of iterations used =            8  plain     mixing
     energy convergence thresh.=      1.0E-04
     force convergence thresh. =      1.0E-03
     Exchange-correlation= PBE
                           (   1   4   3   4   0   0   0)
     nstep                     =           50


     celldm(1)=   6.425069  celldm(2)=   1.000000  celldm(3)=   5.882353
     celldm(4)=   0.500000  celldm(5)=   0.000000  celldm(6)=   0.000000

     crystal axes: (cart. coord. in units of alat)
               a(1) = (   1.000000   0.000000   0.000000 )  
               a(2) = (   0.500000   0.866025   0.000000 )  
               a(3) = (   0.000000   0.000000   5.882353 )  

     reciprocal axes: (cart. coord. in units 2 pi/alat)
               b(1) = (  1.000000 -0.577350  0.000000 )  
               b(2) = (  0.000000  1.154701  0.000000 )  
               b(3) = (  0.000000  0.000000  0.170000 )  


     PseudoPot. # 1 for Mo read from file:
     /home/zronyj/Desktop/MoS2/pseudo/Mo.pbe-spn-rrkjus_psl.1.0.0.UPF
     MD5 check sum: 03f09b12e49601d1a456a78ce8b2d514
     Pseudo is Ultrasoft + core correction, Zval = 14.0
     Generated using &quot;atomic&quot; code by A. Dal Corso  v.6.3
     Using radial grid of 1229 points,  6 beta functions with: 
                l(1) =   0
                l(2) =   0
                l(3) =   1
                l(4) =   1
                l(5) =   2
                l(6) =   2
     Q(r) pseudized with 0 coefficients 


     PseudoPot. # 2 for S  read from file:
     /home/zronyj/Desktop/MoS2/pseudo/S.pbe-n-rrkjus_psl.1.0.0.UPF
     MD5 check sum: 9d0fe39aa2a799ea84730884c9b010f4
     Pseudo is Ultrasoft + core correction, Zval =  6.0
     Generated using &quot;atomic&quot; code by A. Dal Corso  v.6.3
     Using radial grid of 1151 points,  6 beta functions with: 
                l(1) =   0
                l(2) =   0
                l(3) =   1
                l(4) =   1
                l(5) =   2
                l(6) =   2
     Q(r) pseudized with 0 coefficients 


     atomic species   valence    mass     pseudopotential
        Mo            14.00    95.95000     Mo( 1.00)
        S              6.00    32.06500     S ( 1.00)

     12 Sym. Ops. (no inversion) found


                                    s                        frac. trans.

      isym =  1     identity                                     

 cryst.   s( 1) = (     1          0          0      )
                  (     0          1          0      )
                  (     0          0          1      )

 cart.    s( 1) = (  1.0000000  0.0000000  0.0000000 )
                  (  0.0000000  1.0000000  0.0000000 )
                  (  0.0000000  0.0000000  1.0000000 )


      isym =  2     180 deg rotation - cart. axis [0,1,0]        

 cryst.   s( 2) = (    -1          0          0      )
                  (    -1          1          0      )
                  (     0          0         -1      )

 cart.    s( 2) = ( -1.0000000  0.0000000  0.0000000 )
                  (  0.0000000  1.0000000  0.0000000 )
                  (  0.0000000  0.0000000 -1.0000000 )


      isym =  3     120 deg rotation - cryst. axis [0,0,1]       

 cryst.   s( 3) = (    -1          1          0      )
                  (    -1          0          0      )
                  (     0          0          1      )

 cart.    s( 3) = ( -0.5000000 -0.8660254  0.0000000 )
                  (  0.8660254 -0.5000000  0.0000000 )
                  (  0.0000000  0.0000000  1.0000000 )


      isym =  4     120 deg rotation - cryst. axis [0,0,-1]      

 cryst.   s( 4) = (     0         -1          0      )
                  (     1         -1          0      )
                  (     0          0          1      )

 cart.    s( 4) = ( -0.5000000  0.8660254  0.0000000 )
                  ( -0.8660254 -0.5000000  0.0000000 )
                  (  0.0000000  0.0000000  1.0000000 )


      isym =  5     180 deg rotation - cryst. axis [1,-1,0]      

 cryst.   s( 5) = (     1         -1          0      )
                  (     0         -1          0      )
                  (     0          0         -1      )

 cart.    s( 5) = (  0.5000000 -0.8660254  0.0000000 )
                  ( -0.8660254 -0.5000000  0.0000000 )
                  (  0.0000000  0.0000000 -1.0000000 )


      isym =  6     180 deg rotation - cryst. axis [2,1,0]       

 cryst.   s( 6) = (     0          1          0      )
                  (     1          0          0      )
                  (     0          0         -1      )

 cart.    s( 6) = (  0.5000000  0.8660254  0.0000000 )
                  (  0.8660254 -0.5000000  0.0000000 )
                  (  0.0000000  0.0000000 -1.0000000 )


      isym =  7     inv. 180 deg rotation - cart. axis [0,0,1]   

 cryst.   s( 7) = (     1          0          0      )
                  (     0          1          0      )
                  (     0          0         -1      )

 cart.    s( 7) = (  1.0000000  0.0000000  0.0000000 )
                  (  0.0000000  1.0000000  0.0000000 )
                  (  0.0000000  0.0000000 -1.0000000 )


      isym =  8     inv. 180 deg rotation - cart. axis [1,0,0]   

 cryst.   s( 8) = (    -1          0          0      )
                  (    -1          1          0      )
                  (     0          0          1      )

 cart.    s( 8) = ( -1.0000000  0.0000000  0.0000000 )
                  (  0.0000000  1.0000000  0.0000000 )
                  (  0.0000000  0.0000000  1.0000000 )


      isym =  9     inv.  60 deg rotation - cryst. axis [0,0,1]  

 cryst.   s( 9) = (     0         -1          0      )
                  (     1         -1          0      )
                  (     0          0         -1      )

 cart.    s( 9) = ( -0.5000000  0.8660254  0.0000000 )
                  ( -0.8660254 -0.5000000  0.0000000 )
                  (  0.0000000  0.0000000 -1.0000000 )


      isym = 10     inv.  60 deg rotation - cryst. axis [0,0,-1] 

 cryst.   s(10) = (    -1          1          0      )
                  (    -1          0          0      )
                  (     0          0         -1      )

 cart.    s(10) = ( -0.5000000 -0.8660254  0.0000000 )
                  (  0.8660254 -0.5000000  0.0000000 )
                  (  0.0000000  0.0000000 -1.0000000 )


      isym = 11     inv. 180 deg rotation - cryst. axis [0,1,0]  

 cryst.   s(11) = (     0          1          0      )
                  (     1          0          0      )
                  (     0          0          1      )

 cart.    s(11) = (  0.5000000  0.8660254  0.0000000 )
                  (  0.8660254 -0.5000000  0.0000000 )
                  (  0.0000000  0.0000000  1.0000000 )


      isym = 12     inv. 180 deg rotation - cryst. axis [1,1,0]  

 cryst.   s(12) = (     1         -1          0      )
                  (     0         -1          0      )
                  (     0          0          1      )

 cart.    s(12) = (  0.5000000 -0.8660254  0.0000000 )
                  ( -0.8660254 -0.5000000  0.0000000 )
                  (  0.0000000  0.0000000  1.0000000 )


     point group D_3h (-62m)
     there are  6 classes
     the character table:

       E     2C3   3C2   s_h   2S3   3s_v 
A'_1   1.00  1.00  1.00  1.00  1.00  1.00
A'_2   1.00  1.00 -1.00  1.00  1.00 -1.00
E'     2.00 -1.00  0.00  2.00 -1.00  0.00
A''1   1.00  1.00  1.00 -1.00 -1.00 -1.00
A''2   1.00  1.00 -1.00 -1.00 -1.00  1.00
E''    2.00 -1.00  0.00 -2.00  1.00  0.00

     the symmetry operations in each class and the name of the first element:

     E        1
          identity                                               
     2C3      3    4
          120 deg rotation - cryst. axis [0,0,1]                 
     3C2      2    6    5
          180 deg rotation - cart. axis [0,1,0]                  
     s_h      7
          inv. 180 deg rotation - cart. axis [0,0,1]             
     2S3      9   10
          inv.  60 deg rotation - cryst. axis [0,0,1]            
     3s_v     8   11   12
          inv. 180 deg rotation - cart. axis [1,0,0]             

   Cartesian axes

     site n.     atom                  positions (alat units)
         1           Mo  tau(   1) = (   0.0000000   0.0000000   2.9411765  )
         2           S   tau(   2) = (   1.0000000   0.5773503   3.2352941  )
         3           S   tau(   3) = (   1.0000000   0.5773503   2.6470588  )

   Crystallographic axes

     site n.     atom                  positions (cryst. coord.)
         1           Mo  tau(   1) = (  0.0000000  0.0000000  0.5000000  )
         2           S   tau(   2) = (  0.6666667  0.6666667  0.5500000  )
         3           S   tau(   3) = (  0.6666667  0.6666667  0.4500000  )

     number of k points=    12  Marzari-Vanderbilt smearing, width (Ry)=  0.0001
                       cart. coord. in units 2pi/alat
        k(    1) = (   0.0000000   0.0000000   0.0000000), wk =   0.0246914
        k(    2) = (   0.0000000   0.1283001   0.0000000), wk =   0.1481481
        k(    3) = (   0.0000000   0.2566001   0.0000000), wk =   0.1481481
        k(    4) = (   0.0000000   0.3849002   0.0000000), wk =   0.1481481
        k(    5) = (   0.0000000   0.5132002   0.0000000), wk =   0.1481481
        k(    6) = (   0.1111111   0.1924501   0.0000000), wk =   0.1481481
        k(    7) = (   0.1111111   0.3207501   0.0000000), wk =   0.2962963
        k(    8) = (   0.1111111   0.4490502   0.0000000), wk =   0.2962963
        k(    9) = (   0.1111111  -0.5773503   0.0000000), wk =   0.1481481
        k(   10) = (   0.2222222   0.3849002   0.0000000), wk =   0.1481481
        k(   11) = (   0.2222222  -0.6415003   0.0000000), wk =   0.2962963
        k(   12) = (   0.3333333  -0.5773503   0.0000000), wk =   0.0493827

                       cryst. coord.
        k(    1) = (   0.0000000   0.0000000   0.0000000), wk =   0.0246914
        k(    2) = (   0.0000000   0.1111111   0.0000000), wk =   0.1481481
        k(    3) = (   0.0000000   0.2222222   0.0000000), wk =   0.1481481
        k(    4) = (   0.0000000   0.3333333   0.0000000), wk =   0.1481481
        k(    5) = (   0.0000000   0.4444444   0.0000000), wk =   0.1481481
        k(    6) = (   0.1111111   0.2222222   0.0000000), wk =   0.1481481
        k(    7) = (   0.1111111   0.3333333   0.0000000), wk =   0.2962963
        k(    8) = (   0.1111111   0.4444444   0.0000000), wk =   0.2962963
        k(    9) = (   0.1111111  -0.4444444   0.0000000), wk =   0.1481481
        k(   10) = (   0.2222222   0.4444444   0.0000000), wk =   0.1481481
        k(   11) = (   0.2222222  -0.4444444   0.0000000), wk =   0.2962963
        k(   12) = (   0.3333333  -0.3333333   0.0000000), wk =   0.0493827

     Dense  grid:   182623 G-vectors     FFT dimensions: (  45,  45, 243)

     Smooth grid:    46119 G-vectors     FFT dimensions: (  25,  25, 160)

     Dynamical RAM for                 wfc:       0.20 MB

     Dynamical RAM for     wfc (w. buffer):       2.57 MB

     Dynamical RAM for           str. fact:       0.70 MB

     Dynamical RAM for           local pot:       0.00 MB

     Dynamical RAM for          nlocal pot:       0.59 MB

     Dynamical RAM for                qrad:       3.21 MB

     Dynamical RAM for          rho,v,vnew:       2.48 MB

     Dynamical RAM for               rhoin:       0.83 MB

     Dynamical RAM for            rho*nmix:       5.57 MB

     Dynamical RAM for           G-vectors:       1.35 MB

     Dynamical RAM for          h,s,v(r/c):       0.01 MB

     Dynamical RAM for          <psi|beta>:       0.01 MB

     Dynamical RAM for                 psi:       0.40 MB

     Dynamical RAM for                hpsi:       0.40 MB

     Dynamical RAM for                spsi:       0.40 MB

     Dynamical RAM for      wfcinit/wfcrot:       0.40 MB

     Dynamical RAM for           addusdens:      65.48 MB

     Dynamical RAM for          addusforce:      66.36 MB

     Estimated static dynamical RAM per process >      20.75 MB

     Estimated max dynamical RAM per process >      87.11 MB

     Estimated total dynamical RAM >     696.87 MB

     Initial potential from superposition of free atoms

     starting charge   25.99905, renormalised to   26.00000

     negative rho (up, down):  6.540E-05 0.000E+00
     Starting wfcs are   18 randomized atomic wfcs

     total cpu time spent up to now is        1.1 secs

     Self-consistent Calculation

     iteration #  1     ecut=    40.00 Ry     beta= 0.10
     Davidson diagonalization with overlap
     ethr =  1.00E-02,  avg # of iterations =  4.0

     negative rho (up, down):  4.607E-05 0.000E+00

     total cpu time spent up to now is        2.1 secs

     total energy              =    -181.18763650 Ry
     estimated scf accuracy    <       0.28669908 Ry

     iteration #  2     ecut=    40.00 Ry     beta= 0.10
     Davidson diagonalization with overlap
     ethr =  1.10E-03,  avg # of iterations =  2.3

     negative rho (up, down):  1.401E-04 0.000E+00

     total cpu time spent up to now is        2.9 secs

     total energy              =    -181.16346686 Ry
     estimated scf accuracy    <       0.14025516 Ry

     iteration #  3     ecut=    40.00 Ry     beta= 0.10
     Davidson diagonalization with overlap
     ethr =  5.39E-04,  avg # of iterations =  3.4

     negative rho (up, down):  1.341E-04 0.000E+00

     total cpu time spent up to now is        3.8 secs

     total energy              =    -181.18203358 Ry
     estimated scf accuracy    <       0.03469884 Ry

     iteration #  4     ecut=    40.00 Ry     beta= 0.10
     Davidson diagonalization with overlap
     ethr =  1.33E-04,  avg # of iterations =  2.1

     negative rho (up, down):  5.795E-04 0.000E+00

     total cpu time spent up to now is        4.6 secs

     total energy              =    -181.17544964 Ry
     estimated scf accuracy    <       0.02142073 Ry

     iteration #  5     ecut=    40.00 Ry     beta= 0.10
     Davidson diagonalization with overlap
     ethr =  8.24E-05,  avg # of iterations =  5.0

     negative rho (up, down):  4.847E-04 0.000E+00

     total cpu time spent up to now is        5.5 secs

     total energy              =    -181.17607954 Ry
     estimated scf accuracy    <       0.01833232 Ry

     iteration #  6     ecut=    40.00 Ry     beta= 0.10
     Davidson diagonalization with overlap
     ethr =  7.05E-05,  avg # of iterations =  2.0

     negative rho (up, down):  4.270E-04 0.000E+00

     total cpu time spent up to now is        6.3 secs

     total energy              =    -181.17830362 Ry
     estimated scf accuracy    <       0.00320310 Ry

     iteration #  7     ecut=    40.00 Ry     beta= 0.10
     Davidson diagonalization with overlap
     ethr =  1.23E-05,  avg # of iterations =  2.8

     negative rho (up, down):  5.830E-04 0.000E+00

     total cpu time spent up to now is        7.2 secs

     total energy              =    -181.17750514 Ry
     estimated scf accuracy    <       0.00322735 Ry

     iteration #  8     ecut=    40.00 Ry     beta= 0.10
     Davidson diagonalization with overlap
     ethr =  1.23E-05,  avg # of iterations =  2.4

     negative rho (up, down):  5.180E-04 0.000E+00

     total cpu time spent up to now is        8.0 secs

     total energy              =    -181.17823108 Ry
     estimated scf accuracy    <       0.00037208 Ry

     iteration #  9     ecut=    40.00 Ry     beta= 0.10
     Davidson diagonalization with overlap
     ethr =  1.43E-06,  avg # of iterations =  2.1

     negative rho (up, down):  4.728E-04 0.000E+00

     total cpu time spent up to now is        8.8 secs

     total energy              =    -181.17813013 Ry
     estimated scf accuracy    <       0.00017466 Ry

     iteration # 10     ecut=    40.00 Ry     beta= 0.10
     Davidson diagonalization with overlap
     ethr =  6.72E-07,  avg # of iterations =  3.4

     negative rho (up, down):  4.383E-04 0.000E+00

     total cpu time spent up to now is        9.7 secs

     total energy              =    -181.17819247 Ry
     estimated scf accuracy    <       0.00008972 Ry

     iteration # 11     ecut=    40.00 Ry     beta= 0.10
     Davidson diagonalization with overlap
     ethr =  3.45E-07,  avg # of iterations =  1.8

     negative rho (up, down):  3.937E-04 0.000E+00

     total cpu time spent up to now is       10.5 secs

     total energy              =    -181.17819437 Ry
     estimated scf accuracy    <       0.00001663 Ry

     iteration # 12     ecut=    40.00 Ry     beta= 0.10
     Davidson diagonalization with overlap
     ethr =  6.40E-08,  avg # of iterations =  2.4

     negative rho (up, down):  3.553E-04 0.000E+00

     total cpu time spent up to now is       11.4 secs

     total energy              =    -181.17819593 Ry
     estimated scf accuracy    <       0.00000573 Ry

     iteration # 13     ecut=    40.00 Ry     beta= 0.10
     Davidson diagonalization with overlap
     ethr =  2.20E-08,  avg # of iterations =  2.6

     negative rho (up, down):  3.181E-04 0.000E+00

     total cpu time spent up to now is       12.2 secs

     total energy              =    -181.17819601 Ry
     estimated scf accuracy    <       0.00000413 Ry

     iteration # 14     ecut=    40.00 Ry     beta= 0.10
     Davidson diagonalization with overlap
     ethr =  1.59E-08,  avg # of iterations =  2.0

     negative rho (up, down):  5.798E-05 0.000E+00

     total cpu time spent up to now is       13.1 secs

     End of self-consistent calculation

          k = 0.0000 0.0000 0.0000 (  5837 PWs)   bands (ev):

   -61.2055 -35.7259 -35.7259 -35.2438 -18.8274 -12.8152  -8.0094  -7.8661
    -7.8661  -4.2401  -4.2401   0.4359   1.2752   1.6495   1.6495   2.2587
     3.5617   3.5617

     occupation numbers 
     1.0000   1.0000   1.0000   1.0000   1.0000   1.0000   1.0000   1.0000
     1.0000   1.0000   1.0000   0.0000   0.0000   0.0000   0.0000   0.0000
     0.0000   0.0000

          k = 0.0000 0.1283 0.0000 (  5807 PWs)   bands (ev):

   -61.2025 -35.7715 -35.7349 -35.2368 -18.6783 -12.8445  -8.2418  -7.6588
    -7.6218  -4.4453  -4.3494   0.4461   0.8830   1.6796   2.0606   2.6650
     3.1074   3.1546

     occupation numbers 
     1.0000   1.0000   1.0000   1.0000   1.0000   1.0000   1.0000   1.0000
     1.0000   1.0000   1.0000   0.0000   0.0000   0.0000   0.0000   0.0000
     0.0000   0.0000

          k = 0.0000 0.2566 0.0000 (  5819 PWs)   bands (ev):

   -61.1950 -35.8849 -35.7575 -35.2192 -18.3016 -12.9178  -8.5039  -7.1871
    -7.0795  -4.8847  -4.6171  -0.3244   0.1878   2.1118   2.2783   2.3352
     3.0541   4.2225

     occupation numbers 
     1.0000   1.0000   1.0000   1.0000   1.0000   1.0000   1.0000   1.0000
     1.0000   1.0000   1.0000   1.0000   0.0000   0.0000   0.0000   0.0000
     0.0000   0.0000

          k = 0.0000 0.3849 0.0000 (  5779 PWs)   bands (ev):

   -61.1865 -36.0106 -35.7830 -35.1992 -17.8784 -12.9991  -8.5429  -6.7125
    -6.2804  -5.2938  -4.9186  -1.4705  -0.0387   0.9465   1.0171   3.4185
     4.1569   5.1211

     occupation numbers 
     1.0000   1.0000   1.0000   1.0000   1.0000   1.0000   1.0000   1.0000
     1.0000   1.0000   1.0000   1.0000   1.0000   0.0000   0.0000   0.0000
     0.0000   0.0000

          k = 0.0000 0.5132 0.0000 (  5740 PWs)   bands (ev):

   -61.1810 -36.0908 -35.7996 -35.1860 -17.6081 -13.0511  -8.3734  -6.5008
    -5.6170  -5.5261  -5.1173  -1.7928  -0.4414  -0.0893   0.2108   4.2243
     4.8796   5.7659

     occupation numbers 
     1.0000   1.0000   1.0000   1.0000   1.0000   1.0000   1.0000   1.0000
     1.0000   1.0000   1.0000   1.0000   1.0000   1.0000   0.0000   0.0000
     0.0000   0.0000

          k = 0.1111 0.1925 0.0000 (  5811 PWs)   bands (ev):

   -61.1973 -35.8475 -35.7541 -35.2246 -18.4148 -12.8950  -8.4354  -7.4053
    -7.1887  -4.9077  -4.3804   0.0421   0.3420   1.8255   2.1585   2.6968
     2.9482   3.8531

     occupation numbers 
     1.0000   1.0000   1.0000   1.0000   1.0000   1.0000   1.0000   1.0000
     1.0000   1.0000   1.0000   0.0000   0.0000   0.0000   0.0000   0.0000
     0.0000   0.0000

          k = 0.1111 0.3208 0.0000 (  5796 PWs)   bands (ev):

   -61.1893 -35.9591 -35.7860 -35.2057 -18.0125 -12.9674  -8.5221  -6.9586
    -6.5142  -5.5549  -4.3733  -1.1715   0.0665   0.8567   1.9989   2.5321
     4.1987   4.8576

     occupation numbers 
     1.0000   1.0000   1.0000   1.0000   1.0000   1.0000   1.0000   1.0000
     1.0000   1.0000   1.0000   1.0000   0.0000   0.0000   0.0000   0.0000
     0.0000   0.0000

          k = 0.1111 0.4491 0.0000 (  5752 PWs)   bands (ev):

   -61.1823 -36.0545 -35.8143 -35.1891 -17.6635 -13.0263  -8.3499  -6.5626
    -6.0546  -5.8689  -4.3635  -2.0362  -0.4254  -0.1446   1.1793   3.5446
     5.0662   5.6609

     occupation numbers 
     1.0000   1.0000   1.0000   1.0000   1.0000   1.0000   1.0000   1.0000
     1.0000   1.0000   1.0000   1.0000   1.0000   1.0000   0.0000   0.0000
     0.0000   0.0000

          k = 0.1111-0.5774 0.0000 (  5736 PWs)   bands (ev):

   -61.1795 -36.0917 -35.8255 -35.1825 -17.5280 -13.0484  -8.1673  -6.4947
    -6.2385  -5.5726  -4.3607  -2.1923  -1.0860  -0.2057   0.8039   4.1423
     5.1088   5.8220

     occupation numbers 
     1.0000   1.0000   1.0000   1.0000   1.0000   1.0000   1.0000   1.0000
     1.0000   1.0000   1.0000   1.0000   1.0000   1.0000   0.0000   0.0000
     0.0000   0.0000

          k = 0.2222 0.3849 0.0000 (  5753 PWs)   bands (ev):

   -61.1828 -36.0263 -35.8346 -35.1903 -17.6815 -13.0093  -8.2813  -6.6364
    -6.3096  -5.9945  -3.9339  -2.1809  -0.4411  -0.1920   1.6715   3.0736
     5.3182   5.6243

     occupation numbers 
     1.0000   1.0000   1.0000   1.0000   1.0000   1.0000   1.0000   1.0000
     1.0000   1.0000   1.0000   1.0000   1.0000   1.0000   0.0000   0.0000
     0.0000   0.0000

          k = 0.2222-0.6415 0.0000 (  5749 PWs)   bands (ev):

   -61.1786 -36.0634 -35.8725 -35.1803 -17.4660 -13.0283  -7.8128  -6.7580
    -6.4664  -5.9003  -3.5946  -2.7518  -1.2613  -0.4798   1.5798   3.9165
     5.3533   5.6393

     occupation numbers 
     1.0000   1.0000   1.0000   1.0000   1.0000   1.0000   1.0000   1.0000
     1.0000   1.0000   1.0000   1.0000   1.0000   1.0000   0.0000   0.0000
     0.0000   0.0000

          k = 0.3333-0.5774 0.0000 (  5760 PWs)   bands (ev):

   -61.1771 -36.0545 -35.9081 -35.1768 -17.3861 -13.0230  -7.2052  -7.0210
    -6.6067  -6.2366  -3.1988  -2.9542  -1.5636  -0.7399   1.9028   4.3468
     5.1137   5.2425

     occupation numbers 
     1.0000   1.0000   1.0000   1.0000   1.0000   1.0000   1.0000   1.0000
     1.0000   1.0000   1.0000   1.0000   1.0000   1.0000   0.0000   0.0000
     0.0000   0.0000

     the Fermi energy is    -0.0014 ev

!    total energy              =    -181.17819696 Ry
     estimated scf accuracy    <       0.00000061 Ry
     smearing contrib. (-TS)   =       0.00000000 Ry
     internal energy E=F+TS    =    -181.17819696 Ry

     The total energy is F=E-TS. E is the sum of the following terms:
     one-electron contribution =   -1119.83656459 Ry
     hartree contribution      =     559.93035109 Ry
     xc contribution           =     -30.40427085 Ry
     ewald contribution        =     409.13228739 Ry

     convergence has been achieved in  14 iterations

     negative rho (up, down):  5.798E-05 0.000E+00

     Forces acting on atoms (cartesian axes, Ry/au):

     atom    1 type  1   force =    -0.00000000    0.00000000    0.00000000
     atom    2 type  2   force =     0.00000000    0.00000000    0.38138445
     atom    3 type  2   force =     0.00000000    0.00000000   -0.38138445
     The non-local contrib.  to forces
     atom    1 type  1   force =     0.00000000    0.00000000    0.00000000
     atom    2 type  2   force =     0.00000000    0.00000000   -0.23132399
     atom    3 type  2   force =     0.00000000    0.00000000    0.23132399
     The ionic contribution  to forces
     atom    1 type  1   force =    -0.00000004   -0.00000003   -0.00000000
     atom    2 type  2   force =     0.00000002    0.00000001   30.17563714
     atom    3 type  2   force =     0.00000002    0.00000001  -30.17563714
     The local contribution  to forces
     atom    1 type  1   force =     0.00000000    0.00000000    0.00000000
     atom    2 type  2   force =     0.00000002    0.00000001  -29.56031243
     atom    3 type  2   force =     0.00000002    0.00000001   29.56031243
     The core correction contribution to forces
     atom    1 type  1   force =    -0.00000000    0.00000000   -0.00000000
     atom    2 type  2   force =    -0.00000000   -0.00000000   -0.00246833
     atom    3 type  2   force =    -0.00000000   -0.00000000    0.00246833
     The Hubbard contrib.    to forces
     atom    1 type  1   force =     0.00000000    0.00000000    0.00000000
     atom    2 type  2   force =     0.00000000    0.00000000    0.00000000
     atom    3 type  2   force =     0.00000000    0.00000000    0.00000000
     The SCF correction term to forces
     atom    1 type  1   force =     0.00000000    0.00000000   -0.00000000
     atom    2 type  2   force =    -0.00000000   -0.00000000   -0.00014793
     atom    3 type  2   force =    -0.00000000   -0.00000000    0.00014793

     Total force =     0.539359     Total SCF correction =     0.000209

     BFGS Geometry Optimization
     Energy error            =      0.0E+00
     Gradient error          =      3.8E-01

     number of scf cycles    =   1
     number of bfgs steps    =   0

     energy   new            =    -181.1781969635 Ry

     new trust radius        =       0.3813844504 bohr
     new conv_thr            =       0.0000010000 Ry


ATOMIC_POSITIONS (crystal)
Mo            0.0000000000        0.0000000000        0.5000000000    0   0   0
S             0.6666666660        0.6666666660        0.5600909980    0   0   1
S             0.6666666660        0.6666666660        0.4399090020    0   0   1



     Writing output data file ./outdir/MoS2.save/
     NEW-OLD atomic charge density approx. for the potential

     negative rho (up, down):  6.634E-05 0.000E+00

     total cpu time spent up to now is       14.6 secs

     Self-consistent Calculation

     iteration #  1     ecut=    40.00 Ry     beta= 0.10
     Davidson diagonalization with overlap
     c_bands:  1 eigenvalues not converged
     ethr =  1.00E-06,  avg # of iterations = 12.9

     negative rho (up, down):  6.359E-05 0.000E+00

     total cpu time spent up to now is       16.3 secs

     total energy              =    -181.41646928 Ry
     estimated scf accuracy    <       0.20081772 Ry

     iteration #  2     ecut=    40.00 Ry     beta= 0.10
     Davidson diagonalization with overlap
     ethr =  7.72E-04,  avg # of iterations =  1.0

     negative rho (up, down):  6.286E-05 0.000E+00

     total cpu time spent up to now is       17.1 secs

     total energy              =    -181.40846349 Ry
     estimated scf accuracy    <       0.04973333 Ry

     iteration #  3     ecut=    40.00 Ry     beta= 0.10
     Davidson diagonalization with overlap
     ethr =  1.91E-04,  avg # of iterations =  1.9

     negative rho (up, down):  6.391E-05 0.000E+00

     total cpu time spent up to now is       17.9 secs

     total energy              =    -181.41501413 Ry
     estimated scf accuracy    <       0.00309159 Ry

     iteration #  4     ecut=    40.00 Ry     beta= 0.10
     Davidson diagonalization with overlap
     ethr =  1.19E-05,  avg # of iterations =  3.9

     negative rho (up, down):  1.124E-04 0.000E+00

     total cpu time spent up to now is       18.7 secs

     total energy              =    -181.41485505 Ry
     estimated scf accuracy    <       0.00195418 Ry

     iteration #  5     ecut=    40.00 Ry     beta= 0.10
     Davidson diagonalization with overlap
     ethr =  7.52E-06,  avg # of iterations =  1.8

     negative rho (up, down):  1.018E-04 0.000E+00

     total cpu time spent up to now is       19.5 secs

     total energy              =    -181.41500432 Ry
     estimated scf accuracy    <       0.00011622 Ry

     iteration #  6     ecut=    40.00 Ry     beta= 0.10
     Davidson diagonalization with overlap
     ethr =  4.47E-07,  avg # of iterations =  2.9

     negative rho (up, down):  1.047E-04 0.000E+00

     total cpu time spent up to now is       20.4 secs

     total energy              =    -181.41498719 Ry
     estimated scf accuracy    <       0.00008117 Ry

     iteration #  7     ecut=    40.00 Ry     beta= 0.10
     Davidson diagonalization with overlap
     ethr =  3.12E-07,  avg # of iterations =  2.0

     negative rho (up, down):  9.897E-05 0.000E+00

     total cpu time spent up to now is       21.2 secs

     total energy              =    -181.41500251 Ry
     estimated scf accuracy    <       0.00003677 Ry

     iteration #  8     ecut=    40.00 Ry     beta= 0.10
     Davidson diagonalization with overlap
     ethr =  1.41E-07,  avg # of iterations =  1.0

     negative rho (up, down):  9.209E-05 0.000E+00

     total cpu time spent up to now is       22.0 secs

     total energy              =    -181.41500200 Ry
     estimated scf accuracy    <       0.00000621 Ry

     iteration #  9     ecut=    40.00 Ry     beta= 0.10
     Davidson diagonalization with overlap
     ethr =  2.39E-08,  avg # of iterations =  2.3

     negative rho (up, down):  8.639E-05 0.000E+00

     total cpu time spent up to now is       22.9 secs

     total energy              =    -181.41500404 Ry
     estimated scf accuracy    <       0.00000176 Ry

     iteration # 10     ecut=    40.00 Ry     beta= 0.10
     Davidson diagonalization with overlap
     ethr =  6.76E-09,  avg # of iterations =  1.0

     negative rho (up, down):  5.218E-05 0.000E+00

     total cpu time spent up to now is       23.6 secs

     End of self-consistent calculation

          k = 0.0000 0.0000 0.0000 (  5837 PWs)   bands (ev):

   -62.6066 -36.8453 -36.8453 -36.6604 -17.0809 -13.7203  -7.7496  -6.7172
    -6.7172  -4.5794  -4.5794  -1.4924  -0.1295   0.7488   0.7488   1.9984
     1.9984   2.5360

     occupation numbers 
     1.0000   1.0000   1.0000   1.0000   1.0000   1.0000   1.0000   1.0000
     1.0000   1.0000   1.0000   1.0000   0.0000   0.0000   0.0000   0.0000
     0.0000   0.0000

          k = 0.0000 0.1283 0.0000 (  5807 PWs)   bands (ev):

   -62.6043 -36.8765 -36.8520 -36.6548 -16.9374 -13.7196  -7.6876  -6.8282
    -6.5313  -4.7871  -4.7756  -1.3840  -0.5209   0.6713   1.1099   1.6862
     1.7204   3.2014

     occupation numbers 
     1.0000   1.0000   1.0000   1.0000   1.0000   1.0000   1.0000   1.0000
     1.0000   1.0000   1.0000   1.0000   0.0000   0.0000   0.0000   0.0000
     0.0000   0.0000

          k = 0.0000 0.2566 0.0000 (  5819 PWs)   bands (ev):

   -62.5986 -36.9548 -36.8691 -36.6406 -16.5664 -13.7168  -7.7664  -6.7253
    -6.0150  -5.2292  -5.1997  -1.5203  -1.4698   0.9791   1.0505   1.2951
     1.9440   4.5197

     occupation numbers 
     1.0000   1.0000   1.0000   1.0000   1.0000   1.0000   1.0000   1.0000
     1.0000   1.0000   1.0000   1.0000   1.0000   0.0000   0.0000   0.0000
     0.0000   0.0000

          k = 0.0000 0.3849 0.0000 (  5779 PWs)   bands (ev):

   -62.5921 -37.0424 -36.8883 -36.6244 -16.1310 -13.7118  -7.9428  -6.3468
    -5.6386  -5.6249  -5.3107  -2.3949  -1.7240   0.2052   0.5727   1.9197
     2.7957   5.0167

     occupation numbers 
     1.0000   1.0000   1.0000   1.0000   1.0000   1.0000   1.0000   1.0000
     1.0000   1.0000   1.0000   1.0000   1.0000   0.0000   0.0000   0.0000
     0.0000   0.0000

          k = 0.0000 0.5132 0.0000 (  5740 PWs)   bands (ev):

   -62.5878 -37.0987 -36.9009 -36.6138 -15.8398 -13.7074  -7.9411  -6.2577
    -5.8884  -5.8706  -4.7339  -2.4532  -1.8522  -0.3944  -0.3586   2.5741
     3.3039   5.0073

     occupation numbers 
     1.0000   1.0000   1.0000   1.0000   1.0000   1.0000   1.0000   1.0000
     1.0000   1.0000   1.0000   1.0000   1.0000   0.0000   0.0000   0.0000
     0.0000   0.0000

          k = 0.1111 0.1925 0.0000 (  5811 PWs)   bands (ev):

   -62.6003 -36.9287 -36.8665 -36.6449 -16.6796 -13.7172  -7.6982  -6.8266
    -6.1742  -5.2727  -4.9122  -1.3456  -1.2260   0.6743   1.0851   1.4917
     1.8391   4.4613

     occupation numbers 
     1.0000   1.0000   1.0000   1.0000   1.0000   1.0000   1.0000   1.0000
     1.0000   1.0000   1.0000   0.8333   0.0000   0.0000   0.0000   0.0000
     0.0000   0.0000

          k = 0.1111 0.3208 0.0000 (  5796 PWs)   bands (ev):

   -62.5942 -37.0056 -36.8906 -36.6297 -16.2738 -13.7098  -7.8374  -6.5008
    -5.9485  -5.5953  -5.0267  -2.2076  -1.5532   0.2633   1.0623   1.1959
     2.8100   5.0072

     occupation numbers 
     1.0000   1.0000   1.0000   1.0000   1.0000   1.0000   1.0000   1.0000
     1.0000   1.0000   1.0000   1.0000   1.0000   0.0000   0.0000   0.0000
     0.0000   0.0000

          k = 0.1111 0.4491 0.0000 (  5752 PWs)   bands (ev):

   -62.5888 -37.0720 -36.9121 -36.6162 -15.9069 -13.6990  -7.8389  -6.4794
    -6.2234  -5.0787  -5.0595  -2.7347  -1.8289  -0.5758   0.5064   2.0478
     3.3703   5.3248

     occupation numbers 
     1.0000   1.0000   1.0000   1.0000   1.0000   1.0000   1.0000   1.0000
     1.0000   1.0000   1.0000   1.0000   1.0000   0.0000   0.0000   0.0000
     0.0000   0.0000

          k = 0.1111-0.5774 0.0000 (  5736 PWs)   bands (ev):

   -62.5867 -37.0979 -36.9205 -36.6109 -15.7599 -13.6935  -7.7516  -6.6764
    -6.2622  -5.0911  -4.8054  -2.6782  -1.9356  -1.0976   0.2654   2.5482
     3.3701   5.1775

     occupation numbers 
     1.0000   1.0000   1.0000   1.0000   1.0000   1.0000   1.0000   1.0000
     1.0000   1.0000   1.0000   1.0000   1.0000   0.0000   0.0000   0.0000
     0.0000   0.0000

          k = 0.2222 0.3849 0.0000 (  5753 PWs)   bands (ev):

   -62.5892 -37.0501 -36.9280 -36.6172 -15.9325 -13.6904  -7.7153  -6.7019
    -6.1951  -5.3173  -4.7255  -2.8785  -1.7951  -0.6085   0.8444   1.6286
     3.5172   5.6008

     occupation numbers 
     1.0000   1.0000   1.0000   1.0000   1.0000   1.0000   1.0000   1.0000
     1.0000   1.0000   1.0000   1.0000   1.0000   0.0000   0.0000   0.0000
     0.0000   0.0000

          k = 0.2222-0.6415 0.0000 (  5749 PWs)   bands (ev):

   -62.5859 -37.0733 -36.9580 -36.6091 -15.7062 -13.6704  -7.3561  -7.1545
    -6.1510  -5.4138  -4.4478  -2.9607  -2.1144  -1.4112   0.9437   2.3543
     3.4213   5.3951

     occupation numbers 
     1.0000   1.0000   1.0000   1.0000   1.0000   1.0000   1.0000   1.0000
     1.0000   1.0000   1.0000   1.0000   1.0000   1.0000   0.0000   0.0000
     0.0000   0.0000

          k = 0.3333-0.5774 0.0000 (  5760 PWs)   bands (ev):

   -62.5848 -37.0602 -36.9899 -36.6063 -15.6264 -13.6541  -7.4076  -6.6670
    -6.3359  -5.9776  -4.1024  -2.8160  -2.3559  -1.8980   1.3251   2.7994
     3.0775   5.0332

     occupation numbers 
     1.0000   1.0000   1.0000   1.0000   1.0000   1.0000   1.0000   1.0000
     1.0000   1.0000   1.0000   1.0000   1.0000   1.0000   0.0000   0.0000
     0.0000   0.0000

     the Fermi energy is    -1.3448 ev

!    total energy              =    -181.41500400 Ry
     estimated scf accuracy    <       0.00000033 Ry
     smearing contrib. (-TS)   =      -0.00000063 Ry
     internal energy E=F+TS    =    -181.41500336 Ry

     The total energy is F=E-TS. E is the sum of the following terms:
     one-electron contribution =   -1073.42488611 Ry
     hartree contribution      =     536.05777808 Ry
     xc contribution           =     -29.96495733 Ry
     ewald contribution        =     385.91706201 Ry

     convergence has been achieved in  10 iterations

     negative rho (up, down):  5.218E-05 0.000E+00

     Forces acting on atoms (cartesian axes, Ry/au):

     atom    1 type  1   force =     0.00000000   -0.00000000    0.00000000
     atom    2 type  2   force =     0.00000000    0.00000000    0.24331729
     atom    3 type  2   force =     0.00000000    0.00000000   -0.24331729
     The non-local contrib.  to forces
     atom    1 type  1   force =     0.00000000    0.00000000    0.00000000
     atom    2 type  2   force =     0.00000000    0.00000000   -0.20597839
     atom    3 type  2   force =     0.00000000    0.00000000    0.20597839
     The ionic contribution  to forces
     atom    1 type  1   force =    -0.00000003   -0.00000002   -0.00000000
     atom    2 type  2   force =     0.00000002    0.00000001   30.68242957
     atom    3 type  2   force =     0.00000002    0.00000001  -30.68242957
     The local contribution  to forces
     atom    1 type  1   force =     0.00000000    0.00000000    0.00000000
     atom    2 type  2   force =     0.00000002    0.00000001  -30.23348903
     atom    3 type  2   force =     0.00000002    0.00000001   30.23348903
     The core correction contribution to forces
     atom    1 type  1   force =     0.00000000    0.00000000   -0.00000000
     atom    2 type  2   force =    -0.00000000   -0.00000000    0.00025316
     atom    3 type  2   force =    -0.00000000   -0.00000000   -0.00025316
     The Hubbard contrib.    to forces
     atom    1 type  1   force =     0.00000000    0.00000000    0.00000000
     atom    2 type  2   force =     0.00000000    0.00000000    0.00000000
     atom    3 type  2   force =     0.00000000    0.00000000    0.00000000
     The SCF correction term to forces
     atom    1 type  1   force =    -0.00000000   -0.00000000   -0.00000000
     atom    2 type  2   force =     0.00000000    0.00000000    0.00010198
     atom    3 type  2   force =     0.00000000    0.00000000   -0.00010198

     Total force =     0.344103     Total SCF correction =     0.000144
     Energy error            =      2.4E-01
     Gradient error          =      2.4E-01

     number of scf cycles    =   2
     number of bfgs steps    =   1

     energy   old            =    -181.1781969635 Ry
     energy   new            =    -181.4150039983 Ry

     CASE: energy  _new < energy  _old

     new trust radius        =       0.4195228955 bohr
     new conv_thr            =       0.0000010000 Ry


ATOMIC_POSITIONS (crystal)
Mo            0.0000000000        0.0000000000        0.5000000000    0   0   0
S             0.6666666660        0.6666666660        0.5711910958    0   0   1
S             0.6666666660        0.6666666660        0.4288089042    0   0   1



     Writing output data file ./outdir/MoS2.save/
     NEW-OLD atomic charge density approx. for the potential

     negative rho (up, down):  5.660E-05 0.000E+00

     total cpu time spent up to now is       25.1 secs

     Self-consistent Calculation

     iteration #  1     ecut=    40.00 Ry     beta= 0.10
     Davidson diagonalization with overlap
     ethr =  1.00E-06,  avg # of iterations = 12.6

     negative rho (up, down):  5.544E-05 0.000E+00

     total cpu time spent up to now is       26.8 secs

     total energy              =    -181.53886291 Ry
     estimated scf accuracy    <       0.02819668 Ry

     iteration #  2     ecut=    40.00 Ry     beta= 0.10
     Davidson diagonalization with overlap
     ethr =  1.08E-04,  avg # of iterations =  1.0

     negative rho (up, down):  5.630E-05 0.000E+00

     total cpu time spent up to now is       27.6 secs

     total energy              =    -181.53831873 Ry
     estimated scf accuracy    <       0.00848041 Ry

     iteration #  3     ecut=    40.00 Ry     beta= 0.10
     Davidson diagonalization with overlap
     ethr =  3.26E-05,  avg # of iterations =  1.9

     negative rho (up, down):  1.119E-04 0.000E+00

     total cpu time spent up to now is       28.4 secs

     total energy              =    -181.53848365 Ry
     estimated scf accuracy    <       0.00268748 Ry

     iteration #  4     ecut=    40.00 Ry     beta= 0.10
     Davidson diagonalization with overlap
     ethr =  1.03E-05,  avg # of iterations =  2.0

     negative rho (up, down):  1.101E-04 0.000E+00

     total cpu time spent up to now is       29.2 secs

     total energy              =    -181.53861134 Ry
     estimated scf accuracy    <       0.00079450 Ry

     iteration #  5     ecut=    40.00 Ry     beta= 0.10
     Davidson diagonalization with overlap
     ethr =  3.06E-06,  avg # of iterations =  1.9

     negative rho (up, down):  1.128E-04 0.000E+00

     total cpu time spent up to now is       30.0 secs

     total energy              =    -181.53873278 Ry
     estimated scf accuracy    <       0.00015488 Ry

     iteration #  6     ecut=    40.00 Ry     beta= 0.10
     Davidson diagonalization with overlap
     ethr =  5.96E-07,  avg # of iterations =  2.0

     negative rho (up, down):  1.106E-04 0.000E+00

     total cpu time spent up to now is       30.9 secs

     total energy              =    -181.53874125 Ry
     estimated scf accuracy    <       0.00006657 Ry

     iteration #  7     ecut=    40.00 Ry     beta= 0.10
     Davidson diagonalization with overlap
     ethr =  2.56E-07,  avg # of iterations =  1.4

     negative rho (up, down):  1.019E-04 0.000E+00

     total cpu time spent up to now is       31.7 secs

     total energy              =    -181.53874312 Ry
     estimated scf accuracy    <       0.00001066 Ry

     iteration #  8     ecut=    40.00 Ry     beta= 0.10
     Davidson diagonalization with overlap
     ethr =  4.10E-08,  avg # of iterations =  2.0

     negative rho (up, down):  4.805E-05 0.000E+00

     total cpu time spent up to now is       32.5 secs

     End of self-consistent calculation

          k = 0.0000 0.0000 0.0000 (  5837 PWs)   bands (ev):

   -62.7677 -36.8336 -36.8336 -36.8059 -15.6477 -13.9070  -6.9957  -5.1095
    -5.1095  -3.8399  -3.8399  -2.5455  -0.9303   0.6355   0.6355   1.2074
     1.2074   3.2097

     occupation numbers 
     1.0000   1.0000   1.0000   1.0000   1.0000   1.0000   1.0000   1.0000
     1.0000   1.0000   1.0000   1.0000   0.0000   0.0000   0.0000   0.0000
     0.0000   0.0000

          k = 0.0000 0.1283 0.0000 (  5807 PWs)   bands (ev):

   -62.7658 -36.8576 -36.8391 -36.8014 -15.5116 -13.8717  -6.8575  -5.3671
    -4.9527  -4.2055  -4.0521  -2.3453  -1.1836   0.5063   0.9285   0.9800
     1.0056   3.8336

     occupation numbers 
     1.0000   1.0000   1.0000   1.0000   1.0000   1.0000   1.0000   1.0000
     1.0000   1.0000   1.0000   1.0000   1.0000   0.0000   0.0000   0.0000
     0.0000   0.0000

          k = 0.0000 0.2566 0.0000 (  5819 PWs)   bands (ev):

   -62.7610 -36.9177 -36.8529 -36.7900 -15.1510 -13.7780  -6.6537  -5.7400
    -4.8485  -4.5277  -4.4987  -2.3592  -1.8773   0.5563   0.7235   0.7433
     1.5597   4.6223

     occupation numbers 
     1.0000   1.0000   1.0000   1.0000   1.0000   1.0000   1.0000   1.0000
     1.0000   1.0000   1.0000   1.0000   1.0000   0.0000   0.0000   0.0000
     0.0000   0.0000

          k = 0.0000 0.3849 0.0000 (  5779 PWs)   bands (ev):

   -62.7556 -36.9853 -36.8685 -36.7769 -14.7066 -13.6631  -6.8754  -5.6452
    -5.4461  -4.9085  -3.9795  -2.6177  -2.4173   0.1113   0.5418   1.3942
     2.1366   5.1237

     occupation numbers 
     1.0000   1.0000   1.0000   1.0000   1.0000   1.0000   1.0000   1.0000
     1.0000   1.0000   1.0000   1.0000   1.0000   0.0000   0.0000   0.0000
     0.0000   0.0000

          k = 0.0000 0.5132 0.0000 (  5740 PWs)   bands (ev):

   -62.7521 -37.0290 -36.8787 -36.7683 -14.3912 -13.5823  -7.1023  -5.8135
    -5.6431  -5.1398  -3.5686  -2.7757  -2.2983  -0.1637   0.1944   1.9118
     2.4474   4.5968

     occupation numbers 
     1.0000   1.0000   1.0000   1.0000   1.0000   1.0000   1.0000   1.0000
     1.0000   1.0000   1.0000   1.0000   1.0000   0.0000   0.0000   0.0000
     0.0000   0.0000

          k = 0.1111 0.1925 0.0000 (  5811 PWs)   bands (ev):

   -62.7625 -36.8975 -36.8508 -36.7934 -15.2628 -13.8068  -6.6659  -5.6790
    -4.6767  -4.6408  -4.4376  -2.2342  -1.6721   0.4475   0.6283   0.8263
     1.4839   4.4691

     occupation numbers 
     1.0000   1.0000   1.0000   1.0000   1.0000   1.0000   1.0000   1.0000
     1.0000   1.0000   1.0000   1.0000   1.0000   0.0000   0.0000   0.0000
     0.0000   0.0000

          k = 0.1111 0.3208 0.0000 (  5796 PWs)   bands (ev):

   -62.7574 -36.9566 -36.8703 -36.7812 -14.8573 -13.6996  -6.6907  -5.6961
    -5.3657  -4.7133  -4.2845  -2.3983  -2.3320   0.2154   0.6488   0.8286
     2.1529   5.1478

     occupation numbers 
     1.0000   1.0000   1.0000   1.0000   1.0000   1.0000   1.0000   1.0000
     1.0000   1.0000   1.0000   1.0000   1.0000   0.0000   0.0000   0.0000
     0.0000   0.0000

          k = 0.1111 0.4491 0.0000 (  5752 PWs)   bands (ev):

   -62.7529 -37.0077 -36.8877 -36.7704 -14.4704 -13.5963  -6.9010  -5.9679
    -5.5715  -4.8275  -3.9955  -2.6989  -2.4995  -0.0943   0.4458   1.5093
     2.4663   5.1586

     occupation numbers 
     1.0000   1.0000   1.0000   1.0000   1.0000   1.0000   1.0000   1.0000
     1.0000   1.0000   1.0000   1.0000   1.0000   0.0000   0.0000   0.0000
     0.0000   0.0000

          k = 0.1111-0.5774 0.0000 (  5736 PWs)   bands (ev):

   -62.7512 -37.0277 -36.8946 -36.7661 -14.3082 -13.5527  -6.9676  -6.1947
    -5.6374  -4.8539  -3.8628  -2.8296  -2.3274  -0.3625   0.4286   1.9319
     2.4060   4.7143

     occupation numbers 
     1.0000   1.0000   1.0000   1.0000   1.0000   1.0000   1.0000   1.0000
     1.0000   1.0000   1.0000   1.0000   1.0000   0.0000   0.0000   0.0000
     0.0000   0.0000

          k = 0.2222 0.3849 0.0000 (  5753 PWs)   bands (ev):

   -62.7533 -36.9899 -36.9008 -36.7711 -14.5031 -13.5989  -6.7148  -6.0861
    -5.4788  -4.6505  -4.4072  -2.6053  -2.5872  -0.0662   0.5610   1.1606
     2.5663   5.6752

     occupation numbers 
     1.0000   1.0000   1.0000   1.0000   1.0000   1.0000   1.0000   1.0000
     1.0000   1.0000   1.0000   1.0000   1.0000   0.0000   0.0000   0.0000
     0.0000   0.0000

          k = 0.2222-0.6415 0.0000 (  5749 PWs)   bands (ev):

   -62.7506 -37.0064 -36.9258 -36.7646 -14.2591 -13.5251  -6.5640  -6.5451
    -5.5124  -4.7154  -4.4657  -2.9325  -2.3551  -0.6207   0.9109   1.6995
     2.4786   5.2010

     occupation numbers 
     1.0000   1.0000   1.0000   1.0000   1.0000   1.0000   1.0000   1.0000
     1.0000   1.0000   1.0000   1.0000   1.0000   0.0000   0.0000   0.0000
     0.0000   0.0000

          k = 0.3333-0.5774 0.0000 (  5760 PWs)   bands (ev):

   -62.7496 -36.9906 -36.9562 -36.7623 -14.1752 -13.4932  -6.7725  -6.0128
    -5.6182  -5.3726  -4.2090  -3.1554  -2.0914  -1.0685   1.3135   1.8672
     2.3845   5.0644

     occupation numbers 
     1.0000   1.0000   1.0000   1.0000   1.0000   1.0000   1.0000   1.0000
     1.0000   1.0000   1.0000   1.0000   1.0000   0.5000   0.0000   0.0000
     0.0000   0.0000

     the Fermi energy is    -1.0683 ev

!    total energy              =    -181.53874516 Ry
     estimated scf accuracy    <       0.00000035 Ry
     smearing contrib. (-TS)   =      -0.00000081 Ry
     internal energy E=F+TS    =    -181.53874434 Ry

     The total energy is F=E-TS. E is the sum of the following terms:
     one-electron contribution =   -1022.76061902 Ry
     hartree contribution      =     510.80055578 Ry
     xc contribution           =     -29.59922035 Ry
     ewald contribution        =     360.02053925 Ry

     convergence has been achieved in   8 iterations

     negative rho (up, down):  4.805E-05 0.000E+00

     Forces acting on atoms (cartesian axes, Ry/au):

     atom    1 type  1   force =    -0.00000000    0.00000000    0.00000000
     atom    2 type  2   force =     0.00000000   -0.00000000    0.05460268
     atom    3 type  2   force =     0.00000000   -0.00000000   -0.05460268
     The non-local contrib.  to forces
     atom    1 type  1   force =    -0.00000000   -0.00000000    0.00000000
     atom    2 type  2   force =     0.00000000   -0.00000000   -0.27237754
     atom    3 type  2   force =     0.00000000   -0.00000000    0.27237754
     The ionic contribution  to forces
     atom    1 type  1   force =    -0.00000002   -0.00000001   -0.00000000
     atom    2 type  2   force =     0.00000001    0.00000001   30.98305783
     atom    3 type  2   force =     0.00000001    0.00000001  -30.98305783
     The local contribution  to forces
     atom    1 type  1   force =     0.00000000   -0.00000000    0.00000000
     atom    2 type  2   force =     0.00000002    0.00000001  -30.65954446
     atom    3 type  2   force =     0.00000002    0.00000001   30.65954446
     The core correction contribution to forces
     atom    1 type  1   force =    -0.00000000    0.00000000   -0.00000000
     atom    2 type  2   force =    -0.00000000   -0.00000000    0.00304963
     atom    3 type  2   force =    -0.00000000   -0.00000000   -0.00304963
     The Hubbard contrib.    to forces
     atom    1 type  1   force =     0.00000000    0.00000000    0.00000000
     atom    2 type  2   force =     0.00000000    0.00000000    0.00000000
     atom    3 type  2   force =     0.00000000    0.00000000    0.00000000
     The SCF correction term to forces
     atom    1 type  1   force =    -0.00000000   -0.00000000   -0.00000000
     atom    2 type  2   force =     0.00000000    0.00000000    0.00041723
     atom    3 type  2   force =     0.00000000    0.00000000   -0.00041723

     Total force =     0.077220     Total SCF correction =     0.000590
     Energy error            =      1.2E-01
     Gradient error          =      5.5E-02

     number of scf cycles    =   3
     number of bfgs steps    =   2

     energy   old            =    -181.4150039983 Ry
     energy   new            =    -181.5387451550 Ry

     CASE: energy  _new < energy  _old

     new trust radius        =       0.1213847546 bohr
     new conv_thr            =       0.0000005460 Ry


ATOMIC_POSITIONS (crystal)
Mo            0.0000000000        0.0000000000        0.5000000000    0   0   0
S             0.6666666660        0.6666666660        0.5744027981    0   0   1
S             0.6666666660        0.6666666660        0.4255972019    0   0   1



     Writing output data file ./outdir/MoS2.save/
     NEW-OLD atomic charge density approx. for the potential

     negative rho (up, down):  6.060E-05 0.000E+00

     total cpu time spent up to now is       34.0 secs

     Self-consistent Calculation

     iteration #  1     ecut=    40.00 Ry     beta= 0.10
     Davidson diagonalization with overlap
     ethr =  1.00E-06,  avg # of iterations =  8.8

     negative rho (up, down):  5.921E-05 0.000E+00

     total cpu time spent up to now is       35.4 secs

     total energy              =    -181.54653049 Ry
     estimated scf accuracy    <       0.00119758 Ry

     iteration #  2     ecut=    40.00 Ry     beta= 0.10
     Davidson diagonalization with overlap
     ethr =  4.61E-06,  avg # of iterations =  1.0

     negative rho (up, down):  5.850E-05 0.000E+00

     total cpu time spent up to now is       36.2 secs

     total energy              =    -181.54650659 Ry
     estimated scf accuracy    <       0.00046913 Ry

     iteration #  3     ecut=    40.00 Ry     beta= 0.10
     Davidson diagonalization with overlap
     ethr =  1.80E-06,  avg # of iterations =  1.0

     negative rho (up, down):  8.083E-05 0.000E+00

     total cpu time spent up to now is       36.9 secs

     total energy              =    -181.54648088 Ry
     estimated scf accuracy    <       0.00021969 Ry

     iteration #  4     ecut=    40.00 Ry     beta= 0.10
     Davidson diagonalization with overlap
     ethr =  8.45E-07,  avg # of iterations =  2.0

     negative rho (up, down):  7.666E-05 0.000E+00

     total cpu time spent up to now is       37.8 secs

     total energy              =    -181.54650205 Ry
     estimated scf accuracy    <       0.00001513 Ry

     iteration #  5     ecut=    40.00 Ry     beta= 0.10
     Davidson diagonalization with overlap
     ethr =  5.82E-08,  avg # of iterations =  2.0

     negative rho (up, down):  8.187E-05 0.000E+00

     total cpu time spent up to now is       38.6 secs

     total energy              =    -181.54650324 Ry
     estimated scf accuracy    <       0.00001028 Ry

     iteration #  6     ecut=    40.00 Ry     beta= 0.10
     Davidson diagonalization with overlap
     ethr =  3.95E-08,  avg # of iterations =  2.0

     negative rho (up, down):  7.652E-05 0.000E+00

     total cpu time spent up to now is       39.4 secs

     total energy              =    -181.54650468 Ry
     estimated scf accuracy    <       0.00000161 Ry

     iteration #  7     ecut=    40.00 Ry     beta= 0.10
     Davidson diagonalization with overlap
     ethr =  6.20E-09,  avg # of iterations =  1.1

     negative rho (up, down):  7.276E-05 0.000E+00

     total cpu time spent up to now is       40.2 secs

     total energy              =    -181.54650422 Ry
     estimated scf accuracy    <       0.00000081 Ry

     iteration #  8     ecut=    40.00 Ry     beta= 0.10
     Davidson diagonalization with overlap
     ethr =  3.12E-09,  avg # of iterations =  2.0

     negative rho (up, down):  4.843E-05 0.000E+00

     total cpu time spent up to now is       41.1 secs

     End of self-consistent calculation

          k = 0.0000 0.0000 0.0000 (  5837 PWs)   bands (ev):

   -62.7736 -36.8065 -36.8036 -36.8036 -15.3520 -13.9088  -6.7938  -4.7006
    -4.7006  -3.5910  -3.5910  -2.7407  -1.1199   0.6178   0.6178   1.0267
     1.0267   3.2827

     occupation numbers 
     1.0000   1.0000   1.0000   1.0000   1.0000   1.0000   1.0000   1.0000
     1.0000   1.0000   1.0000   1.0000   1.0000   0.0000   0.0000   0.0000
     0.0000   0.0000

          k = 0.0000 0.1283 0.0000 (  5807 PWs)   bands (ev):

   -62.7718 -36.8262 -36.8088 -36.8023 -15.2184 -13.8647  -6.6447  -4.9874
    -4.5518  -4.0239  -3.8035  -2.4993  -1.3337   0.4806   0.7960   0.8488
     0.8887   3.8577

     occupation numbers 
     1.0000   1.0000   1.0000   1.0000   1.0000   1.0000   1.0000   1.0000
     1.0000   1.0000   1.0000   1.0000   1.0000   0.0000   0.0000   0.0000
     0.0000   0.0000

          k = 0.0000 0.2566 0.0000 (  5819 PWs)   bands (ev):

   -62.7673 -36.8829 -36.8220 -36.7916 -14.8622 -13.7475  -6.3804  -5.4732
    -4.7134  -4.2494  -4.1530  -2.5211  -1.9385   0.4595   0.5799   0.6712
     1.4591   4.6185

     occupation numbers 
     1.0000   1.0000   1.0000   1.0000   1.0000   1.0000   1.0000   1.0000
     1.0000   1.0000   1.0000   1.0000   1.0000   0.0000   0.0000   0.0000
     0.0000   0.0000

          k = 0.0000 0.3849 0.0000 (  5779 PWs)   bands (ev):

   -62.7621 -36.9466 -36.8369 -36.7794 -14.4181 -13.6027  -6.5905  -5.4740
    -5.3515  -4.6578  -3.6520  -2.7896  -2.3921   0.0970   0.4814   1.2957
     1.9632   5.1621

     occupation numbers 
     1.0000   1.0000   1.0000   1.0000   1.0000   1.0000   1.0000   1.0000
     1.0000   1.0000   1.0000   1.0000   1.0000   0.0000   0.0000   0.0000
     0.0000   0.0000

          k = 0.0000 0.5132 0.0000 (  5740 PWs)   bands (ev):

   -62.7587 -36.9878 -36.8466 -36.7714 -14.0986 -13.5003  -6.8831  -5.7481
    -5.4708  -4.8881  -3.2918  -2.9519  -2.2489  -0.1018   0.2950   1.7798
     2.2272   4.4984

     occupation numbers 
     1.0000   1.0000   1.0000   1.0000   1.0000   1.0000   1.0000   1.0000
     1.0000   1.0000   1.0000   1.0000   1.0000   0.0000   0.0000   0.0000
     0.0000   0.0000

          k = 0.1111 0.1925 0.0000 (  5811 PWs)   bands (ev):

   -62.7686 -36.8638 -36.8200 -36.7948 -14.9730 -13.7837  -6.4182  -5.3654
    -4.4593  -4.2981  -4.2392  -2.3811  -1.7577   0.4152   0.5055   0.6592
     1.3938   4.4557

     occupation numbers 
     1.0000   1.0000   1.0000   1.0000   1.0000   1.0000   1.0000   1.0000
     1.0000   1.0000   1.0000   1.0000   1.0000   0.0000   0.0000   0.0000
     0.0000   0.0000

          k = 0.1111 0.3208 0.0000 (  5796 PWs)   bands (ev):

   -62.7638 -36.9195 -36.8386 -36.7834 -14.5697 -13.6499  -6.3859  -5.5032
    -5.1802  -4.5672  -3.9641  -2.5506  -2.3203   0.1862   0.5254   0.7679
     1.9841   5.1670

     occupation numbers 
     1.0000   1.0000   1.0000   1.0000   1.0000   1.0000   1.0000   1.0000
     1.0000   1.0000   1.0000   1.0000   1.0000   0.0000   0.0000   0.0000
     0.0000   0.0000

          k = 0.1111 0.4491 0.0000 (  5752 PWs)   bands (ev):

   -62.7595 -36.9677 -36.8552 -36.7733 -14.1801 -13.5207  -6.6537  -5.8044
    -5.4044  -4.6903  -3.7545  -2.8615  -2.3987   0.0008   0.4127   1.4010
     2.2458   5.1022

     occupation numbers 
     1.0000   1.0000   1.0000   1.0000   1.0000   1.0000   1.0000   1.0000
     1.0000   1.0000   1.0000   1.0000   1.0000   0.0000   0.0000   0.0000
     0.0000   0.0000

          k = 0.1111-0.5774 0.0000 (  5736 PWs)   bands (ev):

   -62.7578 -36.9866 -36.8617 -36.7693 -14.0149 -13.4661  -6.7653  -6.0413
    -5.4582  -4.7169  -3.6576  -2.9985  -2.2111  -0.2089   0.4656   1.8031
     2.1732   4.5833

     occupation numbers 
     1.0000   1.0000   1.0000   1.0000   1.0000   1.0000   1.0000   1.0000
     1.0000   1.0000   1.0000   1.0000   1.0000   0.0000   0.0000   0.0000
     0.0000   0.0000

          k = 0.2222 0.3849 0.0000 (  5753 PWs)   bands (ev):

   -62.7598 -36.9507 -36.8677 -36.7740 -14.2139 -13.5263  -6.4475  -5.8746
    -5.3125  -4.5850  -4.1983  -2.7530  -2.4625   0.0554   0.4596   1.0691
     2.3406   5.6709

     occupation numbers 
     1.0000   1.0000   1.0000   1.0000   1.0000   1.0000   1.0000   1.0000
     1.0000   1.0000   1.0000   1.0000   1.0000   0.0000   0.0000   0.0000
     0.0000   0.0000

          k = 0.2222-0.6415 0.0000 (  5749 PWs)   bands (ev):

   -62.7572 -36.9660 -36.8916 -36.7679 -13.9664 -13.4369  -6.3608  -6.3340
    -5.3397  -4.5486  -4.4243  -3.0850  -2.1891  -0.4324   0.8750   1.5360
     2.2828   5.1010

     occupation numbers 
     1.0000   1.0000   1.0000   1.0000   1.0000   1.0000   1.0000   1.0000
     1.0000   1.0000   1.0000   1.0000   1.0000   0.0000   0.0000   0.0000
     0.0000   0.0000

          k = 0.3333-0.5774 0.0000 (  5760 PWs)   bands (ev):

   -62.7563 -36.9497 -36.9217 -36.7658 -13.8814 -13.4003  -6.5492  -5.8558
    -5.4258  -5.2051  -4.1957  -3.3061  -1.9286  -0.8386   1.2622   1.6233
     2.2620   5.0596

     occupation numbers 
     1.0000   1.0000   1.0000   1.0000   1.0000   1.0000   1.0000   1.0000
     1.0000   1.0000   1.0000   1.0000   1.0000   0.0000   0.0000   0.0000
     0.0000   0.0000

     the Fermi energy is    -1.0109 ev

!    total energy              =    -181.54650435 Ry
     estimated scf accuracy    <       0.00000023 Ry
     smearing contrib. (-TS)   =       0.00000000 Ry
     internal energy E=F+TS    =    -181.54650435 Ry

     The total energy is F=E-TS. E is the sum of the following terms:
     one-electron contribution =   -1007.99078107 Ry
     hartree contribution      =     503.45598971 Ry
     xc contribution           =     -29.50815230 Ry
     ewald contribution        =     352.49643931 Ry

     convergence has been achieved in   8 iterations

     negative rho (up, down):  4.843E-05 0.000E+00

     Forces acting on atoms (cartesian axes, Ry/au):

     atom    1 type  1   force =    -0.00000000    0.00000000    0.00000000
     atom    2 type  2   force =    -0.00000000    0.00000000    0.00899977
     atom    3 type  2   force =    -0.00000000    0.00000000   -0.00899977
     The non-local contrib.  to forces
     atom    1 type  1   force =     0.00000000    0.00000000    0.00000000
     atom    2 type  2   force =     0.00000000    0.00000000   -0.28986448
     atom    3 type  2   force =     0.00000000    0.00000000    0.28986448
     The ionic contribution  to forces
     atom    1 type  1   force =    -0.00000002   -0.00000001   -0.00000000
     atom    2 type  2   force =     0.00000001    0.00000001   30.99692400
     atom    3 type  2   force =     0.00000001    0.00000001  -30.99692400
     The local contribution  to forces
     atom    1 type  1   force =     0.00000000    0.00000000    0.00000000
     atom    2 type  2   force =     0.00000003    0.00000001  -30.70168381
     atom    3 type  2   force =     0.00000003    0.00000001   30.70168381
     The core correction contribution to forces
     atom    1 type  1   force =    -0.00000000   -0.00000000   -0.00000000
     atom    2 type  2   force =    -0.00000000   -0.00000000    0.00379141
     atom    3 type  2   force =    -0.00000000   -0.00000000   -0.00379141
     The Hubbard contrib.    to forces
     atom    1 type  1   force =     0.00000000    0.00000000    0.00000000
     atom    2 type  2   force =     0.00000000    0.00000000    0.00000000
     atom    3 type  2   force =     0.00000000    0.00000000    0.00000000
     The SCF correction term to forces
     atom    1 type  1   force =    -0.00000000   -0.00000000    0.00000000
     atom    2 type  2   force =     0.00000000    0.00000000   -0.00016734
     atom    3 type  2   force =     0.00000000    0.00000000    0.00016734

     Total force =     0.012728     Total SCF correction =     0.000237
     Energy error            =      7.8E-03
     Gradient error          =      9.0E-03

     number of scf cycles    =   4
     number of bfgs steps    =   3

     energy   old            =    -181.5387451550 Ry
     energy   new            =    -181.5465043488 Ry

     CASE: energy  _new < energy  _old

     new trust radius        =       0.0239553837 bohr
     new conv_thr            =       0.0000000900 Ry


ATOMIC_POSITIONS (crystal)
Mo            0.0000000000        0.0000000000        0.5000000000    0   0   0
S             0.6666666660        0.6666666660        0.5750366302    0   0   1
S             0.6666666660        0.6666666660        0.4249633698    0   0   1



     Writing output data file ./outdir/MoS2.save/
     NEW-OLD atomic charge density approx. for the potential

     negative rho (up, down):  4.919E-05 0.000E+00

     total cpu time spent up to now is       42.6 secs

     Self-consistent Calculation

     iteration #  1     ecut=    40.00 Ry     beta= 0.10
     Davidson diagonalization with overlap
     ethr =  1.00E-06,  avg # of iterations =  5.8

     negative rho (up, down):  4.907E-05 0.000E+00

     total cpu time spent up to now is       43.7 secs

     total energy              =    -181.54672687 Ry
     estimated scf accuracy    <       0.00006088 Ry

     iteration #  2     ecut=    40.00 Ry     beta= 0.10
     Davidson diagonalization with overlap
     ethr =  2.34E-07,  avg # of iterations =  1.1

     negative rho (up, down):  4.902E-05 0.000E+00

     total cpu time spent up to now is       44.4 secs

     total energy              =    -181.54672602 Ry
     estimated scf accuracy    <       0.00002189 Ry

     iteration #  3     ecut=    40.00 Ry     beta= 0.10
     Davidson diagonalization with overlap
     ethr =  8.42E-08,  avg # of iterations =  1.0

     negative rho (up, down):  5.020E-05 0.000E+00

     total cpu time spent up to now is       45.2 secs

     total energy              =    -181.54672504 Ry
     estimated scf accuracy    <       0.00000915 Ry

     iteration #  4     ecut=    40.00 Ry     beta= 0.10
     Davidson diagonalization with overlap
     ethr =  3.52E-08,  avg # of iterations =  2.0

     negative rho (up, down):  4.979E-05 0.000E+00

     total cpu time spent up to now is       46.0 secs

     total energy              =    -181.54672639 Ry
     estimated scf accuracy    <       0.00000113 Ry

     iteration #  5     ecut=    40.00 Ry     beta= 0.10
     Davidson diagonalization with overlap
     ethr =  4.36E-09,  avg # of iterations =  1.0

     negative rho (up, down):  4.989E-05 0.000E+00

     total cpu time spent up to now is       46.8 secs

     total energy              =    -181.54672610 Ry
     estimated scf accuracy    <       0.00000085 Ry

     iteration #  6     ecut=    40.00 Ry     beta= 0.10
     Davidson diagonalization with overlap
     ethr =  3.27E-09,  avg # of iterations =  3.1

     negative rho (up, down):  4.968E-05 0.000E+00

     total cpu time spent up to now is       47.7 secs

     total energy              =    -181.54672614 Ry
     estimated scf accuracy    <       0.00000153 Ry

     iteration #  7     ecut=    40.00 Ry     beta= 0.10
     Davidson diagonalization with overlap
     ethr =  3.27E-09,  avg # of iterations =  2.0

     negative rho (up, down):  4.960E-05 0.000E+00

     total cpu time spent up to now is       48.6 secs

     total energy              =    -181.54672627 Ry
     estimated scf accuracy    <       0.00000010 Ry

     iteration #  8     ecut=    40.00 Ry     beta= 0.10
     Davidson diagonalization with overlap
     ethr =  3.98E-10,  avg # of iterations =  3.1

     negative rho (up, down):  4.939E-05 0.000E+00

     total cpu time spent up to now is       49.5 secs

     total energy              =    -181.54672630 Ry
     estimated scf accuracy    <       0.00000015 Ry

     iteration #  9     ecut=    40.00 Ry     beta= 0.10
     Davidson diagonalization with overlap
     ethr =  3.98E-10,  avg # of iterations =  2.0

     negative rho (up, down):  4.820E-05 0.000E+00

     total cpu time spent up to now is       50.3 secs

     End of self-consistent calculation

          k = 0.0000 0.0000 0.0000 (  5837 PWs)   bands (ev):

   -62.7707 -36.8024 -36.7946 -36.7946 -15.2971 -13.9060  -6.7541  -4.6214
    -4.6214  -3.5396  -3.5396  -2.7743  -1.1532   0.6161   0.6161   0.9947
     0.9947   3.2926

     occupation numbers 
     1.0000   1.0000   1.0000   1.0000   1.0000   1.0000   1.0000   1.0000
     1.0000   1.0000   1.0000   1.0000   1.0000   0.0000   0.0000   0.0000
     0.0000   0.0000

          k = 0.0000 0.1283 0.0000 (  5807 PWs)   bands (ev):

   -62.7689 -36.8169 -36.7998 -36.7982 -15.1640 -13.8603  -6.6031  -4.9135
    -4.4741  -3.9877  -3.7522  -2.5229  -1.3594   0.4776   0.7628   0.8212
     0.8826   3.8596

     occupation numbers 
     1.0000   1.0000   1.0000   1.0000   1.0000   1.0000   1.0000   1.0000
     1.0000   1.0000   1.0000   1.0000   1.0000   0.0000   0.0000   0.0000
     0.0000   0.0000

          k = 0.0000 0.2566 0.0000 (  5819 PWs)   bands (ev):

   -62.7644 -36.8730 -36.8128 -36.7876 -14.8086 -13.7387  -6.3281  -5.4202
    -4.6846  -4.1978  -4.0805  -2.5481  -1.9468   0.4431   0.5497   0.6634
     1.4412   4.6200

     occupation numbers 
     1.0000   1.0000   1.0000   1.0000   1.0000   1.0000   1.0000   1.0000
     1.0000   1.0000   1.0000   1.0000   1.0000   0.0000   0.0000   0.0000
     0.0000   0.0000

          k = 0.0000 0.3849 0.0000 (  5779 PWs)   bands (ev):

   -62.7593 -36.9361 -36.8276 -36.7756 -14.3648 -13.5882  -6.5343  -5.4405
    -5.3300  -4.6058  -3.5889  -2.8188  -2.3842   0.0965   0.4696   1.2790
     1.9315   5.1711

     occupation numbers 
     1.0000   1.0000   1.0000   1.0000   1.0000   1.0000   1.0000   1.0000
     1.0000   1.0000   1.0000   1.0000   1.0000   0.0000   0.0000   0.0000
     0.0000   0.0000

          k = 0.0000 0.5132 0.0000 (  5740 PWs)   bands (ev):

   -62.7559 -36.9769 -36.8372 -36.7677 -14.0448 -13.4817  -6.8396  -5.7322
    -5.4358  -4.8359  -3.2387  -2.9817  -2.2377  -0.0876   0.3133   1.7567
     2.1868   4.4811

     occupation numbers 
     1.0000   1.0000   1.0000   1.0000   1.0000   1.0000   1.0000   1.0000
     1.0000   1.0000   1.0000   1.0000   1.0000   0.0000   0.0000   0.0000
     0.0000   0.0000

          k = 0.1111 0.1925 0.0000 (  5811 PWs)   bands (ev):

   -62.7658 -36.8541 -36.8108 -36.7908 -14.9193 -13.7762  -6.3707  -5.3035
    -4.4240  -4.2248  -4.1960  -2.4041  -1.7706   0.4112   0.4823   0.6305
     1.3779   4.4562

     occupation numbers 
     1.0000   1.0000   1.0000   1.0000   1.0000   1.0000   1.0000   1.0000
     1.0000   1.0000   1.0000   1.0000   1.0000   0.0000   0.0000   0.0000
     0.0000   0.0000

          k = 0.1111 0.3208 0.0000 (  5796 PWs)   bands (ev):

   -62.7609 -36.9092 -36.8293 -36.7795 -14.5165 -13.6374  -6.3260  -5.4660
    -5.1426  -4.5348  -3.9025  -2.5754  -2.3141   0.1808   0.5039   0.7586
     1.9532   5.1726

     occupation numbers 
     1.0000   1.0000   1.0000   1.0000   1.0000   1.0000   1.0000   1.0000
     1.0000   1.0000   1.0000   1.0000   1.0000   0.0000   0.0000   0.0000
     0.0000   0.0000

          k = 0.1111 0.4491 0.0000 (  5752 PWs)   bands (ev):

   -62.7567 -36.9569 -36.8457 -36.7696 -14.1266 -13.5032  -6.6048  -5.7710
    -5.3711  -4.6592  -3.7087  -2.8885  -2.3762   0.0187   0.4078   1.3822
     2.2058   5.0910

     occupation numbers 
     1.0000   1.0000   1.0000   1.0000   1.0000   1.0000   1.0000   1.0000
     1.0000   1.0000   1.0000   1.0000   1.0000   0.0000   0.0000   0.0000
     0.0000   0.0000

          k = 0.1111-0.5774 0.0000 (  5736 PWs)   bands (ev):

   -62.7550 -36.9756 -36.8522 -36.7656 -13.9609 -13.4465  -6.7250  -6.0098
    -5.4218  -4.6856  -3.6187  -3.0268  -2.1865  -0.1799   0.4742   1.7799
     2.1314   4.5592

     occupation numbers 
     1.0000   1.0000   1.0000   1.0000   1.0000   1.0000   1.0000   1.0000
     1.0000   1.0000   1.0000   1.0000   1.0000   0.0000   0.0000   0.0000
     0.0000   0.0000

          k = 0.2222 0.3849 0.0000 (  5753 PWs)   bands (ev):

   -62.7570 -36.9401 -36.8581 -36.7703 -14.1606 -13.5094  -6.3945  -5.8308
    -5.2803  -4.5692  -4.1578  -2.7771  -2.4352   0.0792   0.4409   1.0534
     2.2999   5.6686

     occupation numbers 
     1.0000   1.0000   1.0000   1.0000   1.0000   1.0000   1.0000   1.0000
     1.0000   1.0000   1.0000   1.0000   1.0000   0.0000   0.0000   0.0000
     0.0000   0.0000

          k = 0.2222-0.6415 0.0000 (  5749 PWs)   bands (ev):

   -62.7545 -36.9552 -36.8818 -36.7643 -13.9125 -13.4170  -6.3204  -6.2901
    -5.3049  -4.5155  -4.4129  -3.1100  -2.1560  -0.3962   0.8687   1.5052
     2.2493   5.0810

     occupation numbers 
     1.0000   1.0000   1.0000   1.0000   1.0000   1.0000   1.0000   1.0000
     1.0000   1.0000   1.0000   1.0000   1.0000   0.0000   0.0000   0.0000
     0.0000   0.0000

          k = 0.3333-0.5774 0.0000 (  5760 PWs)   bands (ev):

   -62.7536 -36.9387 -36.9119 -36.7622 -13.8273 -13.3795  -6.5026  -5.8241
    -5.3871  -5.1714  -4.1902  -3.3308  -1.8972  -0.7932   1.2516   1.5782
     2.2411   5.0595

     occupation numbers 
     1.0000   1.0000   1.0000   1.0000   1.0000   1.0000   1.0000   1.0000
     1.0000   1.0000   1.0000   1.0000   1.0000   0.0000   0.0000   0.0000
     0.0000   0.0000

     the Fermi energy is    -1.0127 ev

!    total energy              =    -181.54672631 Ry
     estimated scf accuracy    <       0.00000002 Ry
     smearing contrib. (-TS)   =       0.00000000 Ry
     internal energy E=F+TS    =    -181.54672631 Ry

     The total energy is F=E-TS. E is the sum of the following terms:
     one-electron contribution =   -1005.07169472 Ry
     hartree contribution      =     502.00418668 Ry
     xc contribution           =     -29.49059439 Ry
     ewald contribution        =     351.01137613 Ry

     convergence has been achieved in   9 iterations

     negative rho (up, down):  4.820E-05 0.000E+00

     Forces acting on atoms (cartesian axes, Ry/au):

     atom    1 type  1   force =    -0.00000000    0.00000000    0.00000000
     atom    2 type  2   force =    -0.00000000   -0.00000000    0.00032417
     atom    3 type  2   force =     0.00000000   -0.00000000   -0.00032417
     The non-local contrib.  to forces
     atom    1 type  1   force =     0.00000000    0.00000000    0.00000000
     atom    2 type  2   force =     0.00000000    0.00000000   -0.29258554
     atom    3 type  2   force =     0.00000000    0.00000000    0.29258554
     The ionic contribution  to forces
     atom    1 type  1   force =    -0.00000002   -0.00000001   -0.00000000
     atom    2 type  2   force =     0.00000001    0.00000001   30.99574069
     atom    3 type  2   force =     0.00000001    0.00000001  -30.99574069
     The local contribution  to forces
     atom    1 type  1   force =     0.00000000    0.00000000    0.00000000
     atom    2 type  2   force =     0.00000003    0.00000001  -30.70647456
     atom    3 type  2   force =     0.00000003    0.00000001   30.70647456
     The core correction contribution to forces
     atom    1 type  1   force =     0.00000000   -0.00000000   -0.00000000
     atom    2 type  2   force =    -0.00000000   -0.00000000    0.00391627
     atom    3 type  2   force =    -0.00000000   -0.00000000   -0.00391627
     The Hubbard contrib.    to forces
     atom    1 type  1   force =     0.00000000    0.00000000    0.00000000
     atom    2 type  2   force =     0.00000000    0.00000000    0.00000000
     atom    3 type  2   force =     0.00000000    0.00000000    0.00000000
     The SCF correction term to forces
     atom    1 type  1   force =    -0.00000000   -0.00000000   -0.00000000
     atom    2 type  2   force =     0.00000000    0.00000000   -0.00027269
     atom    3 type  2   force =     0.00000000    0.00000000    0.00027269

     Total force =     0.000458     Total SCF correction =     0.000386
     SCF correction compared to forces is large: reduce conv_thr to get better values
     Energy error            =      2.2E-04
     Gradient error          =      3.2E-04

     number of scf cycles    =   5
     number of bfgs steps    =   4

     energy   old            =    -181.5465043488 Ry
     energy   new            =    -181.5467263068 Ry

     CASE: energy  _new < energy  _old

     new trust radius        =       0.0008951044 bohr
     new conv_thr            =       0.0000000100 Ry


ATOMIC_POSITIONS (crystal)
Mo            0.0000000000        0.0000000000        0.5000000000    0   0   0
S             0.6666666660        0.6666666660        0.5750603137    0   0   1
S             0.6666666660        0.6666666660        0.4249396863    0   0   1



     Writing output data file ./outdir/MoS2.save/
     NEW-OLD atomic charge density approx. for the potential

     negative rho (up, down):  4.820E-05 0.000E+00

     total cpu time spent up to now is       51.8 secs

     Self-consistent Calculation

     iteration #  1     ecut=    40.00 Ry     beta= 0.10
     Davidson diagonalization with overlap
     ethr =  1.00E-06,  avg # of iterations =  2.0

     Threshold (ethr) on eigenvalues was too large:
     Diagonalizing with lowered threshold

     Davidson diagonalization with overlap
     ethr =  1.20E-09,  avg # of iterations =  4.0

     negative rho (up, down):  4.820E-05 0.000E+00

     total cpu time spent up to now is       53.2 secs

     total energy              =    -181.54672649 Ry
     estimated scf accuracy    <       0.00000010 Ry

     iteration #  2     ecut=    40.00 Ry     beta= 0.10
     Davidson diagonalization with overlap
     ethr =  3.76E-10,  avg # of iterations =  1.0

     negative rho (up, down):  4.820E-05 0.000E+00

     total cpu time spent up to now is       54.0 secs

     total energy              =    -181.54672646 Ry
     estimated scf accuracy    <       0.00000006 Ry

     iteration #  3     ecut=    40.00 Ry     beta= 0.10
     Davidson diagonalization with overlap
     ethr =  2.28E-10,  avg # of iterations =  2.0

     negative rho (up, down):  4.818E-05 0.000E+00

     total cpu time spent up to now is       54.8 secs

     End of self-consistent calculation

          k = 0.0000 0.0000 0.0000 (  5837 PWs)   bands (ev):

   -62.7709 -36.8025 -36.7946 -36.7946 -15.2956 -13.9063  -6.7530  -4.6190
    -4.6190  -3.5381  -3.5381  -2.7758  -1.1547   0.6156   0.6156   0.9932
     0.9932   3.2925

     occupation numbers 
     1.0000   1.0000   1.0000   1.0000   1.0000   1.0000   1.0000   1.0000
     1.0000   1.0000   1.0000   1.0000   1.0000   0.0000   0.0000   0.0000
     0.0000   0.0000

          k = 0.0000 0.1283 0.0000 (  5807 PWs)   bands (ev):

   -62.7691 -36.8169 -36.7998 -36.7983 -15.1624 -13.8606  -6.6019  -4.9112
    -4.4718  -3.9867  -3.7507  -2.5240  -1.3606   0.4771   0.7613   0.8198
     0.8820   3.8594

     occupation numbers 
     1.0000   1.0000   1.0000   1.0000   1.0000   1.0000   1.0000   1.0000
     1.0000   1.0000   1.0000   1.0000   1.0000   0.0000   0.0000   0.0000
     0.0000   0.0000

          k = 0.0000 0.2566 0.0000 (  5819 PWs)   bands (ev):

   -62.7646 -36.8730 -36.8128 -36.7878 -14.8071 -13.7388  -6.3265  -5.4187
    -4.6839  -4.1963  -4.0782  -2.5493  -1.9474   0.4421   0.5483   0.6627
     1.4401   4.6201

     occupation numbers 
     1.0000   1.0000   1.0000   1.0000   1.0000   1.0000   1.0000   1.0000
     1.0000   1.0000   1.0000   1.0000   1.0000   0.0000   0.0000   0.0000
     0.0000   0.0000

          k = 0.0000 0.3849 0.0000 (  5779 PWs)   bands (ev):

   -62.7595 -36.9360 -36.8276 -36.7757 -14.3633 -13.5881  -6.5327  -5.4396
    -5.3296  -4.6043  -3.5870  -2.8201  -2.3843   0.0961   0.4688   1.2781
     1.9300   5.1713

     occupation numbers 
     1.0000   1.0000   1.0000   1.0000   1.0000   1.0000   1.0000   1.0000
     1.0000   1.0000   1.0000   1.0000   1.0000   0.0000   0.0000   0.0000
     0.0000   0.0000

          k = 0.0000 0.5132 0.0000 (  5740 PWs)   bands (ev):

   -62.7561 -36.9768 -36.8372 -36.7679 -14.0432 -13.4814  -6.8385  -5.7321
    -5.4349  -4.8344  -3.2372  -2.9830  -2.2376  -0.0875   0.3136   1.7555
     2.1850   4.4801

     occupation numbers 
     1.0000   1.0000   1.0000   1.0000   1.0000   1.0000   1.0000   1.0000
     1.0000   1.0000   1.0000   1.0000   1.0000   0.0000   0.0000   0.0000
     0.0000   0.0000

          k = 0.1111 0.1925 0.0000 (  5811 PWs)   bands (ev):

   -62.7660 -36.8541 -36.8108 -36.7910 -14.9178 -13.7764  -6.3692  -5.3017
    -4.4231  -4.2225  -4.1947  -2.4052  -1.7714   0.4107   0.4811   0.6291
     1.3769   4.4562

     occupation numbers 
     1.0000   1.0000   1.0000   1.0000   1.0000   1.0000   1.0000   1.0000
     1.0000   1.0000   1.0000   1.0000   1.0000   0.0000   0.0000   0.0000
     0.0000   0.0000

          k = 0.1111 0.3208 0.0000 (  5796 PWs)   bands (ev):

   -62.7612 -36.9092 -36.8293 -36.7797 -14.5150 -13.6373  -6.3242  -5.4650
    -5.1416  -4.5340  -3.9007  -2.5766  -2.3142   0.1802   0.5027   0.7578
     1.9517   5.1728

     occupation numbers 
     1.0000   1.0000   1.0000   1.0000   1.0000   1.0000   1.0000   1.0000
     1.0000   1.0000   1.0000   1.0000   1.0000   0.0000   0.0000   0.0000
     0.0000   0.0000

          k = 0.1111 0.4491 0.0000 (  5752 PWs)   bands (ev):

   -62.7569 -36.9568 -36.8457 -36.7697 -14.1251 -13.5030  -6.6035  -5.7702
    -5.3702  -4.6584  -3.7075  -2.8897  -2.3757   0.0190   0.4073   1.3812
     2.2040   5.0903

     occupation numbers 
     1.0000   1.0000   1.0000   1.0000   1.0000   1.0000   1.0000   1.0000
     1.0000   1.0000   1.0000   1.0000   1.0000   0.0000   0.0000   0.0000
     0.0000   0.0000

          k = 0.1111-0.5774 0.0000 (  5736 PWs)   bands (ev):

   -62.7552 -36.9755 -36.8522 -36.7658 -13.9594 -13.4462  -6.7240  -6.0091
    -5.4207  -4.6849  -3.6177  -3.0281  -2.1860  -0.1792   0.4741   1.7787
     2.1295   4.5580

     occupation numbers 
     1.0000   1.0000   1.0000   1.0000   1.0000   1.0000   1.0000   1.0000
     1.0000   1.0000   1.0000   1.0000   1.0000   0.0000   0.0000   0.0000
     0.0000   0.0000

          k = 0.2222 0.3849 0.0000 (  5753 PWs)   bands (ev):

   -62.7572 -36.9400 -36.8581 -36.7704 -14.1591 -13.5092  -6.3930  -5.8296
    -5.2794  -4.5690  -4.1567  -2.7782  -2.4346   0.0797   0.4398   1.0524
     2.2980   5.6683

     occupation numbers 
     1.0000   1.0000   1.0000   1.0000   1.0000   1.0000   1.0000   1.0000
     1.0000   1.0000   1.0000   1.0000   1.0000   0.0000   0.0000   0.0000
     0.0000   0.0000

          k = 0.2222-0.6415 0.0000 (  5749 PWs)   bands (ev):

   -62.7547 -36.9551 -36.8818 -36.7644 -13.9110 -13.4166  -6.3193  -6.2889
    -5.3039  -4.5147  -4.4129  -3.1112  -2.1552  -0.3953   0.8681   1.5037
     2.2477   5.0799

     occupation numbers 
     1.0000   1.0000   1.0000   1.0000   1.0000   1.0000   1.0000   1.0000
     1.0000   1.0000   1.0000   1.0000   1.0000   0.0000   0.0000   0.0000
     0.0000   0.0000

          k = 0.3333-0.5774 0.0000 (  5760 PWs)   bands (ev):

   -62.7538 -36.9387 -36.9119 -36.7623 -13.8257 -13.3791  -6.5013  -5.8233
    -5.3862  -5.1704  -4.1904  -3.3320  -1.8965  -0.7919   1.2508   1.5762
     2.2400   5.0591

     occupation numbers 
     1.0000   1.0000   1.0000   1.0000   1.0000   1.0000   1.0000   1.0000
     1.0000   1.0000   1.0000   1.0000   1.0000   0.0000   0.0000   0.0000
     0.0000   0.0000

     the Fermi energy is    -1.0131 ev

!    total energy              =    -181.54672647 Ry
     estimated scf accuracy    <          6.4E-09 Ry
     smearing contrib. (-TS)   =       0.00000000 Ry
     internal energy E=F+TS    =    -181.54672647 Ry

     The total energy is F=E-TS. E is the sum of the following terms:
     one-electron contribution =   -1004.96412387 Ry
     hartree contribution      =     501.95142624 Ry
     xc contribution           =     -29.48991619 Ry
     ewald contribution        =     350.95588734 Ry

     convergence has been achieved in   3 iterations

     negative rho (up, down):  4.818E-05 0.000E+00

     Forces acting on atoms (cartesian axes, Ry/au):

     atom    1 type  1   force =     0.00000000    0.00000000    0.00000000
     atom    2 type  2   force =     0.00000000   -0.00000000   -0.00008273
     atom    3 type  2   force =    -0.00000000   -0.00000000    0.00008273
     The non-local contrib.  to forces
     atom    1 type  1   force =     0.00000000    0.00000000    0.00000000
     atom    2 type  2   force =     0.00000000   -0.00000000   -0.29263471
     atom    3 type  2   force =    -0.00000000    0.00000000    0.29263471
     The ionic contribution  to forces
     atom    1 type  1   force =    -0.00000002   -0.00000001   -0.00000000
     atom    2 type  2   force =     0.00000001    0.00000001   30.99567173
     atom    3 type  2   force =     0.00000001    0.00000001  -30.99567173
     The local contribution  to forces
     atom    1 type  1   force =    -0.00000000    0.00000000    0.00000000
     atom    2 type  2   force =     0.00000003    0.00000001  -30.70702547
     atom    3 type  2   force =     0.00000003    0.00000001   30.70702547
     The core correction contribution to forces
     atom    1 type  1   force =    -0.00000000   -0.00000000   -0.00000000
     atom    2 type  2   force =    -0.00000000   -0.00000000    0.00391611
     atom    3 type  2   force =    -0.00000000   -0.00000000   -0.00391611
     The Hubbard contrib.    to forces
     atom    1 type  1   force =     0.00000000    0.00000000    0.00000000
     atom    2 type  2   force =     0.00000000    0.00000000    0.00000000
     atom    3 type  2   force =     0.00000000    0.00000000    0.00000000
     The SCF correction term to forces
     atom    1 type  1   force =    -0.00000000   -0.00000000   -0.00000000
     atom    2 type  2   force =     0.00000000    0.00000000   -0.00001040
     atom    3 type  2   force =     0.00000000    0.00000000    0.00001040

     Total force =     0.000117     Total SCF correction =     0.000015
     SCF correction compared to forces is large: reduce conv_thr to get better values
     Energy error            =      1.7E-07
     Gradient error          =      8.3E-05

     bfgs converged in   6 scf cycles and   5 bfgs steps
     (criteria: energy <  1.0E-04 Ry, force <  1.0E-03 Ry/Bohr)

     End of BFGS Geometry Optimization

     Final energy   =    -181.5467264744 Ry

     File ./outdir/MoS2.bfgs deleted, as requested
Begin final coordinates

ATOMIC_POSITIONS (crystal)
Mo            0.0000000000        0.0000000000        0.5000000000    0   0   0
S             0.6666666660        0.6666666660        0.5750603137    0   0   1
S             0.6666666660        0.6666666660        0.4249396863    0   0   1
End final coordinates



     Writing output data file ./outdir/MoS2.save/

     init_run     :      0.84s CPU      0.97s WALL (       1 calls)
     electrons    :     36.65s CPU     46.22s WALL (       6 calls)
     update_pot   :      2.60s CPU      2.61s WALL (       5 calls)
     forces       :      3.90s CPU      4.43s WALL (       6 calls)

     Called by init_run:
     wfcinit      :      0.09s CPU      0.10s WALL (       1 calls)
     wfcinit:atom :      0.00s CPU      0.00s WALL (      12 calls)
     wfcinit:wfcr :      0.08s CPU      0.09s WALL (      12 calls)
     potinit      :      0.21s CPU      0.22s WALL (       1 calls)
     hinit0       :      0.39s CPU      0.39s WALL (       1 calls)

     Called by electrons:
     c_bands      :     16.79s CPU     17.55s WALL (      53 calls)
     sum_band     :      9.01s CPU     13.55s WALL (      53 calls)
     v_of_rho     :      2.79s CPU      3.17s WALL (      58 calls)
     v_h          :      0.21s CPU      0.21s WALL (      58 calls)
     v_xc         :      2.85s CPU      3.26s WALL (      64 calls)
     newd         :      8.39s CPU     12.77s WALL (      58 calls)
     mix_rho      :      0.37s CPU      0.38s WALL (      53 calls)

     Called by c_bands:
     init_us_2    :      0.34s CPU      0.36s WALL (    1356 calls)
     cegterg      :     15.61s CPU     16.34s WALL (     636 calls)

     Called by sum_band:
     sum_band:wei :      0.00s CPU      0.00s WALL (      53 calls)
     sum_band:loo :      1.65s CPU      1.81s WALL (      53 calls)
     sum_band:buf :      0.05s CPU      0.06s WALL (     636 calls)
     sum_band:ini :      0.12s CPU      0.13s WALL (     636 calls)
     sum_band:cal :      0.54s CPU      0.58s WALL (     636 calls)
     sum_band:bec :      0.01s CPU      0.01s WALL (     636 calls)
     addusdens    :      6.99s CPU     11.31s WALL (      53 calls)
     addusd:skk   :      0.03s CPU      0.03s WALL (     106 calls)
     addusd:dgemm :      2.84s CPU      6.58s WALL (     106 calls)
     addusd:qvan2 :      3.76s CPU      3.78s WALL (     106 calls)

     Called by *egterg:
     cdiaghg      :      1.07s CPU      1.09s WALL (    2290 calls)
     cegterg:over :      1.57s CPU      1.60s WALL (    1726 calls)
     cegterg:upda :      0.72s CPU      0.73s WALL (    1726 calls)
     cegterg:last :      1.77s CPU      1.80s WALL (    1385 calls)
     cdiaghg:chol :      0.11s CPU      0.11s WALL (    2290 calls)
     cdiaghg:inve :      0.02s CPU      0.02s WALL (    2290 calls)
     cdiaghg:para :      0.16s CPU      0.17s WALL (    4580 calls)
     h_psi        :      8.55s CPU      9.10s WALL (    2374 calls)
     s_psi        :      1.39s CPU      1.46s WALL (    2374 calls)
     g_psi        :      0.09s CPU      0.09s WALL (    1726 calls)

     Called by h_psi:
     h_psi:calbec :      1.69s CPU      1.83s WALL (    2374 calls)
     vloc_psi     :      5.40s CPU      5.71s WALL (    2374 calls)
     add_vuspsi   :      1.37s CPU      1.47s WALL (    2374 calls)

     General routines
     calbec       :      2.48s CPU      2.68s WALL (    3298 calls)
     fft          :      1.60s CPU      1.71s WALL (     814 calls)
     ffts         :      0.03s CPU      0.03s WALL (     111 calls)
     fftw         :      5.39s CPU      5.73s WALL (   72258 calls)
     interpolate  :      0.17s CPU      0.18s WALL (      58 calls)

     Parallel routines
     fft_scatt_xy :      0.84s CPU      0.90s WALL (   73183 calls)
     fft_scatt_yz :      2.72s CPU      2.91s WALL (   73183 calls)

     PWSCF        :     44.90s CPU     55.60s WALL


   This run was terminated on:  19:13:52  18Jan2023            

=------------------------------------------------------------------------------=
   JOB DONE.
=------------------------------------------------------------------------------=
