
     Program PWSCF v.6.7MaX starts on 18Jan2023 at 17:22:44 

     This program is part of the open-source Quantum ESPRESSO suite
     for quantum simulation of materials; please cite
         "P. Giannozzi et al., J. Phys.:Condens. Matter 21 395502 (2009);
         "P. Giannozzi et al., J. Phys.:Condens. Matter 29 465901 (2017);
          URL http://www.quantum-espresso.org", 
     in publications or presentations arising from this work. More details at
     http://www.quantum-espresso.org/quote

     Parallel version (MPI), running on     8 processors

     MPI processes distributed on     1 nodes
     R & G space division:  proc/nbgrp/npool/nimage =       8
     Reading input from MoS2_1T.in

     Current dimensions of program PWSCF are:
     Max number of different atomic species (ntypx) = 10
     Max number of k-points (npk) =  40000
     Max angular momentum in pseudopotentials (lmaxx) =  3
     file Mo.pbe-spn-rrkjus_psl.1.0.0.UPF: wavefunction(s)  4S renormalized

     IMPORTANT: XC functional enforced from input :
     Exchange-correlation= PBE
                           (   1   4   3   4   0   0   0)
     Any further DFT definition will be discarded
     Please, verify this is what you really want


     Subspace diagonalization in iterative solution of the eigenvalue problem:
     one sub-group per band group will be used
     scalapack distributed-memory algorithm (size of sub-group:  2*  2 procs)


     Parallelization info
     --------------------
     sticks:   dense  smooth     PW     G-vecs:    dense   smooth      PW
     Min         126      50     15                20225     5095     873
     Max         128      52     16                20238     5098     900
     Sum        1015     409    121               161851    40773    7057



     bravais-lattice index     =           12
     lattice parameter (alat)  =       6.0471  a.u.
     unit-cell volume          =    1196.8981 (a.u.)^3
     number of atoms/cell      =            3
     number of atomic types    =            2
     number of electrons       =        26.00
     number of Kohn-Sham states=           18
     kinetic-energy cutoff     =      40.0000  Ry
     charge density cutoff     =     400.0000  Ry
     scf convergence threshold =      1.0E-06
     mixing beta               =       0.1000
     number of iterations used =            8  plain     mixing
     energy convergence thresh.=      1.0E-04
     force convergence thresh. =      1.0E-03
     Exchange-correlation= PBE
                           (   1   4   3   4   0   0   0)
     nstep                     =           50


     celldm(1)=   6.047124  celldm(2)=   1.000000  celldm(3)=   6.250000
     celldm(4)=   0.500000  celldm(5)=   0.000000  celldm(6)=   0.000000

     crystal axes: (cart. coord. in units of alat)
               a(1) = (   1.000000   0.000000   0.000000 )  
               a(2) = (   0.500000   0.866025   0.000000 )  
               a(3) = (   0.000000   0.000000   6.250000 )  

     reciprocal axes: (cart. coord. in units 2 pi/alat)
               b(1) = (  1.000000 -0.577350  0.000000 )  
               b(2) = (  0.000000  1.154701  0.000000 )  
               b(3) = (  0.000000  0.000000  0.160000 )  


     PseudoPot. # 1 for Mo read from file:
     /home/zronyj/Desktop/MoS2/pseudo/Mo.pbe-spn-rrkjus_psl.1.0.0.UPF
     MD5 check sum: 03f09b12e49601d1a456a78ce8b2d514
     Pseudo is Ultrasoft + core correction, Zval = 14.0
     Generated using &quot;atomic&quot; code by A. Dal Corso  v.6.3
     Using radial grid of 1229 points,  6 beta functions with: 
                l(1) =   0
                l(2) =   0
                l(3) =   1
                l(4) =   1
                l(5) =   2
                l(6) =   2
     Q(r) pseudized with 0 coefficients 


     PseudoPot. # 2 for S  read from file:
     /home/zronyj/Desktop/MoS2/pseudo/S.pbe-n-rrkjus_psl.1.0.0.UPF
     MD5 check sum: 9d0fe39aa2a799ea84730884c9b010f4
     Pseudo is Ultrasoft + core correction, Zval =  6.0
     Generated using &quot;atomic&quot; code by A. Dal Corso  v.6.3
     Using radial grid of 1151 points,  6 beta functions with: 
                l(1) =   0
                l(2) =   0
                l(3) =   1
                l(4) =   1
                l(5) =   2
                l(6) =   2
     Q(r) pseudized with 0 coefficients 


     atomic species   valence    mass     pseudopotential
        Mo            14.00    95.95000     Mo( 1.00)
        S              6.00    32.06500     S ( 1.00)

     12 Sym. Ops., with inversion, found


                                    s                        frac. trans.

      isym =  1     identity                                     

 cryst.   s( 1) = (     1          0          0      )
                  (     0          1          0      )
                  (     0          0          1      )

 cart.    s( 1) = (  1.0000000  0.0000000  0.0000000 )
                  (  0.0000000  1.0000000  0.0000000 )
                  (  0.0000000  0.0000000  1.0000000 )


      isym =  2     180 deg rotation - cart. axis [1,0,0]        

 cryst.   s( 2) = (     1          0          0      )
                  (     1         -1          0      )
                  (     0          0         -1      )

 cart.    s( 2) = (  1.0000000  0.0000000  0.0000000 )
                  (  0.0000000 -1.0000000  0.0000000 )
                  (  0.0000000  0.0000000 -1.0000000 )


      isym =  3     120 deg rotation - cryst. axis [0,0,1]       

 cryst.   s( 3) = (    -1          1          0      )
                  (    -1          0          0      )
                  (     0          0          1      )

 cart.    s( 3) = ( -0.5000000 -0.8660254  0.0000000 )
                  (  0.8660254 -0.5000000  0.0000000 )
                  (  0.0000000  0.0000000  1.0000000 )


      isym =  4     120 deg rotation - cryst. axis [0,0,-1]      

 cryst.   s( 4) = (     0         -1          0      )
                  (     1         -1          0      )
                  (     0          0          1      )

 cart.    s( 4) = ( -0.5000000  0.8660254  0.0000000 )
                  ( -0.8660254 -0.5000000  0.0000000 )
                  (  0.0000000  0.0000000  1.0000000 )


      isym =  5     180 deg rotation - cryst. axis [0,1,0]       

 cryst.   s( 5) = (     0         -1          0      )
                  (    -1          0          0      )
                  (     0          0         -1      )

 cart.    s( 5) = ( -0.5000000 -0.8660254  0.0000000 )
                  ( -0.8660254  0.5000000  0.0000000 )
                  (  0.0000000  0.0000000 -1.0000000 )


      isym =  6     180 deg rotation - cryst. axis [1,1,0]       

 cryst.   s( 6) = (    -1          1          0      )
                  (     0          1          0      )
                  (     0          0         -1      )

 cart.    s( 6) = ( -0.5000000  0.8660254  0.0000000 )
                  (  0.8660254  0.5000000  0.0000000 )
                  (  0.0000000  0.0000000 -1.0000000 )


      isym =  7     inversion                                    

 cryst.   s( 7) = (    -1          0          0      )
                  (     0         -1          0      )
                  (     0          0         -1      )

 cart.    s( 7) = ( -1.0000000  0.0000000  0.0000000 )
                  (  0.0000000 -1.0000000  0.0000000 )
                  (  0.0000000  0.0000000 -1.0000000 )


      isym =  8     inv. 180 deg rotation - cart. axis [1,0,0]   

 cryst.   s( 8) = (    -1          0          0      )
                  (    -1          1          0      )
                  (     0          0          1      )

 cart.    s( 8) = ( -1.0000000  0.0000000  0.0000000 )
                  (  0.0000000  1.0000000  0.0000000 )
                  (  0.0000000  0.0000000  1.0000000 )


      isym =  9     inv. 120 deg rotation - cryst. axis [0,0,1]  

 cryst.   s( 9) = (     1         -1          0      )
                  (     1          0          0      )
                  (     0          0         -1      )

 cart.    s( 9) = (  0.5000000  0.8660254  0.0000000 )
                  ( -0.8660254  0.5000000  0.0000000 )
                  (  0.0000000  0.0000000 -1.0000000 )


      isym = 10     inv. 120 deg rotation - cryst. axis [0,0,-1] 

 cryst.   s(10) = (     0          1          0      )
                  (    -1          1          0      )
                  (     0          0         -1      )

 cart.    s(10) = (  0.5000000 -0.8660254  0.0000000 )
                  (  0.8660254  0.5000000  0.0000000 )
                  (  0.0000000  0.0000000 -1.0000000 )


      isym = 11     inv. 180 deg rotation - cryst. axis [0,1,0]  

 cryst.   s(11) = (     0          1          0      )
                  (     1          0          0      )
                  (     0          0          1      )

 cart.    s(11) = (  0.5000000  0.8660254  0.0000000 )
                  (  0.8660254 -0.5000000  0.0000000 )
                  (  0.0000000  0.0000000  1.0000000 )


      isym = 12     inv. 180 deg rotation - cryst. axis [1,1,0]  

 cryst.   s(12) = (     1         -1          0      )
                  (     0         -1          0      )
                  (     0          0          1      )

 cart.    s(12) = (  0.5000000 -0.8660254  0.0000000 )
                  ( -0.8660254 -0.5000000  0.0000000 )
                  (  0.0000000  0.0000000  1.0000000 )


     point group D_3d (-3m) 
     there are  6 classes
     the character table:

       E     2C3   3C2'  i     2S6   3s_d 
A_1g   1.00  1.00  1.00  1.00  1.00  1.00
A_2g   1.00  1.00 -1.00  1.00  1.00 -1.00
E_g    2.00 -1.00  0.00  2.00 -1.00  0.00
A_1u   1.00  1.00  1.00 -1.00 -1.00 -1.00
A_2u   1.00  1.00 -1.00 -1.00 -1.00  1.00
E_u    2.00 -1.00  0.00 -2.00  1.00  0.00

     the symmetry operations in each class and the name of the first element:

     E        1
          identity                                               
     2C3      3    4
          120 deg rotation - cryst. axis [0,0,1]                 
     3C2'     2    5    6
          180 deg rotation - cart. axis [1,0,0]                  
     i        7
          inversion                                              
     2S6      9   10
          inv. 120 deg rotation - cryst. axis [0,0,1]            
     3s_d     8   11   12
          inv. 180 deg rotation - cart. axis [1,0,0]             

   Cartesian axes

     site n.     atom                  positions (alat units)
         1           Mo  tau(   1) = (   0.0000000   0.0000000   3.1250000  )
         2           S   tau(   2) = (   0.5000000   0.2886751   3.4375000  )
         3           S   tau(   3) = (   1.0000000   0.5773503   2.8125000  )

   Crystallographic axes

     site n.     atom                  positions (cryst. coord.)
         1           Mo  tau(   1) = (  0.0000000  0.0000000  0.5000000  )
         2           S   tau(   2) = (  0.3333333  0.3333333  0.5500000  )
         3           S   tau(   3) = (  0.6666667  0.6666667  0.4500000  )

     number of k points=    12  Marzari-Vanderbilt smearing, width (Ry)=  0.0001
                       cart. coord. in units 2pi/alat
        k(    1) = (   0.0000000   0.0000000   0.0000000), wk =   0.0246914
        k(    2) = (   0.0000000   0.1283001   0.0000000), wk =   0.1481481
        k(    3) = (   0.0000000   0.2566001   0.0000000), wk =   0.1481481
        k(    4) = (   0.0000000   0.3849002   0.0000000), wk =   0.1481481
        k(    5) = (   0.0000000   0.5132002   0.0000000), wk =   0.1481481
        k(    6) = (   0.1111111   0.1924501   0.0000000), wk =   0.1481481
        k(    7) = (   0.1111111   0.3207501   0.0000000), wk =   0.2962963
        k(    8) = (   0.1111111   0.4490502   0.0000000), wk =   0.2962963
        k(    9) = (   0.1111111  -0.5773503   0.0000000), wk =   0.1481481
        k(   10) = (   0.2222222   0.3849002   0.0000000), wk =   0.1481481
        k(   11) = (   0.2222222  -0.6415003   0.0000000), wk =   0.2962963
        k(   12) = (   0.3333333  -0.5773503   0.0000000), wk =   0.0493827

                       cryst. coord.
        k(    1) = (   0.0000000   0.0000000   0.0000000), wk =   0.0246914
        k(    2) = (   0.0000000   0.1111111   0.0000000), wk =   0.1481481
        k(    3) = (   0.0000000   0.2222222   0.0000000), wk =   0.1481481
        k(    4) = (   0.0000000   0.3333333   0.0000000), wk =   0.1481481
        k(    5) = (   0.0000000   0.4444444   0.0000000), wk =   0.1481481
        k(    6) = (   0.1111111   0.2222222   0.0000000), wk =   0.1481481
        k(    7) = (   0.1111111   0.3333333   0.0000000), wk =   0.2962963
        k(    8) = (   0.1111111   0.4444444   0.0000000), wk =   0.2962963
        k(    9) = (   0.1111111  -0.4444444   0.0000000), wk =   0.1481481
        k(   10) = (   0.2222222   0.4444444   0.0000000), wk =   0.1481481
        k(   11) = (   0.2222222  -0.4444444   0.0000000), wk =   0.2962963
        k(   12) = (   0.3333333  -0.3333333   0.0000000), wk =   0.0493827

     Dense  grid:   161851 G-vectors     FFT dimensions: (  40,  40, 243)

     Smooth grid:    40773 G-vectors     FFT dimensions: (  25,  25, 160)

     Dynamical RAM for                 wfc:       0.18 MB

     Dynamical RAM for     wfc (w. buffer):       2.28 MB

     Dynamical RAM for           str. fact:       0.62 MB

     Dynamical RAM for           local pot:       0.00 MB

     Dynamical RAM for          nlocal pot:       0.53 MB

     Dynamical RAM for                qrad:       3.21 MB

     Dynamical RAM for          rho,v,vnew:       2.06 MB

     Dynamical RAM for               rhoin:       0.69 MB

     Dynamical RAM for            rho*nmix:       4.94 MB

     Dynamical RAM for           G-vectors:       1.20 MB

     Dynamical RAM for          h,s,v(r/c):       0.01 MB

     Dynamical RAM for          <psi|beta>:       0.01 MB

     Dynamical RAM for                 psi:       0.35 MB

     Dynamical RAM for                hpsi:       0.35 MB

     Dynamical RAM for                spsi:       0.35 MB

     Dynamical RAM for      wfcinit/wfcrot:       0.36 MB

     Dynamical RAM for           addusdens:      58.06 MB

     Dynamical RAM for          addusforce:      58.84 MB

     Estimated static dynamical RAM per process >      18.34 MB

     Estimated max dynamical RAM per process >      77.18 MB

     Estimated total dynamical RAM >     617.42 MB

     Initial potential from superposition of free atoms

     starting charge   25.99905, renormalised to   26.00000

     negative rho (up, down):  5.889E-05 0.000E+00
     Starting wfcs are   18 randomized atomic wfcs

     total cpu time spent up to now is        1.3 secs

     Self-consistent Calculation

     iteration #  1     ecut=    40.00 Ry     beta= 0.10
     Davidson diagonalization with overlap
     ethr =  1.00E-02,  avg # of iterations =  6.8

     negative rho (up, down):  3.533E-05 0.000E+00

     total cpu time spent up to now is        2.6 secs

     total energy              =    -181.02564901 Ry
     estimated scf accuracy    <       0.36136026 Ry

     iteration #  2     ecut=    40.00 Ry     beta= 0.10
     Davidson diagonalization with overlap
     ethr =  1.39E-03,  avg # of iterations =  1.9

     negative rho (up, down):  5.613E-05 0.000E+00

     total cpu time spent up to now is        3.7 secs

     total energy              =    -181.01932754 Ry
     estimated scf accuracy    <       0.13847968 Ry

     iteration #  3     ecut=    40.00 Ry     beta= 0.10
     Davidson diagonalization with overlap
     ethr =  5.33E-04,  avg # of iterations =  2.3

     negative rho (up, down):  1.933E-04 0.000E+00

     total cpu time spent up to now is        4.5 secs

     total energy              =    -181.01323762 Ry
     estimated scf accuracy    <       0.04918062 Ry

     iteration #  4     ecut=    40.00 Ry     beta= 0.10
     Davidson diagonalization with overlap
     ethr =  1.89E-04,  avg # of iterations =  6.0

     negative rho (up, down):  4.841E-04 0.000E+00

     total cpu time spent up to now is        5.2 secs

     total energy              =    -181.01370561 Ry
     estimated scf accuracy    <       0.01129970 Ry

     iteration #  5     ecut=    40.00 Ry     beta= 0.10
     Davidson diagonalization with overlap
     ethr =  4.35E-05,  avg # of iterations =  6.3

     negative rho (up, down):  4.997E-04 0.000E+00

     total cpu time spent up to now is        6.1 secs

     total energy              =    -181.01449503 Ry
     estimated scf accuracy    <       0.00764733 Ry

     iteration #  6     ecut=    40.00 Ry     beta= 0.10
     Davidson diagonalization with overlap
     ethr =  2.94E-05,  avg # of iterations =  2.1

     negative rho (up, down):  5.496E-04 0.000E+00

     total cpu time spent up to now is        6.9 secs

     total energy              =    -181.01423405 Ry
     estimated scf accuracy    <       0.00738064 Ry

     iteration #  7     ecut=    40.00 Ry     beta= 0.10
     Davidson diagonalization with overlap
     ethr =  2.84E-05,  avg # of iterations =  2.0

     negative rho (up, down):  4.872E-04 0.000E+00

     total cpu time spent up to now is        7.7 secs

     total energy              =    -181.01546035 Ry
     estimated scf accuracy    <       0.00179666 Ry

     iteration #  8     ecut=    40.00 Ry     beta= 0.10
     Davidson diagonalization with overlap
     ethr =  6.91E-06,  avg # of iterations =  2.1

     negative rho (up, down):  4.896E-04 0.000E+00

     total cpu time spent up to now is        8.9 secs

     total energy              =    -181.01536000 Ry
     estimated scf accuracy    <       0.00098317 Ry

     iteration #  9     ecut=    40.00 Ry     beta= 0.10
     Davidson diagonalization with overlap
     ethr =  3.78E-06,  avg # of iterations =  2.0

     negative rho (up, down):  4.363E-04 0.000E+00

     total cpu time spent up to now is        9.6 secs

     total energy              =    -181.01527091 Ry
     estimated scf accuracy    <       0.00259703 Ry

     iteration # 10     ecut=    40.00 Ry     beta= 0.10
     Davidson diagonalization with overlap
     ethr =  3.78E-06,  avg # of iterations =  1.0

     negative rho (up, down):  4.054E-04 0.000E+00

     total cpu time spent up to now is       10.3 secs

     total energy              =    -181.01551235 Ry
     estimated scf accuracy    <       0.00030963 Ry

     iteration # 11     ecut=    40.00 Ry     beta= 0.10
     Davidson diagonalization with overlap
     ethr =  1.19E-06,  avg # of iterations =  1.2

     negative rho (up, down):  3.602E-04 0.000E+00

     total cpu time spent up to now is       11.0 secs

     total energy              =    -181.01552639 Ry
     estimated scf accuracy    <       0.00013822 Ry

     iteration # 12     ecut=    40.00 Ry     beta= 0.10
     Davidson diagonalization with overlap
     ethr =  5.32E-07,  avg # of iterations =  2.2

     negative rho (up, down):  3.256E-04 0.000E+00

     total cpu time spent up to now is       12.0 secs

     total energy              =    -181.01550989 Ry
     estimated scf accuracy    <       0.00015047 Ry

     iteration # 13     ecut=    40.00 Ry     beta= 0.10
     Davidson diagonalization with overlap
     ethr =  5.32E-07,  avg # of iterations =  2.2

     negative rho (up, down):  2.922E-04 0.000E+00

     total cpu time spent up to now is       12.7 secs

     total energy              =    -181.01550753 Ry
     estimated scf accuracy    <       0.00007046 Ry

     iteration # 14     ecut=    40.00 Ry     beta= 0.10
     Davidson diagonalization with overlap
     ethr =  2.71E-07,  avg # of iterations =  1.2

     negative rho (up, down):  5.010E-05 0.000E+00

     total cpu time spent up to now is       13.4 secs

     End of self-consistent calculation

          k = 0.0000 0.0000 0.0000 (  5021 PWs)   bands (ev):

   -61.5034 -35.9967 -35.9967 -35.7052 -17.1577 -12.9752  -8.2273  -8.2273
    -7.5567  -2.4618  -2.2865  -2.2865  -0.8146  -0.8146   1.8714   3.7707
     4.3112   4.9852

     occupation numbers 
     1.0000   1.0000   1.0000   1.0000   1.0000   1.0000   1.0000   1.0000
     1.0000   1.0000   1.0000   1.0000   1.0000   1.0000   0.0000   0.0000
     0.0000   0.0000

          k = 0.0000 0.1283 0.0000 (  5077 PWs)   bands (ev):

   -61.4971 -36.0718 -36.0125 -35.6921 -16.8667 -13.2238  -8.2022  -7.9976
    -7.3407  -3.2922  -2.9389  -1.8535  -0.5960  -0.0446   1.9925   4.1569
     4.5396   4.7044

     occupation numbers 
     1.0000   1.0000   1.0000   1.0000   1.0000   1.0000   1.0000   1.0000
     1.0000   1.0000   1.0000   1.0000   1.0000   0.0000   0.0000   0.0000
     0.0000   0.0000

          k = 0.0000 0.2566 0.0000 (  5105 PWs)   bands (ev):

   -61.4811 -36.2573 -36.0524 -35.6587 -16.1034 -13.7485  -8.1273  -7.4010
    -6.7242  -4.7421  -3.6685  -1.1762  -0.4164   0.7868   2.0844   3.4715
     5.1765   5.1868

     occupation numbers 
     1.0000   1.0000   1.0000   1.0000   1.0000   1.0000   1.0000   1.0000
     1.0000   1.0000   1.0000   1.0000   1.0000   0.0000   0.0000   0.0000
     0.0000   0.0000

          k = 0.0000 0.3849 0.0000 (  5126 PWs)   bands (ev):

   -61.4627 -36.4610 -36.0973 -35.6203 -15.3327 -13.9806  -8.3029  -6.7770
    -6.0476  -5.3787  -3.8082  -1.8136  -0.2227   0.5890   1.4115   4.3530
     5.5133   5.7304

     occupation numbers 
     1.0000   1.0000   1.0000   1.0000   1.0000   1.0000   1.0000   1.0000
     1.0000   1.0000   1.0000   1.0000   0.7039   0.0000   0.0000   0.0000
     0.0000   0.0000

          k = 0.0000 0.5132 0.0000 (  5112 PWs)   bands (ev):

   -61.4507 -36.5899 -36.1264 -35.5950 -15.2261 -13.4849  -8.9195  -6.5142
    -5.6182  -4.9451  -3.3022  -2.5447  -0.4025  -0.2214   0.4450   5.7391
     6.1588   6.3638

     occupation numbers 
     1.0000   1.0000   1.0000   1.0000   1.0000   1.0000   1.0000   1.0000
     1.0000   1.0000   1.0000   1.0000   1.0000   0.1294   0.0000   0.0000
     0.0000   0.0000

          k = 0.1111 0.1925 0.0000 (  5108 PWs)   bands (ev):

   -61.4859 -36.1950 -36.0474 -35.6688 -16.3317 -13.6138  -8.1250  -7.6030
    -6.9341  -4.1051  -3.8562  -1.1378  -0.4286   0.5688   2.0977   3.9930
     4.4416   4.9056

     occupation numbers 
     1.0000   1.0000   1.0000   1.0000   1.0000   1.0000   1.0000   1.0000
     1.0000   1.0000   1.0000   1.0000   1.0000   0.0000   0.0000   0.0000
     0.0000   0.0000

          k = 0.1111 0.3208 0.0000 (  5085 PWs)   bands (ev):

   -61.4687 -36.3734 -36.1059 -35.6329 -15.4737 -14.0638  -8.0483  -7.0685
    -6.3313  -5.1129  -4.1851  -1.1771  -0.3636   0.9857   1.6232   3.6368
     4.6050   5.8415

     occupation numbers 
     1.0000   1.0000   1.0000   1.0000   1.0000   1.0000   1.0000   1.0000
     1.0000   1.0000   1.0000   1.0000   1.0000   0.0000   0.0000   0.0000
     0.0000   0.0000

          k = 0.1111 0.4491 0.0000 (  5114 PWs)   bands (ev):

   -61.4535 -36.5250 -36.1574 -35.6011 -15.0255 -13.8981  -8.4252  -6.8975
    -5.6661  -5.0225  -3.9971  -2.1159  -0.2806  -0.0035   1.1397   4.4736
     5.9176   6.3684

     occupation numbers 
     1.0000   1.0000   1.0000   1.0000   1.0000   1.0000   1.0000   1.0000
     1.0000   1.0000   1.0000   1.0000   1.0000   0.0000   0.0000   0.0000
     0.0000   0.0000

          k = 0.1111-0.5774 0.0000 (  5110 PWs)   bands (ev):

   -61.4475 -36.5836 -36.1777 -35.5885 -15.0646 -13.5019  -8.8263  -6.7999
    -5.0659  -5.0359  -3.7005  -2.6358  -0.7540  -0.1025   0.7903   5.0759
     6.0468   6.6139

     occupation numbers 
     1.0000   1.0000   1.0000   1.0000   1.0000   1.0000   1.0000   1.0000
     1.0000   1.0000   1.0000   1.0000   1.0000   0.0000   0.0000   0.0000
     0.0000   0.0000

          k = 0.2222 0.3849 0.0000 (  5114 PWs)   bands (ev):

   -61.4547 -36.4685 -36.2019 -35.6035 -14.6509 -14.3683  -7.8808  -7.3114
    -5.8646  -4.9606  -4.3755  -1.7379  -0.3155   0.1269   1.5276   3.6304
     5.6851   6.7247

     occupation numbers 
     1.0000   1.0000   1.0000   1.0000   1.0000   1.0000   1.0000   1.0000
     1.0000   1.0000   1.0000   1.0000   1.0000   0.0000   0.0000   0.0000
     0.0000   0.0000

          k = 0.2222-0.6415 0.0000 (  5158 PWs)   bands (ev):

   -61.4455 -36.5123 -36.2820 -35.5844 -14.6051 -13.9432  -8.1163  -7.2963
    -5.6386  -4.6629  -4.1342  -2.5698  -1.1286   0.3997   1.5260   4.0817
     5.3693   7.3355

     occupation numbers 
     1.0000   1.0000   1.0000   1.0000   1.0000   1.0000   1.0000   1.0000
     1.0000   1.0000   1.0000   1.0000   1.0000   0.0000   0.0000   0.0000
     0.0000   0.0000

          k = 0.3333-0.5774 0.0000 (  5172 PWs)   bands (ev):

   -61.4423 -36.4195 -36.4195 -35.5779 -14.1989 -14.1989  -7.5423  -7.5423
    -6.3488  -4.1240  -4.1240  -2.8421  -1.7232   1.3754   1.3754   4.2701
     4.2701   8.4789

     occupation numbers 
     1.0000   1.0000   1.0000   1.0000   1.0000   1.0000   1.0000   1.0000
     1.0000   1.0000   1.0000   1.0000   1.0000   0.0000   0.0000   0.0000
     0.0000   0.0000

     the Fermi energy is    -0.2221 ev

!    total energy              =    -181.01550933 Ry
     estimated scf accuracy    <       0.00000013 Ry
     smearing contrib. (-TS)   =      -0.00000320 Ry
     internal energy E=F+TS    =    -181.01550613 Ry

     The total energy is F=E-TS. E is the sum of the following terms:
     one-electron contribution =   -1251.09042443 Ry
     hartree contribution      =     625.83218884 Ry
     xc contribution           =     -30.67549075 Ry
     ewald contribution        =     474.91822022 Ry

     convergence has been achieved in  14 iterations

     negative rho (up, down):  5.010E-05 0.000E+00

     Forces acting on atoms (cartesian axes, Ry/au):

     atom    1 type  1   force =     0.00000000    0.00000000    0.00000000
     atom    2 type  2   force =     0.00000000    0.00000000    0.48822567
     atom    3 type  2   force =     0.00000000    0.00000000   -0.48822567
     The non-local contrib.  to forces
     atom    1 type  1   force =     0.00000000    0.00000000    0.00000000
     atom    2 type  2   force =     0.00000000    0.00000000    0.07834404
     atom    3 type  2   force =     0.00000000    0.00000000   -0.07834404
     The ionic contribution  to forces
     atom    1 type  1   force =    -0.00000003   -0.00000002   -0.00000000
     atom    2 type  2   force =     0.00000001    0.00000001   33.23930703
     atom    3 type  2   force =     0.00000002    0.00000001  -33.23930703
     The local contribution  to forces
     atom    1 type  1   force =    -0.00000000   -0.00000000    0.00000000
     atom    2 type  2   force =     0.00000001    0.00000000  -32.82054913
     atom    3 type  2   force =     0.00000001    0.00000001   32.82054913
     The core correction contribution to forces
     atom    1 type  1   force =    -0.00000000   -0.00000000   -0.00000000
     atom    2 type  2   force =    -0.00000000   -0.00000000   -0.00917199
     atom    3 type  2   force =    -0.00000000   -0.00000000    0.00917199
     The Hubbard contrib.    to forces
     atom    1 type  1   force =     0.00000000    0.00000000    0.00000000
     atom    2 type  2   force =     0.00000000    0.00000000    0.00000000
     atom    3 type  2   force =     0.00000000    0.00000000    0.00000000
     The SCF correction term to forces
     atom    1 type  1   force =    -0.00000000   -0.00000000    0.00000000
     atom    2 type  2   force =     0.00000000    0.00000000    0.00029572
     atom    3 type  2   force =     0.00000000    0.00000000   -0.00029572

     Total force =     0.690455     Total SCF correction =     0.000418

     BFGS Geometry Optimization
     Energy error            =      0.0E+00
     Gradient error          =      4.9E-01

     number of scf cycles    =   1
     number of bfgs steps    =   0

     energy   new            =    -181.0155093325 Ry

     new trust radius        =       0.4882256668 bohr
     new conv_thr            =       0.0000010000 Ry


ATOMIC_POSITIONS (crystal)
Mo            0.0000000000        0.0000000000        0.5000000000    0   0   0
S             0.3333333330        0.3333333330        0.5629178948    0   0   1
S             0.6666666660        0.6666666660        0.4370821052    0   0   1



     Writing output data file ./outdir/MoS2.save/
     NEW-OLD atomic charge density approx. for the potential

     negative rho (up, down):  5.250E-05 0.000E+00

     total cpu time spent up to now is       14.7 secs

     Self-consistent Calculation

     iteration #  1     ecut=    40.00 Ry     beta= 0.10
     Davidson diagonalization with overlap
     c_bands:  1 eigenvalues not converged
     c_bands:  1 eigenvalues not converged
     ethr =  1.00E-06,  avg # of iterations = 14.0

     negative rho (up, down):  5.118E-05 0.000E+00

     total cpu time spent up to now is       16.4 secs

     total energy              =    -181.37557311 Ry
     estimated scf accuracy    <       0.08427500 Ry

     iteration #  2     ecut=    40.00 Ry     beta= 0.10
     Davidson diagonalization with overlap
     ethr =  3.24E-04,  avg # of iterations =  1.0

     negative rho (up, down):  5.228E-05 0.000E+00

     total cpu time spent up to now is       17.2 secs

     total energy              =    -181.37149312 Ry
     estimated scf accuracy    <       0.02438531 Ry

     iteration #  3     ecut=    40.00 Ry     beta= 0.10
     Davidson diagonalization with overlap
     ethr =  9.38E-05,  avg # of iterations =  2.0

     negative rho (up, down):  7.295E-05 0.000E+00

     total cpu time spent up to now is       18.0 secs

     total energy              =    -181.37486822 Ry
     estimated scf accuracy    <       0.00271874 Ry

     iteration #  4     ecut=    40.00 Ry     beta= 0.10
     Davidson diagonalization with overlap
     ethr =  1.05E-05,  avg # of iterations =  2.0

     negative rho (up, down):  9.789E-05 0.000E+00

     total cpu time spent up to now is       19.1 secs

     total energy              =    -181.37493973 Ry
     estimated scf accuracy    <       0.00299605 Ry

     iteration #  5     ecut=    40.00 Ry     beta= 0.10
     Davidson diagonalization with overlap
     ethr =  1.05E-05,  avg # of iterations =  1.8

     negative rho (up, down):  9.940E-05 0.000E+00

     total cpu time spent up to now is       19.8 secs

     total energy              =    -181.37508834 Ry
     estimated scf accuracy    <       0.00027760 Ry

     iteration #  6     ecut=    40.00 Ry     beta= 0.10
     Davidson diagonalization with overlap
     ethr =  1.07E-06,  avg # of iterations =  3.8

     negative rho (up, down):  9.878E-05 0.000E+00

     total cpu time spent up to now is       20.6 secs

     total energy              =    -181.37514552 Ry
     estimated scf accuracy    <       0.00011785 Ry

     iteration #  7     ecut=    40.00 Ry     beta= 0.10
     Davidson diagonalization with overlap
     ethr =  4.53E-07,  avg # of iterations =  2.0

     negative rho (up, down):  9.104E-05 0.000E+00

     total cpu time spent up to now is       21.5 secs

     total energy              =    -181.37516024 Ry
     estimated scf accuracy    <       0.00000855 Ry

     iteration #  8     ecut=    40.00 Ry     beta= 0.10
     Davidson diagonalization with overlap
     ethr =  3.29E-08,  avg # of iterations =  2.0

     negative rho (up, down):  8.379E-05 0.000E+00

     total cpu time spent up to now is       22.3 secs

     total energy              =    -181.37515978 Ry
     estimated scf accuracy    <       0.00000229 Ry

     iteration #  9     ecut=    40.00 Ry     beta= 0.10
     Davidson diagonalization with overlap
     ethr =  8.80E-09,  avg # of iterations =  2.3

     negative rho (up, down):  4.367E-05 0.000E+00

     total cpu time spent up to now is       23.2 secs

     End of self-consistent calculation

          k = 0.0000 0.0000 0.0000 (  5021 PWs)   bands (ev):

   -61.8002 -36.0193 -36.0193 -35.9186 -15.9808 -13.6019  -7.2050  -6.2163
    -6.2163  -2.6791  -1.7737  -1.7737  -0.8925  -0.8925   0.3558   4.2236
     4.4122   5.1510

     occupation numbers 
     1.0000   1.0000   1.0000   1.0000   1.0000   1.0000   1.0000   1.0000
     1.0000   1.0000   1.0000   1.0000   1.0000   1.0000   0.0000   0.0000
     0.0000   0.0000

          k = 0.0000 0.1283 0.0000 (  5077 PWs)   bands (ev):

   -61.7952 -36.0743 -36.0313 -35.9075 -15.7497 -13.6559  -6.9763  -6.4783
    -6.0605  -2.8730  -2.4698  -2.2202  -0.7932  -0.1164   0.6700   3.6782
     4.5833   4.6578

     occupation numbers 
     1.0000   1.0000   1.0000   1.0000   1.0000   1.0000   1.0000   1.0000
     1.0000   1.0000   1.0000   1.0000   1.0000   0.0000   0.0000   0.0000
     0.0000   0.0000

          k = 0.0000 0.2566 0.0000 (  5105 PWs)   bands (ev):

   -61.7825 -36.2114 -36.0616 -35.8791 -15.1375 -13.7812  -6.8992  -6.2324
    -5.7277  -4.6063  -3.0775  -1.7544  -1.0756   0.6005   1.1509   3.0197
     4.1110   5.3262

     occupation numbers 
     1.0000   1.0000   1.0000   1.0000   1.0000   1.0000   1.0000   1.0000
     1.0000   1.0000   1.0000   1.0000   1.0000   0.0000   0.0000   0.0000
     0.0000   0.0000

          k = 0.0000 0.3849 0.0000 (  5126 PWs)   bands (ev):

   -61.7681 -36.3634 -36.0958 -35.8466 -14.5187 -13.7235  -7.1960  -5.8748
    -5.5702  -5.3211  -3.0209  -2.4298  -1.2928   0.6214   1.3399   3.9927
     4.3880   5.9475

     occupation numbers 
     1.0000   1.0000   1.0000   1.0000   1.0000   1.0000   1.0000   1.0000
     1.0000   1.0000   1.0000   1.0000   1.0000   0.0000   0.0000   0.0000
     0.0000   0.0000

          k = 0.0000 0.5132 0.0000 (  5112 PWs)   bands (ev):

   -61.7587 -36.4606 -36.1179 -35.8253 -14.4299 -13.2198  -7.9208  -5.7045
    -5.6174  -5.0257  -2.9882  -2.5870  -1.4332   0.3357   1.2874   4.7214
     5.1591   5.4859

     occupation numbers 
     1.0000   1.0000   1.0000   1.0000   1.0000   1.0000   1.0000   1.0000
     1.0000   1.0000   1.0000   1.0000   1.0000   0.0000   0.0000   0.0000
     0.0000   0.0000

          k = 0.1111 0.1925 0.0000 (  5108 PWs)   bands (ev):

   -61.7864 -36.1652 -36.0576 -35.8877 -15.3228 -13.7508  -6.7444  -6.5478
    -5.8397  -3.7627  -3.4672  -1.7506  -0.6994   0.2678   1.0792   3.3547
     3.6098   5.1818

     occupation numbers 
     1.0000   1.0000   1.0000   1.0000   1.0000   1.0000   1.0000   1.0000
     1.0000   1.0000   1.0000   1.0000   1.0000   0.0000   0.0000   0.0000
     0.0000   0.0000

          k = 0.1111 0.3208 0.0000 (  5085 PWs)   bands (ev):

   -61.7728 -36.2980 -36.1015 -35.8572 -14.6337 -13.8556  -6.9187  -6.0043
    -5.7304  -4.8924  -3.7969  -1.9082  -0.8328   0.5069   1.3571   3.0566
     4.1070   5.9381

     occupation numbers 
     1.0000   1.0000   1.0000   1.0000   1.0000   1.0000   1.0000   1.0000
     1.0000   1.0000   1.0000   1.0000   1.0000   0.0000   0.0000   0.0000
     0.0000   0.0000

          k = 0.1111 0.4491 0.0000 (  5114 PWs)   bands (ev):

   -61.7609 -36.4118 -36.1403 -35.8303 -14.2963 -13.5392  -7.3998  -6.2887
    -5.2700  -4.9248  -3.6109  -2.7372  -0.8212   0.4807   1.1934   3.5653
     5.1235   6.2825

     occupation numbers 
     1.0000   1.0000   1.0000   1.0000   1.0000   1.0000   1.0000   1.0000
     1.0000   1.0000   1.0000   1.0000   1.0000   0.0000   0.0000   0.0000
     0.0000   0.0000

          k = 0.1111-0.5774 0.0000 (  5110 PWs)   bands (ev):

   -61.7561 -36.4561 -36.1556 -35.8197 -14.3103 -13.1974  -7.8556  -6.1470
    -5.1792  -4.9113  -3.3679  -3.0366  -0.9246   0.4212   1.1352   3.9411
     5.2074   6.0041

     occupation numbers 
     1.0000   1.0000   1.0000   1.0000   1.0000   1.0000   1.0000   1.0000
     1.0000   1.0000   1.0000   1.0000   1.0000   0.0000   0.0000   0.0000
     0.0000   0.0000

          k = 0.2222 0.3849 0.0000 (  5114 PWs)   bands (ev):

   -61.7617 -36.3696 -36.1728 -35.8324 -13.9852 -13.9314  -6.8124  -6.6847
    -5.0687  -4.7481  -4.5895  -2.4856  -0.3995   0.6713   0.9380   2.8185
     5.0182   6.9328

     occupation numbers 
     1.0000   1.0000   1.0000   1.0000   1.0000   1.0000   1.0000   1.0000
     1.0000   1.0000   1.0000   1.0000   0.8333   0.0000   0.0000   0.0000
     0.0000   0.0000

          k = 0.2222-0.6415 0.0000 (  5158 PWs)   bands (ev):

   -61.7545 -36.4029 -36.2323 -35.8162 -13.9878 -13.4846  -7.2148  -6.6003
    -5.2591  -4.4998  -4.3379  -3.1793  -0.4449   0.7394   0.9290   3.1629
     4.8180   7.1337

     occupation numbers 
     1.0000   1.0000   1.0000   1.0000   1.0000   1.0000   1.0000   1.0000
     1.0000   1.0000   1.0000   1.0000   1.0000   0.0000   0.0000   0.0000
     0.0000   0.0000

          k = 0.3333-0.5774 0.0000 (  5172 PWs)   bands (ev):

   -61.7520 -36.3341 -36.3341 -35.8107 -13.6681 -13.6681  -6.7319  -6.7319
    -5.9429  -4.2098  -4.2098  -3.5754  -0.5936   0.9984   0.9984   3.6791
     3.6791   7.8175

     occupation numbers 
     1.0000   1.0000   1.0000   1.0000   1.0000   1.0000   1.0000   1.0000
     1.0000   1.0000   1.0000   1.0000   1.0000   0.0000   0.0000   0.0000
     0.0000   0.0000

     the Fermi energy is    -0.3987 ev

!    total energy              =    -181.37516041 Ry
     estimated scf accuracy    <       0.00000023 Ry
     smearing contrib. (-TS)   =      -0.00000063 Ry
     internal energy E=F+TS    =    -181.37515978 Ry

     The total energy is F=E-TS. E is the sum of the following terms:
     one-electron contribution =   -1185.71317508 Ry
     hartree contribution      =     593.00785127 Ry
     xc contribution           =     -30.16433151 Ry
     ewald contribution        =     441.49449554 Ry

     convergence has been achieved in   9 iterations

     negative rho (up, down):  4.367E-05 0.000E+00

     Forces acting on atoms (cartesian axes, Ry/au):

     atom    1 type  1   force =    -0.00000000    0.00000000    0.00000000
     atom    2 type  2   force =    -0.00000000    0.00000000    0.23883994
     atom    3 type  2   force =     0.00000000    0.00000000   -0.23883994
     The non-local contrib.  to forces
     atom    1 type  1   force =    -0.00000000    0.00000000    0.00000000
     atom    2 type  2   force =     0.00000000    0.00000000   -0.11738338
     atom    3 type  2   force =     0.00000000    0.00000000    0.11738338
     The ionic contribution  to forces
     atom    1 type  1   force =    -0.00000002   -0.00000001   -0.00000000
     atom    2 type  2   force =     0.00000001    0.00000000   34.95340171
     atom    3 type  2   force =     0.00000002    0.00000001  -34.95340171
     The local contribution  to forces
     atom    1 type  1   force =    -0.00000000   -0.00000000    0.00000000
     atom    2 type  2   force =     0.00000001    0.00000001  -34.59441134
     atom    3 type  2   force =     0.00000002    0.00000001   34.59441134
     The core correction contribution to forces
     atom    1 type  1   force =    -0.00000000    0.00000000   -0.00000000
     atom    2 type  2   force =    -0.00000000   -0.00000000   -0.00322607
     atom    3 type  2   force =    -0.00000000   -0.00000000    0.00322607
     The Hubbard contrib.    to forces
     atom    1 type  1   force =     0.00000000    0.00000000    0.00000000
     atom    2 type  2   force =     0.00000000    0.00000000    0.00000000
     atom    3 type  2   force =     0.00000000    0.00000000    0.00000000
     The SCF correction term to forces
     atom    1 type  1   force =    -0.00000000   -0.00000000   -0.00000000
     atom    2 type  2   force =    -0.00000000   -0.00000000    0.00045902
     atom    3 type  2   force =    -0.00000000   -0.00000000   -0.00045902

     Total force =     0.337771     Total SCF correction =     0.000649
     Energy error            =      3.6E-01
     Gradient error          =      2.4E-01

     number of scf cycles    =   2
     number of bfgs steps    =   1

     energy   old            =    -181.0155093325 Ry
     energy   new            =    -181.3751604117 Ry

     CASE: energy  _new < energy  _old

     new trust radius        =       0.4675800447 bohr
     new conv_thr            =       0.0000010000 Ry


ATOMIC_POSITIONS (crystal)
Mo            0.0000000000        0.0000000000        0.5000000000    0   0   0
S             0.3333333330        0.3333333330        0.5752895300    0   0   1
S             0.6666666660        0.6666666660        0.4247104700    0   0   1



     Writing output data file ./outdir/MoS2.save/
     NEW-OLD atomic charge density approx. for the potential

     negative rho (up, down):  4.874E-05 0.000E+00

     total cpu time spent up to now is       24.6 secs

     Self-consistent Calculation

     iteration #  1     ecut=    40.00 Ry     beta= 0.10
     Davidson diagonalization with overlap
     c_bands:  1 eigenvalues not converged
     ethr =  1.00E-06,  avg # of iterations = 13.2

     negative rho (up, down):  4.723E-05 0.000E+00

     total cpu time spent up to now is       26.3 secs

     total energy              =    -181.50366885 Ry
     estimated scf accuracy    <       0.04484369 Ry

     iteration #  2     ecut=    40.00 Ry     beta= 0.10
     Davidson diagonalization with overlap
     ethr =  1.72E-04,  avg # of iterations =  1.0

     negative rho (up, down):  4.662E-05 0.000E+00

     total cpu time spent up to now is       27.0 secs

     total energy              =    -181.50427872 Ry
     estimated scf accuracy    <       0.00845244 Ry

     iteration #  3     ecut=    40.00 Ry     beta= 0.10
     Davidson diagonalization with overlap
     ethr =  3.25E-05,  avg # of iterations =  1.9

     negative rho (up, down):  8.214E-05 0.000E+00

     total cpu time spent up to now is       27.8 secs

     total energy              =    -181.50480996 Ry
     estimated scf accuracy    <       0.00237829 Ry

     iteration #  4     ecut=    40.00 Ry     beta= 0.10
     Davidson diagonalization with overlap
     ethr =  9.15E-06,  avg # of iterations =  3.1

     negative rho (up, down):  8.671E-05 0.000E+00

     total cpu time spent up to now is       28.6 secs

     total energy              =    -181.50492658 Ry
     estimated scf accuracy    <       0.00104490 Ry

     iteration #  5     ecut=    40.00 Ry     beta= 0.10
     Davidson diagonalization with overlap
     ethr =  4.02E-06,  avg # of iterations =  2.1

     negative rho (up, down):  9.110E-05 0.000E+00

     total cpu time spent up to now is       29.3 secs

     total energy              =    -181.50500687 Ry
     estimated scf accuracy    <       0.00011288 Ry

     iteration #  6     ecut=    40.00 Ry     beta= 0.10
     Davidson diagonalization with overlap
     ethr =  4.34E-07,  avg # of iterations =  2.2

     negative rho (up, down):  8.589E-05 0.000E+00

     total cpu time spent up to now is       30.1 secs

     total energy              =    -181.50501245 Ry
     estimated scf accuracy    <       0.00009805 Ry

     iteration #  7     ecut=    40.00 Ry     beta= 0.10
     Davidson diagonalization with overlap
     ethr =  3.77E-07,  avg # of iterations =  1.7

     negative rho (up, down):  8.119E-05 0.000E+00

     total cpu time spent up to now is       30.8 secs

     total energy              =    -181.50502678 Ry
     estimated scf accuracy    <       0.00000854 Ry

     iteration #  8     ecut=    40.00 Ry     beta= 0.10
     Davidson diagonalization with overlap
     ethr =  3.28E-08,  avg # of iterations =  2.0

     negative rho (up, down):  7.469E-05 0.000E+00

     total cpu time spent up to now is       31.5 secs

     total energy              =    -181.50502746 Ry
     estimated scf accuracy    <       0.00000180 Ry

     iteration #  9     ecut=    40.00 Ry     beta= 0.10
     Davidson diagonalization with overlap
     ethr =  6.92E-09,  avg # of iterations =  1.0

     negative rho (up, down):  3.758E-05 0.000E+00

     total cpu time spent up to now is       32.2 secs

     End of self-consistent calculation

          k = 0.0000 0.0000 0.0000 (  5021 PWs)   bands (ev):

   -61.9602 -36.0271 -35.9962 -35.9962 -15.1707 -13.8176  -6.6557  -4.5029
    -4.5029  -3.0125  -1.2407  -1.2407  -0.7779  -0.5707  -0.5707   3.3055
     3.3055   4.3759

     occupation numbers 
     1.0000   1.0000   1.0000   1.0000   1.0000   1.0000   1.0000   1.0000
     1.0000   1.0000   1.0000   1.0000   1.0000   1.0000   1.0000   0.0000
     0.0000   0.0000

          k = 0.0000 0.1283 0.0000 (  5077 PWs)   bands (ev):

   -61.9560 -36.0400 -36.0183 -36.0061 -14.9764 -13.7779  -6.4168  -5.0272
    -4.3956  -2.6358  -2.2582  -1.8583  -0.9988  -0.0067   0.0462   2.7095
     3.1915   4.6370

     occupation numbers 
     1.0000   1.0000   1.0000   1.0000   1.0000   1.0000   1.0000   1.0000
     1.0000   1.0000   1.0000   1.0000   1.0000   0.0000   0.0000   0.0000
     0.0000   0.0000

          k = 0.0000 0.2566 0.0000 (  5105 PWs)   bands (ev):

   -61.9453 -36.1493 -36.0311 -35.9959 -14.4521 -13.6665  -5.9341  -5.4973
    -4.2464  -4.1623  -2.3439  -2.2807  -1.3844   0.4639   0.5441   2.4008
     3.1498   5.3303

     occupation numbers 
     1.0000   1.0000   1.0000   1.0000   1.0000   1.0000   1.0000   1.0000
     1.0000   1.0000   1.0000   1.0000   1.0000   0.0000   0.0000   0.0000
     0.0000   0.0000

          k = 0.0000 0.3849 0.0000 (  5126 PWs)   bands (ev):

   -61.9331 -36.2714 -36.0594 -35.9704 -13.8723 -13.4074  -6.2361  -5.6308
    -4.8276  -4.3533  -2.8529  -2.2477  -1.8332   0.6720   0.9511   3.2769
     3.3355   6.1246

     occupation numbers 
     1.0000   1.0000   1.0000   1.0000   1.0000   1.0000   1.0000   1.0000
     1.0000   1.0000   1.0000   1.0000   1.0000   0.0000   0.0000   0.0000
     0.0000   0.0000

          k = 0.0000 0.5132 0.0000 (  5112 PWs)   bands (ev):

   -61.9252 -36.3498 -36.0778 -35.9537 -13.6866 -12.9203  -7.1050  -5.5738
    -4.8449  -4.5225  -3.0873  -2.0623  -1.9993   0.7332   1.4949   3.4885
     4.2216   5.1394

     occupation numbers 
     1.0000   1.0000   1.0000   1.0000   1.0000   1.0000   1.0000   1.0000
     1.0000   1.0000   1.0000   1.0000   1.0000   0.0000   0.0000   0.0000
     0.0000   0.0000

          k = 0.1111 0.1925 0.0000 (  5108 PWs)   bands (ev):

   -61.9485 -36.1125 -36.0278 -36.0025 -14.6138 -13.7049  -5.9751  -5.5167
    -4.3739  -3.2192  -2.9892  -2.0557  -0.9774   0.1363   0.5071   2.6431
     2.7693   5.2795

     occupation numbers 
     1.0000   1.0000   1.0000   1.0000   1.0000   1.0000   1.0000   1.0000
     1.0000   1.0000   1.0000   1.0000   1.0000   0.0000   0.0000   0.0000
     0.0000   0.0000

          k = 0.1111 0.3208 0.0000 (  5085 PWs)   bands (ev):

   -61.9371 -36.2189 -36.0636 -35.9787 -14.0120 -13.5636  -5.9278  -5.2483
    -5.1186  -4.1551  -3.2497  -2.3400  -1.0576   0.1567   1.0513   2.4335
     3.3415   5.9665

     occupation numbers 
     1.0000   1.0000   1.0000   1.0000   1.0000   1.0000   1.0000   1.0000
     1.0000   1.0000   1.0000   1.0000   1.0000   0.0000   0.0000   0.0000
     0.0000   0.0000

          k = 0.1111 0.4491 0.0000 (  5114 PWs)   bands (ev):

   -61.9270 -36.3107 -36.0953 -35.9576 -13.6344 -13.1624  -6.5604  -5.7755
    -4.6586  -4.4956  -3.2354  -3.0116  -1.0760   0.4847   1.3445   2.7248
     4.0745   6.2370

     occupation numbers 
     1.0000   1.0000   1.0000   1.0000   1.0000   1.0000   1.0000   1.0000
     1.0000   1.0000   1.0000   1.0000   1.0000   0.0000   0.0000   0.0000
     0.0000   0.0000

          k = 0.1111-0.5774 0.0000 (  5110 PWs)   bands (ev):

   -61.9230 -36.3465 -36.1078 -35.9493 -13.5749 -12.8573  -7.0744  -5.5642
    -4.9565  -4.4878  -3.2173  -3.0514  -1.1426   0.7517   1.4347   2.9616
     4.2690   5.5730

     occupation numbers 
     1.0000   1.0000   1.0000   1.0000   1.0000   1.0000   1.0000   1.0000
     1.0000   1.0000   1.0000   1.0000   1.0000   0.0000   0.0000   0.0000
     0.0000   0.0000

          k = 0.2222 0.3849 0.0000 (  5114 PWs)   bands (ev):

   -61.9278 -36.2770 -36.1208 -35.9592 -13.4417 -13.4349  -6.0152  -5.9012
    -4.5480  -4.4191  -4.1890  -2.8413  -0.4454   0.0536   1.3431   2.1316
     4.0447   6.9644

     occupation numbers 
     1.0000   1.0000   1.0000   1.0000   1.0000   1.0000   1.0000   1.0000
     1.0000   1.0000   1.0000   1.0000   1.0000   0.0000   0.0000   0.0000
     0.0000   0.0000

          k = 0.2222-0.6415 0.0000 (  5158 PWs)   bands (ev):

   -61.9217 -36.3042 -36.1686 -35.9465 -13.3443 -13.0092  -6.4990  -5.8617
    -4.8386  -4.3860  -4.1729  -3.3503  -0.3451   0.5070   1.1608   2.4656
     4.0300   6.8011

     occupation numbers 
     1.0000   1.0000   1.0000   1.0000   1.0000   1.0000   1.0000   1.0000
     1.0000   1.0000   1.0000   1.0000   1.0000   0.0000   0.0000   0.0000
     0.0000   0.0000

          k = 0.3333-0.5774 0.0000 (  5172 PWs)   bands (ev):

   -61.9195 -36.2496 -36.2496 -35.9422 -13.0893 -13.0893  -5.9698  -5.9698
    -5.6486  -4.1023  -4.1023  -3.8567   0.3870   0.4718   0.4718   3.1836
     3.1836   6.7398

     occupation numbers 
     1.0000   1.0000   1.0000   1.0000   1.0000   1.0000   1.0000   1.0000
     1.0000   1.0000   1.0000   1.0000   0.0000   0.0000   0.0000   0.0000
     0.0000   0.0000

     the Fermi energy is    -0.0336 ev

!    total energy              =    -181.50502728 Ry
     estimated scf accuracy    <       0.00000047 Ry
     smearing contrib. (-TS)   =       0.00000000 Ry
     internal energy E=F+TS    =    -181.50502728 Ry

     The total energy is F=E-TS. E is the sum of the following terms:
     one-electron contribution =   -1120.83719993 Ry
     hartree contribution      =     560.54488522 Ry
     xc contribution           =     -29.74946960 Ry
     ewald contribution        =     408.53675703 Ry

     convergence has been achieved in   9 iterations

     negative rho (up, down):  3.758E-05 0.000E+00

     Forces acting on atoms (cartesian axes, Ry/au):

     atom    1 type  1   force =     0.00000000    0.00000000    0.00000000
     atom    2 type  2   force =    -0.00000000    0.00000000    0.04806456
     atom    3 type  2   force =     0.00000000    0.00000000   -0.04806456
     The non-local contrib.  to forces
     atom    1 type  1   force =     0.00000000    0.00000000    0.00000000
     atom    2 type  2   force =     0.00000000    0.00000000   -0.24874381
     atom    3 type  2   force =     0.00000000    0.00000000    0.24874381
     The ionic contribution  to forces
     atom    1 type  1   force =    -0.00000001   -0.00000001   -0.00000000
     atom    2 type  2   force =     0.00000000    0.00000000   35.37532670
     atom    3 type  2   force =     0.00000001    0.00000001  -35.37532670
     The local contribution  to forces
     atom    1 type  1   force =    -0.00000000   -0.00000000    0.00000000
     atom    2 type  2   force =     0.00000001    0.00000001  -35.07906818
     atom    3 type  2   force =     0.00000002    0.00000001   35.07906818
     The core correction contribution to forces
     atom    1 type  1   force =    -0.00000000   -0.00000000   -0.00000000
     atom    2 type  2   force =    -0.00000000   -0.00000000    0.00160971
     atom    3 type  2   force =    -0.00000000   -0.00000000   -0.00160971
     The Hubbard contrib.    to forces
     atom    1 type  1   force =     0.00000000    0.00000000    0.00000000
     atom    2 type  2   force =     0.00000000    0.00000000    0.00000000
     atom    3 type  2   force =     0.00000000    0.00000000    0.00000000
     The SCF correction term to forces
     atom    1 type  1   force =    -0.00000000   -0.00000000   -0.00000000
     atom    2 type  2   force =    -0.00000000   -0.00000000   -0.00105986
     atom    3 type  2   force =    -0.00000000   -0.00000000    0.00105986

     Total force =     0.067974     Total SCF correction =     0.001499
     Energy error            =      1.3E-01
     Gradient error          =      4.8E-02

     number of scf cycles    =   3
     number of bfgs steps    =   2

     energy   old            =    -181.3751604117 Ry
     energy   new            =    -181.5050272762 Ry

     CASE: energy  _new < energy  _old

     new trust radius        =       0.1178036235 bohr
     new conv_thr            =       0.0000004806 Ry


ATOMIC_POSITIONS (crystal)
Mo            0.0000000000        0.0000000000        0.5000000000    0   0   0
S             0.3333333330        0.3333333330        0.5784064797    0   0   1
S             0.6666666660        0.6666666660        0.4215935203    0   0   1



     Writing output data file ./outdir/MoS2.save/
     NEW-OLD atomic charge density approx. for the potential

     negative rho (up, down):  4.936E-05 0.000E+00

     total cpu time spent up to now is       33.6 secs

     Self-consistent Calculation

     iteration #  1     ecut=    40.00 Ry     beta= 0.10
     Davidson diagonalization with overlap
     ethr =  1.00E-06,  avg # of iterations = 11.0

     negative rho (up, down):  4.806E-05 0.000E+00

     total cpu time spent up to now is       34.9 secs

     total energy              =    -181.51150024 Ry
     estimated scf accuracy    <       0.00161556 Ry

     iteration #  2     ecut=    40.00 Ry     beta= 0.10
     Davidson diagonalization with overlap
     ethr =  6.21E-06,  avg # of iterations =  1.0

     negative rho (up, down):  4.716E-05 0.000E+00

     total cpu time spent up to now is       35.7 secs

     total energy              =    -181.51153791 Ry
     estimated scf accuracy    <       0.00034975 Ry

     iteration #  3     ecut=    40.00 Ry     beta= 0.10
     Davidson diagonalization with overlap
     ethr =  1.35E-06,  avg # of iterations =  1.2

     negative rho (up, down):  7.453E-05 0.000E+00

     total cpu time spent up to now is       36.4 secs

     total energy              =    -181.51153743 Ry
     estimated scf accuracy    <       0.00016318 Ry

     iteration #  4     ecut=    40.00 Ry     beta= 0.10
     Davidson diagonalization with overlap
     ethr =  6.28E-07,  avg # of iterations =  2.0

     negative rho (up, down):  6.886E-05 0.000E+00

     total cpu time spent up to now is       37.2 secs

     total energy              =    -181.51155040 Ry
     estimated scf accuracy    <       0.00002027 Ry

     iteration #  5     ecut=    40.00 Ry     beta= 0.10
     Davidson diagonalization with overlap
     ethr =  7.80E-08,  avg # of iterations =  1.7

     negative rho (up, down):  7.129E-05 0.000E+00

     total cpu time spent up to now is       38.0 secs

     total energy              =    -181.51155249 Ry
     estimated scf accuracy    <       0.00000510 Ry

     iteration #  6     ecut=    40.00 Ry     beta= 0.10
     Davidson diagonalization with overlap
     ethr =  1.96E-08,  avg # of iterations =  2.0

     negative rho (up, down):  6.765E-05 0.000E+00

     total cpu time spent up to now is       38.8 secs

     total energy              =    -181.51155280 Ry
     estimated scf accuracy    <       0.00000182 Ry

     iteration #  7     ecut=    40.00 Ry     beta= 0.10
     Davidson diagonalization with overlap
     ethr =  7.00E-09,  avg # of iterations =  1.6

     negative rho (up, down):  3.790E-05 0.000E+00

     total cpu time spent up to now is       39.5 secs

     End of self-consistent calculation

          k = 0.0000 0.0000 0.0000 (  5021 PWs)   bands (ev):

   -61.9892 -36.0400 -35.9928 -35.9928 -14.9889 -13.8199  -6.5144  -4.1117
    -4.1117  -3.0834  -1.1162  -1.1162  -1.0034  -0.4562  -0.4562   3.0395
     3.0395   4.3546

     occupation numbers 
     1.0000   1.0000   1.0000   1.0000   1.0000   1.0000   1.0000   1.0000
     1.0000   1.0000   1.0000   1.0000   1.0000   1.0000   1.0000   0.0000
     0.0000   0.0000

          k = 0.0000 0.1283 0.0000 (  5077 PWs)   bands (ev):

   -61.9852 -36.0348 -36.0315 -36.0023 -14.8012 -13.7642  -6.2745  -4.7087
    -4.0116  -2.6661  -2.1343  -1.6965  -1.0970  -0.0568   0.0990   2.4920
     2.9497   4.6222

     occupation numbers 
     1.0000   1.0000   1.0000   1.0000   1.0000   1.0000   1.0000   1.0000
     1.0000   1.0000   1.0000   1.0000   1.0000   0.0000   0.0000   0.0000
     0.0000   0.0000

          k = 0.0000 0.2566 0.0000 (  5105 PWs)   bands (ev):

   -61.9748 -36.1391 -36.0265 -36.0108 -14.2923 -13.6095  -5.7474  -5.2747
    -4.0222  -3.8947  -2.3677  -2.1510  -1.4445   0.3275   0.5356   2.2374
     2.9332   5.3211

     occupation numbers 
     1.0000   1.0000   1.0000   1.0000   1.0000   1.0000   1.0000   1.0000
     1.0000   1.0000   1.0000   1.0000   1.0000   0.0000   0.0000   0.0000
     0.0000   0.0000

          k = 0.0000 0.3849 0.0000 (  5126 PWs)   bands (ev):

   -61.9630 -36.2559 -36.0538 -35.9870 -13.7143 -13.3113  -6.0100  -5.5190
    -4.7001  -4.0456  -2.9275  -2.0553  -1.9106   0.6831   0.8429   3.0632
     3.0937   6.1110

     occupation numbers 
     1.0000   1.0000   1.0000   1.0000   1.0000   1.0000   1.0000   1.0000
     1.0000   1.0000   1.0000   1.0000   1.0000   0.0000   0.0000   0.0000
     0.0000   0.0000

          k = 0.0000 0.5132 0.0000 (  5112 PWs)   bands (ev):

   -61.9553 -36.3310 -36.0715 -35.9713 -13.4991 -12.8288  -6.9099  -5.4995
    -4.7793  -4.2317  -3.0799  -2.1555  -1.8505   0.8094   1.4598   3.2145
     3.9480   5.0798

     occupation numbers 
     1.0000   1.0000   1.0000   1.0000   1.0000   1.0000   1.0000   1.0000
     1.0000   1.0000   1.0000   1.0000   1.0000   0.0000   0.0000   0.0000
     0.0000   0.0000

          k = 0.1111 0.1925 0.0000 (  5108 PWs)   bands (ev):

   -61.9780 -36.1039 -36.0238 -36.0164 -14.4500 -13.6609  -5.8319  -5.2324
    -4.0382  -3.0608  -2.9013  -2.0391  -1.0517   0.1057   0.4253   2.4703
     2.5764   5.2920

     occupation numbers 
     1.0000   1.0000   1.0000   1.0000   1.0000   1.0000   1.0000   1.0000
     1.0000   1.0000   1.0000   1.0000   1.0000   0.0000   0.0000   0.0000
     0.0000   0.0000

          k = 0.1111 0.3208 0.0000 (  5085 PWs)   bands (ev):

   -61.9669 -36.2057 -36.0576 -35.9947 -13.8626 -13.4717  -5.6925  -5.0675
    -4.9741  -3.9395  -3.1136  -2.3796  -1.0840   0.0731   0.9894   2.2752
     3.1300   5.9642

     occupation numbers 
     1.0000   1.0000   1.0000   1.0000   1.0000   1.0000   1.0000   1.0000
     1.0000   1.0000   1.0000   1.0000   1.0000   0.0000   0.0000   0.0000
     0.0000   0.0000

          k = 0.1111 0.4491 0.0000 (  5114 PWs)   bands (ev):

   -61.9571 -36.2936 -36.0881 -35.9750 -13.4668 -13.0553  -6.3633  -5.6367
    -4.5185  -4.3333  -3.1431  -3.0209  -1.0989   0.4603   1.3532   2.5252
     3.7960   6.1570

     occupation numbers 
     1.0000   1.0000   1.0000   1.0000   1.0000   1.0000   1.0000   1.0000
     1.0000   1.0000   1.0000   1.0000   1.0000   0.0000   0.0000   0.0000
     0.0000   0.0000

          k = 0.1111-0.5774 0.0000 (  5110 PWs)   bands (ev):

   -61.9533 -36.3279 -36.1001 -35.9672 -13.3873 -12.7572  -6.8855  -5.4473
    -4.8684  -4.3109  -3.1669  -3.0204  -1.1663   0.8043   1.4420   2.7370
     4.0171   5.4735

     occupation numbers 
     1.0000   1.0000   1.0000   1.0000   1.0000   1.0000   1.0000   1.0000
     1.0000   1.0000   1.0000   1.0000   1.0000   0.0000   0.0000   0.0000
     0.0000   0.0000

          k = 0.2222 0.3849 0.0000 (  5114 PWs)   bands (ev):

   -61.9578 -36.2614 -36.1124 -35.9765 -13.3045 -13.2988  -5.8318  -5.6841
    -4.4313  -4.3376  -4.0219  -2.8742  -0.4507  -0.0752   1.3876   1.9712
     3.7771   6.9592

     occupation numbers 
     1.0000   1.0000   1.0000   1.0000   1.0000   1.0000   1.0000   1.0000
     1.0000   1.0000   1.0000   1.0000   1.0000   0.0000   0.0000   0.0000
     0.0000   0.0000

          k = 0.2222-0.6415 0.0000 (  5158 PWs)   bands (ev):

   -61.9519 -36.2875 -36.1581 -35.9646 -13.1759 -12.8804  -6.3216  -5.6715
    -4.6999  -4.3277  -4.1130  -3.3406  -0.3968   0.4465   1.2219   2.3124
     3.7939   6.6526

     occupation numbers 
     1.0000   1.0000   1.0000   1.0000   1.0000   1.0000   1.0000   1.0000
     1.0000   1.0000   1.0000   1.0000   1.0000   0.0000   0.0000   0.0000
     0.0000   0.0000

          k = 0.3333-0.5774 0.0000 (  5172 PWs)   bands (ev):

   -61.9499 -36.2355 -36.2355 -35.9605 -12.9351 -12.9351  -5.7722  -5.7722
    -5.5425  -4.0508  -4.0508  -3.8700   0.3424   0.3424   0.5642   3.0328
     3.0328   6.5159

     occupation numbers 
     1.0000   1.0000   1.0000   1.0000   1.0000   1.0000   1.0000   1.0000
     1.0000   1.0000   1.0000   1.0000   0.0000   0.0000   0.0000   0.0000
     0.0000   0.0000

     the Fermi energy is    -0.3106 ev

!    total energy              =    -181.51155275 Ry
     estimated scf accuracy    <       0.00000039 Ry
     smearing contrib. (-TS)   =       0.00000000 Ry
     internal energy E=F+TS    =    -181.51155275 Ry

     The total energy is F=E-TS. E is the sum of the following terms:
     one-electron contribution =   -1104.40076304 Ry
     hartree contribution      =     552.34188148 Ry
     xc contribution           =     -29.65702550 Ry
     ewald contribution        =     400.20435431 Ry

     convergence has been achieved in   7 iterations

     negative rho (up, down):  3.790E-05 0.000E+00

     Forces acting on atoms (cartesian axes, Ry/au):

     atom    1 type  1   force =     0.00000000    0.00000000    0.00000000
     atom    2 type  2   force =     0.00000000    0.00000000    0.00826959
     atom    3 type  2   force =     0.00000000   -0.00000000   -0.00826959
     The non-local contrib.  to forces
     atom    1 type  1   force =    -0.00000000   -0.00000000    0.00000000
     atom    2 type  2   force =     0.00000000    0.00000000   -0.26988317
     atom    3 type  2   force =    -0.00000000    0.00000000    0.26988317
     The ionic contribution  to forces
     atom    1 type  1   force =    -0.00000001   -0.00000001   -0.00000000
     atom    2 type  2   force =     0.00000000    0.00000000   35.34848459
     atom    3 type  2   force =     0.00000001    0.00000000  -35.34848459
     The local contribution  to forces
     atom    1 type  1   force =    -0.00000000   -0.00000000    0.00000000
     atom    2 type  2   force =     0.00000001    0.00000001  -35.07180678
     atom    3 type  2   force =     0.00000002    0.00000001   35.07180678
     The core correction contribution to forces
     atom    1 type  1   force =    -0.00000000   -0.00000000   -0.00000000
     atom    2 type  2   force =    -0.00000000   -0.00000000    0.00254315
     atom    3 type  2   force =    -0.00000000   -0.00000000   -0.00254315
     The Hubbard contrib.    to forces
     atom    1 type  1   force =     0.00000000    0.00000000    0.00000000
     atom    2 type  2   force =     0.00000000    0.00000000    0.00000000
     atom    3 type  2   force =     0.00000000    0.00000000    0.00000000
     The SCF correction term to forces
     atom    1 type  1   force =    -0.00000000   -0.00000000   -0.00000000
     atom    2 type  2   force =    -0.00000000   -0.00000000   -0.00106820
     atom    3 type  2   force =    -0.00000000   -0.00000000    0.00106820

     Total force =     0.011695     Total SCF correction =     0.001511
     SCF correction compared to forces is large: reduce conv_thr to get better values
     Energy error            =      6.5E-03
     Gradient error          =      8.3E-03

     number of scf cycles    =   4
     number of bfgs steps    =   3

     energy   old            =    -181.5050272762 Ry
     energy   new            =    -181.5115527511 Ry

     CASE: energy  _new < energy  _old

     new trust radius        =       0.0244801685 bohr
     new conv_thr            =       0.0000000827 Ry


ATOMIC_POSITIONS (crystal)
Mo            0.0000000000        0.0000000000        0.5000000000    0   0   0
S             0.3333333330        0.3333333330        0.5790541970    0   0   1
S             0.6666666660        0.6666666660        0.4209458030    0   0   1



     Writing output data file ./outdir/MoS2.save/
     NEW-OLD atomic charge density approx. for the potential

     negative rho (up, down):  3.981E-05 0.000E+00

     total cpu time spent up to now is       40.8 secs

     Self-consistent Calculation

     iteration #  1     ecut=    40.00 Ry     beta= 0.10
     Davidson diagonalization with overlap
     ethr =  1.00E-06,  avg # of iterations =  6.7

     negative rho (up, down):  3.965E-05 0.000E+00

     total cpu time spent up to now is       41.9 secs

     total energy              =    -181.51176009 Ry
     estimated scf accuracy    <       0.00004253 Ry

     iteration #  2     ecut=    40.00 Ry     beta= 0.10
     Davidson diagonalization with overlap
     ethr =  1.64E-07,  avg # of iterations =  1.2

     negative rho (up, down):  3.956E-05 0.000E+00

     total cpu time spent up to now is       42.9 secs

     total energy              =    -181.51176091 Ry
     estimated scf accuracy    <       0.00001377 Ry

     iteration #  3     ecut=    40.00 Ry     beta= 0.10
     Davidson diagonalization with overlap
     ethr =  5.30E-08,  avg # of iterations =  1.0

     negative rho (up, down):  4.132E-05 0.000E+00

     total cpu time spent up to now is       44.1 secs

     total energy              =    -181.51176042 Ry
     estimated scf accuracy    <       0.00000724 Ry

     iteration #  4     ecut=    40.00 Ry     beta= 0.10
     Davidson diagonalization with overlap
     ethr =  2.78E-08,  avg # of iterations =  2.0

     negative rho (up, down):  4.079E-05 0.000E+00

     total cpu time spent up to now is       44.9 secs

     total energy              =    -181.51176113 Ry
     estimated scf accuracy    <       0.00000075 Ry

     iteration #  5     ecut=    40.00 Ry     beta= 0.10
     Davidson diagonalization with overlap
     ethr =  2.88E-09,  avg # of iterations =  1.4

     negative rho (up, down):  4.095E-05 0.000E+00

     total cpu time spent up to now is       45.7 secs

     total energy              =    -181.51176116 Ry
     estimated scf accuracy    <       0.00000024 Ry

     iteration #  6     ecut=    40.00 Ry     beta= 0.10
     Davidson diagonalization with overlap
     ethr =  9.33E-10,  avg # of iterations =  2.0

     negative rho (up, down):  4.061E-05 0.000E+00

     total cpu time spent up to now is       46.6 secs

     total energy              =    -181.51176118 Ry
     estimated scf accuracy    <       0.00000009 Ry

     iteration #  7     ecut=    40.00 Ry     beta= 0.10
     Davidson diagonalization with overlap
     ethr =  3.37E-10,  avg # of iterations =  1.9

     negative rho (up, down):  3.847E-05 0.000E+00

     total cpu time spent up to now is       47.4 secs

     End of self-consistent calculation

          k = 0.0000 0.0000 0.0000 (  5021 PWs)   bands (ev):

   -61.9955 -36.0427 -35.9931 -35.9931 -14.9527 -13.8187  -6.4861  -4.0340
    -4.0340  -3.0972  -1.0923  -1.0923  -1.0476  -0.4321  -0.4321   2.9869
     2.9869   4.3582

     occupation numbers 
     1.0000   1.0000   1.0000   1.0000   1.0000   1.0000   1.0000   1.0000
     1.0000   1.0000   1.0000   1.0000   1.0000   1.0000   1.0000   0.0000
     0.0000   0.0000

          k = 0.0000 0.1283 0.0000 (  5077 PWs)   bands (ev):

   -61.9915 -36.0355 -36.0337 -36.0026 -14.7662 -13.7599  -6.2460  -4.6468
    -3.9351  -2.6713  -2.1086  -1.6641  -1.1186  -0.0638   0.1094   2.4481
     2.9015   4.6282

     occupation numbers 
     1.0000   1.0000   1.0000   1.0000   1.0000   1.0000   1.0000   1.0000
     1.0000   1.0000   1.0000   1.0000   1.0000   0.0000   0.0000   0.0000
     0.0000   0.0000

          k = 0.0000 0.2566 0.0000 (  5105 PWs)   bands (ev):

   -61.9812 -36.1382 -36.0266 -36.0140 -14.2602 -13.5970  -5.7118  -5.2284
    -3.9930  -3.8240  -2.3834  -2.1120  -1.4569   0.3000   0.5331   2.2029
     2.8893   5.3273

     occupation numbers 
     1.0000   1.0000   1.0000   1.0000   1.0000   1.0000   1.0000   1.0000
     1.0000   1.0000   1.0000   1.0000   1.0000   0.0000   0.0000   0.0000
     0.0000   0.0000

          k = 0.0000 0.3849 0.0000 (  5126 PWs)   bands (ev):

   -61.9695 -36.2540 -36.0537 -35.9905 -13.6823 -13.2913  -5.9649  -5.4945
    -4.6743  -3.9830  -2.9414  -2.0165  -1.9251   0.6842   0.8197   3.0175
     3.0445   6.0885

     occupation numbers 
     1.0000   1.0000   1.0000   1.0000   1.0000   1.0000   1.0000   1.0000
     1.0000   1.0000   1.0000   1.0000   1.0000   0.0000   0.0000   0.0000
     0.0000   0.0000

          k = 0.0000 0.5132 0.0000 (  5112 PWs)   bands (ev):

   -61.9618 -36.3285 -36.0713 -35.9750 -13.4611 -12.8096  -6.8708  -5.4832
    -4.7655  -4.1721  -3.0770  -2.1727  -1.8204   0.8229   1.4485   3.1592
     3.8902   5.0643

     occupation numbers 
     1.0000   1.0000   1.0000   1.0000   1.0000   1.0000   1.0000   1.0000
     1.0000   1.0000   1.0000   1.0000   1.0000   0.0000   0.0000   0.0000
     0.0000   0.0000

          k = 0.1111 0.1925 0.0000 (  5108 PWs)   bands (ev):

   -61.9843 -36.1032 -36.0243 -36.0190 -14.4172 -13.6509  -5.8033  -5.1759
    -3.9717  -3.0278  -2.8868  -2.0304  -1.0675   0.0985   0.4098   2.4345
     2.5370   5.3004

     occupation numbers 
     1.0000   1.0000   1.0000   1.0000   1.0000   1.0000   1.0000   1.0000
     1.0000   1.0000   1.0000   1.0000   1.0000   0.0000   0.0000   0.0000
     0.0000   0.0000

          k = 0.1111 0.3208 0.0000 (  5085 PWs)   bands (ev):

   -61.9733 -36.2042 -36.0574 -35.9981 -13.8324 -13.4523  -5.6454  -5.0313
    -4.9446  -3.8962  -3.0868  -2.3839  -1.0888   0.0552   0.9764   2.2419
     3.0853   5.9697

     occupation numbers 
     1.0000   1.0000   1.0000   1.0000   1.0000   1.0000   1.0000   1.0000
     1.0000   1.0000   1.0000   1.0000   1.0000   0.0000   0.0000   0.0000
     0.0000   0.0000

          k = 0.1111 0.4491 0.0000 (  5114 PWs)   bands (ev):

   -61.9636 -36.2913 -36.0877 -35.9787 -13.4327 -13.0331  -6.3239  -5.6078
    -4.4941  -4.2962  -3.1253  -3.0190  -1.1027   0.4535   1.3526   2.4841
     3.7377   6.1259

     occupation numbers 
     1.0000   1.0000   1.0000   1.0000   1.0000   1.0000   1.0000   1.0000
     1.0000   1.0000   1.0000   1.0000   1.0000   0.0000   0.0000   0.0000
     0.0000   0.0000

          k = 0.1111-0.5774 0.0000 (  5110 PWs)   bands (ev):

   -61.9598 -36.3253 -36.0996 -35.9710 -13.3491 -12.7363  -6.8475  -5.4250
    -4.8498  -4.2724  -3.1559  -3.0126  -1.1707   0.8126   1.4393   2.6911
     3.9635   5.4516

     occupation numbers 
     1.0000   1.0000   1.0000   1.0000   1.0000   1.0000   1.0000   1.0000
     1.0000   1.0000   1.0000   1.0000   1.0000   0.0000   0.0000   0.0000
     0.0000   0.0000

          k = 0.2222 0.3849 0.0000 (  5114 PWs)   bands (ev):

   -61.9643 -36.2594 -36.1118 -35.9801 -13.2765 -13.2708  -5.7942  -5.6406
    -4.4080  -4.3201  -3.9871  -2.8786  -0.4525  -0.1015   1.3928   1.9385
     3.7207   6.9597

     occupation numbers 
     1.0000   1.0000   1.0000   1.0000   1.0000   1.0000   1.0000   1.0000
     1.0000   1.0000   1.0000   1.0000   1.0000   0.0000   0.0000   0.0000
     0.0000   0.0000

          k = 0.2222-0.6415 0.0000 (  5158 PWs)   bands (ev):

   -61.9585 -36.2854 -36.1571 -35.9684 -13.1414 -12.8539  -6.2857  -5.6332
    -4.6709  -4.3140  -4.0998  -3.3367  -0.4104   0.4338   1.2308   2.2811
     3.7431   6.6175

     occupation numbers 
     1.0000   1.0000   1.0000   1.0000   1.0000   1.0000   1.0000   1.0000
     1.0000   1.0000   1.0000   1.0000   1.0000   0.0000   0.0000   0.0000
     0.0000   0.0000

          k = 0.3333-0.5774 0.0000 (  5172 PWs)   bands (ev):

   -61.9564 -36.2338 -36.2338 -35.9644 -12.9035 -12.9035  -5.7321  -5.7321
    -5.5197  -4.0391  -4.0391  -3.8710   0.3153   0.3153   0.5958   2.9994
     2.9994   6.4721

     occupation numbers 
     1.0000   1.0000   1.0000   1.0000   1.0000   1.0000   1.0000   1.0000
     1.0000   1.0000   1.0000   1.0000   0.0000   0.0000   0.0000   0.0000
     0.0000   0.0000

     the Fermi energy is    -0.3108 ev

!    total energy              =    -181.51176119 Ry
     estimated scf accuracy    <          7.1E-09 Ry
     smearing contrib. (-TS)   =       0.00000000 Ry
     internal energy E=F+TS    =    -181.51176119 Ry

     The total energy is F=E-TS. E is the sum of the following terms:
     one-electron contribution =   -1100.99382678 Ry
     hartree contribution      =     550.64655442 Ry
     xc contribution           =     -29.63843282 Ry
     ewald contribution        =     398.47394399 Ry

     convergence has been achieved in   7 iterations

     negative rho (up, down):  3.847E-05 0.000E+00

     Forces acting on atoms (cartesian axes, Ry/au):

     atom    1 type  1   force =     0.00000000    0.00000000    0.00000000
     atom    2 type  2   force =     0.00000000    0.00000000    0.00036269
     atom    3 type  2   force =     0.00000000    0.00000000   -0.00036269
     The non-local contrib.  to forces
     atom    1 type  1   force =    -0.00000000   -0.00000000    0.00000000
     atom    2 type  2   force =     0.00000000   -0.00000000   -0.27369318
     atom    3 type  2   force =    -0.00000000   -0.00000000    0.27369318
     The ionic contribution  to forces
     atom    1 type  1   force =    -0.00000001   -0.00000001   -0.00000000
     atom    2 type  2   force =     0.00000000    0.00000000   35.33742385
     atom    3 type  2   force =     0.00000001    0.00000000  -35.33742385
     The local contribution  to forces
     atom    1 type  1   force =    -0.00000000   -0.00000000    0.00000000
     atom    2 type  2   force =     0.00000001    0.00000001  -35.06611202
     atom    3 type  2   force =     0.00000002    0.00000001   35.06611202
     The core correction contribution to forces
     atom    1 type  1   force =    -0.00000000   -0.00000000   -0.00000000
     atom    2 type  2   force =    -0.00000000   -0.00000000    0.00271493
     atom    3 type  2   force =    -0.00000000   -0.00000000   -0.00271493
     The Hubbard contrib.    to forces
     atom    1 type  1   force =     0.00000000    0.00000000    0.00000000
     atom    2 type  2   force =     0.00000000    0.00000000    0.00000000
     atom    3 type  2   force =     0.00000000    0.00000000    0.00000000
     The SCF correction term to forces
     atom    1 type  1   force =    -0.00000000   -0.00000000    0.00000000
     atom    2 type  2   force =    -0.00000000   -0.00000000    0.00002910
     atom    3 type  2   force =    -0.00000000   -0.00000000   -0.00002910

     Total force =     0.000513     Total SCF correction =     0.000041
     Energy error            =      2.1E-04
     Gradient error          =      3.6E-04

     number of scf cycles    =   5
     number of bfgs steps    =   4

     energy   old            =    -181.5115527511 Ry
     energy   new            =    -181.5117611887 Ry

     CASE: energy  _new < energy  _old

     new trust radius        =       0.0011229052 bohr
     new conv_thr            =       0.0000000100 Ry


ATOMIC_POSITIONS (crystal)
Mo            0.0000000000        0.0000000000        0.5000000000    0   0   0
S             0.3333333330        0.3333333330        0.5790839078    0   0   1
S             0.6666666660        0.6666666660        0.4209160922    0   0   1



     Writing output data file ./outdir/MoS2.save/
     NEW-OLD atomic charge density approx. for the potential

     negative rho (up, down):  3.852E-05 0.000E+00

     total cpu time spent up to now is       49.2 secs

     Self-consistent Calculation

     iteration #  1     ecut=    40.00 Ry     beta= 0.10
     Davidson diagonalization with overlap
     ethr =  1.00E-06,  avg # of iterations =  2.0

     Threshold (ethr) on eigenvalues was too large:
     Diagonalizing with lowered threshold

     Davidson diagonalization with overlap
     ethr =  5.10E-10,  avg # of iterations =  4.4

     negative rho (up, down):  3.852E-05 0.000E+00

     total cpu time spent up to now is       50.8 secs

     total energy              =    -181.51176165 Ry
     estimated scf accuracy    <       0.00000012 Ry

     iteration #  2     ecut=    40.00 Ry     beta= 0.10
     Davidson diagonalization with overlap
     ethr =  4.66E-10,  avg # of iterations =  1.0

     negative rho (up, down):  3.851E-05 0.000E+00

     total cpu time spent up to now is       51.5 secs

     total energy              =    -181.51176165 Ry
     estimated scf accuracy    <       0.00000003 Ry

     iteration #  3     ecut=    40.00 Ry     beta= 0.10
     Davidson diagonalization with overlap
     ethr =  1.33E-10,  avg # of iterations =  1.1

     negative rho (up, down):  3.852E-05 0.000E+00

     total cpu time spent up to now is       52.3 secs

     total energy              =    -181.51176165 Ry
     estimated scf accuracy    <       0.00000002 Ry

     iteration #  4     ecut=    40.00 Ry     beta= 0.10
     Davidson diagonalization with overlap
     ethr =  6.72E-11,  avg # of iterations =  1.8

     negative rho (up, down):  3.849E-05 0.000E+00

     total cpu time spent up to now is       53.5 secs

     End of self-consistent calculation

          k = 0.0000 0.0000 0.0000 (  5021 PWs)   bands (ev):

   -61.9958 -36.0429 -35.9931 -35.9931 -14.9510 -13.8186  -6.4847  -4.0304
    -4.0304  -3.0977  -1.0911  -1.0911  -1.0496  -0.4310  -0.4310   2.9845
     2.9845   4.3587

     occupation numbers 
     1.0000   1.0000   1.0000   1.0000   1.0000   1.0000   1.0000   1.0000
     1.0000   1.0000   1.0000   1.0000   1.0000   1.0000   1.0000   0.0000
     0.0000   0.0000

          k = 0.0000 0.1283 0.0000 (  5077 PWs)   bands (ev):

   -61.9918 -36.0355 -36.0337 -36.0026 -14.7646 -13.7596  -6.2446  -4.6439
    -3.9315  -2.6714  -2.1074  -1.6626  -1.1195  -0.0640   0.1098   2.4461
     2.8993   4.6289

     occupation numbers 
     1.0000   1.0000   1.0000   1.0000   1.0000   1.0000   1.0000   1.0000
     1.0000   1.0000   1.0000   1.0000   1.0000   0.0000   0.0000   0.0000
     0.0000   0.0000

          k = 0.0000 0.2566 0.0000 (  5105 PWs)   bands (ev):

   -61.9815 -36.1381 -36.0266 -36.0141 -14.2587 -13.5964  -5.7101  -5.2262
    -3.9917  -3.8207  -2.3841  -2.1102  -1.4574   0.2988   0.5330   2.2014
     2.8873   5.3279

     occupation numbers 
     1.0000   1.0000   1.0000   1.0000   1.0000   1.0000   1.0000   1.0000
     1.0000   1.0000   1.0000   1.0000   1.0000   0.0000   0.0000   0.0000
     0.0000   0.0000

          k = 0.0000 0.3849 0.0000 (  5126 PWs)   bands (ev):

   -61.9698 -36.2539 -36.0537 -35.9906 -13.6808 -13.2903  -5.9627  -5.4933
    -4.6731  -3.9801  -2.9419  -2.0148  -1.9257   0.6843   0.8187   3.0154
     3.0422   6.0873

     occupation numbers 
     1.0000   1.0000   1.0000   1.0000   1.0000   1.0000   1.0000   1.0000
     1.0000   1.0000   1.0000   1.0000   1.0000   0.0000   0.0000   0.0000
     0.0000   0.0000

          k = 0.0000 0.5132 0.0000 (  5112 PWs)   bands (ev):

   -61.9621 -36.3283 -36.0713 -35.9752 -13.4593 -12.8087  -6.8690  -5.4825
    -4.7648  -4.1694  -3.0768  -2.1734  -1.8190   0.8236   1.4480   3.1567
     3.8876   5.0636

     occupation numbers 
     1.0000   1.0000   1.0000   1.0000   1.0000   1.0000   1.0000   1.0000
     1.0000   1.0000   1.0000   1.0000   1.0000   0.0000   0.0000   0.0000
     0.0000   0.0000

          k = 0.1111 0.1925 0.0000 (  5108 PWs)   bands (ev):

   -61.9846 -36.1032 -36.0244 -36.0192 -14.4157 -13.6504  -5.8019  -5.1732
    -3.9686  -3.0262  -2.8861  -2.0299  -1.0682   0.0982   0.4092   2.4329
     2.5352   5.3010

     occupation numbers 
     1.0000   1.0000   1.0000   1.0000   1.0000   1.0000   1.0000   1.0000
     1.0000   1.0000   1.0000   1.0000   1.0000   0.0000   0.0000   0.0000
     0.0000   0.0000

          k = 0.1111 0.3208 0.0000 (  5085 PWs)   bands (ev):

   -61.9736 -36.2041 -36.0574 -35.9982 -13.8310 -13.4514  -5.6432  -5.0296
    -4.9432  -3.8942  -3.0856  -2.3840  -1.0890   0.0544   0.9759   2.2404
     3.0833   5.9702

     occupation numbers 
     1.0000   1.0000   1.0000   1.0000   1.0000   1.0000   1.0000   1.0000
     1.0000   1.0000   1.0000   1.0000   1.0000   0.0000   0.0000   0.0000
     0.0000   0.0000

          k = 0.1111 0.4491 0.0000 (  5114 PWs)   bands (ev):

   -61.9639 -36.2912 -36.0877 -35.9789 -13.4311 -13.0321  -6.3221  -5.6065
    -4.4930  -4.2945  -3.1245  -3.0188  -1.1029   0.4532   1.3526   2.4822
     3.7350   6.1244

     occupation numbers 
     1.0000   1.0000   1.0000   1.0000   1.0000   1.0000   1.0000   1.0000
     1.0000   1.0000   1.0000   1.0000   1.0000   0.0000   0.0000   0.0000
     0.0000   0.0000

          k = 0.1111-0.5774 0.0000 (  5110 PWs)   bands (ev):

   -61.9601 -36.3252 -36.0996 -35.9712 -13.3473 -12.7353  -6.8457  -5.4241
    -4.8488  -4.2706  -3.1554  -3.0121  -1.1708   0.8130   1.4392   2.6890
     3.9611   5.4506

     occupation numbers 
     1.0000   1.0000   1.0000   1.0000   1.0000   1.0000   1.0000   1.0000
     1.0000   1.0000   1.0000   1.0000   1.0000   0.0000   0.0000   0.0000
     0.0000   0.0000

          k = 0.2222 0.3849 0.0000 (  5114 PWs)   bands (ev):

   -61.9646 -36.2593 -36.1118 -35.9803 -13.2752 -13.2695  -5.7924  -5.6386
    -4.4068  -4.3193  -3.9855  -2.8787  -0.4525  -0.1027   1.3931   1.9370
     3.7181   6.9597

     occupation numbers 
     1.0000   1.0000   1.0000   1.0000   1.0000   1.0000   1.0000   1.0000
     1.0000   1.0000   1.0000   1.0000   1.0000   0.0000   0.0000   0.0000
     0.0000   0.0000

          k = 0.2222-0.6415 0.0000 (  5158 PWs)   bands (ev):

   -61.9588 -36.2852 -36.1571 -35.9686 -13.1398 -12.8526  -6.2840  -5.6315
    -4.6696  -4.3134  -4.0991  -3.3365  -0.4110   0.4332   1.2312   2.2796
     3.7408   6.6157

     occupation numbers 
     1.0000   1.0000   1.0000   1.0000   1.0000   1.0000   1.0000   1.0000
     1.0000   1.0000   1.0000   1.0000   1.0000   0.0000   0.0000   0.0000
     0.0000   0.0000

          k = 0.3333-0.5774 0.0000 (  5172 PWs)   bands (ev):

   -61.9567 -36.2338 -36.2338 -35.9646 -12.9020 -12.9020  -5.7303  -5.7303
    -5.5187  -4.0384  -4.0384  -3.8711   0.3141   0.3141   0.5973   2.9979
     2.9979   6.4702

     occupation numbers 
     1.0000   1.0000   1.0000   1.0000   1.0000   1.0000   1.0000   1.0000
     1.0000   1.0000   1.0000   1.0000   0.0000   0.0000   0.0000   0.0000
     0.0000   0.0000

     the Fermi energy is    -0.3108 ev

!    total energy              =    -181.51176165 Ry
     estimated scf accuracy    <          2.7E-09 Ry
     smearing contrib. (-TS)   =       0.00000000 Ry
     internal energy E=F+TS    =    -181.51176165 Ry

     The total energy is F=E-TS. E is the sum of the following terms:
     one-electron contribution =   -1100.83659732 Ry
     hartree contribution      =     550.56783502 Ry
     xc contribution           =     -29.63758280 Ry
     ewald contribution        =     398.39458346 Ry

     convergence has been achieved in   4 iterations

     negative rho (up, down):  3.849E-05 0.000E+00

     Forces acting on atoms (cartesian axes, Ry/au):

     atom    1 type  1   force =    -0.00000000    0.00000000    0.00000000
     atom    2 type  2   force =     0.00000000    0.00000000    0.00003996
     atom    3 type  2   force =     0.00000000    0.00000000   -0.00003996
     The non-local contrib.  to forces
     atom    1 type  1   force =     0.00000000    0.00000000    0.00000000
     atom    2 type  2   force =     0.00000000    0.00000000   -0.27385212
     atom    3 type  2   force =     0.00000000    0.00000000    0.27385212
     The ionic contribution  to forces
     atom    1 type  1   force =    -0.00000001   -0.00000001   -0.00000000
     atom    2 type  2   force =     0.00000000    0.00000000   35.33687335
     atom    3 type  2   force =     0.00000001    0.00000000  -35.33687335
     The local contribution  to forces
     atom    1 type  1   force =    -0.00000000   -0.00000000    0.00000000
     atom    2 type  2   force =     0.00000001    0.00000001  -35.06566726
     atom    3 type  2   force =     0.00000002    0.00000001   35.06566726
     The core correction contribution to forces
     atom    1 type  1   force =    -0.00000000   -0.00000000   -0.00000000
     atom    2 type  2   force =    -0.00000000   -0.00000000    0.00272324
     atom    3 type  2   force =    -0.00000000   -0.00000000   -0.00272324
     The Hubbard contrib.    to forces
     atom    1 type  1   force =     0.00000000    0.00000000    0.00000000
     atom    2 type  2   force =     0.00000000    0.00000000    0.00000000
     atom    3 type  2   force =     0.00000000    0.00000000    0.00000000
     The SCF correction term to forces
     atom    1 type  1   force =    -0.00000000   -0.00000000   -0.00000000
     atom    2 type  2   force =     0.00000000    0.00000000   -0.00003725
     atom    3 type  2   force =     0.00000000    0.00000000    0.00003725

     Total force =     0.000057     Total SCF correction =     0.000053
     SCF correction compared to forces is large: reduce conv_thr to get better values
     Energy error            =      4.6E-07
     Gradient error          =      4.0E-05

     bfgs converged in   6 scf cycles and   5 bfgs steps
     (criteria: energy <  1.0E-04 Ry, force <  1.0E-03 Ry/Bohr)

     End of BFGS Geometry Optimization

     Final energy   =    -181.5117616491 Ry

     File ./outdir/MoS2.bfgs deleted, as requested
Begin final coordinates

ATOMIC_POSITIONS (crystal)
Mo            0.0000000000        0.0000000000        0.5000000000    0   0   0
S             0.3333333330        0.3333333330        0.5790839078    0   0   1
S             0.6666666660        0.6666666660        0.4209160922    0   0   1
End final coordinates



     Writing output data file ./outdir/MoS2.save/

     init_run     :      0.96s CPU      1.07s WALL (       1 calls)
     electrons    :     34.74s CPU     44.95s WALL (       6 calls)
     update_pot   :      2.43s CPU      2.44s WALL (       5 calls)
     forces       :      3.63s CPU      4.12s WALL (       6 calls)

     Called by init_run:
     wfcinit      :      0.15s CPU      0.15s WALL (       1 calls)
     wfcinit:atom :      0.00s CPU      0.00s WALL (      12 calls)
     wfcinit:wfcr :      0.14s CPU      0.14s WALL (      12 calls)
     potinit      :      0.20s CPU      0.21s WALL (       1 calls)
     hinit0       :      0.44s CPU      0.45s WALL (       1 calls)

     Called by electrons:
     c_bands      :     16.40s CPU     17.24s WALL (      51 calls)
     sum_band     :      8.80s CPU     13.74s WALL (      51 calls)
     v_of_rho     :      2.21s CPU      2.59s WALL (      56 calls)
     v_h          :      0.17s CPU      0.18s WALL (      56 calls)
     v_xc         :      2.25s CPU      2.66s WALL (      62 calls)
     newd         :      8.01s CPU     12.56s WALL (      56 calls)
     mix_rho      :      0.26s CPU      0.28s WALL (      51 calls)

     Called by c_bands:
     init_us_2    :      0.31s CPU      0.33s WALL (    1308 calls)
     cegterg      :     15.34s CPU     16.15s WALL (     612 calls)

     Called by sum_band:
     sum_band:wei :      0.00s CPU      0.00s WALL (      51 calls)
     sum_band:loo :      1.79s CPU      1.91s WALL (      51 calls)
     sum_band:buf :      0.04s CPU      0.05s WALL (     612 calls)
     sum_band:ini :      0.12s CPU      0.13s WALL (     612 calls)
     sum_band:cal :      0.54s CPU      0.58s WALL (     612 calls)
     sum_band:bec :      0.01s CPU      0.01s WALL (     612 calls)
     addusdens    :      6.54s CPU     11.28s WALL (      51 calls)
     addusd:skk   :      0.02s CPU      0.03s WALL (     102 calls)
     addusd:dgemm :      2.26s CPU      6.34s WALL (     102 calls)
     addusd:qvan2 :      3.85s CPU      3.87s WALL (     102 calls)

     Called by *egterg:
     cdiaghg      :      1.14s CPU      1.17s WALL (    2284 calls)
     cegterg:over :      1.59s CPU      1.63s WALL (    1744 calls)
     cegterg:upda :      0.69s CPU      0.71s WALL (    1744 calls)
     cegterg:last :      1.62s CPU      1.65s WALL (    1321 calls)
     cdiaghg:chol :      0.12s CPU      0.12s WALL (    2284 calls)
     cdiaghg:inve :      0.03s CPU      0.03s WALL (    2284 calls)
     cdiaghg:para :      0.18s CPU      0.18s WALL (    4568 calls)
     h_psi        :      8.50s CPU      9.10s WALL (    2368 calls)
     s_psi        :      1.22s CPU      1.29s WALL (    2368 calls)
     g_psi        :      0.08s CPU      0.08s WALL (    1744 calls)

     Called by h_psi:
     h_psi:calbec :      1.59s CPU      1.75s WALL (    2368 calls)
     vloc_psi     :      5.62s CPU      5.97s WALL (    2368 calls)
     add_vuspsi   :      1.21s CPU      1.30s WALL (    2368 calls)

     General routines
     calbec       :      2.38s CPU      2.57s WALL (    3268 calls)
     fft          :      1.45s CPU      1.57s WALL (     788 calls)
     ffts         :      0.03s CPU      0.03s WALL (     107 calls)
     fftw         :      5.71s CPU      6.07s WALL (   69136 calls)
     interpolate  :      0.14s CPU      0.14s WALL (      56 calls)

     Parallel routines
     fft_scatt_xy :      0.82s CPU      0.87s WALL (   70031 calls)
     fft_scatt_yz :      3.23s CPU      3.46s WALL (   70031 calls)

     PWSCF        :     42.85s CPU     54.18s WALL


   This run was terminated on:  17:23:38  18Jan2023            

=------------------------------------------------------------------------------=
   JOB DONE.
=------------------------------------------------------------------------------=
