
     Program PWSCF v.6.7MaX starts on 18Jan2023 at 18:52:52 

     This program is part of the open-source Quantum ESPRESSO suite
     for quantum simulation of materials; please cite
         "P. Giannozzi et al., J. Phys.:Condens. Matter 21 395502 (2009);
         "P. Giannozzi et al., J. Phys.:Condens. Matter 29 465901 (2017);
          URL http://www.quantum-espresso.org", 
     in publications or presentations arising from this work. More details at
     http://www.quantum-espresso.org/quote

     Parallel version (MPI), running on     8 processors

     MPI processes distributed on     1 nodes
     R & G space division:  proc/nbgrp/npool/nimage =       8
     Reading input from MoS2_2H.in

     Current dimensions of program PWSCF are:
     Max number of different atomic species (ntypx) = 10
     Max number of k-points (npk) =  40000
     Max angular momentum in pseudopotentials (lmaxx) =  3
     file Mo.pbe-spn-rrkjus_psl.1.0.0.UPF: wavefunction(s)  4S renormalized

     IMPORTANT: XC functional enforced from input :
     Exchange-correlation= PBE
                           (   1   4   3   4   0   0   0)
     Any further DFT definition will be discarded
     Please, verify this is what you really want


     Subspace diagonalization in iterative solution of the eigenvalue problem:
     one sub-group per band group will be used
     scalapack distributed-memory algorithm (size of sub-group:  2*  2 procs)


     Parallelization info
     --------------------
     sticks:   dense  smooth     PW     G-vecs:    dense   smooth      PW
     Min         126      74     22                20225     9372    1516
     Max         128      75     24                20238     9397    1525
     Sum        1015     595    187               161851    75037   12167



     bravais-lattice index     =           12
     lattice parameter (alat)  =       6.0471  a.u.
     unit-cell volume          =    1196.8981 (a.u.)^3
     number of atoms/cell      =            3
     number of atomic types    =            2
     number of electrons       =        26.00
     number of Kohn-Sham states=           18
     kinetic-energy cutoff     =      60.0000  Ry
     charge density cutoff     =     400.0000  Ry
     scf convergence threshold =      1.0E-06
     mixing beta               =       0.1000
     number of iterations used =            8  plain     mixing
     energy convergence thresh.=      1.0E-04
     force convergence thresh. =      1.0E-03
     Exchange-correlation= PBE
                           (   1   4   3   4   0   0   0)
     nstep                     =           50


     celldm(1)=   6.047124  celldm(2)=   1.000000  celldm(3)=   6.250000
     celldm(4)=   0.500000  celldm(5)=   0.000000  celldm(6)=   0.000000

     crystal axes: (cart. coord. in units of alat)
               a(1) = (   1.000000   0.000000   0.000000 )  
               a(2) = (   0.500000   0.866025   0.000000 )  
               a(3) = (   0.000000   0.000000   6.250000 )  

     reciprocal axes: (cart. coord. in units 2 pi/alat)
               b(1) = (  1.000000 -0.577350  0.000000 )  
               b(2) = (  0.000000  1.154701  0.000000 )  
               b(3) = (  0.000000  0.000000  0.160000 )  


     PseudoPot. # 1 for Mo read from file:
     /home/zronyj/Desktop/MoS2/pseudo/Mo.pbe-spn-rrkjus_psl.1.0.0.UPF
     MD5 check sum: 03f09b12e49601d1a456a78ce8b2d514
     Pseudo is Ultrasoft + core correction, Zval = 14.0
     Generated using &quot;atomic&quot; code by A. Dal Corso  v.6.3
     Using radial grid of 1229 points,  6 beta functions with: 
                l(1) =   0
                l(2) =   0
                l(3) =   1
                l(4) =   1
                l(5) =   2
                l(6) =   2
     Q(r) pseudized with 0 coefficients 


     PseudoPot. # 2 for S  read from file:
     /home/zronyj/Desktop/MoS2/pseudo/S.pbe-n-rrkjus_psl.1.0.0.UPF
     MD5 check sum: 9d0fe39aa2a799ea84730884c9b010f4
     Pseudo is Ultrasoft + core correction, Zval =  6.0
     Generated using &quot;atomic&quot; code by A. Dal Corso  v.6.3
     Using radial grid of 1151 points,  6 beta functions with: 
                l(1) =   0
                l(2) =   0
                l(3) =   1
                l(4) =   1
                l(5) =   2
                l(6) =   2
     Q(r) pseudized with 0 coefficients 


     atomic species   valence    mass     pseudopotential
        Mo            14.00    95.95000     Mo( 1.00)
        S              6.00    32.06500     S ( 1.00)

     12 Sym. Ops. (no inversion) found


                                    s                        frac. trans.

      isym =  1     identity                                     

 cryst.   s( 1) = (     1          0          0      )
                  (     0          1          0      )
                  (     0          0          1      )

 cart.    s( 1) = (  1.0000000  0.0000000  0.0000000 )
                  (  0.0000000  1.0000000  0.0000000 )
                  (  0.0000000  0.0000000  1.0000000 )


      isym =  2     180 deg rotation - cart. axis [0,1,0]        

 cryst.   s( 2) = (    -1          0          0      )
                  (    -1          1          0      )
                  (     0          0         -1      )

 cart.    s( 2) = ( -1.0000000  0.0000000  0.0000000 )
                  (  0.0000000  1.0000000  0.0000000 )
                  (  0.0000000  0.0000000 -1.0000000 )


      isym =  3     120 deg rotation - cryst. axis [0,0,1]       

 cryst.   s( 3) = (    -1          1          0      )
                  (    -1          0          0      )
                  (     0          0          1      )

 cart.    s( 3) = ( -0.5000000 -0.8660254  0.0000000 )
                  (  0.8660254 -0.5000000  0.0000000 )
                  (  0.0000000  0.0000000  1.0000000 )


      isym =  4     120 deg rotation - cryst. axis [0,0,-1]      

 cryst.   s( 4) = (     0         -1          0      )
                  (     1         -1          0      )
                  (     0          0          1      )

 cart.    s( 4) = ( -0.5000000  0.8660254  0.0000000 )
                  ( -0.8660254 -0.5000000  0.0000000 )
                  (  0.0000000  0.0000000  1.0000000 )


      isym =  5     180 deg rotation - cryst. axis [1,-1,0]      

 cryst.   s( 5) = (     1         -1          0      )
                  (     0         -1          0      )
                  (     0          0         -1      )

 cart.    s( 5) = (  0.5000000 -0.8660254  0.0000000 )
                  ( -0.8660254 -0.5000000  0.0000000 )
                  (  0.0000000  0.0000000 -1.0000000 )


      isym =  6     180 deg rotation - cryst. axis [2,1,0]       

 cryst.   s( 6) = (     0          1          0      )
                  (     1          0          0      )
                  (     0          0         -1      )

 cart.    s( 6) = (  0.5000000  0.8660254  0.0000000 )
                  (  0.8660254 -0.5000000  0.0000000 )
                  (  0.0000000  0.0000000 -1.0000000 )


      isym =  7     inv. 180 deg rotation - cart. axis [0,0,1]   

 cryst.   s( 7) = (     1          0          0      )
                  (     0          1          0      )
                  (     0          0         -1      )

 cart.    s( 7) = (  1.0000000  0.0000000  0.0000000 )
                  (  0.0000000  1.0000000  0.0000000 )
                  (  0.0000000  0.0000000 -1.0000000 )


      isym =  8     inv. 180 deg rotation - cart. axis [1,0,0]   

 cryst.   s( 8) = (    -1          0          0      )
                  (    -1          1          0      )
                  (     0          0          1      )

 cart.    s( 8) = ( -1.0000000  0.0000000  0.0000000 )
                  (  0.0000000  1.0000000  0.0000000 )
                  (  0.0000000  0.0000000  1.0000000 )


      isym =  9     inv.  60 deg rotation - cryst. axis [0,0,1]  

 cryst.   s( 9) = (     0         -1          0      )
                  (     1         -1          0      )
                  (     0          0         -1      )

 cart.    s( 9) = ( -0.5000000  0.8660254  0.0000000 )
                  ( -0.8660254 -0.5000000  0.0000000 )
                  (  0.0000000  0.0000000 -1.0000000 )


      isym = 10     inv.  60 deg rotation - cryst. axis [0,0,-1] 

 cryst.   s(10) = (    -1          1          0      )
                  (    -1          0          0      )
                  (     0          0         -1      )

 cart.    s(10) = ( -0.5000000 -0.8660254  0.0000000 )
                  (  0.8660254 -0.5000000  0.0000000 )
                  (  0.0000000  0.0000000 -1.0000000 )


      isym = 11     inv. 180 deg rotation - cryst. axis [0,1,0]  

 cryst.   s(11) = (     0          1          0      )
                  (     1          0          0      )
                  (     0          0          1      )

 cart.    s(11) = (  0.5000000  0.8660254  0.0000000 )
                  (  0.8660254 -0.5000000  0.0000000 )
                  (  0.0000000  0.0000000  1.0000000 )


      isym = 12     inv. 180 deg rotation - cryst. axis [1,1,0]  

 cryst.   s(12) = (     1         -1          0      )
                  (     0         -1          0      )
                  (     0          0          1      )

 cart.    s(12) = (  0.5000000 -0.8660254  0.0000000 )
                  ( -0.8660254 -0.5000000  0.0000000 )
                  (  0.0000000  0.0000000  1.0000000 )


     point group D_3h (-62m)
     there are  6 classes
     the character table:

       E     2C3   3C2   s_h   2S3   3s_v 
A'_1   1.00  1.00  1.00  1.00  1.00  1.00
A'_2   1.00  1.00 -1.00  1.00  1.00 -1.00
E'     2.00 -1.00  0.00  2.00 -1.00  0.00
A''1   1.00  1.00  1.00 -1.00 -1.00 -1.00
A''2   1.00  1.00 -1.00 -1.00 -1.00  1.00
E''    2.00 -1.00  0.00 -2.00  1.00  0.00

     the symmetry operations in each class and the name of the first element:

     E        1
          identity                                               
     2C3      3    4
          120 deg rotation - cryst. axis [0,0,1]                 
     3C2      2    6    5
          180 deg rotation - cart. axis [0,1,0]                  
     s_h      7
          inv. 180 deg rotation - cart. axis [0,0,1]             
     2S3      9   10
          inv.  60 deg rotation - cryst. axis [0,0,1]            
     3s_v     8   11   12
          inv. 180 deg rotation - cart. axis [1,0,0]             

   Cartesian axes

     site n.     atom                  positions (alat units)
         1           Mo  tau(   1) = (   0.0000000   0.0000000   3.1250000  )
         2           S   tau(   2) = (   1.0000000   0.5773503   3.4375000  )
         3           S   tau(   3) = (   1.0000000   0.5773503   2.8125000  )

   Crystallographic axes

     site n.     atom                  positions (cryst. coord.)
         1           Mo  tau(   1) = (  0.0000000  0.0000000  0.5000000  )
         2           S   tau(   2) = (  0.6666667  0.6666667  0.5500000  )
         3           S   tau(   3) = (  0.6666667  0.6666667  0.4500000  )

     number of k points=    12  Marzari-Vanderbilt smearing, width (Ry)=  0.0001
                       cart. coord. in units 2pi/alat
        k(    1) = (   0.0000000   0.0000000   0.0000000), wk =   0.0246914
        k(    2) = (   0.0000000   0.1283001   0.0000000), wk =   0.1481481
        k(    3) = (   0.0000000   0.2566001   0.0000000), wk =   0.1481481
        k(    4) = (   0.0000000   0.3849002   0.0000000), wk =   0.1481481
        k(    5) = (   0.0000000   0.5132002   0.0000000), wk =   0.1481481
        k(    6) = (   0.1111111   0.1924501   0.0000000), wk =   0.1481481
        k(    7) = (   0.1111111   0.3207501   0.0000000), wk =   0.2962963
        k(    8) = (   0.1111111   0.4490502   0.0000000), wk =   0.2962963
        k(    9) = (   0.1111111  -0.5773503   0.0000000), wk =   0.1481481
        k(   10) = (   0.2222222   0.3849002   0.0000000), wk =   0.1481481
        k(   11) = (   0.2222222  -0.6415003   0.0000000), wk =   0.2962963
        k(   12) = (   0.3333333  -0.5773503   0.0000000), wk =   0.0493827

                       cryst. coord.
        k(    1) = (   0.0000000   0.0000000   0.0000000), wk =   0.0246914
        k(    2) = (   0.0000000   0.1111111   0.0000000), wk =   0.1481481
        k(    3) = (   0.0000000   0.2222222   0.0000000), wk =   0.1481481
        k(    4) = (   0.0000000   0.3333333   0.0000000), wk =   0.1481481
        k(    5) = (   0.0000000   0.4444444   0.0000000), wk =   0.1481481
        k(    6) = (   0.1111111   0.2222222   0.0000000), wk =   0.1481481
        k(    7) = (   0.1111111   0.3333333   0.0000000), wk =   0.2962963
        k(    8) = (   0.1111111   0.4444444   0.0000000), wk =   0.2962963
        k(    9) = (   0.1111111  -0.4444444   0.0000000), wk =   0.1481481
        k(   10) = (   0.2222222   0.4444444   0.0000000), wk =   0.1481481
        k(   11) = (   0.2222222  -0.4444444   0.0000000), wk =   0.2962963
        k(   12) = (   0.3333333  -0.3333333   0.0000000), wk =   0.0493827

     Dense  grid:   161851 G-vectors     FFT dimensions: (  40,  40, 243)

     Smooth grid:    75037 G-vectors     FFT dimensions: (  30,  30, 192)

     Dynamical RAM for                 wfc:       0.32 MB

     Dynamical RAM for     wfc (w. buffer):       4.19 MB

     Dynamical RAM for           str. fact:       0.62 MB

     Dynamical RAM for           local pot:       0.00 MB

     Dynamical RAM for          nlocal pot:       0.97 MB

     Dynamical RAM for                qrad:       3.21 MB

     Dynamical RAM for          rho,v,vnew:       2.06 MB

     Dynamical RAM for               rhoin:       0.69 MB

     Dynamical RAM for            rho*nmix:       4.94 MB

     Dynamical RAM for           G-vectors:       1.23 MB

     Dynamical RAM for          h,s,v(r/c):       0.01 MB

     Dynamical RAM for          <psi|beta>:       0.01 MB

     Dynamical RAM for                 psi:       0.64 MB

     Dynamical RAM for                hpsi:       0.64 MB

     Dynamical RAM for                spsi:       0.64 MB

     Dynamical RAM for      wfcinit/wfcrot:       0.65 MB

     Dynamical RAM for           addusdens:      58.06 MB

     Dynamical RAM for          addusforce:      58.84 MB

     Estimated static dynamical RAM per process >      20.73 MB

     Estimated max dynamical RAM per process >      79.56 MB

     Estimated total dynamical RAM >     636.49 MB

     Initial potential from superposition of free atoms

     starting charge   25.99905, renormalised to   26.00000

     negative rho (up, down):  5.823E-05 0.000E+00
     Starting wfcs are   18 randomized atomic wfcs

     total cpu time spent up to now is        1.2 secs

     Self-consistent Calculation

     iteration #  1     ecut=    60.00 Ry     beta= 0.10
     Davidson diagonalization with overlap
     ethr =  1.00E-02,  avg # of iterations =  4.3

     negative rho (up, down):  3.716E-05 0.000E+00

     total cpu time spent up to now is        2.4 secs

     total energy              =    -181.00459805 Ry
     estimated scf accuracy    <       0.41404936 Ry

     iteration #  2     ecut=    60.00 Ry     beta= 0.10
     Davidson diagonalization with overlap
     ethr =  1.59E-03,  avg # of iterations =  1.8

     negative rho (up, down):  3.777E-05 0.000E+00

     total cpu time spent up to now is        3.4 secs

     total energy              =    -180.98264121 Ry
     estimated scf accuracy    <       0.16447109 Ry

     iteration #  3     ecut=    60.00 Ry     beta= 0.10
     Davidson diagonalization with overlap
     ethr =  6.33E-04,  avg # of iterations =  3.2

     negative rho (up, down):  7.005E-05 0.000E+00

     total cpu time spent up to now is        4.4 secs

     total energy              =    -180.98513346 Ry
     estimated scf accuracy    <       0.03955586 Ry

     iteration #  4     ecut=    60.00 Ry     beta= 0.10
     Davidson diagonalization with overlap
     ethr =  1.52E-04,  avg # of iterations =  4.2

     negative rho (up, down):  1.050E-04 0.000E+00

     total cpu time spent up to now is        5.5 secs

     total energy              =    -180.98242359 Ry
     estimated scf accuracy    <       0.01689042 Ry

     iteration #  5     ecut=    60.00 Ry     beta= 0.10
     Davidson diagonalization with overlap
     ethr =  6.50E-05,  avg # of iterations =  2.0

     negative rho (up, down):  1.235E-04 0.000E+00

     total cpu time spent up to now is        6.5 secs

     total energy              =    -180.98166626 Ry
     estimated scf accuracy    <       0.02372956 Ry

     iteration #  6     ecut=    60.00 Ry     beta= 0.10
     Davidson diagonalization with overlap
     ethr =  6.50E-05,  avg # of iterations =  3.9

     negative rho (up, down):  1.318E-04 0.000E+00

     total cpu time spent up to now is        7.6 secs

     total energy              =    -180.98246878 Ry
     estimated scf accuracy    <       0.02943155 Ry

     iteration #  7     ecut=    60.00 Ry     beta= 0.10
     Davidson diagonalization with overlap
     ethr =  6.50E-05,  avg # of iterations =  1.7

     negative rho (up, down):  1.390E-04 0.000E+00

     total cpu time spent up to now is        8.5 secs

     total energy              =    -180.98635112 Ry
     estimated scf accuracy    <       0.00026551 Ry

     iteration #  8     ecut=    60.00 Ry     beta= 0.10
     Davidson diagonalization with overlap
     ethr =  1.02E-06,  avg # of iterations =  6.1

     negative rho (up, down):  1.267E-04 0.000E+00

     total cpu time spent up to now is        9.8 secs

     total energy              =    -180.98640335 Ry
     estimated scf accuracy    <       0.00766374 Ry

     iteration #  9     ecut=    60.00 Ry     beta= 0.10
     Davidson diagonalization with overlap
     ethr =  1.02E-06,  avg # of iterations =  1.0

     negative rho (up, down):  1.223E-04 0.000E+00

     total cpu time spent up to now is       10.7 secs

     total energy              =    -180.98631889 Ry
     estimated scf accuracy    <       0.00055183 Ry

     iteration # 10     ecut=    60.00 Ry     beta= 0.10
     Davidson diagonalization with overlap
     ethr =  1.02E-06,  avg # of iterations =  2.9

     negative rho (up, down):  1.163E-04 0.000E+00

     total cpu time spent up to now is       11.7 secs

     total energy              =    -180.98627052 Ry
     estimated scf accuracy    <       0.00026691 Ry

     iteration # 11     ecut=    60.00 Ry     beta= 0.10
     Davidson diagonalization with overlap
     ethr =  1.02E-06,  avg # of iterations =  2.4

     negative rho (up, down):  1.102E-04 0.000E+00

     total cpu time spent up to now is       12.7 secs

     total energy              =    -180.98631111 Ry
     estimated scf accuracy    <       0.00001558 Ry

     iteration # 12     ecut=    60.00 Ry     beta= 0.10
     Davidson diagonalization with overlap
     ethr =  5.99E-08,  avg # of iterations =  2.2

     negative rho (up, down):  1.018E-04 0.000E+00

     total cpu time spent up to now is       13.7 secs

     total energy              =    -180.98631335 Ry
     estimated scf accuracy    <       0.00000587 Ry

     iteration # 13     ecut=    60.00 Ry     beta= 0.10
     Davidson diagonalization with overlap
     ethr =  2.26E-08,  avg # of iterations =  3.3

     negative rho (up, down):  9.458E-05 0.000E+00

     total cpu time spent up to now is       14.8 secs

     total energy              =    -180.98631869 Ry
     estimated scf accuracy    <       0.00002462 Ry

     iteration # 14     ecut=    60.00 Ry     beta= 0.10
     Davidson diagonalization with overlap
     ethr =  2.26E-08,  avg # of iterations =  1.0

     negative rho (up, down):  8.819E-05 0.000E+00

     total cpu time spent up to now is       15.8 secs

     total energy              =    -180.98631824 Ry
     estimated scf accuracy    <       0.00003086 Ry

     iteration # 15     ecut=    60.00 Ry     beta= 0.10
     Davidson diagonalization with overlap
     ethr =  2.26E-08,  avg # of iterations =  1.0

     negative rho (up, down):  8.281E-05 0.000E+00

     total cpu time spent up to now is       16.6 secs

     total energy              =    -180.98631381 Ry
     estimated scf accuracy    <       0.00002924 Ry

     iteration # 16     ecut=    60.00 Ry     beta= 0.10
     Davidson diagonalization with overlap
     ethr =  2.26E-08,  avg # of iterations =  1.7

     negative rho (up, down):  7.809E-05 0.000E+00

     total cpu time spent up to now is       17.6 secs

     total energy              =    -180.98631428 Ry
     estimated scf accuracy    <       0.00001386 Ry

     iteration # 17     ecut=    60.00 Ry     beta= 0.10
     Davidson diagonalization with overlap
     ethr =  2.26E-08,  avg # of iterations =  1.0

     negative rho (up, down):  7.398E-05 0.000E+00

     total cpu time spent up to now is       18.5 secs

     total energy              =    -180.98630838 Ry
     estimated scf accuracy    <       0.00001366 Ry

     iteration # 18     ecut=    60.00 Ry     beta= 0.10
     Davidson diagonalization with overlap
     ethr =  2.26E-08,  avg # of iterations =  2.3

     negative rho (up, down):  5.416E-05 0.000E+00

     total cpu time spent up to now is       19.5 secs

     End of self-consistent calculation

          k = 0.0000 0.0000 0.0000 (  9423 PWs)   bands (ev):

   -60.8194 -35.3955 -35.3955 -35.0396 -18.8466 -12.6095  -8.4121  -7.9341
    -7.9341  -4.2339  -4.2339   0.5404   1.9224   2.3129   2.3129   2.9243
     4.6716   4.6716

     occupation numbers 
     1.0000   1.0000   1.0000   1.0000   1.0000   1.0000   1.0000   1.0000
     1.0000   1.0000   1.0000   0.0000   0.0000   0.0000   0.0000   0.0000
     0.0000   0.0000

          k = 0.0000 0.1283 0.0000 (  9445 PWs)   bands (ev):

   -60.8126 -35.4827 -35.4124 -35.0256 -18.6282 -12.6712  -8.5488  -7.7672
    -7.6594  -4.4853  -4.3778   0.6264   1.4687   2.3405   2.8192   3.5081
     3.9842   4.1689

     occupation numbers 
     1.0000   1.0000   1.0000   1.0000   1.0000   1.0000   1.0000   1.0000
     1.0000   1.0000   1.0000   0.0000   0.0000   0.0000   0.0000   0.0000
     0.0000   0.0000

          k = 0.0000 0.2566 0.0000 (  9429 PWs)   bands (ev):

   -60.7952 -35.6972 -35.4549 -34.9899 -18.0856 -12.8274  -8.7887  -7.2344
    -6.8843  -5.0159  -4.6914   0.0415   0.4279   3.0864   3.1138   3.3571
     4.0387   4.9999

     occupation numbers 
     1.0000   1.0000   1.0000   1.0000   1.0000   1.0000   1.0000   1.0000
     1.0000   1.0000   1.0000   1.0000   0.0000   0.0000   0.0000   0.0000
     0.0000   0.0000

          k = 0.0000 0.3849 0.0000 (  9419 PWs)   bands (ev):

   -60.7753 -35.9308 -35.5026 -34.9490 -17.4981 -13.0041  -8.7444  -6.5604
    -5.7879  -5.5032  -5.0051  -1.3756   0.1867   1.8672   2.1047   4.4010
     5.3887   5.7712

     occupation numbers 
     1.0000   1.0000   1.0000   1.0000   1.0000   1.0000   1.0000   1.0000
     1.0000   1.0000   1.0000   1.0000   1.0000   0.0000   0.0000   0.0000
     0.0000   0.0000

          k = 0.0000 0.5132 0.0000 (  9367 PWs)   bands (ev):

   -60.7622 -36.0778 -35.5335 -34.9221 -17.1415 -13.1189  -8.3965  -6.2947
    -5.7780  -5.2005  -4.8276  -1.7439   0.1379   0.4444   0.8884   5.1428
     6.2630   6.4188

     occupation numbers 
     1.0000   1.0000   1.0000   1.0000   1.0000   1.0000   1.0000   1.0000
     1.0000   1.0000   1.0000   1.0000   1.0000   0.0000   0.0000   0.0000
     0.0000   0.0000

          k = 0.1111 0.1925 0.0000 (  9445 PWs)   bands (ev):

   -60.8005 -35.6268 -35.4488 -35.0007 -18.2462 -12.7782  -8.7242  -7.4838
    -7.0717  -5.0520  -4.4115   0.4907   0.6245   2.4649   3.1376   3.6596
     3.9083   4.8049

     occupation numbers 
     1.0000   1.0000   1.0000   1.0000   1.0000   1.0000   1.0000   1.0000
     1.0000   1.0000   1.0000   0.0000   0.0000   0.0000   0.0000   0.0000
     0.0000   0.0000

          k = 0.1111 0.3208 0.0000 (  9416 PWs)   bands (ev):

   -60.7818 -35.8350 -35.5092 -34.9624 -17.6745 -12.9341  -8.7699  -6.8959
    -6.1186  -5.8400  -4.3652  -0.9693   0.3792   1.7994   3.0416   3.2790
     5.4249   5.5568

     occupation numbers 
     1.0000   1.0000   1.0000   1.0000   1.0000   1.0000   1.0000   1.0000
     1.0000   1.0000   1.0000   1.0000   0.5000   0.0000   0.0000   0.0000
     0.0000   0.0000

          k = 0.1111 0.4491 0.0000 (  9378 PWs)   bands (ev):

   -60.7653 -36.0109 -35.5625 -34.9285 -17.1971 -13.0636  -8.4497  -6.4426
    -6.3334  -5.1893  -4.2958  -1.9925   0.1295   0.2940   2.1264   4.4553
     6.3333   6.3731

     occupation numbers 
     1.0000   1.0000   1.0000   1.0000   1.0000   1.0000   1.0000   1.0000
     1.0000   1.0000   1.0000   1.0000   1.0000   1.0000   0.0000   0.0000
     0.0000   0.0000

          k = 0.1111-0.5774 0.0000 (  9340 PWs)   bands (ev):

   -60.7587 -36.0787 -35.5834 -34.9150 -17.0187 -13.1129  -8.1190  -6.6631
    -6.2941  -4.7322  -4.2647  -2.0984  -0.5966   0.0508   1.7133   5.0881
     6.1950   6.4448

     occupation numbers 
     1.0000   1.0000   1.0000   1.0000   1.0000   1.0000   1.0000   1.0000
     1.0000   1.0000   1.0000   1.0000   1.0000   1.0000   0.0000   0.0000
     0.0000   0.0000

          k = 0.2222 0.3849 0.0000 (  9381 PWs)   bands (ev):

   -60.7665 -35.9581 -35.6020 -34.9310 -17.2054 -13.0253  -8.4180  -6.7774
    -6.4094  -5.3611  -3.7810  -2.1175   0.1605   0.2415   2.6003   3.8175
     6.4010   6.7207

     occupation numbers 
     1.0000   1.0000   1.0000   1.0000   1.0000   1.0000   1.0000   1.0000
     1.0000   1.0000   1.0000   1.0000   1.0000   1.0000   0.0000   0.0000
     0.0000   0.0000

          k = 0.2222-0.6415 0.0000 (  9355 PWs)   bands (ev):

   -60.7565 -36.0251 -35.6744 -34.9104 -16.9040 -13.0673  -7.7256  -7.3383
    -6.1603  -5.2596  -3.3040  -2.6104  -0.9645  -0.2001   2.6788   4.6935
     6.3519   6.6553

     occupation numbers 
     1.0000   1.0000   1.0000   1.0000   1.0000   1.0000   1.0000   1.0000
     1.0000   1.0000   1.0000   1.0000   1.0000   1.0000   0.0000   0.0000
     0.0000   0.0000

          k = 0.3333-0.5774 0.0000 (  9384 PWs)   bands (ev):

   -60.7531 -36.0068 -35.7432 -34.9033 -16.7817 -13.0549  -7.6792  -6.7476
    -6.3955  -5.9100  -2.7632  -2.5722  -1.5602  -0.5290   3.3020   4.9239
     5.7267   6.7737

     occupation numbers 
     1.0000   1.0000   1.0000   1.0000   1.0000   1.0000   1.0000   1.0000
     1.0000   1.0000   1.0000   1.0000   1.0000   1.0000   0.0000   0.0000
     0.0000   0.0000

     the Fermi energy is     0.3794 ev

!    total energy              =    -180.98631110 Ry
     estimated scf accuracy    <       0.00000008 Ry
     smearing contrib. (-TS)   =      -0.00000486 Ry
     internal energy E=F+TS    =    -180.98630624 Ry

     The total energy is F=E-TS. E is the sum of the following terms:
     one-electron contribution =   -1253.40323824 Ry
     hartree contribution      =     627.15722349 Ry
     xc contribution           =     -30.81524217 Ry
     ewald contribution        =     476.07495068 Ry

     convergence has been achieved in  18 iterations

     negative rho (up, down):  5.416E-05 0.000E+00

     Forces acting on atoms (cartesian axes, Ry/au):

     atom    1 type  1   force =     0.00000000    0.00000000    0.00000000
     atom    2 type  2   force =     0.00000000    0.00000000    0.55086774
     atom    3 type  2   force =     0.00000000    0.00000000   -0.55086774
     The non-local contrib.  to forces
     atom    1 type  1   force =     0.00000000    0.00000000    0.00000000
     atom    2 type  2   force =    -0.00000000    0.00000000   -0.16269840
     atom    3 type  2   force =     0.00000000    0.00000000    0.16269840
     The ionic contribution  to forces
     atom    1 type  1   force =    -0.00000005   -0.00000003   -0.00000000
     atom    2 type  2   force =     0.00000002    0.00000001   34.63553153
     atom    3 type  2   force =     0.00000002    0.00000001  -34.63553153
     The local contribution  to forces
     atom    1 type  1   force =     0.00000000   -0.00000000    0.00000000
     atom    2 type  2   force =     0.00000001    0.00000001  -33.91649570
     atom    3 type  2   force =     0.00000001    0.00000001   33.91649570
     The core correction contribution to forces
     atom    1 type  1   force =    -0.00000000   -0.00000000   -0.00000000
     atom    2 type  2   force =    -0.00000000   -0.00000000   -0.00589478
     atom    3 type  2   force =    -0.00000000   -0.00000000    0.00589478
     The Hubbard contrib.    to forces
     atom    1 type  1   force =     0.00000000    0.00000000    0.00000000
     atom    2 type  2   force =     0.00000000    0.00000000    0.00000000
     atom    3 type  2   force =     0.00000000    0.00000000    0.00000000
     The SCF correction term to forces
     atom    1 type  1   force =     0.00000000    0.00000000   -0.00000000
     atom    2 type  2   force =    -0.00000000   -0.00000000    0.00042509
     atom    3 type  2   force =    -0.00000000   -0.00000000   -0.00042509

     Total force =     0.779045     Total SCF correction =     0.000601

     BFGS Geometry Optimization
     Energy error            =      0.0E+00
     Gradient error          =      5.5E-01

     number of scf cycles    =   1
     number of bfgs steps    =   0

     energy   new            =    -180.9863111014 Ry

     new trust radius        =       0.5000000000 bohr
     new conv_thr            =       0.0000010000 Ry


ATOMIC_POSITIONS (crystal)
Mo            0.0000000000        0.0000000000        0.5000000000    0   0   0
S             0.6666666660        0.6666666660        0.5632294303    0   0   1
S             0.6666666660        0.6666666660        0.4367705697    0   0   1



     Writing output data file ./outdir/MoS2.save/
     NEW-OLD atomic charge density approx. for the potential

     negative rho (up, down):  5.780E-05 0.000E+00

     total cpu time spent up to now is       20.8 secs

     Self-consistent Calculation

     iteration #  1     ecut=    60.00 Ry     beta= 0.10
     Davidson diagonalization with overlap
     c_bands:  1 eigenvalues not converged
     ethr =  1.00E-06,  avg # of iterations = 13.6

     negative rho (up, down):  5.500E-05 0.000E+00

     total cpu time spent up to now is       23.5 secs

     total energy              =    -181.43393924 Ry
     estimated scf accuracy    <       0.20849420 Ry

     iteration #  2     ecut=    60.00 Ry     beta= 0.10
     Davidson diagonalization with overlap
     ethr =  8.02E-04,  avg # of iterations =  1.0

     negative rho (up, down):  5.283E-05 0.000E+00

     total cpu time spent up to now is       24.4 secs

     total energy              =    -181.41819634 Ry
     estimated scf accuracy    <       0.06710251 Ry

     iteration #  3     ecut=    60.00 Ry     beta= 0.10
     Davidson diagonalization with overlap
     ethr =  2.58E-04,  avg # of iterations =  2.0

     negative rho (up, down):  5.211E-05 0.000E+00

     total cpu time spent up to now is       25.5 secs

     total energy              =    -181.42788480 Ry
     estimated scf accuracy    <       0.00704446 Ry

     iteration #  4     ecut=    60.00 Ry     beta= 0.10
     Davidson diagonalization with overlap
     ethr =  2.71E-05,  avg # of iterations =  2.0

     negative rho (up, down):  5.491E-05 0.000E+00

     total cpu time spent up to now is       26.5 secs

     total energy              =    -181.42994490 Ry
     estimated scf accuracy    <       0.00807996 Ry

     iteration #  5     ecut=    60.00 Ry     beta= 0.10
     Davidson diagonalization with overlap
     ethr =  2.71E-05,  avg # of iterations =  1.0

     negative rho (up, down):  5.585E-05 0.000E+00

     total cpu time spent up to now is       27.4 secs

     total energy              =    -181.42930033 Ry
     estimated scf accuracy    <       0.00466237 Ry

     iteration #  6     ecut=    60.00 Ry     beta= 0.10
     Davidson diagonalization with overlap
     ethr =  1.79E-05,  avg # of iterations =  1.1

     negative rho (up, down):  5.466E-05 0.000E+00

     total cpu time spent up to now is       28.3 secs

     total energy              =    -181.42930054 Ry
     estimated scf accuracy    <       0.00122542 Ry

     iteration #  7     ecut=    60.00 Ry     beta= 0.10
     Davidson diagonalization with overlap
     ethr =  4.71E-06,  avg # of iterations =  3.0

     negative rho (up, down):  5.404E-05 0.000E+00

     total cpu time spent up to now is       29.2 secs

     total energy              =    -181.42922891 Ry
     estimated scf accuracy    <       0.00047502 Ry

     iteration #  8     ecut=    60.00 Ry     beta= 0.10
     Davidson diagonalization with overlap
     ethr =  1.83E-06,  avg # of iterations =  3.3

     negative rho (up, down):  5.244E-05 0.000E+00

     total cpu time spent up to now is       30.3 secs

     total energy              =    -181.42927463 Ry
     estimated scf accuracy    <       0.00005940 Ry

     iteration #  9     ecut=    60.00 Ry     beta= 0.10
     Davidson diagonalization with overlap
     ethr =  2.28E-07,  avg # of iterations =  1.7

     negative rho (up, down):  5.114E-05 0.000E+00

     total cpu time spent up to now is       31.2 secs

     total energy              =    -181.42927070 Ry
     estimated scf accuracy    <       0.00003394 Ry

     iteration # 10     ecut=    60.00 Ry     beta= 0.10
     Davidson diagonalization with overlap
     ethr =  1.31E-07,  avg # of iterations =  2.0

     negative rho (up, down):  4.998E-05 0.000E+00

     total cpu time spent up to now is       32.2 secs

     total energy              =    -181.42927430 Ry
     estimated scf accuracy    <       0.00001364 Ry

     iteration # 11     ecut=    60.00 Ry     beta= 0.10
     Davidson diagonalization with overlap
     ethr =  5.25E-08,  avg # of iterations =  1.2

     negative rho (up, down):  4.890E-05 0.000E+00

     total cpu time spent up to now is       33.1 secs

     total energy              =    -181.42927140 Ry
     estimated scf accuracy    <       0.00001085 Ry

     iteration # 12     ecut=    60.00 Ry     beta= 0.10
     Davidson diagonalization with overlap
     ethr =  4.17E-08,  avg # of iterations =  2.0

     negative rho (up, down):  4.807E-05 0.000E+00

     total cpu time spent up to now is       34.1 secs

     total energy              =    -181.42927166 Ry
     estimated scf accuracy    <       0.00000245 Ry

     iteration # 13     ecut=    60.00 Ry     beta= 0.10
     Davidson diagonalization with overlap
     ethr =  9.43E-09,  avg # of iterations =  2.1

     negative rho (up, down):  4.280E-05 0.000E+00

     total cpu time spent up to now is       35.1 secs

     End of self-consistent calculation

          k = 0.0000 0.0000 0.0000 (  9423 PWs)   bands (ev):

   -62.1136 -36.3046 -36.2827 -36.2827 -16.6935 -13.7071  -7.8334  -6.0285
    -6.0285  -4.0922  -4.0922  -1.7886   0.0243   1.5509   1.5509   2.7907
     2.7907   4.4623

     occupation numbers 
     1.0000   1.0000   1.0000   1.0000   1.0000   1.0000   1.0000   1.0000
     1.0000   1.0000   1.0000   1.0000   0.0000   0.0000   0.0000   0.0000
     0.0000   0.0000

          k = 0.0000 0.1283 0.0000 (  9445 PWs)   bands (ev):

   -62.1086 -36.3389 -36.2947 -36.2937 -16.4983 -13.7010  -7.7105  -6.2267
    -5.7971  -4.4562  -4.3539  -1.5402  -0.2928   1.4386   1.9773   2.3747
     2.4676   4.6307

     occupation numbers 
     1.0000   1.0000   1.0000   1.0000   1.0000   1.0000   1.0000   1.0000
     1.0000   1.0000   1.0000   1.0000   0.8333   0.0000   0.0000   0.0000
     0.0000   0.0000

          k = 0.0000 0.2566 0.0000 (  9429 PWs)   bands (ev):

   -62.0959 -36.4787 -36.3251 -36.2658 -15.9903 -13.6856  -7.6495  -6.2763
    -5.1554  -5.1070  -4.8988  -1.5181  -1.2913   1.7707   1.8368   1.9696
     2.9253   5.3287

     occupation numbers 
     1.0000   1.0000   1.0000   1.0000   1.0000   1.0000   1.0000   1.0000
     1.0000   1.0000   1.0000   1.0000   1.0000   0.0000   0.0000   0.0000
     0.0000   0.0000

          k = 0.0000 0.3849 0.0000 (  9419 PWs)   bands (ev):

   -62.0814 -36.6338 -36.3595 -36.2339 -15.3860 -13.6681  -7.8305  -5.9020
    -5.6739  -5.3939  -4.2855  -2.2253  -1.8062   1.0579   1.6366   2.7811
     3.8280   5.8679

     occupation numbers 
     1.0000   1.0000   1.0000   1.0000   1.0000   1.0000   1.0000   1.0000
     1.0000   1.0000   1.0000   1.0000   1.0000   0.0000   0.0000   0.0000
     0.0000   0.0000

          k = 0.0000 0.5132 0.0000 (  9367 PWs)   bands (ev):

   -62.0718 -36.7328 -36.3817 -36.2129 -14.9754 -13.6566  -7.8313  -6.0033
    -5.9681  -5.6716  -3.5771  -2.1463  -1.9746   0.5594   1.0038   3.3649
     4.3214   5.5002

     occupation numbers 
     1.0000   1.0000   1.0000   1.0000   1.0000   1.0000   1.0000   1.0000
     1.0000   1.0000   1.0000   1.0000   1.0000   0.0000   0.0000   0.0000
     0.0000   0.0000

          k = 0.1111 0.1925 0.0000 (  9445 PWs)   bands (ev):

   -62.0998 -36.4321 -36.3208 -36.2742 -16.1458 -13.6891  -7.6070  -6.3527
    -5.3577  -4.9987  -4.7083  -1.3567  -0.9734   1.3933   1.8560   2.1111
     2.8192   5.1854

     occupation numbers 
     1.0000   1.0000   1.0000   1.0000   1.0000   1.0000   1.0000   1.0000
     1.0000   1.0000   1.0000   1.0000   1.0000   0.0000   0.0000   0.0000
     0.0000   0.0000

          k = 0.1111 0.3208 0.0000 (  9416 PWs)   bands (ev):

   -62.0861 -36.5683 -36.3642 -36.2443 -15.5839 -13.6666  -7.7009  -6.0410
    -5.8600  -4.9108  -4.6706  -2.0217  -1.5148   1.1666   1.8356   1.9413
     3.8749   5.8539

     occupation numbers 
     1.0000   1.0000   1.0000   1.0000   1.0000   1.0000   1.0000   1.0000
     1.0000   1.0000   1.0000   1.0000   1.0000   0.0000   0.0000   0.0000
     0.0000   0.0000

          k = 0.1111 0.4491 0.0000 (  9378 PWs)   bands (ev):

   -62.0740 -36.6850 -36.4026 -36.2178 -15.0673 -13.6411  -7.7199  -6.5397
    -5.8006  -4.9561  -4.0853  -2.4682  -1.8689   0.5996   1.4612   2.8675
     4.3213   6.0711

     occupation numbers 
     1.0000   1.0000   1.0000   1.0000   1.0000   1.0000   1.0000   1.0000
     1.0000   1.0000   1.0000   1.0000   1.0000   0.0000   0.0000   0.0000
     0.0000   0.0000

          k = 0.1111-0.5774 0.0000 (  9340 PWs)   bands (ev):

   -62.0692 -36.7304 -36.4178 -36.2073 -14.8578 -13.6292  -7.6081  -6.7915
    -5.9937  -4.9500  -3.7697  -2.3020  -2.0242   0.1389   1.3849   3.4175
     4.1503   5.6717

     occupation numbers 
     1.0000   1.0000   1.0000   1.0000   1.0000   1.0000   1.0000   1.0000
     1.0000   1.0000   1.0000   1.0000   1.0000   0.0000   0.0000   0.0000
     0.0000   0.0000

          k = 0.2222 0.3849 0.0000 (  9381 PWs)   bands (ev):

   -62.0749 -36.6454 -36.4324 -36.2198 -15.1004 -13.6248  -7.5815  -6.7950
    -5.6427  -4.6248  -4.5484  -2.6038  -1.7213   0.6091   1.6263   2.3466
     4.5528   6.4799

     occupation numbers 
     1.0000   1.0000   1.0000   1.0000   1.0000   1.0000   1.0000   1.0000
     1.0000   1.0000   1.0000   1.0000   1.0000   0.0000   0.0000   0.0000
     0.0000   0.0000

          k = 0.2222-0.6415 0.0000 (  9355 PWs)   bands (ev):

   -62.0676 -36.6845 -36.4876 -36.2038 -14.7747 -13.5833  -7.3715  -7.1691
    -5.7435  -4.7740  -4.2732  -2.4209  -2.1350  -0.2745   2.0879   3.0401
     4.4022   6.1989

     occupation numbers 
     1.0000   1.0000   1.0000   1.0000   1.0000   1.0000   1.0000   1.0000
     1.0000   1.0000   1.0000   1.0000   1.0000   0.0000   0.0000   0.0000
     0.0000   0.0000

          k = 0.3333-0.5774 0.0000 (  9384 PWs)   bands (ev):

   -62.0652 -36.6563 -36.5495 -36.1982 -14.6571 -13.5501  -7.6923  -6.3063
    -6.0718  -5.4943  -3.8530  -2.4290  -2.0359  -1.0070   2.7518   3.1603
     4.4277   5.7922

     occupation numbers 
     1.0000   1.0000   1.0000   1.0000   1.0000   1.0000   1.0000   1.0000
     1.0000   1.0000   1.0000   1.0000   1.0000   1.0000   0.0000   0.0000
     0.0000   0.0000

     the Fermi energy is    -0.2920 ev

!    total energy              =    -181.42927200 Ry
     estimated scf accuracy    <       0.00000009 Ry
     smearing contrib. (-TS)   =      -0.00000063 Ry
     internal energy E=F+TS    =    -181.42927136 Ry

     The total energy is F=E-TS. E is the sum of the following terms:
     one-electron contribution =   -1184.18818645 Ry
     hartree contribution      =     591.92260244 Ry
     xc contribution           =     -30.18185255 Ry
     ewald contribution        =     441.01816519 Ry

     convergence has been achieved in  13 iterations

     negative rho (up, down):  4.280E-05 0.000E+00

     Forces acting on atoms (cartesian axes, Ry/au):

     atom    1 type  1   force =     0.00000000    0.00000000    0.00000000
     atom    2 type  2   force =     0.00000000    0.00000000    0.30121878
     atom    3 type  2   force =     0.00000000    0.00000000   -0.30121878
     The non-local contrib.  to forces
     atom    1 type  1   force =     0.00000000    0.00000000    0.00000000
     atom    2 type  2   force =     0.00000000   -0.00000000   -0.17229439
     atom    3 type  2   force =     0.00000000   -0.00000000    0.17229439
     The ionic contribution  to forces
     atom    1 type  1   force =    -0.00000003   -0.00000002    0.00000000
     atom    2 type  2   force =     0.00000001    0.00000001   35.39352689
     atom    3 type  2   force =     0.00000001    0.00000001  -35.39352689
     The local contribution  to forces
     atom    1 type  1   force =    -0.00000000    0.00000000    0.00000000
     atom    2 type  2   force =     0.00000002    0.00000001  -34.91762560
     atom    3 type  2   force =     0.00000002    0.00000001   34.91762560
     The core correction contribution to forces
     atom    1 type  1   force =    -0.00000000   -0.00000000   -0.00000000
     atom    2 type  2   force =    -0.00000000   -0.00000000   -0.00179237
     atom    3 type  2   force =    -0.00000000   -0.00000000    0.00179237
     The Hubbard contrib.    to forces
     atom    1 type  1   force =     0.00000000    0.00000000    0.00000000
     atom    2 type  2   force =     0.00000000    0.00000000    0.00000000
     atom    3 type  2   force =     0.00000000    0.00000000    0.00000000
     The SCF correction term to forces
     atom    1 type  1   force =     0.00000000    0.00000000   -0.00000000
     atom    2 type  2   force =    -0.00000000   -0.00000000   -0.00059575
     atom    3 type  2   force =    -0.00000000   -0.00000000    0.00059575

     Total force =     0.425988     Total SCF correction =     0.000843
     Energy error            =      4.4E-01
     Gradient error          =      3.0E-01

     number of scf cycles    =   2
     number of bfgs steps    =   1

     energy   old            =    -180.9863111014 Ry
     energy   new            =    -181.4292719975 Ry

     CASE: energy  _new < energy  _old

     new trust radius        =       0.6032846780 bohr
     new conv_thr            =       0.0000010000 Ry


ATOMIC_POSITIONS (crystal)
Mo            0.0000000000        0.0000000000        0.5000000000    0   0   0
S             0.6666666660        0.6666666660        0.5791916554    0   0   1
S             0.6666666660        0.6666666660        0.4208083446    0   0   1



     Writing output data file ./outdir/MoS2.save/
     NEW-OLD atomic charge density approx. for the potential

     negative rho (up, down):  4.972E-05 0.000E+00

     total cpu time spent up to now is       36.4 secs

     Self-consistent Calculation

     iteration #  1     ecut=    60.00 Ry     beta= 0.10
     Davidson diagonalization with overlap
     c_bands:  1 eigenvalues not converged
     ethr =  1.00E-06,  avg # of iterations = 13.7

     negative rho (up, down):  4.844E-05 0.000E+00

     total cpu time spent up to now is       39.1 secs

     total energy              =    -181.57999548 Ry
     estimated scf accuracy    <       0.03528573 Ry

     iteration #  2     ecut=    60.00 Ry     beta= 0.10
     Davidson diagonalization with overlap
     ethr =  1.36E-04,  avg # of iterations =  1.0

     negative rho (up, down):  4.760E-05 0.000E+00

     total cpu time spent up to now is       40.0 secs

     total energy              =    -181.57927317 Ry
     estimated scf accuracy    <       0.01311346 Ry

     iteration #  3     ecut=    60.00 Ry     beta= 0.10
     Davidson diagonalization with overlap
     ethr =  5.04E-05,  avg # of iterations =  1.0

     negative rho (up, down):  5.417E-05 0.000E+00

     total cpu time spent up to now is       40.9 secs

     total energy              =    -181.57803992 Ry
     estimated scf accuracy    <       0.00631968 Ry

     iteration #  4     ecut=    60.00 Ry     beta= 0.10
     Davidson diagonalization with overlap
     ethr =  2.43E-05,  avg # of iterations =  2.0

     negative rho (up, down):  5.481E-05 0.000E+00

     total cpu time spent up to now is       41.9 secs

     total energy              =    -181.57864295 Ry
     estimated scf accuracy    <       0.00059335 Ry

     iteration #  5     ecut=    60.00 Ry     beta= 0.10
     Davidson diagonalization with overlap
     ethr =  2.28E-06,  avg # of iterations =  3.6

     negative rho (up, down):  5.617E-05 0.000E+00

     total cpu time spent up to now is       42.9 secs

     total energy              =    -181.57862375 Ry
     estimated scf accuracy    <       0.00036831 Ry

     iteration #  6     ecut=    60.00 Ry     beta= 0.10
     Davidson diagonalization with overlap
     ethr =  1.42E-06,  avg # of iterations =  2.0

     negative rho (up, down):  5.370E-05 0.000E+00

     total cpu time spent up to now is       44.0 secs

     total energy              =    -181.57871852 Ry
     estimated scf accuracy    <       0.00009297 Ry

     iteration #  7     ecut=    60.00 Ry     beta= 0.10
     Davidson diagonalization with overlap
     ethr =  3.58E-07,  avg # of iterations =  1.1

     negative rho (up, down):  5.179E-05 0.000E+00

     total cpu time spent up to now is       44.9 secs

     total energy              =    -181.57867624 Ry
     estimated scf accuracy    <       0.00007249 Ry

     iteration #  8     ecut=    60.00 Ry     beta= 0.10
     Davidson diagonalization with overlap
     ethr =  2.79E-07,  avg # of iterations =  2.0

     negative rho (up, down):  5.001E-05 0.000E+00

     total cpu time spent up to now is       45.9 secs

     total energy              =    -181.57869647 Ry
     estimated scf accuracy    <       0.00000238 Ry

     iteration #  9     ecut=    60.00 Ry     beta= 0.10
     Davidson diagonalization with overlap
     ethr =  9.14E-09,  avg # of iterations =  2.2

     negative rho (up, down):  4.844E-05 0.000E+00

     total cpu time spent up to now is       46.9 secs

     total energy              =    -181.57869563 Ry
     estimated scf accuracy    <       0.00000243 Ry

     iteration # 10     ecut=    60.00 Ry     beta= 0.10
     Davidson diagonalization with overlap
     ethr =  9.14E-09,  avg # of iterations =  2.0

     negative rho (up, down):  3.935E-05 0.000E+00

     total cpu time spent up to now is       47.9 secs

     End of self-consistent calculation

          k = 0.0000 0.0000 0.0000 (  9423 PWs)   bands (ev):

   -61.9298 -36.0539 -35.8612 -35.8612 -14.9713 -13.7501  -6.5054  -3.5070
    -3.5070  -2.7964  -2.4442  -2.4442  -1.0554   1.6881   1.6881   1.8833
     1.8833   4.3236

     occupation numbers 
     1.0000   1.0000   1.0000   1.0000   1.0000   1.0000   1.0000   1.0000
     1.0000   1.0000   1.0000   1.0000   1.0000   0.0000   0.0000   0.0000
     0.0000   0.0000

          k = 0.0000 0.1283 0.0000 (  9445 PWs)   bands (ev):

   -61.9258 -36.0459 -35.9024 -35.8706 -14.7969 -13.6744  -6.3046  -3.8942
    -3.4329  -3.3263  -2.7140  -2.1044  -1.1525   1.4630   1.5004   1.6983
     1.9743   4.6259

     occupation numbers 
     1.0000   1.0000   1.0000   1.0000   1.0000   1.0000   1.0000   1.0000
     1.0000   1.0000   1.0000   1.0000   1.0000   0.0000   0.0000   0.0000
     0.0000   0.0000

          k = 0.0000 0.2566 0.0000 (  9429 PWs)   bands (ev):

   -61.9156 -36.0256 -36.0057 -35.8945 -14.3229 -13.4692  -5.9042  -4.6228
    -4.2817  -3.2645  -2.8569  -2.2572  -1.5903   1.0806   1.3436   1.6687
     2.5217   5.3030

     occupation numbers 
     1.0000   1.0000   1.0000   1.0000   1.0000   1.0000   1.0000   1.0000
     1.0000   1.0000   1.0000   1.0000   1.0000   0.0000   0.0000   0.0000
     0.0000   0.0000

          k = 0.0000 0.3849 0.0000 (  9419 PWs)   bands (ev):

   -61.9040 -36.1211 -36.0025 -35.9214 -13.7051 -13.2070  -6.1063  -5.1013
    -4.8518  -3.7578  -2.6553  -2.3216  -1.9583   1.1406   1.2485   2.2802
     2.9360   6.1510

     occupation numbers 
     1.0000   1.0000   1.0000   1.0000   1.0000   1.0000   1.0000   1.0000
     1.0000   1.0000   1.0000   1.0000   1.0000   0.0000   0.0000   0.0000
     0.0000   0.0000

          k = 0.0000 0.5132 0.0000 (  9367 PWs)   bands (ev):

   -61.8964 -36.1953 -35.9873 -35.9389 -13.2318 -13.0141  -6.5840  -5.6379
    -4.9556  -4.0331  -2.8731  -1.9997  -1.7165   1.1657   1.5944   2.7064
     3.1210   5.3000

     occupation numbers 
     1.0000   1.0000   1.0000   1.0000   1.0000   1.0000   1.0000   1.0000
     1.0000   1.0000   1.0000   1.0000   1.0000   0.0000   0.0000   0.0000
     0.0000   0.0000

          k = 0.1111 0.1925 0.0000 (  9445 PWs)   bands (ev):

   -61.9187 -36.0318 -35.9710 -35.8909 -14.4721 -13.5332  -5.9826  -4.4307
    -3.9444  -3.3743  -3.0397  -1.9575  -1.4284   1.0838   1.3938   1.4351
     2.4730   5.1068

     occupation numbers 
     1.0000   1.0000   1.0000   1.0000   1.0000   1.0000   1.0000   1.0000
     1.0000   1.0000   1.0000   1.0000   1.0000   0.0000   0.0000   0.0000
     0.0000   0.0000

          k = 0.1111 0.3208 0.0000 (  9416 PWs)   bands (ev):

   -61.9078 -36.0718 -36.0101 -35.9248 -13.9206 -13.2945  -5.8413  -4.7911
    -4.7075  -3.9768  -2.8126  -2.2062  -1.8039   0.9034   1.3664   1.7259
     2.9859   5.9380

     occupation numbers 
     1.0000   1.0000   1.0000   1.0000   1.0000   1.0000   1.0000   1.0000
     1.0000   1.0000   1.0000   1.0000   1.0000   0.0000   0.0000   0.0000
     0.0000   0.0000

          k = 0.1111 0.4491 0.0000 (  9378 PWs)   bands (ev):

   -61.8981 -36.1587 -35.9909 -35.9549 -13.3574 -13.0553  -6.2582  -5.5118
    -4.8124  -4.1087  -2.8044  -2.6627  -1.6419   1.1290   1.5126   2.3174
     3.1453   6.0428

     occupation numbers 
     1.0000   1.0000   1.0000   1.0000   1.0000   1.0000   1.0000   1.0000
     1.0000   1.0000   1.0000   1.0000   1.0000   0.0000   0.0000   0.0000
     0.0000   0.0000

          k = 0.1111-0.5774 0.0000 (  9340 PWs)   bands (ev):

   -61.8943 -36.1926 -35.9833 -35.9668 -13.1053 -12.9509  -6.4849  -5.8311
    -4.9284  -4.1013  -2.8824  -2.7333  -1.4021   1.1783   1.7679   2.6899
     3.0173   5.2568

     occupation numbers 
     1.0000   1.0000   1.0000   1.0000   1.0000   1.0000   1.0000   1.0000
     1.0000   1.0000   1.0000   1.0000   1.0000   0.0000   0.0000   0.0000
     0.0000   0.0000

          k = 0.2222 0.3849 0.0000 (  9381 PWs)   bands (ev):

   -61.8989 -36.1276 -35.9923 -35.9783 -13.4097 -13.0681  -5.9829  -5.4380
    -4.6107  -4.2593  -3.4685  -2.4382  -1.6672   1.0634   1.5302   1.9045
     3.3180   6.6506

     occupation numbers 
     1.0000   1.0000   1.0000   1.0000   1.0000   1.0000   1.0000   1.0000
     1.0000   1.0000   1.0000   1.0000   1.0000   0.0000   0.0000   0.0000
     0.0000   0.0000

          k = 0.2222-0.6415 0.0000 (  9355 PWs)   bands (ev):

   -61.8930 -36.1543 -36.0225 -35.9807 -13.0352 -12.8991  -6.0260  -6.0180
    -4.7396  -4.0714  -3.8988  -2.8977  -1.2968   0.9856   2.0117   2.1053
     3.4553   5.8803

     occupation numbers 
     1.0000   1.0000   1.0000   1.0000   1.0000   1.0000   1.0000   1.0000
     1.0000   1.0000   1.0000   1.0000   1.0000   0.0000   0.0000   0.0000
     0.0000   0.0000

          k = 0.3333-0.5774 0.0000 (  9384 PWs)   bands (ev):

   -61.8911 -36.1199 -36.0821 -35.9767 -12.9044 -12.8300  -6.2646  -5.5062
    -4.9841  -4.5087  -3.8572  -3.1746  -1.0143   0.6500   1.9550   2.4006
     3.6864   6.1342

     occupation numbers 
     1.0000   1.0000   1.0000   1.0000   1.0000   1.0000   1.0000   1.0000
     1.0000   1.0000   1.0000   1.0000   1.0000   0.0000   0.0000   0.0000
     0.0000   0.0000

     the Fermi energy is     0.2234 ev

!    total energy              =    -181.57869582 Ry
     estimated scf accuracy    <       0.00000018 Ry
     smearing contrib. (-TS)   =       0.00000000 Ry
     internal energy E=F+TS    =    -181.57869582 Ry

     The total energy is F=E-TS. E is the sum of the following terms:
     one-electron contribution =   -1100.60299161 Ry
     hartree contribution      =     550.47075088 Ry
     xc contribution           =     -29.63474075 Ry
     ewald contribution        =     398.18828566 Ry

     convergence has been achieved in  10 iterations

     negative rho (up, down):  3.935E-05 0.000E+00

     Forces acting on atoms (cartesian axes, Ry/au):

     atom    1 type  1   force =     0.00000000    0.00000000    0.00000000
     atom    2 type  2   force =    -0.00000000   -0.00000000   -0.01691851
     atom    3 type  2   force =     0.00000000   -0.00000000    0.01691851
     The non-local contrib.  to forces
     atom    1 type  1   force =     0.00000000    0.00000000    0.00000000
     atom    2 type  2   force =     0.00000000    0.00000000   -0.28210503
     atom    3 type  2   force =     0.00000000    0.00000000    0.28210503
     The ionic contribution  to forces
     atom    1 type  1   force =    -0.00000002   -0.00000001    0.00000000
     atom    2 type  2   force =     0.00000001    0.00000000   35.43266112
     atom    3 type  2   force =     0.00000001    0.00000000  -35.43266112
     The local contribution  to forces
     atom    1 type  1   force =    -0.00000000   -0.00000000    0.00000000
     atom    2 type  2   force =     0.00000002    0.00000001  -35.16961936
     atom    3 type  2   force =     0.00000002    0.00000001   35.16961936
     The core correction contribution to forces
     atom    1 type  1   force =    -0.00000000   -0.00000000   -0.00000000
     atom    2 type  2   force =    -0.00000000   -0.00000000    0.00294781
     atom    3 type  2   force =    -0.00000000   -0.00000000   -0.00294781
     The Hubbard contrib.    to forces
     atom    1 type  1   force =     0.00000000    0.00000000    0.00000000
     atom    2 type  2   force =     0.00000000    0.00000000    0.00000000
     atom    3 type  2   force =     0.00000000    0.00000000    0.00000000
     The SCF correction term to forces
     atom    1 type  1   force =     0.00000000    0.00000000    0.00000000
     atom    2 type  2   force =    -0.00000000   -0.00000000   -0.00080305
     atom    3 type  2   force =    -0.00000000   -0.00000000    0.00080305

     Total force =     0.023926     Total SCF correction =     0.001136
     Energy error            =      1.5E-01
     Gradient error          =      1.7E-02

     number of scf cycles    =   3
     number of bfgs steps    =   2

     energy   old            =    -181.4292719975 Ry
     energy   new            =    -181.5786958163 Ry

     CASE: energy  _new < energy  _old

     new trust radius        =       0.0320826154 bohr
     new conv_thr            =       0.0000001692 Ry


ATOMIC_POSITIONS (crystal)
Mo            0.0000000000        0.0000000000        0.5000000000    0   0   0
S             0.6666666660        0.6666666660        0.5783427860    0   0   1
S             0.6666666660        0.6666666660        0.4216572140    0   0   1



     Writing output data file ./outdir/MoS2.save/
     NEW-OLD atomic charge density approx. for the potential

     negative rho (up, down):  3.870E-05 0.000E+00

     total cpu time spent up to now is       49.3 secs

     Self-consistent Calculation

     iteration #  1     ecut=    60.00 Ry     beta= 0.10
     Davidson diagonalization with overlap
     ethr =  1.00E-06,  avg # of iterations =  6.2

     negative rho (up, down):  3.867E-05 0.000E+00

     total cpu time spent up to now is       50.8 secs

     total energy              =    -181.57942253 Ry
     estimated scf accuracy    <       0.00015094 Ry

     iteration #  2     ecut=    60.00 Ry     beta= 0.10
     Davidson diagonalization with overlap
     ethr =  5.81E-07,  avg # of iterations =  1.0

     negative rho (up, down):  3.865E-05 0.000E+00

     total cpu time spent up to now is       51.7 secs

     total energy              =    -181.57942296 Ry
     estimated scf accuracy    <       0.00004038 Ry

     iteration #  3     ecut=    60.00 Ry     beta= 0.10
     Davidson diagonalization with overlap
     ethr =  1.55E-07,  avg # of iterations =  1.1

     negative rho (up, down):  3.942E-05 0.000E+00

     total cpu time spent up to now is       52.6 secs

     total energy              =    -181.57942103 Ry
     estimated scf accuracy    <       0.00001669 Ry

     iteration #  4     ecut=    60.00 Ry     beta= 0.10
     Davidson diagonalization with overlap
     ethr =  6.42E-08,  avg # of iterations =  2.0

     negative rho (up, down):  3.926E-05 0.000E+00

     total cpu time spent up to now is       53.6 secs

     total energy              =    -181.57942276 Ry
     estimated scf accuracy    <       0.00000147 Ry

     iteration #  5     ecut=    60.00 Ry     beta= 0.10
     Davidson diagonalization with overlap
     ethr =  5.65E-09,  avg # of iterations =  1.7

     negative rho (up, down):  3.950E-05 0.000E+00

     total cpu time spent up to now is       54.6 secs

     total energy              =    -181.57942285 Ry
     estimated scf accuracy    <       0.00000054 Ry

     iteration #  6     ecut=    60.00 Ry     beta= 0.10
     Davidson diagonalization with overlap
     ethr =  2.07E-09,  avg # of iterations =  2.2

     negative rho (up, down):  3.928E-05 0.000E+00

     total cpu time spent up to now is       55.7 secs

     total energy              =    -181.57942292 Ry
     estimated scf accuracy    <       0.00000066 Ry

     iteration #  7     ecut=    60.00 Ry     beta= 0.10
     Davidson diagonalization with overlap
     ethr =  2.07E-09,  avg # of iterations =  1.0

     negative rho (up, down):  3.915E-05 0.000E+00

     total cpu time spent up to now is       56.5 secs

     total energy              =    -181.57942289 Ry
     estimated scf accuracy    <       0.00000017 Ry

     iteration #  8     ecut=    60.00 Ry     beta= 0.10
     Davidson diagonalization with overlap
     ethr =  6.70E-10,  avg # of iterations =  2.0

     negative rho (up, down):  3.860E-05 0.000E+00

     total cpu time spent up to now is       57.6 secs

     End of self-consistent calculation

          k = 0.0000 0.0000 0.0000 (  9423 PWs)   bands (ev):

   -61.9321 -36.0608 -35.8718 -35.8718 -15.0352 -13.7572  -6.5611  -3.6124
    -3.6124  -2.7630  -2.5259  -2.5259  -1.0074   1.6879   1.6879   1.9235
     1.9235   4.3364

     occupation numbers 
     1.0000   1.0000   1.0000   1.0000   1.0000   1.0000   1.0000   1.0000
     1.0000   1.0000   1.0000   1.0000   1.0000   0.0000   0.0000   0.0000
     0.0000   0.0000

          k = 0.0000 0.1283 0.0000 (  9445 PWs)   bands (ev):

   -61.9281 -36.0527 -35.9135 -35.8813 -14.8599 -13.6843  -6.3627  -3.9932
    -3.4626  -3.4298  -2.7959  -2.1148  -1.1145   1.5037   1.5067   1.7337
     1.9822   4.6386

     occupation numbers 
     1.0000   1.0000   1.0000   1.0000   1.0000   1.0000   1.0000   1.0000
     1.0000   1.0000   1.0000   1.0000   1.0000   0.0000   0.0000   0.0000
     0.0000   0.0000

          k = 0.0000 0.2566 0.0000 (  9429 PWs)   bands (ev):

   -61.9178 -36.0320 -36.0180 -35.9054 -14.3841 -13.4871  -5.9759  -4.6942
    -4.3232  -3.3472  -2.9531  -2.2387  -1.5789   1.1283   1.3660   1.6825
     2.5502   5.3135

     occupation numbers 
     1.0000   1.0000   1.0000   1.0000   1.0000   1.0000   1.0000   1.0000
     1.0000   1.0000   1.0000   1.0000   1.0000   0.0000   0.0000   0.0000
     0.0000   0.0000

          k = 0.0000 0.3849 0.0000 (  9419 PWs)   bands (ev):

   -61.9061 -36.1348 -36.0085 -35.9326 -13.7660 -13.2359  -6.1850  -5.1367
    -4.8933  -3.8414  -2.6274  -2.4024  -1.9689   1.1420   1.2823   2.3094
     2.9857   6.1481

     occupation numbers 
     1.0000   1.0000   1.0000   1.0000   1.0000   1.0000   1.0000   1.0000
     1.0000   1.0000   1.0000   1.0000   1.0000   0.0000   0.0000   0.0000
     0.0000   0.0000

          k = 0.0000 0.5132 0.0000 (  9367 PWs)   bands (ev):

   -61.8984 -36.2099 -35.9930 -35.9503 -13.2943 -13.0516  -6.6407  -5.6635
    -5.0051  -4.1172  -2.8442  -2.0633  -1.7273   1.1458   1.5986   2.7426
     3.1824   5.3092

     occupation numbers 
     1.0000   1.0000   1.0000   1.0000   1.0000   1.0000   1.0000   1.0000
     1.0000   1.0000   1.0000   1.0000   1.0000   0.0000   0.0000   0.0000
     0.0000   0.0000

          k = 0.1111 0.1925 0.0000 (  9445 PWs)   bands (ev):

   -61.9210 -36.0383 -35.9830 -35.9018 -14.5337 -13.5485  -6.0483  -4.5142
    -3.9831  -3.4477  -3.1366  -1.9538  -1.4102   1.1311   1.3995   1.4624
     2.4991   5.1183

     occupation numbers 
     1.0000   1.0000   1.0000   1.0000   1.0000   1.0000   1.0000   1.0000
     1.0000   1.0000   1.0000   1.0000   1.0000   0.0000   0.0000   0.0000
     0.0000   0.0000

          k = 0.1111 0.3208 0.0000 (  9416 PWs)   bands (ev):

   -61.9100 -36.0849 -36.0162 -35.9360 -13.9813 -13.3193  -5.9258  -4.8374
    -4.7578  -4.0326  -2.8830  -2.1917  -1.8230   0.9413   1.3805   1.7421
     3.0364   5.9446

     occupation numbers 
     1.0000   1.0000   1.0000   1.0000   1.0000   1.0000   1.0000   1.0000
     1.0000   1.0000   1.0000   1.0000   1.0000   0.0000   0.0000   0.0000
     0.0000   0.0000

          k = 0.1111 0.4491 0.0000 (  9378 PWs)   bands (ev):

   -61.9002 -36.1728 -35.9967 -35.9664 -13.4190 -13.0901  -6.3246  -5.5579
    -4.8564  -4.1628  -2.8509  -2.6413  -1.6787   1.1436   1.5050   2.3519
     3.2031   6.0579

     occupation numbers 
     1.0000   1.0000   1.0000   1.0000   1.0000   1.0000   1.0000   1.0000
     1.0000   1.0000   1.0000   1.0000   1.0000   0.0000   0.0000   0.0000
     0.0000   0.0000

          k = 0.1111-0.5774 0.0000 (  9340 PWs)   bands (ev):

   -61.8963 -36.2072 -35.9890 -35.9784 -13.1682 -12.9903  -6.5363  -5.8735
    -4.9812  -4.1581  -2.8565  -2.7723  -1.4344   1.1585   1.7661   2.7429
     3.0622   5.2753

     occupation numbers 
     1.0000   1.0000   1.0000   1.0000   1.0000   1.0000   1.0000   1.0000
     1.0000   1.0000   1.0000   1.0000   1.0000   0.0000   0.0000   0.0000
     0.0000   0.0000

          k = 0.2222 0.3849 0.0000 (  9381 PWs)   bands (ev):

   -61.9009 -36.1414 -35.9981 -35.9900 -13.4708 -13.1016  -6.0570  -5.5054
    -4.6488  -4.2851  -3.5153  -2.4197  -1.7072   1.1029   1.5075   1.9350
     3.3781   6.6547

     occupation numbers 
     1.0000   1.0000   1.0000   1.0000   1.0000   1.0000   1.0000   1.0000
     1.0000   1.0000   1.0000   1.0000   1.0000   0.0000   0.0000   0.0000
     0.0000   0.0000

          k = 0.2222-0.6415 0.0000 (  9355 PWs)   bands (ev):

   -61.8950 -36.1686 -36.0347 -35.9863 -13.0979 -12.9390  -6.0934  -6.0708
    -4.7885  -4.0910  -3.9383  -2.8758  -1.3332   0.9591   2.0276   2.1605
     3.5012   5.9060

     occupation numbers 
     1.0000   1.0000   1.0000   1.0000   1.0000   1.0000   1.0000   1.0000
     1.0000   1.0000   1.0000   1.0000   1.0000   0.0000   0.0000   0.0000
     0.0000   0.0000

          k = 0.3333-0.5774 0.0000 (  9384 PWs)   bands (ev):

   -61.8931 -36.1344 -36.0943 -35.9822 -12.9676 -12.8718  -6.3387  -5.5471
    -5.0342  -4.5549  -3.8652  -3.1529  -1.0430   0.5958   2.0180   2.4418
     3.7293   6.1271

     occupation numbers 
     1.0000   1.0000   1.0000   1.0000   1.0000   1.0000   1.0000   1.0000
     1.0000   1.0000   1.0000   1.0000   1.0000   0.0000   0.0000   0.0000
     0.0000   0.0000

     the Fermi energy is     0.2269 ev

!    total energy              =    -181.57942288 Ry
     estimated scf accuracy    <       0.00000003 Ry
     smearing contrib. (-TS)   =       0.00000000 Ry
     internal energy E=F+TS    =    -181.57942288 Ry

     The total energy is F=E-TS. E is the sum of the following terms:
     one-electron contribution =   -1105.08181142 Ry
     hartree contribution      =     552.69971098 Ry
     xc contribution           =     -29.65988699 Ry
     ewald contribution        =     400.46256456 Ry

     convergence has been achieved in   8 iterations

     negative rho (up, down):  3.860E-05 0.000E+00

     Forces acting on atoms (cartesian axes, Ry/au):

     atom    1 type  1   force =    -0.00000000    0.00000000    0.00000000
     atom    2 type  2   force =    -0.00000000    0.00000000   -0.00538318
     atom    3 type  2   force =    -0.00000000    0.00000000    0.00538318
     The non-local contrib.  to forces
     atom    1 type  1   force =     0.00000000    0.00000000    0.00000000
     atom    2 type  2   force =     0.00000000   -0.00000000   -0.27722643
     atom    3 type  2   force =     0.00000000    0.00000000    0.27722643
     The ionic contribution  to forces
     atom    1 type  1   force =    -0.00000002   -0.00000001    0.00000000
     atom    2 type  2   force =     0.00000001    0.00000000   35.45512417
     atom    3 type  2   force =     0.00000001    0.00000000  -35.45512417
     The local contribution  to forces
     atom    1 type  1   force =    -0.00000000    0.00000000    0.00000000
     atom    2 type  2   force =     0.00000002    0.00000001  -35.18574504
     atom    3 type  2   force =     0.00000002    0.00000001   35.18574504
     The core correction contribution to forces
     atom    1 type  1   force =    -0.00000000    0.00000000   -0.00000000
     atom    2 type  2   force =    -0.00000000   -0.00000000    0.00271305
     atom    3 type  2   force =    -0.00000000   -0.00000000   -0.00271305
     The Hubbard contrib.    to forces
     atom    1 type  1   force =     0.00000000    0.00000000    0.00000000
     atom    2 type  2   force =     0.00000000    0.00000000    0.00000000
     atom    3 type  2   force =     0.00000000    0.00000000    0.00000000
     The SCF correction term to forces
     atom    1 type  1   force =     0.00000000    0.00000000   -0.00000000
     atom    2 type  2   force =    -0.00000000   -0.00000000   -0.00024892
     atom    3 type  2   force =    -0.00000000   -0.00000000    0.00024892

     Total force =     0.007613     Total SCF correction =     0.000352
     Energy error            =      7.3E-04
     Gradient error          =      5.4E-03

     number of scf cycles    =   4
     number of bfgs steps    =   3

     energy   old            =    -181.5786958163 Ry
     energy   new            =    -181.5794228777 Ry

     CASE: energy  _new < energy  _old

     new trust radius        =       0.0149719580 bohr
     new conv_thr            =       0.0000000538 Ry


ATOMIC_POSITIONS (crystal)
Mo            0.0000000000        0.0000000000        0.5000000000    0   0   0
S             0.6666666660        0.6666666660        0.5779466450    0   0   1
S             0.6666666660        0.6666666660        0.4220533550    0   0   1



     Writing output data file ./outdir/MoS2.save/
     NEW-OLD atomic charge density approx. for the potential

     negative rho (up, down):  3.814E-05 0.000E+00

     total cpu time spent up to now is       59.0 secs

     Self-consistent Calculation

     iteration #  1     ecut=    60.00 Ry     beta= 0.10
     Davidson diagonalization with overlap
     ethr =  1.00E-06,  avg # of iterations =  5.0

     negative rho (up, down):  3.816E-05 0.000E+00

     total cpu time spent up to now is       60.7 secs

     total energy              =    -181.57950105 Ry
     estimated scf accuracy    <       0.00002987 Ry

     iteration #  2     ecut=    60.00 Ry     beta= 0.10
     Davidson diagonalization with overlap
     ethr =  1.15E-07,  avg # of iterations =  1.1

     negative rho (up, down):  3.818E-05 0.000E+00

     total cpu time spent up to now is       61.6 secs

     total energy              =    -181.57950129 Ry
     estimated scf accuracy    <       0.00000885 Ry

     iteration #  3     ecut=    60.00 Ry     beta= 0.10
     Davidson diagonalization with overlap
     ethr =  3.40E-08,  avg # of iterations =  1.2

     negative rho (up, down):  3.835E-05 0.000E+00

     total cpu time spent up to now is       62.6 secs

     total energy              =    -181.57950096 Ry
     estimated scf accuracy    <       0.00000360 Ry

     iteration #  4     ecut=    60.00 Ry     beta= 0.10
     Davidson diagonalization with overlap
     ethr =  1.38E-08,  avg # of iterations =  2.0

     negative rho (up, down):  3.833E-05 0.000E+00

     total cpu time spent up to now is       63.7 secs

     total energy              =    -181.57950136 Ry
     estimated scf accuracy    <       0.00000040 Ry

     iteration #  5     ecut=    60.00 Ry     beta= 0.10
     Davidson diagonalization with overlap
     ethr =  1.55E-09,  avg # of iterations =  1.8

     negative rho (up, down):  3.839E-05 0.000E+00

     total cpu time spent up to now is       64.7 secs

     total energy              =    -181.57950138 Ry
     estimated scf accuracy    <       0.00000013 Ry

     iteration #  6     ecut=    60.00 Ry     beta= 0.10
     Davidson diagonalization with overlap
     ethr =  5.17E-10,  avg # of iterations =  2.8

     negative rho (up, down):  3.835E-05 0.000E+00

     total cpu time spent up to now is       65.8 secs

     total energy              =    -181.57950138 Ry
     estimated scf accuracy    <       0.00000017 Ry

     iteration #  7     ecut=    60.00 Ry     beta= 0.10
     Davidson diagonalization with overlap
     ethr =  5.17E-10,  avg # of iterations =  2.0

     negative rho (up, down):  3.834E-05 0.000E+00

     total cpu time spent up to now is       66.8 secs

     End of self-consistent calculation

          k = 0.0000 0.0000 0.0000 (  9423 PWs)   bands (ev):

   -61.9329 -36.0637 -35.8767 -35.8767 -15.0653 -13.7598  -6.5874  -3.6623
    -3.6623  -2.7463  -2.5641  -2.5641  -0.9843   1.6878   1.6878   1.9429
     1.9429   4.3411

     occupation numbers 
     1.0000   1.0000   1.0000   1.0000   1.0000   1.0000   1.0000   1.0000
     1.0000   1.0000   1.0000   1.0000   1.0000   0.0000   0.0000   0.0000
     0.0000   0.0000

          k = 0.0000 0.1283 0.0000 (  9445 PWs)   bands (ev):

   -61.9289 -36.0556 -35.9187 -35.8863 -14.8896 -13.6882  -6.3901  -4.0400
    -3.4788  -3.4774  -2.8341  -2.1176  -1.0961   1.5053   1.5276   1.7507
     1.9860   4.6430

     occupation numbers 
     1.0000   1.0000   1.0000   1.0000   1.0000   1.0000   1.0000   1.0000
     1.0000   1.0000   1.0000   1.0000   1.0000   0.0000   0.0000   0.0000
     0.0000   0.0000

          k = 0.0000 0.2566 0.0000 (  9429 PWs)   bands (ev):

   -61.9186 -36.0347 -36.0238 -35.9104 -14.4129 -13.4948  -6.0099  -4.7278
    -4.3424  -3.3857  -2.9986  -2.2289  -1.5732   1.1510   1.3768   1.6890
     2.5636   5.3169

     occupation numbers 
     1.0000   1.0000   1.0000   1.0000   1.0000   1.0000   1.0000   1.0000
     1.0000   1.0000   1.0000   1.0000   1.0000   0.0000   0.0000   0.0000
     0.0000   0.0000

          k = 0.0000 0.3849 0.0000 (  9419 PWs)   bands (ev):

   -61.9068 -36.1413 -36.0110 -35.9378 -13.7947 -13.2488  -6.2219  -5.1529
    -4.9127  -3.8803  -2.6134  -2.4405  -1.9738   1.1427   1.2981   2.3232
     3.0092   6.1457

     occupation numbers 
     1.0000   1.0000   1.0000   1.0000   1.0000   1.0000   1.0000   1.0000
     1.0000   1.0000   1.0000   1.0000   1.0000   0.0000   0.0000   0.0000
     0.0000   0.0000

          k = 0.0000 0.5132 0.0000 (  9367 PWs)   bands (ev):

   -61.8991 -36.2167 -35.9954 -35.9556 -13.3238 -13.0687  -6.6673  -5.6750
    -5.0280  -4.1564  -2.8297  -2.0932  -1.7325   1.1363   1.6000   2.7596
     3.2115   5.3134

     occupation numbers 
     1.0000   1.0000   1.0000   1.0000   1.0000   1.0000   1.0000   1.0000
     1.0000   1.0000   1.0000   1.0000   1.0000   0.0000   0.0000   0.0000
     0.0000   0.0000

          k = 0.1111 0.1925 0.0000 (  9445 PWs)   bands (ev):

   -61.9217 -36.0410 -35.9885 -35.9069 -14.5627 -13.5550  -6.0793  -4.5535
    -4.0014  -3.4820  -3.1824  -1.9506  -1.4012   1.1535   1.4022   1.4756
     2.5114   5.1221

     occupation numbers 
     1.0000   1.0000   1.0000   1.0000   1.0000   1.0000   1.0000   1.0000
     1.0000   1.0000   1.0000   1.0000   1.0000   0.0000   0.0000   0.0000
     0.0000   0.0000

          k = 0.1111 0.3208 0.0000 (  9416 PWs)   bands (ev):

   -61.9107 -36.0911 -36.0188 -35.9413 -14.0098 -13.3303  -5.9654  -4.8593
    -4.7814  -4.0585  -2.9167  -2.1837  -1.8314   0.9587   1.3876   1.7496
     3.0603   5.9464

     occupation numbers 
     1.0000   1.0000   1.0000   1.0000   1.0000   1.0000   1.0000   1.0000
     1.0000   1.0000   1.0000   1.0000   1.0000   0.0000   0.0000   0.0000
     0.0000   0.0000

          k = 0.1111 0.4491 0.0000 (  9378 PWs)   bands (ev):

   -61.9009 -36.1795 -35.9991 -35.9718 -13.4480 -13.1059  -6.3557  -5.5794
    -4.8768  -4.1877  -2.8729  -2.6301  -1.6960   1.1496   1.5018   2.3681
     3.2307   6.0642

     occupation numbers 
     1.0000   1.0000   1.0000   1.0000   1.0000   1.0000   1.0000   1.0000
     1.0000   1.0000   1.0000   1.0000   1.0000   0.0000   0.0000   0.0000
     0.0000   0.0000

          k = 0.1111-0.5774 0.0000 (  9340 PWs)   bands (ev):

   -61.8970 -36.2140 -35.9913 -35.9839 -13.1978 -13.0083  -6.5604  -5.8933
    -5.0057  -4.1841  -2.8433  -2.7906  -1.4499   1.1485   1.7649   2.7674
     3.0840   5.2842

     occupation numbers 
     1.0000   1.0000   1.0000   1.0000   1.0000   1.0000   1.0000   1.0000
     1.0000   1.0000   1.0000   1.0000   1.0000   0.0000   0.0000   0.0000
     0.0000   0.0000

          k = 0.2222 0.3849 0.0000 (  9381 PWs)   bands (ev):

   -61.9016 -36.1479 -36.0005 -35.9955 -13.4996 -13.1168  -6.0917  -5.5368
    -4.6666  -4.2967  -3.5371  -2.4100  -1.7262   1.1214   1.4965   1.9492
     3.4067   6.6554

     occupation numbers 
     1.0000   1.0000   1.0000   1.0000   1.0000   1.0000   1.0000   1.0000
     1.0000   1.0000   1.0000   1.0000   1.0000   0.0000   0.0000   0.0000
     0.0000   0.0000

          k = 0.2222-0.6415 0.0000 (  9355 PWs)   bands (ev):

   -61.8957 -36.1752 -36.0404 -35.9886 -13.1274 -12.9571  -6.1249  -6.0955
    -4.8111  -4.0996  -3.9566  -2.8646  -1.3508   0.9456   2.0352   2.1864
     3.5229   5.9180

     occupation numbers 
     1.0000   1.0000   1.0000   1.0000   1.0000   1.0000   1.0000   1.0000
     1.0000   1.0000   1.0000   1.0000   1.0000   0.0000   0.0000   0.0000
     0.0000   0.0000

          k = 0.3333-0.5774 0.0000 (  9384 PWs)   bands (ev):

   -61.8937 -36.1412 -36.1001 -35.9845 -12.9974 -12.8908  -6.3732  -5.5660
    -5.0576  -4.5762  -3.8685  -3.1417  -1.0571   0.5696   2.0478   2.4608
     3.7494   6.1236

     occupation numbers 
     1.0000   1.0000   1.0000   1.0000   1.0000   1.0000   1.0000   1.0000
     1.0000   1.0000   1.0000   1.0000   1.0000   0.0000   0.0000   0.0000
     0.0000   0.0000

     the Fermi energy is     0.2274 ev

!    total energy              =    -181.57950141 Ry
     estimated scf accuracy    <       0.00000001 Ry
     smearing contrib. (-TS)   =       0.00000000 Ry
     internal energy E=F+TS    =    -181.57950141 Ry

     The total energy is F=E-TS. E is the sum of the following terms:
     one-electron contribution =   -1107.17037599 Ry
     hartree contribution      =     553.73816529 Ry
     xc contribution           =     -29.67166598 Ry
     ewald contribution        =     401.52437527 Ry

     convergence has been achieved in   7 iterations

     negative rho (up, down):  3.834E-05 0.000E+00

     Forces acting on atoms (cartesian axes, Ry/au):

     atom    1 type  1   force =     0.00000000    0.00000000    0.00000000
     atom    2 type  2   force =     0.00000000    0.00000000    0.00026412
     atom    3 type  2   force =     0.00000000    0.00000000   -0.00026412
     The non-local contrib.  to forces
     atom    1 type  1   force =    -0.00000000   -0.00000000    0.00000000
     atom    2 type  2   force =     0.00000000   -0.00000000   -0.27495528
     atom    3 type  2   force =     0.00000000   -0.00000000    0.27495528
     The ionic contribution  to forces
     atom    1 type  1   force =    -0.00000002   -0.00000001    0.00000000
     atom    2 type  2   force =     0.00000001    0.00000000   35.46474741
     atom    3 type  2   force =     0.00000001    0.00000000  -35.46474741
     The local contribution  to forces
     atom    1 type  1   force =     0.00000000   -0.00000000    0.00000000
     atom    2 type  2   force =     0.00000002    0.00000001  -35.19198438
     atom    3 type  2   force =     0.00000002    0.00000001   35.19198438
     The core correction contribution to forces
     atom    1 type  1   force =    -0.00000000   -0.00000000   -0.00000000
     atom    2 type  2   force =    -0.00000000   -0.00000000    0.00260656
     atom    3 type  2   force =    -0.00000000   -0.00000000   -0.00260656
     The Hubbard contrib.    to forces
     atom    1 type  1   force =     0.00000000    0.00000000    0.00000000
     atom    2 type  2   force =     0.00000000    0.00000000    0.00000000
     atom    3 type  2   force =     0.00000000    0.00000000    0.00000000
     The SCF correction term to forces
     atom    1 type  1   force =     0.00000000    0.00000000   -0.00000000
     atom    2 type  2   force =    -0.00000000   -0.00000000   -0.00015019
     atom    3 type  2   force =    -0.00000000   -0.00000000    0.00015019

     Total force =     0.000374     Total SCF correction =     0.000212
     SCF correction compared to forces is large: reduce conv_thr to get better values
     Energy error            =      7.9E-05
     Gradient error          =      2.6E-04

     bfgs converged in   5 scf cycles and   4 bfgs steps
     (criteria: energy <  1.0E-04 Ry, force <  1.0E-03 Ry/Bohr)

     End of BFGS Geometry Optimization

     Final energy   =    -181.5795014092 Ry

     File ./outdir/MoS2.bfgs deleted, as requested
Begin final coordinates

ATOMIC_POSITIONS (crystal)
Mo            0.0000000000        0.0000000000        0.5000000000    0   0   0
S             0.6666666660        0.6666666660        0.5779466450    0   0   1
S             0.6666666660        0.6666666660        0.4220533550    0   0   1
End final coordinates



     Writing output data file ./outdir/MoS2.save/

     init_run     :      0.98s CPU      1.06s WALL (       1 calls)
     electrons    :     50.50s CPU     60.23s WALL (       5 calls)
     update_pot   :      1.77s CPU      1.78s WALL (       4 calls)
     forces       :      3.07s CPU      3.43s WALL (       5 calls)

     Called by init_run:
     wfcinit      :      0.16s CPU      0.18s WALL (       1 calls)
     wfcinit:atom :      0.00s CPU      0.00s WALL (      12 calls)
     wfcinit:wfcr :      0.14s CPU      0.16s WALL (      12 calls)
     potinit      :      0.18s CPU      0.18s WALL (       1 calls)
     hinit0       :      0.47s CPU      0.47s WALL (       1 calls)

     Called by electrons:
     c_bands      :     30.79s CPU     31.79s WALL (      56 calls)
     sum_band     :     10.10s CPU     14.47s WALL (      56 calls)
     v_of_rho     :      2.11s CPU      2.41s WALL (      61 calls)
     v_h          :      0.17s CPU      0.17s WALL (      61 calls)
     v_xc         :      2.11s CPU      2.42s WALL (      66 calls)
     newd         :      7.59s CPU     11.94s WALL (      61 calls)
     mix_rho      :      0.44s CPU      0.46s WALL (      56 calls)

     Called by c_bands:
     init_us_2    :      0.73s CPU      0.75s WALL (    1416 calls)
     cegterg      :     28.64s CPU     29.62s WALL (     672 calls)

     Called by sum_band:
     sum_band:wei :      0.00s CPU      0.00s WALL (      56 calls)
     sum_band:loo :      3.59s CPU      3.76s WALL (      56 calls)
     sum_band:buf :      0.14s CPU      0.15s WALL (     672 calls)
     sum_band:ini :      0.26s CPU      0.28s WALL (     672 calls)
     sum_band:cal :      0.98s CPU      1.04s WALL (     672 calls)
     sum_band:bec :      0.01s CPU      0.02s WALL (     672 calls)
     addusdens    :      6.33s CPU     10.44s WALL (      56 calls)
     addusd:skk   :      0.04s CPU      0.06s WALL (     112 calls)
     addusd:dgemm :      2.42s CPU      6.03s WALL (     112 calls)
     addusd:qvan2 :      3.47s CPU      3.49s WALL (     112 calls)

     Called by *egterg:
     cdiaghg      :      1.15s CPU      1.17s WALL (    2371 calls)
     cegterg:over :      2.56s CPU      2.59s WALL (    1747 calls)
     cegterg:upda :      1.29s CPU      1.30s WALL (    1747 calls)
     cegterg:last :      2.96s CPU      2.99s WALL (    1387 calls)
     cdiaghg:chol :      0.12s CPU      0.13s WALL (    2371 calls)
     cdiaghg:inve :      0.03s CPU      0.03s WALL (    2371 calls)
     cdiaghg:para :      0.18s CPU      0.18s WALL (    4742 calls)
     h_psi        :     17.15s CPU     18.02s WALL (    2431 calls)
     s_psi        :      2.47s CPU      2.50s WALL (    2431 calls)
     g_psi        :      0.16s CPU      0.16s WALL (    1747 calls)

     Called by h_psi:
     h_psi:calbec :      3.57s CPU      3.75s WALL (    2431 calls)
     vloc_psi     :     10.93s CPU     11.57s WALL (    2431 calls)
     add_vuspsi   :      2.42s CPU      2.48s WALL (    2431 calls)

     General routines
     calbec       :      4.90s CPU      5.14s WALL (    3343 calls)
     fft          :      1.35s CPU      1.47s WALL (     842 calls)
     ffts         :      0.05s CPU      0.05s WALL (     117 calls)
     fftw         :     11.06s CPU     11.70s WALL (   74984 calls)
     interpolate  :      0.14s CPU      0.15s WALL (      61 calls)

     Parallel routines
     fft_scatt_xy :      1.50s CPU      1.58s WALL (   75943 calls)
     fft_scatt_yz :      3.69s CPU      3.94s WALL (   75943 calls)

     PWSCF        :     57.03s CPU   1m 7.54s WALL


   This run was terminated on:  18:53:59  18Jan2023            

=------------------------------------------------------------------------------=
   JOB DONE.
=------------------------------------------------------------------------------=
