
     Program PWSCF v.6.7MaX starts on 18Jan2023 at 18: 8:29 

     This program is part of the open-source Quantum ESPRESSO suite
     for quantum simulation of materials; please cite
         "P. Giannozzi et al., J. Phys.:Condens. Matter 21 395502 (2009);
         "P. Giannozzi et al., J. Phys.:Condens. Matter 29 465901 (2017);
          URL http://www.quantum-espresso.org", 
     in publications or presentations arising from this work. More details at
     http://www.quantum-espresso.org/quote

     Parallel version (MPI), running on     8 processors

     MPI processes distributed on     1 nodes
     R & G space division:  proc/nbgrp/npool/nimage =       8
     Reading input from MoS2_1T.in

     Current dimensions of program PWSCF are:
     Max number of different atomic species (ntypx) = 10
     Max number of k-points (npk) =  40000
     Max angular momentum in pseudopotentials (lmaxx) =  3
     file Mo.pbe-spn-rrkjus_psl.1.0.0.UPF: wavefunction(s)  4S renormalized

     IMPORTANT: XC functional enforced from input :
     Exchange-correlation= PBE
                           (   1   4   3   4   0   0   0)
     Any further DFT definition will be discarded
     Please, verify this is what you really want


     Subspace diagonalization in iterative solution of the eigenvalue problem:
     one sub-group per band group will be used
     scalapack distributed-memory algorithm (size of sub-group:  2*  2 procs)


     Parallelization info
     --------------------
     sticks:   dense  smooth     PW     G-vecs:    dense   smooth      PW
     Min         126      50     15                20225     5095     875
     Max         128      52     16                20238     5098     902
     Sum        1015     409    121               161851    40773    7069



     bravais-lattice index     =           12
     lattice parameter (alat)  =       6.0471  a.u.
     unit-cell volume          =    1196.8981 (a.u.)^3
     number of atoms/cell      =            3
     number of atomic types    =            2
     number of electrons       =        26.00
     number of Kohn-Sham states=           18
     kinetic-energy cutoff     =      40.0000  Ry
     charge density cutoff     =     400.0000  Ry
     scf convergence threshold =      1.0E-06
     mixing beta               =       0.1000
     number of iterations used =            8  plain     mixing
     energy convergence thresh.=      1.0E-04
     force convergence thresh. =      1.0E-03
     Exchange-correlation= PBE
                           (   1   4   3   4   0   0   0)
     nstep                     =           50


     celldm(1)=   6.047124  celldm(2)=   1.000000  celldm(3)=   6.250000
     celldm(4)=   0.500000  celldm(5)=   0.000000  celldm(6)=   0.000000

     crystal axes: (cart. coord. in units of alat)
               a(1) = (   1.000000   0.000000   0.000000 )  
               a(2) = (   0.500000   0.866025   0.000000 )  
               a(3) = (   0.000000   0.000000   6.250000 )  

     reciprocal axes: (cart. coord. in units 2 pi/alat)
               b(1) = (  1.000000 -0.577350  0.000000 )  
               b(2) = (  0.000000  1.154701  0.000000 )  
               b(3) = (  0.000000  0.000000  0.160000 )  


     PseudoPot. # 1 for Mo read from file:
     /home/zronyj/Desktop/MoS2/pseudo/Mo.pbe-spn-rrkjus_psl.1.0.0.UPF
     MD5 check sum: 03f09b12e49601d1a456a78ce8b2d514
     Pseudo is Ultrasoft + core correction, Zval = 14.0
     Generated using &quot;atomic&quot; code by A. Dal Corso  v.6.3
     Using radial grid of 1229 points,  6 beta functions with: 
                l(1) =   0
                l(2) =   0
                l(3) =   1
                l(4) =   1
                l(5) =   2
                l(6) =   2
     Q(r) pseudized with 0 coefficients 


     PseudoPot. # 2 for S  read from file:
     /home/zronyj/Desktop/MoS2/pseudo/S.pbe-n-rrkjus_psl.1.0.0.UPF
     MD5 check sum: 9d0fe39aa2a799ea84730884c9b010f4
     Pseudo is Ultrasoft + core correction, Zval =  6.0
     Generated using &quot;atomic&quot; code by A. Dal Corso  v.6.3
     Using radial grid of 1151 points,  6 beta functions with: 
                l(1) =   0
                l(2) =   0
                l(3) =   1
                l(4) =   1
                l(5) =   2
                l(6) =   2
     Q(r) pseudized with 0 coefficients 


     atomic species   valence    mass     pseudopotential
        Mo            14.00    95.95000     Mo( 1.00)
        S              6.00    32.06500     S ( 1.00)

     12 Sym. Ops., with inversion, found


                                    s                        frac. trans.

      isym =  1     identity                                     

 cryst.   s( 1) = (     1          0          0      )
                  (     0          1          0      )
                  (     0          0          1      )

 cart.    s( 1) = (  1.0000000  0.0000000  0.0000000 )
                  (  0.0000000  1.0000000  0.0000000 )
                  (  0.0000000  0.0000000  1.0000000 )


      isym =  2     180 deg rotation - cart. axis [1,0,0]        

 cryst.   s( 2) = (     1          0          0      )
                  (     1         -1          0      )
                  (     0          0         -1      )

 cart.    s( 2) = (  1.0000000  0.0000000  0.0000000 )
                  (  0.0000000 -1.0000000  0.0000000 )
                  (  0.0000000  0.0000000 -1.0000000 )


      isym =  3     120 deg rotation - cryst. axis [0,0,1]       

 cryst.   s( 3) = (    -1          1          0      )
                  (    -1          0          0      )
                  (     0          0          1      )

 cart.    s( 3) = ( -0.5000000 -0.8660254  0.0000000 )
                  (  0.8660254 -0.5000000  0.0000000 )
                  (  0.0000000  0.0000000  1.0000000 )


      isym =  4     120 deg rotation - cryst. axis [0,0,-1]      

 cryst.   s( 4) = (     0         -1          0      )
                  (     1         -1          0      )
                  (     0          0          1      )

 cart.    s( 4) = ( -0.5000000  0.8660254  0.0000000 )
                  ( -0.8660254 -0.5000000  0.0000000 )
                  (  0.0000000  0.0000000  1.0000000 )


      isym =  5     180 deg rotation - cryst. axis [0,1,0]       

 cryst.   s( 5) = (     0         -1          0      )
                  (    -1          0          0      )
                  (     0          0         -1      )

 cart.    s( 5) = ( -0.5000000 -0.8660254  0.0000000 )
                  ( -0.8660254  0.5000000  0.0000000 )
                  (  0.0000000  0.0000000 -1.0000000 )


      isym =  6     180 deg rotation - cryst. axis [1,1,0]       

 cryst.   s( 6) = (    -1          1          0      )
                  (     0          1          0      )
                  (     0          0         -1      )

 cart.    s( 6) = ( -0.5000000  0.8660254  0.0000000 )
                  (  0.8660254  0.5000000  0.0000000 )
                  (  0.0000000  0.0000000 -1.0000000 )


      isym =  7     inversion                                    

 cryst.   s( 7) = (    -1          0          0      )
                  (     0         -1          0      )
                  (     0          0         -1      )

 cart.    s( 7) = ( -1.0000000  0.0000000  0.0000000 )
                  (  0.0000000 -1.0000000  0.0000000 )
                  (  0.0000000  0.0000000 -1.0000000 )


      isym =  8     inv. 180 deg rotation - cart. axis [1,0,0]   

 cryst.   s( 8) = (    -1          0          0      )
                  (    -1          1          0      )
                  (     0          0          1      )

 cart.    s( 8) = ( -1.0000000  0.0000000  0.0000000 )
                  (  0.0000000  1.0000000  0.0000000 )
                  (  0.0000000  0.0000000  1.0000000 )


      isym =  9     inv. 120 deg rotation - cryst. axis [0,0,1]  

 cryst.   s( 9) = (     1         -1          0      )
                  (     1          0          0      )
                  (     0          0         -1      )

 cart.    s( 9) = (  0.5000000  0.8660254  0.0000000 )
                  ( -0.8660254  0.5000000  0.0000000 )
                  (  0.0000000  0.0000000 -1.0000000 )


      isym = 10     inv. 120 deg rotation - cryst. axis [0,0,-1] 

 cryst.   s(10) = (     0          1          0      )
                  (    -1          1          0      )
                  (     0          0         -1      )

 cart.    s(10) = (  0.5000000 -0.8660254  0.0000000 )
                  (  0.8660254  0.5000000  0.0000000 )
                  (  0.0000000  0.0000000 -1.0000000 )


      isym = 11     inv. 180 deg rotation - cryst. axis [0,1,0]  

 cryst.   s(11) = (     0          1          0      )
                  (     1          0          0      )
                  (     0          0          1      )

 cart.    s(11) = (  0.5000000  0.8660254  0.0000000 )
                  (  0.8660254 -0.5000000  0.0000000 )
                  (  0.0000000  0.0000000  1.0000000 )


      isym = 12     inv. 180 deg rotation - cryst. axis [1,1,0]  

 cryst.   s(12) = (     1         -1          0      )
                  (     0         -1          0      )
                  (     0          0          1      )

 cart.    s(12) = (  0.5000000 -0.8660254  0.0000000 )
                  ( -0.8660254 -0.5000000  0.0000000 )
                  (  0.0000000  0.0000000  1.0000000 )


     point group D_3d (-3m) 
     there are  6 classes
     the character table:

       E     2C3   3C2'  i     2S6   3s_d 
A_1g   1.00  1.00  1.00  1.00  1.00  1.00
A_2g   1.00  1.00 -1.00  1.00  1.00 -1.00
E_g    2.00 -1.00  0.00  2.00 -1.00  0.00
A_1u   1.00  1.00  1.00 -1.00 -1.00 -1.00
A_2u   1.00  1.00 -1.00 -1.00 -1.00  1.00
E_u    2.00 -1.00  0.00 -2.00  1.00  0.00

     the symmetry operations in each class and the name of the first element:

     E        1
          identity                                               
     2C3      3    4
          120 deg rotation - cryst. axis [0,0,1]                 
     3C2'     2    5    6
          180 deg rotation - cart. axis [1,0,0]                  
     i        7
          inversion                                              
     2S6      9   10
          inv. 120 deg rotation - cryst. axis [0,0,1]            
     3s_d     8   11   12
          inv. 180 deg rotation - cart. axis [1,0,0]             

   Cartesian axes

     site n.     atom                  positions (alat units)
         1           Mo  tau(   1) = (   0.0000000   0.0000000   3.1250000  )
         2           S   tau(   2) = (   0.5000000   0.2886751   3.4375000  )
         3           S   tau(   3) = (   1.0000000   0.5773503   2.8125000  )

   Crystallographic axes

     site n.     atom                  positions (cryst. coord.)
         1           Mo  tau(   1) = (  0.0000000  0.0000000  0.5000000  )
         2           S   tau(   2) = (  0.3333333  0.3333333  0.5500000  )
         3           S   tau(   3) = (  0.6666667  0.6666667  0.4500000  )

     number of k points=     7  Marzari-Vanderbilt smearing, width (Ry)=  0.0001
                       cart. coord. in units 2pi/alat
        k(    1) = (   0.0000000   0.0000000   0.0000000), wk =   0.0555556
        k(    2) = (   0.0000000   0.1924501   0.0000000), wk =   0.3333333
        k(    3) = (   0.0000000   0.3849002   0.0000000), wk =   0.3333333
        k(    4) = (   0.0000000  -0.5773503   0.0000000), wk =   0.1666667
        k(    5) = (   0.1666667   0.2886751   0.0000000), wk =   0.3333333
        k(    6) = (   0.1666667  -0.6735753   0.0000000), wk =   0.6666667
        k(    7) = (   0.3333333  -0.5773503   0.0000000), wk =   0.1111111

                       cryst. coord.
        k(    1) = (   0.0000000   0.0000000   0.0000000), wk =   0.0555556
        k(    2) = (   0.0000000   0.1666667   0.0000000), wk =   0.3333333
        k(    3) = (   0.0000000   0.3333333   0.0000000), wk =   0.3333333
        k(    4) = (   0.0000000  -0.5000000   0.0000000), wk =   0.1666667
        k(    5) = (   0.1666667   0.3333333   0.0000000), wk =   0.3333333
        k(    6) = (   0.1666667  -0.5000000   0.0000000), wk =   0.6666667
        k(    7) = (   0.3333333  -0.3333333   0.0000000), wk =   0.1111111

     Dense  grid:   161851 G-vectors     FFT dimensions: (  40,  40, 243)

     Smooth grid:    40773 G-vectors     FFT dimensions: (  25,  25, 160)

     Dynamical RAM for                 wfc:       0.18 MB

     Dynamical RAM for     wfc (w. buffer):       1.40 MB

     Dynamical RAM for           str. fact:       0.62 MB

     Dynamical RAM for           local pot:       0.00 MB

     Dynamical RAM for          nlocal pot:       0.53 MB

     Dynamical RAM for                qrad:       3.21 MB

     Dynamical RAM for          rho,v,vnew:       2.06 MB

     Dynamical RAM for               rhoin:       0.69 MB

     Dynamical RAM for            rho*nmix:       4.94 MB

     Dynamical RAM for           G-vectors:       1.20 MB

     Dynamical RAM for          h,s,v(r/c):       0.01 MB

     Dynamical RAM for          <psi|beta>:       0.01 MB

     Dynamical RAM for                 psi:       0.35 MB

     Dynamical RAM for                hpsi:       0.35 MB

     Dynamical RAM for                spsi:       0.35 MB

     Dynamical RAM for      wfcinit/wfcrot:       0.36 MB

     Dynamical RAM for           addusdens:      58.06 MB

     Dynamical RAM for          addusforce:      58.84 MB

     Estimated static dynamical RAM per process >      17.46 MB

     Estimated max dynamical RAM per process >      76.30 MB

     Estimated total dynamical RAM >     610.40 MB

     Initial potential from superposition of free atoms

     starting charge   25.99905, renormalised to   26.00000

     negative rho (up, down):  5.889E-05 0.000E+00
     Starting wfcs are   18 randomized atomic wfcs

     total cpu time spent up to now is        1.1 secs

     Self-consistent Calculation

     iteration #  1     ecut=    40.00 Ry     beta= 0.10
     Davidson diagonalization with overlap
     ethr =  1.00E-02,  avg # of iterations =  6.3

     negative rho (up, down):  3.519E-05 0.000E+00

     total cpu time spent up to now is        1.8 secs

     total energy              =    -181.03695727 Ry
     estimated scf accuracy    <       0.32996448 Ry

     iteration #  2     ecut=    40.00 Ry     beta= 0.10
     Davidson diagonalization with overlap
     ethr =  1.27E-03,  avg # of iterations =  1.9

     negative rho (up, down):  1.167E-04 0.000E+00

     total cpu time spent up to now is        2.4 secs

     total energy              =    -181.00448293 Ry
     estimated scf accuracy    <       0.16183846 Ry

     iteration #  3     ecut=    40.00 Ry     beta= 0.10
     Davidson diagonalization with overlap
     ethr =  6.22E-04,  avg # of iterations =  2.1

     negative rho (up, down):  8.465E-05 0.000E+00

     total cpu time spent up to now is        3.0 secs

     total energy              =    -181.01863254 Ry
     estimated scf accuracy    <       0.05004088 Ry

     iteration #  4     ecut=    40.00 Ry     beta= 0.10
     Davidson diagonalization with overlap
     ethr =  1.92E-04,  avg # of iterations =  1.7

     negative rho (up, down):  4.828E-04 0.000E+00

     total cpu time spent up to now is        3.6 secs

     total energy              =    -181.00673110 Ry
     estimated scf accuracy    <       0.05600161 Ry

     iteration #  5     ecut=    40.00 Ry     beta= 0.10
     Davidson diagonalization with overlap
     ethr =  1.92E-04,  avg # of iterations =  9.6

     negative rho (up, down):  4.324E-04 0.000E+00

     total cpu time spent up to now is        4.4 secs

     total energy              =    -181.01815875 Ry
     estimated scf accuracy    <       0.00463180 Ry

     iteration #  6     ecut=    40.00 Ry     beta= 0.10
     Davidson diagonalization with overlap
     ethr =  1.78E-05,  avg # of iterations =  6.1

     negative rho (up, down):  5.085E-04 0.000E+00

     total cpu time spent up to now is        5.1 secs

     total energy              =    -181.01015272 Ry
     estimated scf accuracy    <       0.03988482 Ry

     iteration #  7     ecut=    40.00 Ry     beta= 0.10
     Davidson diagonalization with overlap
     ethr =  1.78E-05,  avg # of iterations =  4.9

     negative rho (up, down):  5.299E-04 0.000E+00

     total cpu time spent up to now is        5.8 secs

     total energy              =    -181.01773761 Ry
     estimated scf accuracy    <       0.00269035 Ry

     iteration #  8     ecut=    40.00 Ry     beta= 0.10
     Davidson diagonalization with overlap
     ethr =  1.03E-05,  avg # of iterations =  1.0

     negative rho (up, down):  4.883E-04 0.000E+00

     total cpu time spent up to now is        6.3 secs

     total energy              =    -181.01726946 Ry
     estimated scf accuracy    <       0.00222114 Ry

     iteration #  9     ecut=    40.00 Ry     beta= 0.10
     Davidson diagonalization with overlap
     ethr =  8.54E-06,  avg # of iterations =  1.3

     negative rho (up, down):  4.481E-04 0.000E+00

     total cpu time spent up to now is        6.9 secs

     total energy              =    -181.01732627 Ry
     estimated scf accuracy    <       0.00043559 Ry

     iteration # 10     ecut=    40.00 Ry     beta= 0.10
     Davidson diagonalization with overlap
     ethr =  1.68E-06,  avg # of iterations =  1.7

     negative rho (up, down):  4.000E-04 0.000E+00

     total cpu time spent up to now is        7.5 secs

     total energy              =    -181.01732863 Ry
     estimated scf accuracy    <       0.00014001 Ry

     iteration # 11     ecut=    40.00 Ry     beta= 0.10
     Davidson diagonalization with overlap
     ethr =  5.38E-07,  avg # of iterations =  1.6

     negative rho (up, down):  3.566E-04 0.000E+00

     total cpu time spent up to now is        8.1 secs

     total energy              =    -181.01733535 Ry
     estimated scf accuracy    <       0.00004829 Ry

     iteration # 12     ecut=    40.00 Ry     beta= 0.10
     Davidson diagonalization with overlap
     ethr =  1.86E-07,  avg # of iterations =  1.1

     negative rho (up, down):  3.169E-04 0.000E+00

     total cpu time spent up to now is        8.7 secs

     total energy              =    -181.01732662 Ry
     estimated scf accuracy    <       0.00004419 Ry

     iteration # 13     ecut=    40.00 Ry     beta= 0.10
     Davidson diagonalization with overlap
     ethr =  1.70E-07,  avg # of iterations =  2.6

     negative rho (up, down):  2.807E-04 0.000E+00

     total cpu time spent up to now is        9.3 secs

     total energy              =    -181.01733468 Ry
     estimated scf accuracy    <       0.00000743 Ry

     iteration # 14     ecut=    40.00 Ry     beta= 0.10
     Davidson diagonalization with overlap
     ethr =  2.86E-08,  avg # of iterations =  2.6

     negative rho (up, down):  2.547E-04 0.000E+00

     total cpu time spent up to now is        9.9 secs

     total energy              =    -181.01732358 Ry
     estimated scf accuracy    <       0.00003712 Ry

     iteration # 15     ecut=    40.00 Ry     beta= 0.10
     Davidson diagonalization with overlap
     ethr =  2.86E-08,  avg # of iterations =  2.7

     negative rho (up, down):  2.294E-04 0.000E+00

     total cpu time spent up to now is       10.5 secs

     total energy              =    -181.01735014 Ry
     estimated scf accuracy    <       0.00001657 Ry

     iteration # 16     ecut=    40.00 Ry     beta= 0.10
     Davidson diagonalization with overlap
     ethr =  2.86E-08,  avg # of iterations =  3.0

     negative rho (up, down):  2.069E-04 0.000E+00

     total cpu time spent up to now is       11.2 secs

     total energy              =    -181.01731935 Ry
     estimated scf accuracy    <       0.00012773 Ry

     iteration # 17     ecut=    40.00 Ry     beta= 0.10
     Davidson diagonalization with overlap
     ethr =  2.86E-08,  avg # of iterations =  2.7

     negative rho (up, down):  1.865E-04 0.000E+00

     total cpu time spent up to now is       11.9 secs

     total energy              =    -181.01733174 Ry
     estimated scf accuracy    <       0.00000460 Ry

     iteration # 18     ecut=    40.00 Ry     beta= 0.10
     Davidson diagonalization with overlap
     ethr =  1.77E-08,  avg # of iterations =  1.1

     negative rho (up, down):  1.677E-04 0.000E+00

     total cpu time spent up to now is       12.5 secs

     total energy              =    -181.01733221 Ry
     estimated scf accuracy    <       0.00000445 Ry

     iteration # 19     ecut=    40.00 Ry     beta= 0.10
     Davidson diagonalization with overlap
     ethr =  1.71E-08,  avg # of iterations =  1.1

     negative rho (up, down):  1.509E-04 0.000E+00

     total cpu time spent up to now is       13.1 secs

     total energy              =    -181.01733051 Ry
     estimated scf accuracy    <       0.00000614 Ry

     iteration # 20     ecut=    40.00 Ry     beta= 0.10
     Davidson diagonalization with overlap
     ethr =  1.71E-08,  avg # of iterations =  2.0

     negative rho (up, down):  5.034E-05 0.000E+00

     total cpu time spent up to now is       13.8 secs

     End of self-consistent calculation

          k = 0.0000 0.0000 0.0000 (  5021 PWs)   bands (ev):

   -61.2712 -35.7906 -35.7906 -35.4445 -17.0137 -12.8828  -8.0614  -8.0614
    -7.4539  -2.3456  -2.1031  -2.1031  -0.7119  -0.7119   1.9897   3.8132
     4.3438   5.0181

     occupation numbers 
     1.0000   1.0000   1.0000   1.0000   1.0000   1.0000   1.0000   1.0000
     1.0000   1.0000   1.0000   1.0000   1.0000   1.0000   0.0000   0.0000
     0.0000   0.0000

          k = 0.0000 0.1925 0.0000 (  5093 PWs)   bands (ev):

   -61.2576 -35.9503 -35.8245 -35.4160 -16.3858 -13.3713  -8.0230  -7.5668
    -6.9714  -3.8874  -3.1966  -1.2969  -0.3955   0.5895   2.2120   4.0131
     4.6930   4.8607

     occupation numbers 
     1.0000   1.0000   1.0000   1.0000   1.0000   1.0000   1.0000   1.0000
     1.0000   1.0000   1.0000   1.0000   1.0000   0.0000   0.0000   0.0000
     0.0000   0.0000

          k = 0.0000 0.3849 0.0000 (  5126 PWs)   bands (ev):

   -61.2304 -36.2563 -35.8916 -35.3584 -15.1957 -13.8579  -8.1719  -6.6187
    -5.9421  -5.2631  -3.6644  -1.7148  -0.1189   0.7441   1.5932   4.4801
     5.6353   5.7654

     occupation numbers 
     1.0000   1.0000   1.0000   1.0000   1.0000   1.0000   1.0000   1.0000
     1.0000   1.0000   1.0000   1.0000   0.3333   0.0000   0.0000   0.0000
     0.0000   0.0000

          k = 0.0000-0.5774 0.0000 (  5128 PWs)   bands (ev):

   -61.2166 -36.4032 -35.9247 -35.3292 -15.1035 -13.2383  -8.9166  -6.3376
    -5.3405  -4.8679  -3.0328  -2.4969  -0.3877  -0.2157   0.4910   5.9687
     6.3929   6.5365

     occupation numbers 
     1.0000   1.0000   1.0000   1.0000   1.0000   1.0000   1.0000   1.0000
     1.0000   1.0000   1.0000   1.0000   1.0000   1.0000   0.0000   0.0000
     0.0000   0.0000

          k = 0.1667 0.2887 0.0000 (  5102 PWs)   bands (ev):

   -61.2372 -36.1513 -35.9066 -35.3729 -15.3519 -13.9550  -7.8656  -6.9647
    -6.2990  -4.8210  -4.2117  -0.9050  -0.3052   1.2101   1.7702   3.6587
     4.5284   5.8294

     occupation numbers 
     1.0000   1.0000   1.0000   1.0000   1.0000   1.0000   1.0000   1.0000
     1.0000   1.0000   1.0000   1.0000   1.0000   0.0000   0.0000   0.0000
     0.0000   0.0000

          k = 0.1667-0.6736 0.0000 (  5131 PWs)   bands (ev):

   -61.2166 -36.3249 -36.0089 -35.3295 -14.6889 -13.7697  -8.2018  -6.9661
    -5.3357  -4.7720  -4.0453  -2.2212  -0.3974   0.0991   1.4786   4.3660
     6.0573   6.7858

     occupation numbers 
     1.0000   1.0000   1.0000   1.0000   1.0000   1.0000   1.0000   1.0000
     1.0000   1.0000   1.0000   1.0000   1.0000   0.0000   0.0000   0.0000
     0.0000   0.0000

          k = 0.3333-0.5774 0.0000 (  5172 PWs)   bands (ev):

   -61.2098 -36.2147 -36.2147 -35.3153 -14.0689 -14.0689  -7.4045  -7.4045
    -6.2208  -4.0342  -4.0342  -2.7428  -1.5221   1.5261   1.5261   4.3915
     4.3915   8.5314

     occupation numbers 
     1.0000   1.0000   1.0000   1.0000   1.0000   1.0000   1.0000   1.0000
     1.0000   1.0000   1.0000   1.0000   1.0000   0.0000   0.0000   0.0000
     0.0000   0.0000

     the Fermi energy is    -0.1190 ev

!    total energy              =    -181.01733069 Ry
     estimated scf accuracy    <       0.00000048 Ry
     smearing contrib. (-TS)   =      -0.00000559 Ry
     internal energy E=F+TS    =    -181.01732510 Ry

     The total energy is F=E-TS. E is the sum of the following terms:
     one-electron contribution =   -1251.37454906 Ry
     hartree contribution      =     626.12281633 Ry
     xc contribution           =     -30.68381259 Ry
     ewald contribution        =     474.91822022 Ry

     convergence has been achieved in  20 iterations

     negative rho (up, down):  5.034E-05 0.000E+00

     Forces acting on atoms (cartesian axes, Ry/au):

     atom    1 type  1   force =     0.00000000    0.00000000    0.00000000
     atom    2 type  2   force =     0.00000000    0.00000000    0.44883551
     atom    3 type  2   force =     0.00000000    0.00000000   -0.44883551
     The non-local contrib.  to forces
     atom    1 type  1   force =     0.00000000    0.00000000    0.00000000
     atom    2 type  2   force =     0.00000000   -0.00000000    0.09598772
     atom    3 type  2   force =     0.00000000    0.00000000   -0.09598772
     The ionic contribution  to forces
     atom    1 type  1   force =    -0.00000003   -0.00000002   -0.00000000
     atom    2 type  2   force =     0.00000001    0.00000001   33.23930703
     atom    3 type  2   force =     0.00000002    0.00000001  -33.23930703
     The local contribution  to forces
     atom    1 type  1   force =    -0.00000000   -0.00000000    0.00000000
     atom    2 type  2   force =     0.00000001    0.00000000  -32.87538330
     atom    3 type  2   force =     0.00000001    0.00000001   32.87538330
     The core correction contribution to forces
     atom    1 type  1   force =    -0.00000000   -0.00000000   -0.00000000
     atom    2 type  2   force =    -0.00000000   -0.00000000   -0.00976113
     atom    3 type  2   force =    -0.00000000   -0.00000000    0.00976113
     The Hubbard contrib.    to forces
     atom    1 type  1   force =     0.00000000    0.00000000    0.00000000
     atom    2 type  2   force =     0.00000000    0.00000000    0.00000000
     atom    3 type  2   force =     0.00000000    0.00000000    0.00000000
     The SCF correction term to forces
     atom    1 type  1   force =    -0.00000000   -0.00000000   -0.00000000
     atom    2 type  2   force =     0.00000000    0.00000000   -0.00131481
     atom    3 type  2   force =     0.00000000    0.00000000    0.00131481

     Total force =     0.634749     Total SCF correction =     0.001859

     BFGS Geometry Optimization
     Energy error            =      0.0E+00
     Gradient error          =      4.5E-01

     number of scf cycles    =   1
     number of bfgs steps    =   0

     energy   new            =    -181.0173306910 Ry

     new trust radius        =       0.4488355107 bohr
     new conv_thr            =       0.0000010000 Ry


ATOMIC_POSITIONS (crystal)
Mo            0.0000000000        0.0000000000        0.5000000000    0   0   0
S             0.3333333330        0.3333333330        0.5618756762    0   0   1
S             0.6666666660        0.6666666660        0.4381243238    0   0   1



     Writing output data file ./outdir/MoS2.save/
     NEW-OLD atomic charge density approx. for the potential

     negative rho (up, down):  5.071E-05 0.000E+00

     total cpu time spent up to now is       15.1 secs

     Self-consistent Calculation

     iteration #  1     ecut=    40.00 Ry     beta= 0.10
     Davidson diagonalization with overlap
     ethr =  1.00E-06,  avg # of iterations = 11.9

     negative rho (up, down):  4.948E-05 0.000E+00

     total cpu time spent up to now is       16.4 secs

     total energy              =    -181.35571580 Ry
     estimated scf accuracy    <       0.11745768 Ry

     iteration #  2     ecut=    40.00 Ry     beta= 0.10
     Davidson diagonalization with overlap
     ethr =  4.52E-04,  avg # of iterations =  1.0

     negative rho (up, down):  5.125E-05 0.000E+00

     total cpu time spent up to now is       17.0 secs

     total energy              =    -181.35030147 Ry
     estimated scf accuracy    <       0.03243540 Ry

     iteration #  3     ecut=    40.00 Ry     beta= 0.10
     Davidson diagonalization with overlap
     ethr =  1.25E-04,  avg # of iterations =  2.0

     negative rho (up, down):  6.295E-05 0.000E+00

     total cpu time spent up to now is       17.6 secs

     total energy              =    -181.35494159 Ry
     estimated scf accuracy    <       0.00295879 Ry

     iteration #  4     ecut=    40.00 Ry     beta= 0.10
     Davidson diagonalization with overlap
     ethr =  1.14E-05,  avg # of iterations =  3.1

     negative rho (up, down):  1.168E-04 0.000E+00

     total cpu time spent up to now is       18.2 secs

     total energy              =    -181.35499225 Ry
     estimated scf accuracy    <       0.00134084 Ry

     iteration #  5     ecut=    40.00 Ry     beta= 0.10
     Davidson diagonalization with overlap
     ethr =  5.16E-06,  avg # of iterations =  2.3

     negative rho (up, down):  1.075E-04 0.000E+00

     total cpu time spent up to now is       18.8 secs

     total energy              =    -181.35502450 Ry
     estimated scf accuracy    <       0.00013499 Ry

     iteration #  6     ecut=    40.00 Ry     beta= 0.10
     Davidson diagonalization with overlap
     ethr =  5.19E-07,  avg # of iterations =  2.6

     negative rho (up, down):  1.070E-04 0.000E+00

     total cpu time spent up to now is       19.4 secs

     total energy              =    -181.35504241 Ry
     estimated scf accuracy    <       0.00007519 Ry

     iteration #  7     ecut=    40.00 Ry     beta= 0.10
     Davidson diagonalization with overlap
     ethr =  2.89E-07,  avg # of iterations =  2.0

     negative rho (up, down):  9.761E-05 0.000E+00

     total cpu time spent up to now is       20.0 secs

     total energy              =    -181.35504836 Ry
     estimated scf accuracy    <       0.00001152 Ry

     iteration #  8     ecut=    40.00 Ry     beta= 0.10
     Davidson diagonalization with overlap
     ethr =  4.43E-08,  avg # of iterations =  1.7

     negative rho (up, down):  9.067E-05 0.000E+00

     total cpu time spent up to now is       20.5 secs

     total energy              =    -181.35504799 Ry
     estimated scf accuracy    <       0.00000334 Ry

     iteration #  9     ecut=    40.00 Ry     beta= 0.10
     Davidson diagonalization with overlap
     ethr =  1.29E-08,  avg # of iterations =  2.3

     negative rho (up, down):  4.347E-05 0.000E+00

     total cpu time spent up to now is       21.2 secs

     End of self-consistent calculation

          k = 0.0000 0.0000 0.0000 (  5021 PWs)   bands (ev):

   -61.8372 -36.0733 -36.0733 -35.9548 -16.0622 -13.5602  -7.2561  -6.3913
    -6.3913  -2.6503  -1.8525  -1.8525  -0.8975  -0.8975   0.4508   4.1902
     4.4123   5.1447

     occupation numbers 
     1.0000   1.0000   1.0000   1.0000   1.0000   1.0000   1.0000   1.0000
     1.0000   1.0000   1.0000   1.0000   1.0000   1.0000   0.0000   0.0000
     0.0000   0.0000

          k = 0.0000 0.1925 0.0000 (  5093 PWs)   bands (ev):

   -61.8264 -36.1926 -36.0993 -35.9306 -15.5512 -13.6991  -6.9046  -6.6460
    -6.0567  -3.7805  -2.9068  -1.8460  -0.8896   0.3086   0.9895   3.2298
     4.9395   4.9554

     occupation numbers 
     1.0000   1.0000   1.0000   1.0000   1.0000   1.0000   1.0000   1.0000
     1.0000   1.0000   1.0000   1.0000   1.0000   0.0000   0.0000   0.0000
     0.0000   0.0000

          k = 0.0000 0.3849 0.0000 (  5126 PWs)   bands (ev):

   -61.8047 -36.4241 -36.1510 -35.8819 -14.5772 -13.7435  -7.2946  -5.8830
    -5.6847  -5.3667  -3.0956  -2.3832  -1.2409   0.5908   1.3361   4.0219
     4.4698   5.9277

     occupation numbers 
     1.0000   1.0000   1.0000   1.0000   1.0000   1.0000   1.0000   1.0000
     1.0000   1.0000   1.0000   1.0000   1.0000   0.0000   0.0000   0.0000
     0.0000   0.0000

          k = 0.0000-0.5774 0.0000 (  5128 PWs)   bands (ev):

   -61.7938 -36.5365 -36.1767 -35.8573 -14.5001 -13.1328  -8.1464  -5.7265
    -5.4322  -5.2535  -2.9619  -2.5427  -1.4137   0.1845   1.1553   4.8748
     5.3288   5.3996

     occupation numbers 
     1.0000   1.0000   1.0000   1.0000   1.0000   1.0000   1.0000   1.0000
     1.0000   1.0000   1.0000   1.0000   1.0000   0.0000   0.0000   0.0000
     0.0000   0.0000

          k = 0.1667 0.2887 0.0000 (  5102 PWs)   bands (ev):

   -61.8101 -36.3444 -36.1617 -35.8941 -14.7065 -13.8898  -6.9619  -6.1444
    -5.8588  -4.5525  -4.2587  -1.7450  -0.7035   0.4627   1.3714   2.9261
     4.0678   5.8945

     occupation numbers 
     1.0000   1.0000   1.0000   1.0000   1.0000   1.0000   1.0000   1.0000
     1.0000   1.0000   1.0000   1.0000   1.0000   0.0000   0.0000   0.0000
     0.0000   0.0000

          k = 0.1667-0.6736 0.0000 (  5131 PWs)   bands (ev):

   -61.7938 -36.4770 -36.2393 -35.8575 -14.2040 -13.5156  -7.4538  -6.5247
    -5.1678  -4.7456  -4.1083  -2.8893  -0.5320   0.4758   0.9830   3.3480
     5.2185   6.6304

     occupation numbers 
     1.0000   1.0000   1.0000   1.0000   1.0000   1.0000   1.0000   1.0000
     1.0000   1.0000   1.0000   1.0000   0.9167   0.0000   0.0000   0.0000
     0.0000   0.0000

          k = 0.3333-0.5774 0.0000 (  5172 PWs)   bands (ev):

   -61.7884 -36.3941 -36.3941 -35.8456 -13.7131 -13.7131  -6.8052  -6.8052
    -5.9629  -4.2170  -4.2170  -3.5278  -0.7268   1.0138   1.0138   3.6995
     3.6995   8.4729

     occupation numbers 
     1.0000   1.0000   1.0000   1.0000   1.0000   1.0000   1.0000   1.0000
     1.0000   1.0000   1.0000   1.0000   1.0000   0.0000   0.0000   0.0000
     0.0000   0.0000

     the Fermi energy is    -0.5310 ev

!    total energy              =    -181.35504851 Ry
     estimated scf accuracy    <       0.00000069 Ry
     smearing contrib. (-TS)   =       0.00000085 Ry
     internal energy E=F+TS    =    -181.35504936 Ry

     The total energy is F=E-TS. E is the sum of the following terms:
     one-electron contribution =   -1191.06360486 Ry
     hartree contribution      =     595.66674011 Ry
     xc contribution           =     -30.20312655 Ry
     ewald contribution        =     444.24494193 Ry

     convergence has been achieved in   9 iterations

     negative rho (up, down):  4.347E-05 0.000E+00

     Forces acting on atoms (cartesian axes, Ry/au):

     atom    1 type  1   force =    -0.00000000    0.00000000    0.00000000
     atom    2 type  2   force =     0.00000000   -0.00000000    0.26183829
     atom    3 type  2   force =     0.00000000    0.00000000   -0.26183829
     The non-local contrib.  to forces
     atom    1 type  1   force =     0.00000000   -0.00000000    0.00000000
     atom    2 type  2   force =     0.00000000    0.00000000   -0.10325016
     atom    3 type  2   force =     0.00000000    0.00000000    0.10325016
     The ionic contribution  to forces
     atom    1 type  1   force =    -0.00000002   -0.00000001   -0.00000000
     atom    2 type  2   force =     0.00000001    0.00000000   34.87092048
     atom    3 type  2   force =     0.00000002    0.00000001  -34.87092048
     The local contribution  to forces
     atom    1 type  1   force =    -0.00000000   -0.00000000    0.00000000
     atom    2 type  2   force =     0.00000001    0.00000000  -34.50236016
     atom    3 type  2   force =     0.00000002    0.00000001   34.50236016
     The core correction contribution to forces
     atom    1 type  1   force =    -0.00000000   -0.00000000   -0.00000000
     atom    2 type  2   force =    -0.00000000   -0.00000000   -0.00370801
     atom    3 type  2   force =    -0.00000000   -0.00000000    0.00370801
     The Hubbard contrib.    to forces
     atom    1 type  1   force =     0.00000000    0.00000000    0.00000000
     atom    2 type  2   force =     0.00000000    0.00000000    0.00000000
     atom    3 type  2   force =     0.00000000    0.00000000    0.00000000
     The SCF correction term to forces
     atom    1 type  1   force =    -0.00000000   -0.00000000    0.00000000
     atom    2 type  2   force =    -0.00000000   -0.00000000    0.00023614
     atom    3 type  2   force =    -0.00000000   -0.00000000   -0.00023614

     Total force =     0.370295     Total SCF correction =     0.000334
     Energy error            =      3.4E-01
     Gradient error          =      2.6E-01

     number of scf cycles    =   2
     number of bfgs steps    =   1

     energy   old            =    -181.0173306910 Ry
     energy   new            =    -181.3550485087 Ry

     CASE: energy  _new < energy  _old

     new trust radius        =       0.4937190618 bohr
     new conv_thr            =       0.0000010000 Ry


ATOMIC_POSITIONS (crystal)
Mo            0.0000000000        0.0000000000        0.5000000000    0   0   0
S             0.3333333330        0.3333333330        0.5749389200    0   0   1
S             0.6666666660        0.6666666660        0.4250610800    0   0   1



     Writing output data file ./outdir/MoS2.save/
     NEW-OLD atomic charge density approx. for the potential

     negative rho (up, down):  5.010E-05 0.000E+00

     total cpu time spent up to now is       22.4 secs

     Self-consistent Calculation

     iteration #  1     ecut=    40.00 Ry     beta= 0.10
     Davidson diagonalization with overlap
     ethr =  1.00E-06,  avg # of iterations = 15.4

     negative rho (up, down):  4.845E-05 0.000E+00

     total cpu time spent up to now is       23.7 secs

     total energy              =    -181.50510267 Ry
     estimated scf accuracy    <       0.04796968 Ry

     iteration #  2     ecut=    40.00 Ry     beta= 0.10
     Davidson diagonalization with overlap
     ethr =  1.84E-04,  avg # of iterations =  1.0

     negative rho (up, down):  4.772E-05 0.000E+00

     total cpu time spent up to now is       24.3 secs

     total energy              =    -181.50543257 Ry
     estimated scf accuracy    <       0.00980047 Ry

     iteration #  3     ecut=    40.00 Ry     beta= 0.10
     Davidson diagonalization with overlap
     ethr =  3.77E-05,  avg # of iterations =  2.9

     negative rho (up, down):  7.530E-05 0.000E+00

     total cpu time spent up to now is       25.0 secs

     total energy              =    -181.50609488 Ry
     estimated scf accuracy    <       0.00260951 Ry

     iteration #  4     ecut=    40.00 Ry     beta= 0.10
     Davidson diagonalization with overlap
     ethr =  1.00E-05,  avg # of iterations =  1.9

     negative rho (up, down):  8.034E-05 0.000E+00

     total cpu time spent up to now is       25.5 secs

     total energy              =    -181.50619017 Ry
     estimated scf accuracy    <       0.00139498 Ry

     iteration #  5     ecut=    40.00 Ry     beta= 0.10
     Davidson diagonalization with overlap
     ethr =  5.37E-06,  avg # of iterations =  2.3

     negative rho (up, down):  8.378E-05 0.000E+00

     total cpu time spent up to now is       26.1 secs

     total energy              =    -181.50631462 Ry
     estimated scf accuracy    <       0.00012267 Ry

     iteration #  6     ecut=    40.00 Ry     beta= 0.10
     Davidson diagonalization with overlap
     ethr =  4.72E-07,  avg # of iterations =  3.7

     negative rho (up, down):  7.958E-05 0.000E+00

     total cpu time spent up to now is       26.8 secs

     total energy              =    -181.50632081 Ry
     estimated scf accuracy    <       0.00010527 Ry

     iteration #  7     ecut=    40.00 Ry     beta= 0.10
     Davidson diagonalization with overlap
     ethr =  4.05E-07,  avg # of iterations =  1.6

     negative rho (up, down):  7.549E-05 0.000E+00

     total cpu time spent up to now is       27.5 secs

     total energy              =    -181.50633692 Ry
     estimated scf accuracy    <       0.00001093 Ry

     iteration #  8     ecut=    40.00 Ry     beta= 0.10
     Davidson diagonalization with overlap
     ethr =  4.20E-08,  avg # of iterations =  2.0

     negative rho (up, down):  6.985E-05 0.000E+00

     total cpu time spent up to now is       28.1 secs

     total energy              =    -181.50633780 Ry
     estimated scf accuracy    <       0.00000243 Ry

     iteration #  9     ecut=    40.00 Ry     beta= 0.10
     Davidson diagonalization with overlap
     ethr =  9.35E-09,  avg # of iterations =  1.0

     negative rho (up, down):  3.773E-05 0.000E+00

     total cpu time spent up to now is       28.7 secs

     End of self-consistent calculation

          k = 0.0000 0.0000 0.0000 (  5021 PWs)   bands (ev):

   -61.9971 -36.0620 -36.0347 -36.0347 -15.1821 -13.8021  -6.6784  -4.5580
    -4.5580  -2.9988  -1.2779  -1.2779  -0.7628  -0.5661  -0.5661   3.3385
     3.3385   4.3792

     occupation numbers 
     1.0000   1.0000   1.0000   1.0000   1.0000   1.0000   1.0000   1.0000
     1.0000   1.0000   1.0000   1.0000   1.0000   1.0000   1.0000   0.0000
     0.0000   0.0000

          k = 0.0000 0.1925 0.0000 (  5093 PWs)   bands (ev):

   -61.9881 -36.1282 -36.0560 -36.0431 -14.7558 -13.7203  -6.1715  -5.4054
    -4.3521  -3.2787  -2.2820  -2.1953  -1.1495   0.2512   0.3489   2.4119
     3.1610   4.9379

     occupation numbers 
     1.0000   1.0000   1.0000   1.0000   1.0000   1.0000   1.0000   1.0000
     1.0000   1.0000   1.0000   1.0000   1.0000   0.0000   0.0000   0.0000
     0.0000   0.0000

          k = 0.0000 0.3849 0.0000 (  5126 PWs)   bands (ev):

   -61.9700 -36.3109 -36.0981 -36.0052 -13.8796 -13.4056  -6.2645  -5.6364
    -4.8451  -4.3906  -2.8353  -2.2657  -1.8340   0.6522   0.9459   3.2898
     3.3599   6.1216

     occupation numbers 
     1.0000   1.0000   1.0000   1.0000   1.0000   1.0000   1.0000   1.0000
     1.0000   1.0000   1.0000   1.0000   1.0000   0.0000   0.0000   0.0000
     0.0000   0.0000

          k = 0.0000-0.5774 0.0000 (  5128 PWs)   bands (ev):

   -61.9609 -36.4003 -36.1191 -35.9861 -13.6836 -12.8263  -7.2761  -5.3771
    -5.0857  -4.5826  -3.0194  -2.1076  -1.9619   0.7044   1.5762   3.5369
     4.3679   4.9425

     occupation numbers 
     1.0000   1.0000   1.0000   1.0000   1.0000   1.0000   1.0000   1.0000
     1.0000   1.0000   1.0000   1.0000   1.0000   0.0000   0.0000   0.0000
     0.0000   0.0000

          k = 0.1667 0.2887 0.0000 (  5102 PWs)   bands (ev):

   -61.9745 -36.2480 -36.1059 -36.0146 -14.0372 -13.5816  -5.8780  -5.3440
    -5.0913  -3.8372  -3.7445  -2.2148  -0.8816   0.0058   1.0599   2.3009
     3.3333   5.9218

     occupation numbers 
     1.0000   1.0000   1.0000   1.0000   1.0000   1.0000   1.0000   1.0000
     1.0000   1.0000   1.0000   1.0000   1.0000   0.0000   0.0000   0.0000
     0.0000   0.0000

          k = 0.1667-0.6736 0.0000 (  5131 PWs)   bands (ev):

   -61.9609 -36.3535 -36.1677 -35.9862 -13.5006 -13.0625  -6.6190  -5.8109
    -4.7700  -4.3761  -3.8542  -3.1186  -0.7012   0.4738   1.2986   2.4984
     4.1981   6.4557

     occupation numbers 
     1.0000   1.0000   1.0000   1.0000   1.0000   1.0000   1.0000   1.0000
     1.0000   1.0000   1.0000   1.0000   1.0000   0.0000   0.0000   0.0000
     0.0000   0.0000

          k = 0.3333-0.5774 0.0000 (  5172 PWs)   bands (ev):

   -61.9564 -36.2890 -36.2890 -35.9768 -13.0955 -13.0955  -5.9890  -5.9890
    -5.6502  -4.1106  -4.1106  -3.8394   0.3395   0.4717   0.4717   3.1871
     3.1871   6.7674

     occupation numbers 
     1.0000   1.0000   1.0000   1.0000   1.0000   1.0000   1.0000   1.0000
     1.0000   1.0000   1.0000   1.0000   0.0000   0.0000   0.0000   0.0000
     0.0000   0.0000

     the Fermi energy is    -0.2144 ev

!    total energy              =    -181.50633748 Ry
     estimated scf accuracy    <       0.00000065 Ry
     smearing contrib. (-TS)   =       0.00000000 Ry
     internal energy E=F+TS    =    -181.50633748 Ry

     The total energy is F=E-TS. E is the sum of the following terms:
     one-electron contribution =   -1122.66542093 Ry
     hartree contribution      =     561.44524464 Ry
     xc contribution           =     -29.76044820 Ry
     ewald contribution        =     409.47428701 Ry

     convergence has been achieved in   9 iterations

     negative rho (up, down):  3.773E-05 0.000E+00

     Forces acting on atoms (cartesian axes, Ry/au):

     atom    1 type  1   force =    -0.00000000    0.00000000    0.00000000
     atom    2 type  2   force =    -0.00000000   -0.00000000    0.05281601
     atom    3 type  2   force =     0.00000000    0.00000000   -0.05281601
     The non-local contrib.  to forces
     atom    1 type  1   force =     0.00000000    0.00000000    0.00000000
     atom    2 type  2   force =     0.00000000   -0.00000000   -0.24700401
     atom    3 type  2   force =     0.00000000    0.00000000    0.24700401
     The ionic contribution  to forces
     atom    1 type  1   force =    -0.00000001   -0.00000001    0.00000000
     atom    2 type  2   force =     0.00000000    0.00000000   35.37546970
     atom    3 type  2   force =     0.00000001    0.00000001  -35.37546970
     The local contribution  to forces
     atom    1 type  1   force =    -0.00000000   -0.00000000    0.00000000
     atom    2 type  2   force =     0.00000001    0.00000001  -35.07588084
     atom    3 type  2   force =     0.00000002    0.00000001   35.07588084
     The core correction contribution to forces
     atom    1 type  1   force =    -0.00000000   -0.00000000   -0.00000000
     atom    2 type  2   force =    -0.00000000   -0.00000000    0.00150722
     atom    3 type  2   force =    -0.00000000   -0.00000000   -0.00150722
     The Hubbard contrib.    to forces
     atom    1 type  1   force =     0.00000000    0.00000000    0.00000000
     atom    2 type  2   force =     0.00000000    0.00000000    0.00000000
     atom    3 type  2   force =     0.00000000    0.00000000    0.00000000
     The SCF correction term to forces
     atom    1 type  1   force =    -0.00000000   -0.00000000    0.00000000
     atom    2 type  2   force =    -0.00000000   -0.00000000   -0.00127605
     atom    3 type  2   force =    -0.00000000   -0.00000000    0.00127605

     Total force =     0.074693     Total SCF correction =     0.001805
     Energy error            =      1.5E-01
     Gradient error          =      5.3E-02

     number of scf cycles    =   3
     number of bfgs steps    =   2

     energy   old            =    -181.3550485087 Ry
     energy   new            =    -181.5063374817 Ry

     CASE: energy  _new < energy  _old

     new trust radius        =       0.1247535462 bohr
     new conv_thr            =       0.0000005282 Ry


ATOMIC_POSITIONS (crystal)
Mo            0.0000000000        0.0000000000        0.5000000000    0   0   0
S             0.3333333330        0.3333333330        0.5782397567    0   0   1
S             0.6666666660        0.6666666660        0.4217602433    0   0   1



     Writing output data file ./outdir/MoS2.save/
     NEW-OLD atomic charge density approx. for the potential

     negative rho (up, down):  4.957E-05 0.000E+00

     total cpu time spent up to now is       29.9 secs

     Self-consistent Calculation

     iteration #  1     ecut=    40.00 Ry     beta= 0.10
     Davidson diagonalization with overlap
     ethr =  1.00E-06,  avg # of iterations = 11.3

     negative rho (up, down):  4.823E-05 0.000E+00

     total cpu time spent up to now is       30.9 secs

     total energy              =    -181.51380857 Ry
     estimated scf accuracy    <       0.00157513 Ry

     iteration #  2     ecut=    40.00 Ry     beta= 0.10
     Davidson diagonalization with overlap
     ethr =  6.06E-06,  avg # of iterations =  1.0

     negative rho (up, down):  4.736E-05 0.000E+00

     total cpu time spent up to now is       31.4 secs

     total energy              =    -181.51383734 Ry
     estimated scf accuracy    <       0.00038009 Ry

     iteration #  3     ecut=    40.00 Ry     beta= 0.10
     Davidson diagonalization with overlap
     ethr =  1.46E-06,  avg # of iterations =  1.4

     negative rho (up, down):  7.705E-05 0.000E+00

     total cpu time spent up to now is       32.0 secs

     total energy              =    -181.51383868 Ry
     estimated scf accuracy    <       0.00017708 Ry

     iteration #  4     ecut=    40.00 Ry     beta= 0.10
     Davidson diagonalization with overlap
     ethr =  6.81E-07,  avg # of iterations =  2.0

     negative rho (up, down):  7.142E-05 0.000E+00

     total cpu time spent up to now is       32.6 secs

     total energy              =    -181.51385229 Ry
     estimated scf accuracy    <       0.00002370 Ry

     iteration #  5     ecut=    40.00 Ry     beta= 0.10
     Davidson diagonalization with overlap
     ethr =  9.12E-08,  avg # of iterations =  1.6

     negative rho (up, down):  7.335E-05 0.000E+00

     total cpu time spent up to now is       33.2 secs

     total energy              =    -181.51385473 Ry
     estimated scf accuracy    <       0.00000534 Ry

     iteration #  6     ecut=    40.00 Ry     beta= 0.10
     Davidson diagonalization with overlap
     ethr =  2.05E-08,  avg # of iterations =  2.0

     negative rho (up, down):  6.984E-05 0.000E+00

     total cpu time spent up to now is       33.8 secs

     total energy              =    -181.51385488 Ry
     estimated scf accuracy    <       0.00000270 Ry

     iteration #  7     ecut=    40.00 Ry     beta= 0.10
     Davidson diagonalization with overlap
     ethr =  1.04E-08,  avg # of iterations =  1.4

     negative rho (up, down):  3.769E-05 0.000E+00

     total cpu time spent up to now is       34.4 secs

     End of self-consistent calculation

          k = 0.0000 0.0000 0.0000 (  5021 PWs)   bands (ev):

   -62.0181 -36.0634 -36.0224 -36.0224 -14.9814 -13.7998  -6.5221  -4.1344
    -4.1344  -3.0694  -1.1365  -1.1365  -0.9964  -0.4390  -0.4390   3.0608
     3.0608   4.3544

     occupation numbers 
     1.0000   1.0000   1.0000   1.0000   1.0000   1.0000   1.0000   1.0000
     1.0000   1.0000   1.0000   1.0000   1.0000   1.0000   1.0000   0.0000
     0.0000   0.0000

          k = 0.0000 0.1925 0.0000 (  5093 PWs)   bands (ev):

   -62.0094 -36.1114 -36.0458 -36.0428 -14.5701 -13.6801  -6.0102  -5.0898
    -3.9487  -3.1370  -2.3320  -1.9990  -1.2189   0.1466   0.3731   2.2226
     2.9289   4.9231

     occupation numbers 
     1.0000   1.0000   1.0000   1.0000   1.0000   1.0000   1.0000   1.0000
     1.0000   1.0000   1.0000   1.0000   1.0000   0.0000   0.0000   0.0000
     0.0000   0.0000

          k = 0.0000 0.3849 0.0000 (  5126 PWs)   bands (ev):

   -61.9919 -36.2857 -36.0834 -36.0104 -13.7048 -13.2975  -6.0169  -5.5127
    -4.7030  -4.0562  -2.9105  -2.0539  -1.9111   0.6711   0.8398   3.0709
     3.1097   6.1208

     occupation numbers 
     1.0000   1.0000   1.0000   1.0000   1.0000   1.0000   1.0000   1.0000
     1.0000   1.0000   1.0000   1.0000   1.0000   0.0000   0.0000   0.0000
     0.0000   0.0000

          k = 0.0000-0.5774 0.0000 (  5128 PWs)   bands (ev):

   -61.9831 -36.3710 -36.1035 -35.9927 -13.4716 -12.7258  -7.0622  -5.3262
    -4.9957  -4.2683  -2.9960  -2.2045  -1.8072   0.8074   1.5695   3.2471
     4.1058   4.8628

     occupation numbers 
     1.0000   1.0000   1.0000   1.0000   1.0000   1.0000   1.0000   1.0000
     1.0000   1.0000   1.0000   1.0000   1.0000   0.0000   0.0000   0.0000
     0.0000   0.0000

          k = 0.1667 0.2887 0.0000 (  5102 PWs)   bands (ev):

   -61.9963 -36.2257 -36.0906 -36.0192 -13.8728 -13.4783  -5.6106  -5.1678
    -4.8839  -3.7100  -3.5099  -2.2558  -0.9070  -0.0839   0.9984   2.1514
     3.1242   5.9173

     occupation numbers 
     1.0000   1.0000   1.0000   1.0000   1.0000   1.0000   1.0000   1.0000
     1.0000   1.0000   1.0000   1.0000   1.0000   0.0000   0.0000   0.0000
     0.0000   0.0000

          k = 0.1667-0.6736 0.0000 (  5131 PWs)   bands (ev):

   -61.9831 -36.3265 -36.1497 -35.9928 -13.3135 -12.9322  -6.4136  -5.6249
    -4.6273  -4.2589  -3.7615  -3.1089  -0.7415   0.4382   1.3688   2.3095
     3.9196   6.3999

     occupation numbers 
     1.0000   1.0000   1.0000   1.0000   1.0000   1.0000   1.0000   1.0000
     1.0000   1.0000   1.0000   1.0000   1.0000   0.0000   0.0000   0.0000
     0.0000   0.0000

          k = 0.3333-0.5774 0.0000 (  5172 PWs)   bands (ev):

   -61.9787 -36.2652 -36.2652 -35.9840 -12.9250 -12.9250  -5.7720  -5.7720
    -5.5320  -4.0518  -4.0518  -3.8488   0.3415   0.3415   0.5407   3.0355
     3.0355   6.5325

     occupation numbers 
     1.0000   1.0000   1.0000   1.0000   1.0000   1.0000   1.0000   1.0000
     1.0000   1.0000   1.0000   1.0000   0.0000   0.0000   0.0000   0.0000
     0.0000   0.0000

     the Fermi energy is    -0.4275 ev

!    total energy              =    -181.51385495 Ry
     estimated scf accuracy    <       0.00000042 Ry
     smearing contrib. (-TS)   =       0.00000000 Ry
     internal energy E=F+TS    =    -181.51385495 Ry

     The total energy is F=E-TS. E is the sum of the following terms:
     one-electron contribution =   -1105.27548749 Ry
     hartree contribution      =     552.77408857 Ry
     xc contribution           =     -29.66230345 Ry
     ewald contribution        =     400.64984742 Ry

     convergence has been achieved in   7 iterations

     negative rho (up, down):  3.769E-05 0.000E+00

     Forces acting on atoms (cartesian axes, Ry/au):

     atom    1 type  1   force =    -0.00000000    0.00000000    0.00000000
     atom    2 type  2   force =    -0.00000000   -0.00000000    0.00865195
     atom    3 type  2   force =     0.00000000    0.00000000   -0.00865195
     The non-local contrib.  to forces
     atom    1 type  1   force =     0.00000000    0.00000000    0.00000000
     atom    2 type  2   force =     0.00000000   -0.00000000   -0.26957422
     atom    3 type  2   force =    -0.00000000    0.00000000    0.26957422
     The ionic contribution  to forces
     atom    1 type  1   force =    -0.00000001   -0.00000001    0.00000000
     atom    2 type  2   force =     0.00000000    0.00000000   35.35103744
     atom    3 type  2   force =     0.00000001    0.00000000  -35.35103744
     The local contribution  to forces
     atom    1 type  1   force =    -0.00000000   -0.00000000    0.00000000
     atom    2 type  2   force =     0.00000001    0.00000001  -35.07413603
     atom    3 type  2   force =     0.00000002    0.00000001   35.07413603
     The core correction contribution to forces
     atom    1 type  1   force =    -0.00000000   -0.00000000   -0.00000000
     atom    2 type  2   force =    -0.00000000   -0.00000000    0.00249918
     atom    3 type  2   force =    -0.00000000   -0.00000000   -0.00249918
     The Hubbard contrib.    to forces
     atom    1 type  1   force =     0.00000000    0.00000000    0.00000000
     atom    2 type  2   force =     0.00000000    0.00000000    0.00000000
     atom    3 type  2   force =     0.00000000    0.00000000    0.00000000
     The SCF correction term to forces
     atom    1 type  1   force =    -0.00000000   -0.00000000   -0.00000000
     atom    2 type  2   force =    -0.00000000   -0.00000000   -0.00117443
     atom    3 type  2   force =    -0.00000000   -0.00000000    0.00117443

     Total force =     0.012236     Total SCF correction =     0.001661
     SCF correction compared to forces is large: reduce conv_thr to get better values
     Energy error            =      7.5E-03
     Gradient error          =      8.7E-03

     number of scf cycles    =   4
     number of bfgs steps    =   3

     energy   old            =    -181.5063374817 Ry
     energy   new            =    -181.5138549485 Ry

     CASE: energy  _new < energy  _old

     new trust radius        =       0.0244398074 bohr
     new conv_thr            =       0.0000000865 Ry


ATOMIC_POSITIONS (crystal)
Mo            0.0000000000        0.0000000000        0.5000000000    0   0   0
S             0.3333333330        0.3333333330        0.5788864061    0   0   1
S             0.6666666660        0.6666666660        0.4211135939    0   0   1



     Writing output data file ./outdir/MoS2.save/
     NEW-OLD atomic charge density approx. for the potential

     negative rho (up, down):  3.973E-05 0.000E+00

     total cpu time spent up to now is       35.7 secs

     Self-consistent Calculation

     iteration #  1     ecut=    40.00 Ry     beta= 0.10
     Davidson diagonalization with overlap
     ethr =  1.00E-06,  avg # of iterations =  6.6

     negative rho (up, down):  3.958E-05 0.000E+00

     total cpu time spent up to now is       36.4 secs

     total energy              =    -181.51407552 Ry
     estimated scf accuracy    <       0.00003428 Ry

     iteration #  2     ecut=    40.00 Ry     beta= 0.10
     Davidson diagonalization with overlap
     ethr =  1.32E-07,  avg # of iterations =  1.7

     negative rho (up, down):  3.949E-05 0.000E+00

     total cpu time spent up to now is       37.0 secs

     total energy              =    -181.51407595 Ry
     estimated scf accuracy    <       0.00001302 Ry

     iteration #  3     ecut=    40.00 Ry     beta= 0.10
     Davidson diagonalization with overlap
     ethr =  5.01E-08,  avg # of iterations =  1.0

     negative rho (up, down):  4.105E-05 0.000E+00

     total cpu time spent up to now is       37.6 secs

     total energy              =    -181.51407557 Ry
     estimated scf accuracy    <       0.00000683 Ry

     iteration #  4     ecut=    40.00 Ry     beta= 0.10
     Davidson diagonalization with overlap
     ethr =  2.63E-08,  avg # of iterations =  2.0

     negative rho (up, down):  4.077E-05 0.000E+00

     total cpu time spent up to now is       38.2 secs

     total energy              =    -181.51407619 Ry
     estimated scf accuracy    <       0.00000071 Ry

     iteration #  5     ecut=    40.00 Ry     beta= 0.10
     Davidson diagonalization with overlap
     ethr =  2.75E-09,  avg # of iterations =  1.7

     negative rho (up, down):  4.096E-05 0.000E+00

     total cpu time spent up to now is       38.8 secs

     total energy              =    -181.51407624 Ry
     estimated scf accuracy    <       0.00000022 Ry

     iteration #  6     ecut=    40.00 Ry     beta= 0.10
     Davidson diagonalization with overlap
     ethr =  8.33E-10,  avg # of iterations =  2.0

     negative rho (up, down):  4.058E-05 0.000E+00

     total cpu time spent up to now is       39.4 secs

     total energy              =    -181.51407626 Ry
     estimated scf accuracy    <       0.00000010 Ry

     iteration #  7     ecut=    40.00 Ry     beta= 0.10
     Davidson diagonalization with overlap
     ethr =  3.72E-10,  avg # of iterations =  1.0

     negative rho (up, down):  3.839E-05 0.000E+00

     total cpu time spent up to now is       39.9 secs

     End of self-consistent calculation

          k = 0.0000 0.0000 0.0000 (  5021 PWs)   bands (ev):

   -62.0236 -36.0650 -36.0221 -36.0221 -14.9446 -13.7983  -6.4934  -4.0562
    -4.0562  -3.0829  -1.1120  -1.1120  -1.0402  -0.4146  -0.4146   3.0084
     3.0084   4.3591

     occupation numbers 
     1.0000   1.0000   1.0000   1.0000   1.0000   1.0000   1.0000   1.0000
     1.0000   1.0000   1.0000   1.0000   1.0000   1.0000   1.0000   0.0000
     0.0000   0.0000

          k = 0.0000 0.1925 0.0000 (  5093 PWs)   bands (ev):

   -62.0149 -36.1104 -36.0476 -36.0424 -14.5359 -13.6718  -5.9807  -5.0318
    -3.8736  -3.1115  -2.3392  -1.9627  -1.2341   0.1272   0.3762   2.1851
     2.8841   4.9309

     occupation numbers 
     1.0000   1.0000   1.0000   1.0000   1.0000   1.0000   1.0000   1.0000
     1.0000   1.0000   1.0000   1.0000   1.0000   0.0000   0.0000   0.0000
     0.0000   0.0000

          k = 0.0000 0.3849 0.0000 (  5126 PWs)   bands (ev):

   -61.9976 -36.2831 -36.0827 -36.0127 -13.6723 -13.2770  -5.9713  -5.4879
    -4.6767  -3.9931  -2.9241  -2.0146  -1.9253   0.6725   0.8173   3.0258
     3.0609   6.1023

     occupation numbers 
     1.0000   1.0000   1.0000   1.0000   1.0000   1.0000   1.0000   1.0000
     1.0000   1.0000   1.0000   1.0000   1.0000   0.0000   0.0000   0.0000
     0.0000   0.0000

          k = 0.0000-0.5774 0.0000 (  5128 PWs)   bands (ev):

   -61.9888 -36.3678 -36.1027 -35.9952 -13.4318 -12.7067  -7.0225  -5.3163
    -4.9783  -4.2085  -2.9908  -2.2220  -1.7783   0.8237   1.5618   3.1913
     4.0520   4.8448

     occupation numbers 
     1.0000   1.0000   1.0000   1.0000   1.0000   1.0000   1.0000   1.0000
     1.0000   1.0000   1.0000   1.0000   1.0000   0.0000   0.0000   0.0000
     0.0000   0.0000

          k = 0.1667 0.2887 0.0000 (  5102 PWs)   bands (ev):

   -62.0019 -36.2237 -36.0899 -36.0214 -13.8424 -13.4586  -5.5607  -5.1361
    -4.8450  -3.6872  -3.4652  -2.2611  -0.9131  -0.1023   0.9851   2.1209
     3.0814   5.9243

     occupation numbers 
     1.0000   1.0000   1.0000   1.0000   1.0000   1.0000   1.0000   1.0000
     1.0000   1.0000   1.0000   1.0000   1.0000   0.0000   0.0000   0.0000
     0.0000   0.0000

          k = 0.1667-0.6736 0.0000 (  5131 PWs)   bands (ev):

   -61.9888 -36.3237 -36.1485 -35.9953 -13.2784 -12.9076  -6.3755  -5.5906
    -4.6005  -4.2363  -3.7433  -3.1052  -0.7510   0.4294   1.3772   2.2724
     3.8633   6.3841

     occupation numbers 
     1.0000   1.0000   1.0000   1.0000   1.0000   1.0000   1.0000   1.0000
     1.0000   1.0000   1.0000   1.0000   1.0000   0.0000   0.0000   0.0000
     0.0000   0.0000

          k = 0.3333-0.5774 0.0000 (  5172 PWs)   bands (ev):

   -61.9845 -36.2630 -36.2630 -35.9867 -12.8929 -12.8929  -5.7313  -5.7313
    -5.5088  -4.0399  -4.0399  -3.8496   0.3149   0.3149   0.5735   3.0028
     3.0028   6.4888

     occupation numbers 
     1.0000   1.0000   1.0000   1.0000   1.0000   1.0000   1.0000   1.0000
     1.0000   1.0000   1.0000   1.0000   0.0000   0.0000   0.0000   0.0000
     0.0000   0.0000

     the Fermi energy is    -0.1996 ev

!    total energy              =    -181.51407628 Ry
     estimated scf accuracy    <          5.8E-09 Ry
     smearing contrib. (-TS)   =       0.00000000 Ry
     internal energy E=F+TS    =    -181.51407628 Ry

     The total energy is F=E-TS. E is the sum of the following terms:
     one-electron contribution =   -1101.87784693 Ry
     hartree contribution      =     551.08539437 Ry
     xc contribution           =     -29.64377713 Ry
     ewald contribution        =     398.92215341 Ry

     convergence has been achieved in   7 iterations

     negative rho (up, down):  3.839E-05 0.000E+00

     Forces acting on atoms (cartesian axes, Ry/au):

     atom    1 type  1   force =    -0.00000000    0.00000000    0.00000000
     atom    2 type  2   force =     0.00000000    0.00000000    0.00051842
     atom    3 type  2   force =     0.00000000    0.00000000   -0.00051842
     The non-local contrib.  to forces
     atom    1 type  1   force =     0.00000000    0.00000000    0.00000000
     atom    2 type  2   force =     0.00000000    0.00000000   -0.27346601
     atom    3 type  2   force =    -0.00000000   -0.00000000    0.27346601
     The ionic contribution  to forces
     atom    1 type  1   force =    -0.00000001   -0.00000001    0.00000000
     atom    2 type  2   force =     0.00000000    0.00000000   35.34046220
     atom    3 type  2   force =     0.00000001    0.00000000  -35.34046220
     The local contribution  to forces
     atom    1 type  1   force =    -0.00000000   -0.00000000    0.00000000
     atom    2 type  2   force =     0.00000001    0.00000001  -35.06924972
     atom    3 type  2   force =     0.00000002    0.00000001   35.06924972
     The core correction contribution to forces
     atom    1 type  1   force =    -0.00000000   -0.00000000   -0.00000000
     atom    2 type  2   force =    -0.00000000   -0.00000000    0.00267344
     atom    3 type  2   force =    -0.00000000   -0.00000000   -0.00267344
     The Hubbard contrib.    to forces
     atom    1 type  1   force =     0.00000000    0.00000000    0.00000000
     atom    2 type  2   force =     0.00000000    0.00000000    0.00000000
     atom    3 type  2   force =     0.00000000    0.00000000    0.00000000
     The SCF correction term to forces
     atom    1 type  1   force =    -0.00000000   -0.00000000    0.00000000
     atom    2 type  2   force =     0.00000000    0.00000000    0.00009851
     atom    3 type  2   force =     0.00000000    0.00000000   -0.00009851

     Total force =     0.000733     Total SCF correction =     0.000139
     SCF correction compared to forces is large: reduce conv_thr to get better values
     Energy error            =      2.2E-04
     Gradient error          =      5.2E-04

     number of scf cycles    =   5
     number of bfgs steps    =   4

     energy   old            =    -181.5138549485 Ry
     energy   new            =    -181.5140762766 Ry

     CASE: energy  _new < energy  _old

     new trust radius        =       0.0015577659 bohr
     new conv_thr            =       0.0000000100 Ry


ATOMIC_POSITIONS (crystal)
Mo            0.0000000000        0.0000000000        0.5000000000    0   0   0
S             0.3333333330        0.3333333330        0.5789276228    0   0   1
S             0.6666666660        0.6666666660        0.4210723772    0   0   1



     Writing output data file ./outdir/MoS2.save/
     NEW-OLD atomic charge density approx. for the potential

     negative rho (up, down):  3.846E-05 0.000E+00

     total cpu time spent up to now is       41.2 secs

     Self-consistent Calculation

     iteration #  1     ecut=    40.00 Ry     beta= 0.10
     Davidson diagonalization with overlap
     ethr =  1.00E-06,  avg # of iterations =  2.0

     Threshold (ethr) on eigenvalues was too large:
     Diagonalizing with lowered threshold

     Davidson diagonalization with overlap
     ethr =  1.46E-09,  avg # of iterations =  4.3

     negative rho (up, down):  3.846E-05 0.000E+00

     total cpu time spent up to now is       42.2 secs

     total energy              =    -181.51407716 Ry
     estimated scf accuracy    <       0.00000053 Ry

     iteration #  2     ecut=    40.00 Ry     beta= 0.10
     Davidson diagonalization with overlap
     ethr =  2.03E-09,  avg # of iterations =  1.0

     negative rho (up, down):  3.845E-05 0.000E+00

     total cpu time spent up to now is       42.8 secs

     total energy              =    -181.51407717 Ry
     estimated scf accuracy    <       0.00000008 Ry

     iteration #  3     ecut=    40.00 Ry     beta= 0.10
     Davidson diagonalization with overlap
     ethr =  3.23E-10,  avg # of iterations =  1.7

     negative rho (up, down):  3.846E-05 0.000E+00

     total cpu time spent up to now is       43.4 secs

     total energy              =    -181.51407717 Ry
     estimated scf accuracy    <       0.00000003 Ry

     iteration #  4     ecut=    40.00 Ry     beta= 0.10
     Davidson diagonalization with overlap
     ethr =  1.12E-10,  avg # of iterations =  1.9

     negative rho (up, down):  3.841E-05 0.000E+00

     total cpu time spent up to now is       44.0 secs

     End of self-consistent calculation

          k = 0.0000 0.0000 0.0000 (  5021 PWs)   bands (ev):

   -62.0239 -36.0651 -36.0220 -36.0220 -14.9423 -13.7983  -6.4915  -4.0511
    -4.0511  -3.0838  -1.1103  -1.1103  -1.0430  -0.4132  -0.4132   3.0051
     3.0051   4.3594

     occupation numbers 
     1.0000   1.0000   1.0000   1.0000   1.0000   1.0000   1.0000   1.0000
     1.0000   1.0000   1.0000   1.0000   1.0000   1.0000   1.0000   0.0000
     0.0000   0.0000

          k = 0.0000 0.1925 0.0000 (  5093 PWs)   bands (ev):

   -62.0152 -36.1102 -36.0477 -36.0423 -14.5338 -13.6714  -5.9788  -5.0281
    -3.8688  -3.1099  -2.3397  -1.9603  -1.2350   0.1260   0.3764   2.1828
     2.8813   4.9314

     occupation numbers 
     1.0000   1.0000   1.0000   1.0000   1.0000   1.0000   1.0000   1.0000
     1.0000   1.0000   1.0000   1.0000   1.0000   0.0000   0.0000   0.0000
     0.0000   0.0000

          k = 0.0000 0.3849 0.0000 (  5126 PWs)   bands (ev):

   -61.9979 -36.2829 -36.0826 -36.0129 -13.6703 -13.2757  -5.9683  -5.4863
    -4.6751  -3.9890  -2.9250  -2.0121  -1.9262   0.6727   0.8159   3.0229
     3.0577   6.1008

     occupation numbers 
     1.0000   1.0000   1.0000   1.0000   1.0000   1.0000   1.0000   1.0000
     1.0000   1.0000   1.0000   1.0000   1.0000   0.0000   0.0000   0.0000
     0.0000   0.0000

          k = 0.0000-0.5774 0.0000 (  5128 PWs)   bands (ev):

   -61.9892 -36.3675 -36.1026 -35.9954 -13.4294 -12.7055  -7.0200  -5.3157
    -4.9771  -4.2047  -2.9905  -2.2230  -1.7766   0.8249   1.5613   3.1877
     4.0486   4.8437

     occupation numbers 
     1.0000   1.0000   1.0000   1.0000   1.0000   1.0000   1.0000   1.0000
     1.0000   1.0000   1.0000   1.0000   1.0000   0.0000   0.0000   0.0000
     0.0000   0.0000

          k = 0.1667 0.2887 0.0000 (  5102 PWs)   bands (ev):

   -62.0022 -36.2235 -36.0897 -36.0215 -13.8405 -13.4575  -5.5575  -5.1341
    -4.8425  -3.6858  -3.4624  -2.2614  -0.9134  -0.1035   0.9844   2.1190
     3.0786   5.9247

     occupation numbers 
     1.0000   1.0000   1.0000   1.0000   1.0000   1.0000   1.0000   1.0000
     1.0000   1.0000   1.0000   1.0000   1.0000   0.0000   0.0000   0.0000
     0.0000   0.0000

          k = 0.1667-0.6736 0.0000 (  5131 PWs)   bands (ev):

   -61.9892 -36.3234 -36.1483 -35.9955 -13.2762 -12.9061  -6.3731  -5.5885
    -4.5988  -4.2348  -3.7422  -3.1050  -0.7516   0.4289   1.3778   2.2700
     3.8597   6.3824

     occupation numbers 
     1.0000   1.0000   1.0000   1.0000   1.0000   1.0000   1.0000   1.0000
     1.0000   1.0000   1.0000   1.0000   1.0000   0.0000   0.0000   0.0000
     0.0000   0.0000

          k = 0.3333-0.5774 0.0000 (  5172 PWs)   bands (ev):

   -61.9848 -36.2627 -36.2627 -35.9868 -12.8910 -12.8910  -5.7287  -5.7287
    -5.5074  -4.0391  -4.0391  -3.8497   0.3133   0.3133   0.5757   3.0007
     3.0007   6.4861

     occupation numbers 
     1.0000   1.0000   1.0000   1.0000   1.0000   1.0000   1.0000   1.0000
     1.0000   1.0000   1.0000   1.0000   0.0000   0.0000   0.0000   0.0000
     0.0000   0.0000

     the Fermi energy is    -0.2022 ev

!    total energy              =    -181.51407717 Ry
     estimated scf accuracy    <          6.1E-09 Ry
     smearing contrib. (-TS)   =       0.00000000 Ry
     internal energy E=F+TS    =    -181.51407717 Ry

     The total energy is F=E-TS. E is the sum of the following terms:
     one-electron contribution =   -1101.65878263 Ry
     hartree contribution      =     550.97523569 Ry
     xc contribution           =     -29.64258045 Ry
     ewald contribution        =     398.81205022 Ry

     convergence has been achieved in   4 iterations

     negative rho (up, down):  3.841E-05 0.000E+00

     Forces acting on atoms (cartesian axes, Ry/au):

     atom    1 type  1   force =     0.00000000    0.00000000    0.00000000
     atom    2 type  2   force =     0.00000000   -0.00000000    0.00004793
     atom    3 type  2   force =     0.00000000    0.00000000   -0.00004793
     The non-local contrib.  to forces
     atom    1 type  1   force =     0.00000000    0.00000000    0.00000000
     atom    2 type  2   force =    -0.00000000   -0.00000000   -0.27369188
     atom    3 type  2   force =     0.00000000   -0.00000000    0.27369188
     The ionic contribution  to forces
     atom    1 type  1   force =    -0.00000001   -0.00000001    0.00000000
     atom    2 type  2   force =     0.00000000    0.00000000   35.33972699
     atom    3 type  2   force =     0.00000001    0.00000000  -35.33972699
     The local contribution  to forces
     atom    1 type  1   force =    -0.00000000   -0.00000000    0.00000000
     atom    2 type  2   force =     0.00000001    0.00000001  -35.06858698
     atom    3 type  2   force =     0.00000002    0.00000001   35.06858698
     The core correction contribution to forces
     atom    1 type  1   force =    -0.00000000   -0.00000000   -0.00000000
     atom    2 type  2   force =    -0.00000000   -0.00000000    0.00268512
     atom    3 type  2   force =    -0.00000000   -0.00000000   -0.00268512
     The Hubbard contrib.    to forces
     atom    1 type  1   force =     0.00000000    0.00000000    0.00000000
     atom    2 type  2   force =     0.00000000    0.00000000    0.00000000
     atom    3 type  2   force =     0.00000000    0.00000000    0.00000000
     The SCF correction term to forces
     atom    1 type  1   force =    -0.00000000   -0.00000000   -0.00000000
     atom    2 type  2   force =     0.00000000    0.00000000   -0.00008532
     atom    3 type  2   force =     0.00000000    0.00000000    0.00008532

     Total force =     0.000068     Total SCF correction =     0.000121
     SCF correction compared to forces is large: reduce conv_thr to get better values
     Energy error            =      9.0E-07
     Gradient error          =      4.8E-05

     bfgs converged in   6 scf cycles and   5 bfgs steps
     (criteria: energy <  1.0E-04 Ry, force <  1.0E-03 Ry/Bohr)

     End of BFGS Geometry Optimization

     Final energy   =    -181.5140771745 Ry

     File ./outdir/MoS2.bfgs deleted, as requested
Begin final coordinates

ATOMIC_POSITIONS (crystal)
Mo            0.0000000000        0.0000000000        0.5000000000    0   0   0
S             0.3333333330        0.3333333330        0.5789276228    0   0   1
S             0.6666666660        0.6666666660        0.4210723772    0   0   1
End final coordinates



     Writing output data file ./outdir/MoS2.save/

     init_run     :      0.79s CPU      0.89s WALL (       1 calls)
     electrons    :     26.98s CPU     36.56s WALL (       6 calls)
     update_pot   :      2.14s CPU      2.15s WALL (       5 calls)
     forces       :      3.19s CPU      3.66s WALL (       6 calls)

     Called by init_run:
     wfcinit      :      0.05s CPU      0.05s WALL (       1 calls)
     wfcinit:atom :      0.00s CPU      0.00s WALL (       7 calls)
     wfcinit:wfcr :      0.05s CPU      0.05s WALL (       7 calls)
     potinit      :      0.17s CPU      0.18s WALL (       1 calls)
     hinit0       :      0.42s CPU      0.44s WALL (       1 calls)

     Called by electrons:
     c_bands      :      9.74s CPU     10.26s WALL (      57 calls)
     sum_band     :      7.62s CPU     12.25s WALL (      57 calls)
     v_of_rho     :      2.12s CPU      2.48s WALL (      62 calls)
     v_h          :      0.17s CPU      0.18s WALL (      62 calls)
     v_xc         :      2.13s CPU      2.52s WALL (      68 calls)
     newd         :      7.91s CPU     12.40s WALL (      62 calls)
     mix_rho      :      0.26s CPU      0.28s WALL (      57 calls)

     Called by c_bands:
     init_us_2    :      0.19s CPU      0.20s WALL (     847 calls)
     cegterg      :      9.10s CPU      9.58s WALL (     399 calls)

     Called by sum_band:
     sum_band:wei :      0.00s CPU      0.00s WALL (      57 calls)
     sum_band:loo :      1.01s CPU      1.08s WALL (      57 calls)
     sum_band:buf :      0.03s CPU      0.03s WALL (     399 calls)
     sum_band:ini :      0.07s CPU      0.08s WALL (     399 calls)
     sum_band:cal :      0.30s CPU      0.32s WALL (     399 calls)
     sum_band:bec :      0.01s CPU      0.01s WALL (     399 calls)
     addusdens    :      6.34s CPU     10.82s WALL (      57 calls)
     addusd:skk   :      0.03s CPU      0.03s WALL (     114 calls)
     addusd:dgemm :      2.43s CPU      6.26s WALL (     114 calls)
     addusd:qvan2 :      3.52s CPU      3.54s WALL (     114 calls)

     Called by *egterg:
     cdiaghg      :      0.71s CPU      0.73s WALL (    1514 calls)
     cegterg:over :      0.91s CPU      0.94s WALL (    1157 calls)
     cegterg:upda :      0.43s CPU      0.44s WALL (    1157 calls)
     cegterg:last :      1.00s CPU      1.02s WALL (     859 calls)
     cdiaghg:chol :      0.07s CPU      0.07s WALL (    1514 calls)
     cdiaghg:inve :      0.02s CPU      0.02s WALL (    1514 calls)
     cdiaghg:para :      0.11s CPU      0.11s WALL (    3028 calls)
     h_psi        :      4.96s CPU      5.32s WALL (    1563 calls)
     s_psi        :      0.77s CPU      0.81s WALL (    1563 calls)
     g_psi        :      0.05s CPU      0.05s WALL (    1157 calls)

     Called by h_psi:
     h_psi:calbec :      0.91s CPU      1.00s WALL (    1563 calls)
     vloc_psi     :      3.24s CPU      3.45s WALL (    1563 calls)
     add_vuspsi   :      0.76s CPU      0.82s WALL (    1563 calls)

     General routines
     calbec       :      1.34s CPU      1.46s WALL (    2130 calls)
     fft          :      1.25s CPU      1.39s WALL (     866 calls)
     ffts         :      0.03s CPU      0.03s WALL (     119 calls)
     fftw         :      3.24s CPU      3.46s WALL (   45006 calls)
     interpolate  :      0.12s CPU      0.13s WALL (      62 calls)

     Parallel routines
     fft_scatt_xy :      0.50s CPU      0.53s WALL (   45991 calls)
     fft_scatt_yz :      1.93s CPU      2.09s WALL (   45991 calls)

     PWSCF        :     34.01s CPU     44.61s WALL


   This run was terminated on:  18: 9:13  18Jan2023            

=------------------------------------------------------------------------------=
   JOB DONE.
=------------------------------------------------------------------------------=
