
     Program PWSCF v.6.7MaX starts on 18Jan2023 at 18:51:49 

     This program is part of the open-source Quantum ESPRESSO suite
     for quantum simulation of materials; please cite
         "P. Giannozzi et al., J. Phys.:Condens. Matter 21 395502 (2009);
         "P. Giannozzi et al., J. Phys.:Condens. Matter 29 465901 (2017);
          URL http://www.quantum-espresso.org", 
     in publications or presentations arising from this work. More details at
     http://www.quantum-espresso.org/quote

     Parallel version (MPI), running on     8 processors

     MPI processes distributed on     1 nodes
     R & G space division:  proc/nbgrp/npool/nimage =       8
     Reading input from MoS2_2H.in

     Current dimensions of program PWSCF are:
     Max number of different atomic species (ntypx) = 10
     Max number of k-points (npk) =  40000
     Max angular momentum in pseudopotentials (lmaxx) =  3
     file Mo.pbe-spn-rrkjus_psl.1.0.0.UPF: wavefunction(s)  4S renormalized

     IMPORTANT: XC functional enforced from input :
     Exchange-correlation= PBE
                           (   1   4   3   4   0   0   0)
     Any further DFT definition will be discarded
     Please, verify this is what you really want


     Subspace diagonalization in iterative solution of the eigenvalue problem:
     one sub-group per band group will be used
     scalapack distributed-memory algorithm (size of sub-group:  2*  2 procs)


     Parallelization info
     --------------------
     sticks:   dense  smooth     PW     G-vecs:    dense   smooth      PW
     Min         126      69     20                20225     8239    1342
     Max         128      70     21                20238     8258    1367
     Sum        1015     559    163               161851    65993   10807



     bravais-lattice index     =           12
     lattice parameter (alat)  =       6.0471  a.u.
     unit-cell volume          =    1196.8981 (a.u.)^3
     number of atoms/cell      =            3
     number of atomic types    =            2
     number of electrons       =        26.00
     number of Kohn-Sham states=           18
     kinetic-energy cutoff     =      55.0000  Ry
     charge density cutoff     =     400.0000  Ry
     scf convergence threshold =      1.0E-06
     mixing beta               =       0.1000
     number of iterations used =            8  plain     mixing
     energy convergence thresh.=      1.0E-04
     force convergence thresh. =      1.0E-03
     Exchange-correlation= PBE
                           (   1   4   3   4   0   0   0)
     nstep                     =           50


     celldm(1)=   6.047124  celldm(2)=   1.000000  celldm(3)=   6.250000
     celldm(4)=   0.500000  celldm(5)=   0.000000  celldm(6)=   0.000000

     crystal axes: (cart. coord. in units of alat)
               a(1) = (   1.000000   0.000000   0.000000 )  
               a(2) = (   0.500000   0.866025   0.000000 )  
               a(3) = (   0.000000   0.000000   6.250000 )  

     reciprocal axes: (cart. coord. in units 2 pi/alat)
               b(1) = (  1.000000 -0.577350  0.000000 )  
               b(2) = (  0.000000  1.154701  0.000000 )  
               b(3) = (  0.000000  0.000000  0.160000 )  


     PseudoPot. # 1 for Mo read from file:
     /home/zronyj/Desktop/MoS2/pseudo/Mo.pbe-spn-rrkjus_psl.1.0.0.UPF
     MD5 check sum: 03f09b12e49601d1a456a78ce8b2d514
     Pseudo is Ultrasoft + core correction, Zval = 14.0
     Generated using &quot;atomic&quot; code by A. Dal Corso  v.6.3
     Using radial grid of 1229 points,  6 beta functions with: 
                l(1) =   0
                l(2) =   0
                l(3) =   1
                l(4) =   1
                l(5) =   2
                l(6) =   2
     Q(r) pseudized with 0 coefficients 


     PseudoPot. # 2 for S  read from file:
     /home/zronyj/Desktop/MoS2/pseudo/S.pbe-n-rrkjus_psl.1.0.0.UPF
     MD5 check sum: 9d0fe39aa2a799ea84730884c9b010f4
     Pseudo is Ultrasoft + core correction, Zval =  6.0
     Generated using &quot;atomic&quot; code by A. Dal Corso  v.6.3
     Using radial grid of 1151 points,  6 beta functions with: 
                l(1) =   0
                l(2) =   0
                l(3) =   1
                l(4) =   1
                l(5) =   2
                l(6) =   2
     Q(r) pseudized with 0 coefficients 


     atomic species   valence    mass     pseudopotential
        Mo            14.00    95.95000     Mo( 1.00)
        S              6.00    32.06500     S ( 1.00)

     12 Sym. Ops. (no inversion) found


                                    s                        frac. trans.

      isym =  1     identity                                     

 cryst.   s( 1) = (     1          0          0      )
                  (     0          1          0      )
                  (     0          0          1      )

 cart.    s( 1) = (  1.0000000  0.0000000  0.0000000 )
                  (  0.0000000  1.0000000  0.0000000 )
                  (  0.0000000  0.0000000  1.0000000 )


      isym =  2     180 deg rotation - cart. axis [0,1,0]        

 cryst.   s( 2) = (    -1          0          0      )
                  (    -1          1          0      )
                  (     0          0         -1      )

 cart.    s( 2) = ( -1.0000000  0.0000000  0.0000000 )
                  (  0.0000000  1.0000000  0.0000000 )
                  (  0.0000000  0.0000000 -1.0000000 )


      isym =  3     120 deg rotation - cryst. axis [0,0,1]       

 cryst.   s( 3) = (    -1          1          0      )
                  (    -1          0          0      )
                  (     0          0          1      )

 cart.    s( 3) = ( -0.5000000 -0.8660254  0.0000000 )
                  (  0.8660254 -0.5000000  0.0000000 )
                  (  0.0000000  0.0000000  1.0000000 )


      isym =  4     120 deg rotation - cryst. axis [0,0,-1]      

 cryst.   s( 4) = (     0         -1          0      )
                  (     1         -1          0      )
                  (     0          0          1      )

 cart.    s( 4) = ( -0.5000000  0.8660254  0.0000000 )
                  ( -0.8660254 -0.5000000  0.0000000 )
                  (  0.0000000  0.0000000  1.0000000 )


      isym =  5     180 deg rotation - cryst. axis [1,-1,0]      

 cryst.   s( 5) = (     1         -1          0      )
                  (     0         -1          0      )
                  (     0          0         -1      )

 cart.    s( 5) = (  0.5000000 -0.8660254  0.0000000 )
                  ( -0.8660254 -0.5000000  0.0000000 )
                  (  0.0000000  0.0000000 -1.0000000 )


      isym =  6     180 deg rotation - cryst. axis [2,1,0]       

 cryst.   s( 6) = (     0          1          0      )
                  (     1          0          0      )
                  (     0          0         -1      )

 cart.    s( 6) = (  0.5000000  0.8660254  0.0000000 )
                  (  0.8660254 -0.5000000  0.0000000 )
                  (  0.0000000  0.0000000 -1.0000000 )


      isym =  7     inv. 180 deg rotation - cart. axis [0,0,1]   

 cryst.   s( 7) = (     1          0          0      )
                  (     0          1          0      )
                  (     0          0         -1      )

 cart.    s( 7) = (  1.0000000  0.0000000  0.0000000 )
                  (  0.0000000  1.0000000  0.0000000 )
                  (  0.0000000  0.0000000 -1.0000000 )


      isym =  8     inv. 180 deg rotation - cart. axis [1,0,0]   

 cryst.   s( 8) = (    -1          0          0      )
                  (    -1          1          0      )
                  (     0          0          1      )

 cart.    s( 8) = ( -1.0000000  0.0000000  0.0000000 )
                  (  0.0000000  1.0000000  0.0000000 )
                  (  0.0000000  0.0000000  1.0000000 )


      isym =  9     inv.  60 deg rotation - cryst. axis [0,0,1]  

 cryst.   s( 9) = (     0         -1          0      )
                  (     1         -1          0      )
                  (     0          0         -1      )

 cart.    s( 9) = ( -0.5000000  0.8660254  0.0000000 )
                  ( -0.8660254 -0.5000000  0.0000000 )
                  (  0.0000000  0.0000000 -1.0000000 )


      isym = 10     inv.  60 deg rotation - cryst. axis [0,0,-1] 

 cryst.   s(10) = (    -1          1          0      )
                  (    -1          0          0      )
                  (     0          0         -1      )

 cart.    s(10) = ( -0.5000000 -0.8660254  0.0000000 )
                  (  0.8660254 -0.5000000  0.0000000 )
                  (  0.0000000  0.0000000 -1.0000000 )


      isym = 11     inv. 180 deg rotation - cryst. axis [0,1,0]  

 cryst.   s(11) = (     0          1          0      )
                  (     1          0          0      )
                  (     0          0          1      )

 cart.    s(11) = (  0.5000000  0.8660254  0.0000000 )
                  (  0.8660254 -0.5000000  0.0000000 )
                  (  0.0000000  0.0000000  1.0000000 )


      isym = 12     inv. 180 deg rotation - cryst. axis [1,1,0]  

 cryst.   s(12) = (     1         -1          0      )
                  (     0         -1          0      )
                  (     0          0          1      )

 cart.    s(12) = (  0.5000000 -0.8660254  0.0000000 )
                  ( -0.8660254 -0.5000000  0.0000000 )
                  (  0.0000000  0.0000000  1.0000000 )


     point group D_3h (-62m)
     there are  6 classes
     the character table:

       E     2C3   3C2   s_h   2S3   3s_v 
A'_1   1.00  1.00  1.00  1.00  1.00  1.00
A'_2   1.00  1.00 -1.00  1.00  1.00 -1.00
E'     2.00 -1.00  0.00  2.00 -1.00  0.00
A''1   1.00  1.00  1.00 -1.00 -1.00 -1.00
A''2   1.00  1.00 -1.00 -1.00 -1.00  1.00
E''    2.00 -1.00  0.00 -2.00  1.00  0.00

     the symmetry operations in each class and the name of the first element:

     E        1
          identity                                               
     2C3      3    4
          120 deg rotation - cryst. axis [0,0,1]                 
     3C2      2    6    5
          180 deg rotation - cart. axis [0,1,0]                  
     s_h      7
          inv. 180 deg rotation - cart. axis [0,0,1]             
     2S3      9   10
          inv.  60 deg rotation - cryst. axis [0,0,1]            
     3s_v     8   11   12
          inv. 180 deg rotation - cart. axis [1,0,0]             

   Cartesian axes

     site n.     atom                  positions (alat units)
         1           Mo  tau(   1) = (   0.0000000   0.0000000   3.1250000  )
         2           S   tau(   2) = (   1.0000000   0.5773503   3.4375000  )
         3           S   tau(   3) = (   1.0000000   0.5773503   2.8125000  )

   Crystallographic axes

     site n.     atom                  positions (cryst. coord.)
         1           Mo  tau(   1) = (  0.0000000  0.0000000  0.5000000  )
         2           S   tau(   2) = (  0.6666667  0.6666667  0.5500000  )
         3           S   tau(   3) = (  0.6666667  0.6666667  0.4500000  )

     number of k points=    12  Marzari-Vanderbilt smearing, width (Ry)=  0.0001
                       cart. coord. in units 2pi/alat
        k(    1) = (   0.0000000   0.0000000   0.0000000), wk =   0.0246914
        k(    2) = (   0.0000000   0.1283001   0.0000000), wk =   0.1481481
        k(    3) = (   0.0000000   0.2566001   0.0000000), wk =   0.1481481
        k(    4) = (   0.0000000   0.3849002   0.0000000), wk =   0.1481481
        k(    5) = (   0.0000000   0.5132002   0.0000000), wk =   0.1481481
        k(    6) = (   0.1111111   0.1924501   0.0000000), wk =   0.1481481
        k(    7) = (   0.1111111   0.3207501   0.0000000), wk =   0.2962963
        k(    8) = (   0.1111111   0.4490502   0.0000000), wk =   0.2962963
        k(    9) = (   0.1111111  -0.5773503   0.0000000), wk =   0.1481481
        k(   10) = (   0.2222222   0.3849002   0.0000000), wk =   0.1481481
        k(   11) = (   0.2222222  -0.6415003   0.0000000), wk =   0.2962963
        k(   12) = (   0.3333333  -0.5773503   0.0000000), wk =   0.0493827

                       cryst. coord.
        k(    1) = (   0.0000000   0.0000000   0.0000000), wk =   0.0246914
        k(    2) = (   0.0000000   0.1111111   0.0000000), wk =   0.1481481
        k(    3) = (   0.0000000   0.2222222   0.0000000), wk =   0.1481481
        k(    4) = (   0.0000000   0.3333333   0.0000000), wk =   0.1481481
        k(    5) = (   0.0000000   0.4444444   0.0000000), wk =   0.1481481
        k(    6) = (   0.1111111   0.2222222   0.0000000), wk =   0.1481481
        k(    7) = (   0.1111111   0.3333333   0.0000000), wk =   0.2962963
        k(    8) = (   0.1111111   0.4444444   0.0000000), wk =   0.2962963
        k(    9) = (   0.1111111  -0.4444444   0.0000000), wk =   0.1481481
        k(   10) = (   0.2222222   0.4444444   0.0000000), wk =   0.1481481
        k(   11) = (   0.2222222  -0.4444444   0.0000000), wk =   0.2962963
        k(   12) = (   0.3333333  -0.3333333   0.0000000), wk =   0.0493827

     Dense  grid:   161851 G-vectors     FFT dimensions: (  40,  40, 243)

     Smooth grid:    65993 G-vectors     FFT dimensions: (  30,  30, 180)

     Dynamical RAM for                 wfc:       0.28 MB

     Dynamical RAM for     wfc (w. buffer):       3.68 MB

     Dynamical RAM for           str. fact:       0.62 MB

     Dynamical RAM for           local pot:       0.00 MB

     Dynamical RAM for          nlocal pot:       0.85 MB

     Dynamical RAM for                qrad:       3.21 MB

     Dynamical RAM for          rho,v,vnew:       2.06 MB

     Dynamical RAM for               rhoin:       0.69 MB

     Dynamical RAM for            rho*nmix:       4.94 MB

     Dynamical RAM for           G-vectors:       1.22 MB

     Dynamical RAM for          h,s,v(r/c):       0.01 MB

     Dynamical RAM for          <psi|beta>:       0.01 MB

     Dynamical RAM for                 psi:       0.57 MB

     Dynamical RAM for                hpsi:       0.57 MB

     Dynamical RAM for                spsi:       0.57 MB

     Dynamical RAM for      wfcinit/wfcrot:       0.57 MB

     Dynamical RAM for           addusdens:      58.06 MB

     Dynamical RAM for          addusforce:      58.84 MB

     Estimated static dynamical RAM per process >      20.08 MB

     Estimated max dynamical RAM per process >      78.92 MB

     Estimated total dynamical RAM >     631.36 MB

     Initial potential from superposition of free atoms

     starting charge   25.99905, renormalised to   26.00000

     negative rho (up, down):  5.823E-05 0.000E+00
     Starting wfcs are   18 randomized atomic wfcs

     total cpu time spent up to now is        1.2 secs

     Self-consistent Calculation

     iteration #  1     ecut=    55.00 Ry     beta= 0.10
     Davidson diagonalization with overlap
     ethr =  1.00E-02,  avg # of iterations =  4.2

     negative rho (up, down):  3.722E-05 0.000E+00

     total cpu time spent up to now is        2.3 secs

     total energy              =    -181.00252911 Ry
     estimated scf accuracy    <       0.41600819 Ry

     iteration #  2     ecut=    55.00 Ry     beta= 0.10
     Davidson diagonalization with overlap
     ethr =  1.60E-03,  avg # of iterations =  1.8

     negative rho (up, down):  4.020E-05 0.000E+00

     total cpu time spent up to now is        3.2 secs

     total energy              =    -180.98206065 Ry
     estimated scf accuracy    <       0.16371467 Ry

     iteration #  3     ecut=    55.00 Ry     beta= 0.10
     Davidson diagonalization with overlap
     ethr =  6.30E-04,  avg # of iterations =  3.1

     negative rho (up, down):  7.993E-05 0.000E+00

     total cpu time spent up to now is        4.2 secs

     total energy              =    -180.98379596 Ry
     estimated scf accuracy    <       0.03982913 Ry

     iteration #  4     ecut=    55.00 Ry     beta= 0.10
     Davidson diagonalization with overlap
     ethr =  1.53E-04,  avg # of iterations =  4.4

     negative rho (up, down):  1.182E-04 0.000E+00

     total cpu time spent up to now is        5.2 secs

     total energy              =    -180.98128131 Ry
     estimated scf accuracy    <       0.01689186 Ry

     iteration #  5     ecut=    55.00 Ry     beta= 0.10
     Davidson diagonalization with overlap
     ethr =  6.50E-05,  avg # of iterations =  2.0

     negative rho (up, down):  1.406E-04 0.000E+00

     total cpu time spent up to now is        6.1 secs

     total energy              =    -180.98060742 Ry
     estimated scf accuracy    <       0.02299433 Ry

     iteration #  6     ecut=    55.00 Ry     beta= 0.10
     Davidson diagonalization with overlap
     ethr =  6.50E-05,  avg # of iterations =  3.7

     negative rho (up, down):  1.483E-04 0.000E+00

     total cpu time spent up to now is        7.1 secs

     total energy              =    -180.98112271 Ry
     estimated scf accuracy    <       0.02925745 Ry

     iteration #  7     ecut=    55.00 Ry     beta= 0.10
     Davidson diagonalization with overlap
     ethr =  6.50E-05,  avg # of iterations =  2.0

     negative rho (up, down):  1.555E-04 0.000E+00

     total cpu time spent up to now is        8.0 secs

     total energy              =    -180.98516396 Ry
     estimated scf accuracy    <       0.00028383 Ry

     iteration #  8     ecut=    55.00 Ry     beta= 0.10
     Davidson diagonalization with overlap
     ethr =  1.09E-06,  avg # of iterations =  6.7

     negative rho (up, down):  1.412E-04 0.000E+00

     total cpu time spent up to now is        9.1 secs

     total energy              =    -180.98512732 Ry
     estimated scf accuracy    <       0.00772239 Ry

     iteration #  9     ecut=    55.00 Ry     beta= 0.10
     Davidson diagonalization with overlap
     ethr =  1.09E-06,  avg # of iterations =  1.0

     negative rho (up, down):  1.366E-04 0.000E+00

     total cpu time spent up to now is       10.0 secs

     total energy              =    -180.98508391 Ry
     estimated scf accuracy    <       0.00048193 Ry

     iteration # 10     ecut=    55.00 Ry     beta= 0.10
     Davidson diagonalization with overlap
     ethr =  1.09E-06,  avg # of iterations =  3.0

     negative rho (up, down):  1.279E-04 0.000E+00

     total cpu time spent up to now is       11.0 secs

     total energy              =    -180.98508850 Ry
     estimated scf accuracy    <       0.00017076 Ry

     iteration # 11     ecut=    55.00 Ry     beta= 0.10
     Davidson diagonalization with overlap
     ethr =  6.57E-07,  avg # of iterations =  2.2

     negative rho (up, down):  1.204E-04 0.000E+00

     total cpu time spent up to now is       11.9 secs

     total energy              =    -180.98511274 Ry
     estimated scf accuracy    <       0.00001832 Ry

     iteration # 12     ecut=    55.00 Ry     beta= 0.10
     Davidson diagonalization with overlap
     ethr =  7.05E-08,  avg # of iterations =  2.0

     negative rho (up, down):  1.107E-04 0.000E+00

     total cpu time spent up to now is       12.8 secs

     total energy              =    -180.98511491 Ry
     estimated scf accuracy    <       0.00000678 Ry

     iteration # 13     ecut=    55.00 Ry     beta= 0.10
     Davidson diagonalization with overlap
     ethr =  2.61E-08,  avg # of iterations =  2.8

     negative rho (up, down):  1.022E-04 0.000E+00

     total cpu time spent up to now is       13.8 secs

     total energy              =    -180.98511905 Ry
     estimated scf accuracy    <       0.00002400 Ry

     iteration # 14     ecut=    55.00 Ry     beta= 0.10
     Davidson diagonalization with overlap
     ethr =  2.61E-08,  avg # of iterations =  1.0

     negative rho (up, down):  9.475E-05 0.000E+00

     total cpu time spent up to now is       14.6 secs

     total energy              =    -180.98511801 Ry
     estimated scf accuracy    <       0.00002796 Ry

     iteration # 15     ecut=    55.00 Ry     beta= 0.10
     Davidson diagonalization with overlap
     ethr =  2.61E-08,  avg # of iterations =  1.0

     negative rho (up, down):  8.836E-05 0.000E+00

     total cpu time spent up to now is       15.5 secs

     total energy              =    -180.98511466 Ry
     estimated scf accuracy    <       0.00002417 Ry

     iteration # 16     ecut=    55.00 Ry     beta= 0.10
     Davidson diagonalization with overlap
     ethr =  2.61E-08,  avg # of iterations =  1.1

     negative rho (up, down):  8.272E-05 0.000E+00

     total cpu time spent up to now is       16.3 secs

     total energy              =    -180.98511505 Ry
     estimated scf accuracy    <       0.00001200 Ry

     iteration # 17     ecut=    55.00 Ry     beta= 0.10
     Davidson diagonalization with overlap
     ethr =  2.61E-08,  avg # of iterations =  1.0

     negative rho (up, down):  7.791E-05 0.000E+00

     total cpu time spent up to now is       17.2 secs

     total energy              =    -180.98510993 Ry
     estimated scf accuracy    <       0.00001208 Ry

     iteration # 18     ecut=    55.00 Ry     beta= 0.10
     Davidson diagonalization with overlap
     ethr =  2.61E-08,  avg # of iterations =  2.0

     negative rho (up, down):  5.392E-05 0.000E+00

     total cpu time spent up to now is       18.1 secs

     End of self-consistent calculation

          k = 0.0000 0.0000 0.0000 (  8231 PWs)   bands (ev):

   -60.8155 -35.3953 -35.3953 -35.0395 -18.8468 -12.6099  -8.4125  -7.9342
    -7.9342  -4.2341  -4.2341   0.5402   1.9224   2.3127   2.3127   2.9241
     4.4322   4.6715

     occupation numbers 
     1.0000   1.0000   1.0000   1.0000   1.0000   1.0000   1.0000   1.0000
     1.0000   1.0000   1.0000   0.0000   0.0000   0.0000   0.0000   0.0000
     0.0000   0.0000

          k = 0.0000 0.1283 0.0000 (  8215 PWs)   bands (ev):

   -60.8087 -35.4826 -35.4122 -35.0255 -18.6283 -12.6717  -8.5490  -7.7674
    -7.6595  -4.4855  -4.3780   0.6261   1.4687   2.3404   2.8191   3.5080
     3.9840   4.1687

     occupation numbers 
     1.0000   1.0000   1.0000   1.0000   1.0000   1.0000   1.0000   1.0000
     1.0000   1.0000   1.0000   0.0000   0.0000   0.0000   0.0000   0.0000
     0.0000   0.0000

          k = 0.0000 0.2566 0.0000 (  8226 PWs)   bands (ev):

   -60.7914 -35.6971 -35.4547 -34.9898 -18.0858 -12.8278  -8.7889  -7.2347
    -6.8845  -5.0161  -4.6917   0.0415   0.4276   3.0863   3.1136   3.3572
     4.0386   4.9994

     occupation numbers 
     1.0000   1.0000   1.0000   1.0000   1.0000   1.0000   1.0000   1.0000
     1.0000   1.0000   1.0000   1.0000   0.0000   0.0000   0.0000   0.0000
     0.0000   0.0000

          k = 0.0000 0.3849 0.0000 (  8242 PWs)   bands (ev):

   -60.7716 -35.9307 -35.5025 -34.9489 -17.4983 -13.0046  -8.7447  -6.5607
    -5.7881  -5.5035  -5.0054  -1.3757   0.1864   1.8671   2.1048   4.4009
     5.3885   5.7708

     occupation numbers 
     1.0000   1.0000   1.0000   1.0000   1.0000   1.0000   1.0000   1.0000
     1.0000   1.0000   1.0000   1.0000   1.0000   0.0000   0.0000   0.0000
     0.0000   0.0000

          k = 0.0000 0.5132 0.0000 (  8260 PWs)   bands (ev):

   -60.7587 -36.0779 -35.5334 -34.9220 -17.1418 -13.1194  -8.3967  -6.2951
    -5.7782  -5.2008  -4.8278  -1.7440   0.1376   0.4444   0.8883   5.1426
     6.2629   6.4187

     occupation numbers 
     1.0000   1.0000   1.0000   1.0000   1.0000   1.0000   1.0000   1.0000
     1.0000   1.0000   1.0000   1.0000   1.0000   0.0000   0.0000   0.0000
     0.0000   0.0000

          k = 0.1111 0.1925 0.0000 (  8199 PWs)   bands (ev):

   -60.7965 -35.6266 -35.4485 -35.0006 -18.2464 -12.7786  -8.7244  -7.4840
    -7.0719  -5.0523  -4.4117   0.4906   0.6242   2.4648   3.1375   3.6595
     3.9081   4.8048

     occupation numbers 
     1.0000   1.0000   1.0000   1.0000   1.0000   1.0000   1.0000   1.0000
     1.0000   1.0000   1.0000   0.0000   0.0000   0.0000   0.0000   0.0000
     0.0000   0.0000

          k = 0.1111 0.3208 0.0000 (  8235 PWs)   bands (ev):

   -60.7781 -35.8350 -35.5090 -34.9623 -17.6748 -12.9345  -8.7701  -6.8962
    -6.1189  -5.8402  -4.3655  -0.9694   0.3789   1.7993   3.0416   3.2789
     5.4247   5.5562

     occupation numbers 
     1.0000   1.0000   1.0000   1.0000   1.0000   1.0000   1.0000   1.0000
     1.0000   1.0000   1.0000   1.0000   0.5000   0.0000   0.0000   0.0000
     0.0000   0.0000

          k = 0.1111 0.4491 0.0000 (  8256 PWs)   bands (ev):

   -60.7617 -36.0109 -35.5623 -34.9283 -17.1974 -13.0641  -8.4500  -6.4429
    -6.3337  -5.1896  -4.2961  -1.9926   0.1292   0.2940   2.1264   4.4552
     6.3332   6.3729

     occupation numbers 
     1.0000   1.0000   1.0000   1.0000   1.0000   1.0000   1.0000   1.0000
     1.0000   1.0000   1.0000   1.0000   1.0000   1.0000   0.0000   0.0000
     0.0000   0.0000

          k = 0.1111-0.5774 0.0000 (  8256 PWs)   bands (ev):

   -60.7552 -36.0788 -35.5833 -34.9148 -17.0190 -13.1134  -8.1193  -6.6634
    -6.2945  -4.7325  -4.2651  -2.0985  -0.5966   0.0505   1.7133   5.0880
     6.1949   6.4448

     occupation numbers 
     1.0000   1.0000   1.0000   1.0000   1.0000   1.0000   1.0000   1.0000
     1.0000   1.0000   1.0000   1.0000   1.0000   1.0000   0.0000   0.0000
     0.0000   0.0000

          k = 0.2222 0.3849 0.0000 (  8247 PWs)   bands (ev):

   -60.7629 -35.9581 -35.6019 -34.9309 -17.2056 -13.0258  -8.4182  -6.7777
    -6.4097  -5.3615  -3.7813  -2.1176   0.1602   0.2415   2.6004   3.8174
     6.4007   6.7206

     occupation numbers 
     1.0000   1.0000   1.0000   1.0000   1.0000   1.0000   1.0000   1.0000
     1.0000   1.0000   1.0000   1.0000   1.0000   1.0000   0.0000   0.0000
     0.0000   0.0000

          k = 0.2222-0.6415 0.0000 (  8269 PWs)   bands (ev):

   -60.7531 -36.0252 -35.6743 -34.9102 -16.9043 -13.0678  -7.7258  -7.3386
    -6.1606  -5.2599  -3.3043  -2.6105  -0.9645  -0.2003   2.6788   4.6934
     6.3519   6.6552

     occupation numbers 
     1.0000   1.0000   1.0000   1.0000   1.0000   1.0000   1.0000   1.0000
     1.0000   1.0000   1.0000   1.0000   1.0000   1.0000   0.0000   0.0000
     0.0000   0.0000

          k = 0.3333-0.5774 0.0000 (  8277 PWs)   bands (ev):

   -60.7496 -36.0069 -35.7432 -34.9031 -16.7820 -13.0554  -7.6795  -6.7477
    -6.3959  -5.9104  -2.7636  -2.5724  -1.5602  -0.5292   3.3020   4.9239
     5.7266   6.7738

     occupation numbers 
     1.0000   1.0000   1.0000   1.0000   1.0000   1.0000   1.0000   1.0000
     1.0000   1.0000   1.0000   1.0000   1.0000   1.0000   0.0000   0.0000
     0.0000   0.0000

     the Fermi energy is     0.3791 ev

!    total energy              =    -180.98511220 Ry
     estimated scf accuracy    <       0.00000006 Ry
     smearing contrib. (-TS)   =      -0.00000486 Ry
     internal energy E=F+TS    =    -180.98510734 Ry

     The total energy is F=E-TS. E is the sum of the following terms:
     one-electron contribution =   -1253.39952627 Ry
     hartree contribution      =     627.15432403 Ry
     xc contribution           =     -30.81485578 Ry
     ewald contribution        =     476.07495068 Ry

     convergence has been achieved in  18 iterations

     negative rho (up, down):  5.392E-05 0.000E+00

     Forces acting on atoms (cartesian axes, Ry/au):

     atom    1 type  1   force =     0.00000000    0.00000000    0.00000000
     atom    2 type  2   force =     0.00000000    0.00000000    0.55092676
     atom    3 type  2   force =     0.00000000    0.00000000   -0.55092676
     The non-local contrib.  to forces
     atom    1 type  1   force =    -0.00000000   -0.00000000    0.00000000
     atom    2 type  2   force =     0.00000000    0.00000000   -0.16272362
     atom    3 type  2   force =     0.00000000    0.00000000    0.16272362
     The ionic contribution  to forces
     atom    1 type  1   force =    -0.00000005   -0.00000003   -0.00000000
     atom    2 type  2   force =     0.00000002    0.00000001   34.63553153
     atom    3 type  2   force =     0.00000002    0.00000001  -34.63553153
     The local contribution  to forces
     atom    1 type  1   force =    -0.00000000   -0.00000000    0.00000000
     atom    2 type  2   force =     0.00000001    0.00000001  -33.91623540
     atom    3 type  2   force =     0.00000001    0.00000001   33.91623540
     The core correction contribution to forces
     atom    1 type  1   force =     0.00000000   -0.00000000   -0.00000000
     atom    2 type  2   force =    -0.00000000   -0.00000000   -0.00589155
     atom    3 type  2   force =    -0.00000000   -0.00000000    0.00589155
     The Hubbard contrib.    to forces
     atom    1 type  1   force =     0.00000000    0.00000000    0.00000000
     atom    2 type  2   force =     0.00000000    0.00000000    0.00000000
     atom    3 type  2   force =     0.00000000    0.00000000    0.00000000
     The SCF correction term to forces
     atom    1 type  1   force =     0.00000000    0.00000000    0.00000000
     atom    2 type  2   force =    -0.00000000   -0.00000000    0.00024580
     atom    3 type  2   force =    -0.00000000   -0.00000000   -0.00024580

     Total force =     0.779128     Total SCF correction =     0.000348

     BFGS Geometry Optimization
     Energy error            =      0.0E+00
     Gradient error          =      5.5E-01

     number of scf cycles    =   1
     number of bfgs steps    =   0

     energy   new            =    -180.9851121976 Ry

     new trust radius        =       0.5000000000 bohr
     new conv_thr            =       0.0000010000 Ry


ATOMIC_POSITIONS (crystal)
Mo            0.0000000000        0.0000000000        0.5000000000    0   0   0
S             0.6666666660        0.6666666660        0.5632294303    0   0   1
S             0.6666666660        0.6666666660        0.4367705697    0   0   1



     Writing output data file ./outdir/MoS2.save/
     NEW-OLD atomic charge density approx. for the potential

     negative rho (up, down):  5.760E-05 0.000E+00

     total cpu time spent up to now is       19.6 secs

     Self-consistent Calculation

     iteration #  1     ecut=    55.00 Ry     beta= 0.10
     Davidson diagonalization with overlap
     ethr =  1.00E-06,  avg # of iterations = 13.2

     negative rho (up, down):  5.481E-05 0.000E+00

     total cpu time spent up to now is       22.0 secs

     total energy              =    -181.43273118 Ry
     estimated scf accuracy    <       0.20812984 Ry

     iteration #  2     ecut=    55.00 Ry     beta= 0.10
     Davidson diagonalization with overlap
     ethr =  8.00E-04,  avg # of iterations =  1.0

     negative rho (up, down):  5.239E-05 0.000E+00

     total cpu time spent up to now is       22.8 secs

     total energy              =    -181.41702435 Ry
     estimated scf accuracy    <       0.06698634 Ry

     iteration #  3     ecut=    55.00 Ry     beta= 0.10
     Davidson diagonalization with overlap
     ethr =  2.58E-04,  avg # of iterations =  2.0

     negative rho (up, down):  5.162E-05 0.000E+00

     total cpu time spent up to now is       23.8 secs

     total energy              =    -181.42669573 Ry
     estimated scf accuracy    <       0.00704125 Ry

     iteration #  4     ecut=    55.00 Ry     beta= 0.10
     Davidson diagonalization with overlap
     ethr =  2.71E-05,  avg # of iterations =  2.0

     negative rho (up, down):  5.080E-05 0.000E+00

     total cpu time spent up to now is       24.7 secs

     total energy              =    -181.42875132 Ry
     estimated scf accuracy    <       0.00806396 Ry

     iteration #  5     ecut=    55.00 Ry     beta= 0.10
     Davidson diagonalization with overlap
     ethr =  2.71E-05,  avg # of iterations =  1.0

     negative rho (up, down):  5.007E-05 0.000E+00

     total cpu time spent up to now is       25.5 secs

     total energy              =    -181.42810946 Ry
     estimated scf accuracy    <       0.00465324 Ry

     iteration #  6     ecut=    55.00 Ry     beta= 0.10
     Davidson diagonalization with overlap
     ethr =  1.79E-05,  avg # of iterations =  1.1

     negative rho (up, down):  4.942E-05 0.000E+00

     total cpu time spent up to now is       26.4 secs

     total energy              =    -181.42810875 Ry
     estimated scf accuracy    <       0.00122508 Ry

     iteration #  7     ecut=    55.00 Ry     beta= 0.10
     Davidson diagonalization with overlap
     ethr =  4.71E-06,  avg # of iterations =  3.8

     negative rho (up, down):  4.889E-05 0.000E+00

     total cpu time spent up to now is       27.3 secs

     total energy              =    -181.42803753 Ry
     estimated scf accuracy    <       0.00047422 Ry

     iteration #  8     ecut=    55.00 Ry     beta= 0.10
     Davidson diagonalization with overlap
     ethr =  1.82E-06,  avg # of iterations =  3.3

     negative rho (up, down):  4.815E-05 0.000E+00

     total cpu time spent up to now is       28.2 secs

     total energy              =    -181.42808287 Ry
     estimated scf accuracy    <       0.00005937 Ry

     iteration #  9     ecut=    55.00 Ry     beta= 0.10
     Davidson diagonalization with overlap
     ethr =  2.28E-07,  avg # of iterations =  1.7

     negative rho (up, down):  4.759E-05 0.000E+00

     total cpu time spent up to now is       29.1 secs

     total energy              =    -181.42807901 Ry
     estimated scf accuracy    <       0.00003376 Ry

     iteration # 10     ecut=    55.00 Ry     beta= 0.10
     Davidson diagonalization with overlap
     ethr =  1.30E-07,  avg # of iterations =  2.0

     negative rho (up, down):  4.699E-05 0.000E+00

     total cpu time spent up to now is       30.1 secs

     total energy              =    -181.42808259 Ry
     estimated scf accuracy    <       0.00001346 Ry

     iteration # 11     ecut=    55.00 Ry     beta= 0.10
     Davidson diagonalization with overlap
     ethr =  5.18E-08,  avg # of iterations =  1.0

     negative rho (up, down):  4.643E-05 0.000E+00

     total cpu time spent up to now is       30.9 secs

     total energy              =    -181.42807975 Ry
     estimated scf accuracy    <       0.00001082 Ry

     iteration # 12     ecut=    55.00 Ry     beta= 0.10
     Davidson diagonalization with overlap
     ethr =  4.16E-08,  avg # of iterations =  2.0

     negative rho (up, down):  4.601E-05 0.000E+00

     total cpu time spent up to now is       31.8 secs

     total energy              =    -181.42807994 Ry
     estimated scf accuracy    <       0.00000255 Ry

     iteration # 13     ecut=    55.00 Ry     beta= 0.10
     Davidson diagonalization with overlap
     ethr =  9.82E-09,  avg # of iterations =  2.0

     negative rho (up, down):  4.260E-05 0.000E+00

     total cpu time spent up to now is       32.7 secs

     End of self-consistent calculation

          k = 0.0000 0.0000 0.0000 (  8231 PWs)   bands (ev):

   -62.1099 -36.3047 -36.2826 -36.2826 -16.6934 -13.7071  -7.8334  -6.0285
    -6.0285  -4.0921  -4.0921  -1.7885   0.0244   1.5510   1.5510   2.7909
     2.7909   3.8929

     occupation numbers 
     1.0000   1.0000   1.0000   1.0000   1.0000   1.0000   1.0000   1.0000
     1.0000   1.0000   1.0000   1.0000   0.0000   0.0000   0.0000   0.0000
     0.0000   0.0000

          k = 0.0000 0.1283 0.0000 (  8215 PWs)   bands (ev):

   -62.1048 -36.3388 -36.2946 -36.2937 -16.4982 -13.7009  -7.7105  -6.2266
    -5.7970  -4.4561  -4.3538  -1.5401  -0.2926   1.4388   1.9775   2.3749
     2.4678   4.6310

     occupation numbers 
     1.0000   1.0000   1.0000   1.0000   1.0000   1.0000   1.0000   1.0000
     1.0000   1.0000   1.0000   1.0000   0.8333   0.0000   0.0000   0.0000
     0.0000   0.0000

          k = 0.0000 0.2566 0.0000 (  8226 PWs)   bands (ev):

   -62.0922 -36.4787 -36.3251 -36.2658 -15.9903 -13.6855  -7.6495  -6.2762
    -5.1554  -5.1070  -4.8987  -1.5181  -1.2911   1.7708   1.8370   1.9698
     2.9255   5.3294

     occupation numbers 
     1.0000   1.0000   1.0000   1.0000   1.0000   1.0000   1.0000   1.0000
     1.0000   1.0000   1.0000   1.0000   1.0000   0.0000   0.0000   0.0000
     0.0000   0.0000

          k = 0.0000 0.3849 0.0000 (  8242 PWs)   bands (ev):

   -62.0778 -36.6338 -36.3594 -36.2339 -15.3859 -13.6681  -7.8304  -5.9020
    -5.6738  -5.3938  -4.2854  -2.2252  -1.8061   1.0580   1.6368   2.7812
     3.8282   5.8681

     occupation numbers 
     1.0000   1.0000   1.0000   1.0000   1.0000   1.0000   1.0000   1.0000
     1.0000   1.0000   1.0000   1.0000   1.0000   0.0000   0.0000   0.0000
     0.0000   0.0000

          k = 0.0000 0.5132 0.0000 (  8260 PWs)   bands (ev):

   -62.0684 -36.7329 -36.3817 -36.2129 -14.9754 -13.6566  -7.8313  -6.0033
    -5.9680  -5.6715  -3.5771  -2.1462  -1.9745   0.5595   1.0038   3.3650
     4.3217   5.5004

     occupation numbers 
     1.0000   1.0000   1.0000   1.0000   1.0000   1.0000   1.0000   1.0000
     1.0000   1.0000   1.0000   1.0000   1.0000   0.0000   0.0000   0.0000
     0.0000   0.0000

          k = 0.1111 0.1925 0.0000 (  8199 PWs)   bands (ev):

   -62.0959 -36.4320 -36.3206 -36.2742 -16.1457 -13.6891  -7.6070  -6.3526
    -5.3577  -4.9986  -4.7082  -1.3567  -0.9732   1.3934   1.8562   2.1113
     2.8193   5.1864

     occupation numbers 
     1.0000   1.0000   1.0000   1.0000   1.0000   1.0000   1.0000   1.0000
     1.0000   1.0000   1.0000   1.0000   1.0000   0.0000   0.0000   0.0000
     0.0000   0.0000

          k = 0.1111 0.3208 0.0000 (  8235 PWs)   bands (ev):

   -62.0825 -36.5684 -36.3641 -36.2443 -15.5839 -13.6666  -7.7009  -6.0410
    -5.8600  -4.9108  -4.6706  -2.0216  -1.5147   1.1667   1.8358   1.9414
     3.8751   5.8544

     occupation numbers 
     1.0000   1.0000   1.0000   1.0000   1.0000   1.0000   1.0000   1.0000
     1.0000   1.0000   1.0000   1.0000   1.0000   0.0000   0.0000   0.0000
     0.0000   0.0000

          k = 0.1111 0.4491 0.0000 (  8256 PWs)   bands (ev):

   -62.0706 -36.6851 -36.4026 -36.2179 -15.0672 -13.6411  -7.7198  -6.5396
    -5.8005  -4.9561  -4.0853  -2.4681  -1.8688   0.5997   1.4613   2.8676
     4.3215   6.0713

     occupation numbers 
     1.0000   1.0000   1.0000   1.0000   1.0000   1.0000   1.0000   1.0000
     1.0000   1.0000   1.0000   1.0000   1.0000   0.0000   0.0000   0.0000
     0.0000   0.0000

          k = 0.1111-0.5774 0.0000 (  8256 PWs)   bands (ev):

   -62.0659 -36.7306 -36.4178 -36.2074 -14.8578 -13.6292  -7.6081  -6.7914
    -5.9937  -4.9500  -3.7696  -2.3020  -2.0241   0.1389   1.3849   3.4176
     4.1505   5.6719

     occupation numbers 
     1.0000   1.0000   1.0000   1.0000   1.0000   1.0000   1.0000   1.0000
     1.0000   1.0000   1.0000   1.0000   1.0000   0.0000   0.0000   0.0000
     0.0000   0.0000

          k = 0.2222 0.3849 0.0000 (  8247 PWs)   bands (ev):

   -62.0715 -36.6455 -36.4324 -36.2198 -15.1003 -13.6248  -7.5815  -6.7949
    -5.6427  -4.6248  -4.5484  -2.6038  -1.7213   0.6092   1.6264   2.3468
     4.5530   6.4801

     occupation numbers 
     1.0000   1.0000   1.0000   1.0000   1.0000   1.0000   1.0000   1.0000
     1.0000   1.0000   1.0000   1.0000   1.0000   0.0000   0.0000   0.0000
     0.0000   0.0000

          k = 0.2222-0.6415 0.0000 (  8269 PWs)   bands (ev):

   -62.0643 -36.6846 -36.4876 -36.2038 -14.7747 -13.5833  -7.3715  -7.1691
    -5.7435  -4.7740  -4.2732  -2.4208  -2.1349  -0.2744   2.0879   3.0403
     4.4024   6.1991

     occupation numbers 
     1.0000   1.0000   1.0000   1.0000   1.0000   1.0000   1.0000   1.0000
     1.0000   1.0000   1.0000   1.0000   1.0000   0.0000   0.0000   0.0000
     0.0000   0.0000

          k = 0.3333-0.5774 0.0000 (  8277 PWs)   bands (ev):

   -62.0618 -36.6564 -36.5495 -36.1982 -14.6571 -13.5501  -7.6923  -6.3062
    -6.0719  -5.4942  -3.8531  -2.4288  -2.0358  -1.0069   2.7517   3.1606
     4.4279   5.7924

     occupation numbers 
     1.0000   1.0000   1.0000   1.0000   1.0000   1.0000   1.0000   1.0000
     1.0000   1.0000   1.0000   1.0000   1.0000   1.0000   0.0000   0.0000
     0.0000   0.0000

     the Fermi energy is    -0.2918 ev

!    total energy              =    -181.42808027 Ry
     estimated scf accuracy    <       0.00000010 Ry
     smearing contrib. (-TS)   =      -0.00000063 Ry
     internal energy E=F+TS    =    -181.42807964 Ry

     The total energy is F=E-TS. E is the sum of the following terms:
     one-electron contribution =   -1184.18608966 Ry
     hartree contribution      =     591.92136506 Ry
     xc contribution           =     -30.18152023 Ry
     ewald contribution        =     441.01816519 Ry

     convergence has been achieved in  13 iterations

     negative rho (up, down):  4.260E-05 0.000E+00

     Forces acting on atoms (cartesian axes, Ry/au):

     atom    1 type  1   force =     0.00000000   -0.00000000    0.00000000
     atom    2 type  2   force =     0.00000000    0.00000000    0.30124843
     atom    3 type  2   force =     0.00000000    0.00000000   -0.30124843
     The non-local contrib.  to forces
     atom    1 type  1   force =     0.00000000    0.00000000    0.00000000
     atom    2 type  2   force =     0.00000000    0.00000000   -0.17228268
     atom    3 type  2   force =     0.00000000   -0.00000000    0.17228268
     The ionic contribution  to forces
     atom    1 type  1   force =    -0.00000003   -0.00000002    0.00000000
     atom    2 type  2   force =     0.00000001    0.00000001   35.39352689
     atom    3 type  2   force =     0.00000001    0.00000001  -35.39352689
     The local contribution  to forces
     atom    1 type  1   force =     0.00000000    0.00000000    0.00000000
     atom    2 type  2   force =     0.00000002    0.00000001  -34.91757552
     atom    3 type  2   force =     0.00000002    0.00000001   34.91757552
     The core correction contribution to forces
     atom    1 type  1   force =    -0.00000000   -0.00000000   -0.00000000
     atom    2 type  2   force =    -0.00000000   -0.00000000   -0.00179273
     atom    3 type  2   force =    -0.00000000   -0.00000000    0.00179273
     The Hubbard contrib.    to forces
     atom    1 type  1   force =     0.00000000    0.00000000    0.00000000
     atom    2 type  2   force =     0.00000000    0.00000000    0.00000000
     atom    3 type  2   force =     0.00000000    0.00000000    0.00000000
     The SCF correction term to forces
     atom    1 type  1   force =     0.00000000    0.00000000   -0.00000000
     atom    2 type  2   force =    -0.00000000   -0.00000000   -0.00062755
     atom    3 type  2   force =    -0.00000000   -0.00000000    0.00062755

     Total force =     0.426030     Total SCF correction =     0.000887
     Energy error            =      4.4E-01
     Gradient error          =      3.0E-01

     number of scf cycles    =   2
     number of bfgs steps    =   1

     energy   old            =    -180.9851121976 Ry
     energy   new            =    -181.4280802729 Ry

     CASE: energy  _new < energy  _old

     new trust radius        =       0.6032730505 bohr
     new conv_thr            =       0.0000010000 Ry


ATOMIC_POSITIONS (crystal)
Mo            0.0000000000        0.0000000000        0.5000000000    0   0   0
S             0.6666666660        0.6666666660        0.5791913478    0   0   1
S             0.6666666660        0.6666666660        0.4208086522    0   0   1



     Writing output data file ./outdir/MoS2.save/
     NEW-OLD atomic charge density approx. for the potential

     negative rho (up, down):  4.955E-05 0.000E+00

     total cpu time spent up to now is       34.2 secs

     Self-consistent Calculation

     iteration #  1     ecut=    55.00 Ry     beta= 0.10
     Davidson diagonalization with overlap
     c_bands:  1 eigenvalues not converged
     ethr =  1.00E-06,  avg # of iterations = 14.0

     negative rho (up, down):  4.826E-05 0.000E+00

     total cpu time spent up to now is       36.6 secs

     total energy              =    -181.57883305 Ry
     estimated scf accuracy    <       0.03528432 Ry

     iteration #  2     ecut=    55.00 Ry     beta= 0.10
     Davidson diagonalization with overlap
     ethr =  1.36E-04,  avg # of iterations =  1.0

     negative rho (up, down):  4.734E-05 0.000E+00

     total cpu time spent up to now is       37.5 secs

     total energy              =    -181.57811181 Ry
     estimated scf accuracy    <       0.01311569 Ry

     iteration #  3     ecut=    55.00 Ry     beta= 0.10
     Davidson diagonalization with overlap
     ethr =  5.04E-05,  avg # of iterations =  1.0

     negative rho (up, down):  4.889E-05 0.000E+00

     total cpu time spent up to now is       38.3 secs

     total energy              =    -181.57688169 Ry
     estimated scf accuracy    <       0.00632035 Ry

     iteration #  4     ecut=    55.00 Ry     beta= 0.10
     Davidson diagonalization with overlap
     ethr =  2.43E-05,  avg # of iterations =  2.0

     negative rho (up, down):  4.851E-05 0.000E+00

     total cpu time spent up to now is       39.2 secs

     total energy              =    -181.57748500 Ry
     estimated scf accuracy    <       0.00059398 Ry

     iteration #  5     ecut=    55.00 Ry     beta= 0.10
     Davidson diagonalization with overlap
     ethr =  2.28E-06,  avg # of iterations =  3.6

     negative rho (up, down):  4.825E-05 0.000E+00

     total cpu time spent up to now is       40.2 secs

     total energy              =    -181.57746564 Ry
     estimated scf accuracy    <       0.00036977 Ry

     iteration #  6     ecut=    55.00 Ry     beta= 0.10
     Davidson diagonalization with overlap
     ethr =  1.42E-06,  avg # of iterations =  2.0

     negative rho (up, down):  4.711E-05 0.000E+00

     total cpu time spent up to now is       41.2 secs

     total energy              =    -181.57756084 Ry
     estimated scf accuracy    <       0.00009304 Ry

     iteration #  7     ecut=    55.00 Ry     beta= 0.10
     Davidson diagonalization with overlap
     ethr =  3.58E-07,  avg # of iterations =  1.0

     negative rho (up, down):  4.621E-05 0.000E+00

     total cpu time spent up to now is       42.0 secs

     total energy              =    -181.57751848 Ry
     estimated scf accuracy    <       0.00007269 Ry

     iteration #  8     ecut=    55.00 Ry     beta= 0.10
     Davidson diagonalization with overlap
     ethr =  2.80E-07,  avg # of iterations =  2.0

     negative rho (up, down):  4.535E-05 0.000E+00

     total cpu time spent up to now is       43.0 secs

     total energy              =    -181.57753870 Ry
     estimated scf accuracy    <       0.00000235 Ry

     iteration #  9     ecut=    55.00 Ry     beta= 0.10
     Davidson diagonalization with overlap
     ethr =  9.04E-09,  avg # of iterations =  2.2

     negative rho (up, down):  4.456E-05 0.000E+00

     total cpu time spent up to now is       44.0 secs

     total energy              =    -181.57753790 Ry
     estimated scf accuracy    <       0.00000246 Ry

     iteration # 10     ecut=    55.00 Ry     beta= 0.10
     Davidson diagonalization with overlap
     ethr =  9.04E-09,  avg # of iterations =  2.0

     negative rho (up, down):  3.917E-05 0.000E+00

     total cpu time spent up to now is       44.9 secs

     End of self-consistent calculation

          k = 0.0000 0.0000 0.0000 (  8231 PWs)   bands (ev):

   -61.9257 -36.0535 -35.8607 -35.8607 -14.9710 -13.7498  -6.5051  -3.5067
    -3.5067  -2.7962  -2.4439  -2.4439  -1.0550   1.6886   1.6886   1.8837
     1.8837   4.3248

     occupation numbers 
     1.0000   1.0000   1.0000   1.0000   1.0000   1.0000   1.0000   1.0000
     1.0000   1.0000   1.0000   1.0000   1.0000   0.0000   0.0000   0.0000
     0.0000   0.0000

          k = 0.0000 0.1283 0.0000 (  8215 PWs)   bands (ev):

   -61.9216 -36.0455 -35.9020 -35.8702 -14.7966 -13.6741  -6.3043  -3.8939
    -3.4327  -3.3260  -2.7137  -2.1041  -1.1521   1.4634   1.5008   1.6988
     1.9748   4.6274

     occupation numbers 
     1.0000   1.0000   1.0000   1.0000   1.0000   1.0000   1.0000   1.0000
     1.0000   1.0000   1.0000   1.0000   1.0000   0.0000   0.0000   0.0000
     0.0000   0.0000

          k = 0.0000 0.2566 0.0000 (  8226 PWs)   bands (ev):

   -61.9116 -36.0252 -36.0053 -35.8940 -14.3226 -13.4689  -5.9039  -4.6225
    -4.2814  -3.2642  -2.8566  -2.2570  -1.5899   1.0810   1.3440   1.6692
     2.5222   5.3043

     occupation numbers 
     1.0000   1.0000   1.0000   1.0000   1.0000   1.0000   1.0000   1.0000
     1.0000   1.0000   1.0000   1.0000   1.0000   0.0000   0.0000   0.0000
     0.0000   0.0000

          k = 0.0000 0.3849 0.0000 (  8242 PWs)   bands (ev):

   -61.9001 -36.1208 -36.0021 -35.9210 -13.7048 -13.2067  -6.1060  -5.1010
    -4.8515  -3.7575  -2.6550  -2.3213  -1.9579   1.1410   1.2490   2.2807
     2.9365   6.1516

     occupation numbers 
     1.0000   1.0000   1.0000   1.0000   1.0000   1.0000   1.0000   1.0000
     1.0000   1.0000   1.0000   1.0000   1.0000   0.0000   0.0000   0.0000
     0.0000   0.0000

          k = 0.0000 0.5132 0.0000 (  8260 PWs)   bands (ev):

   -61.8926 -36.1951 -35.9870 -35.9385 -13.2314 -13.0138  -6.5838  -5.6376
    -4.9554  -4.0328  -2.8728  -1.9994  -1.7161   1.1661   1.5946   2.7068
     3.1215   5.3004

     occupation numbers 
     1.0000   1.0000   1.0000   1.0000   1.0000   1.0000   1.0000   1.0000
     1.0000   1.0000   1.0000   1.0000   1.0000   0.0000   0.0000   0.0000
     0.0000   0.0000

          k = 0.1111 0.1925 0.0000 (  8199 PWs)   bands (ev):

   -61.9145 -36.0314 -35.9706 -35.8905 -14.4718 -13.5329  -5.9824  -4.4304
    -3.9441  -3.3740  -3.0393  -1.9572  -1.4280   1.0843   1.3942   1.4355
     2.4735   5.1084

     occupation numbers 
     1.0000   1.0000   1.0000   1.0000   1.0000   1.0000   1.0000   1.0000
     1.0000   1.0000   1.0000   1.0000   1.0000   0.0000   0.0000   0.0000
     0.0000   0.0000

          k = 0.1111 0.3208 0.0000 (  8235 PWs)   bands (ev):

   -61.9038 -36.0715 -36.0097 -35.9244 -13.9203 -13.2942  -5.8410  -4.7908
    -4.7072  -3.9765  -2.8122  -2.2060  -1.8035   0.9039   1.3668   1.7264
     2.9864   5.9390

     occupation numbers 
     1.0000   1.0000   1.0000   1.0000   1.0000   1.0000   1.0000   1.0000
     1.0000   1.0000   1.0000   1.0000   1.0000   0.0000   0.0000   0.0000
     0.0000   0.0000

          k = 0.1111 0.4491 0.0000 (  8256 PWs)   bands (ev):

   -61.8944 -36.1584 -35.9905 -35.9545 -13.3571 -13.0550  -6.2580  -5.5115
    -4.8121  -4.1085  -2.8041  -2.6625  -1.6415   1.1294   1.5129   2.3178
     3.1459   6.0432

     occupation numbers 
     1.0000   1.0000   1.0000   1.0000   1.0000   1.0000   1.0000   1.0000
     1.0000   1.0000   1.0000   1.0000   1.0000   0.0000   0.0000   0.0000
     0.0000   0.0000

          k = 0.1111-0.5774 0.0000 (  8256 PWs)   bands (ev):

   -61.8906 -36.1924 -35.9830 -35.9664 -13.1050 -12.9506  -6.4846  -5.8308
    -4.9282  -4.1010  -2.8822  -2.7330  -1.4018   1.1786   1.7682   2.6904
     3.0179   5.2572

     occupation numbers 
     1.0000   1.0000   1.0000   1.0000   1.0000   1.0000   1.0000   1.0000
     1.0000   1.0000   1.0000   1.0000   1.0000   0.0000   0.0000   0.0000
     0.0000   0.0000

          k = 0.2222 0.3849 0.0000 (  8247 PWs)   bands (ev):

   -61.8950 -36.1272 -35.9919 -35.9779 -13.4094 -13.0678  -5.9826  -5.4378
    -4.6104  -4.2590  -3.4682  -2.4379  -1.6669   1.0638   1.5306   1.9050
     3.3185   6.6510

     occupation numbers 
     1.0000   1.0000   1.0000   1.0000   1.0000   1.0000   1.0000   1.0000
     1.0000   1.0000   1.0000   1.0000   1.0000   0.0000   0.0000   0.0000
     0.0000   0.0000

          k = 0.2222-0.6415 0.0000 (  8269 PWs)   bands (ev):

   -61.8893 -36.1541 -36.0221 -35.9804 -13.0349 -12.8988  -6.0257  -6.0177
    -4.7393  -4.0711  -3.8985  -2.8974  -1.2965   0.9860   2.0120   2.1058
     3.4558   5.8807

     occupation numbers 
     1.0000   1.0000   1.0000   1.0000   1.0000   1.0000   1.0000   1.0000
     1.0000   1.0000   1.0000   1.0000   1.0000   0.0000   0.0000   0.0000
     0.0000   0.0000

          k = 0.3333-0.5774 0.0000 (  8277 PWs)   bands (ev):

   -61.8873 -36.1196 -36.0818 -35.9763 -12.9041 -12.8297  -6.2643  -5.5060
    -4.9838  -4.5085  -3.8569  -3.1744  -1.0141   0.6504   1.9555   2.4009
     3.6871   6.1345

     occupation numbers 
     1.0000   1.0000   1.0000   1.0000   1.0000   1.0000   1.0000   1.0000
     1.0000   1.0000   1.0000   1.0000   1.0000   0.0000   0.0000   0.0000
     0.0000   0.0000

     the Fermi energy is     0.2241 ev

!    total energy              =    -181.57753804 Ry
     estimated scf accuracy    <       0.00000022 Ry
     smearing contrib. (-TS)   =       0.00000000 Ry
     internal energy E=F+TS    =    -181.57753804 Ry

     The total energy is F=E-TS. E is the sum of the following terms:
     one-electron contribution =   -1100.60177226 Ry
     hartree contribution      =     550.46950849 Ry
     xc contribution           =     -29.63438391 Ry
     ewald contribution        =     398.18910965 Ry

     convergence has been achieved in  10 iterations

     negative rho (up, down):  3.917E-05 0.000E+00

     Forces acting on atoms (cartesian axes, Ry/au):

     atom    1 type  1   force =     0.00000000   -0.00000000    0.00000000
     atom    2 type  2   force =     0.00000000   -0.00000000   -0.01688409
     atom    3 type  2   force =     0.00000000   -0.00000000    0.01688409
     The non-local contrib.  to forces
     atom    1 type  1   force =     0.00000000    0.00000000    0.00000000
     atom    2 type  2   force =     0.00000000    0.00000000   -0.28212289
     atom    3 type  2   force =     0.00000000    0.00000000    0.28212289
     The ionic contribution  to forces
     atom    1 type  1   force =    -0.00000002   -0.00000001    0.00000000
     atom    2 type  2   force =     0.00000001    0.00000000   35.43266971
     atom    3 type  2   force =     0.00000001    0.00000000  -35.43266971
     The local contribution  to forces
     atom    1 type  1   force =    -0.00000000    0.00000000    0.00000000
     atom    2 type  2   force =     0.00000002    0.00000001  -35.16940262
     atom    3 type  2   force =     0.00000002    0.00000001   35.16940262
     The core correction contribution to forces
     atom    1 type  1   force =     0.00000000    0.00000000   -0.00000000
     atom    2 type  2   force =    -0.00000000   -0.00000000    0.00295021
     atom    3 type  2   force =    -0.00000000   -0.00000000   -0.00295021
     The Hubbard contrib.    to forces
     atom    1 type  1   force =     0.00000000    0.00000000    0.00000000
     atom    2 type  2   force =     0.00000000    0.00000000    0.00000000
     atom    3 type  2   force =     0.00000000    0.00000000    0.00000000
     The SCF correction term to forces
     atom    1 type  1   force =     0.00000000    0.00000000   -0.00000000
     atom    2 type  2   force =    -0.00000000   -0.00000000   -0.00097849
     atom    3 type  2   force =    -0.00000000   -0.00000000    0.00097849

     Total force =     0.023878     Total SCF correction =     0.001384
     Energy error            =      1.5E-01
     Gradient error          =      1.7E-02

     number of scf cycles    =   3
     number of bfgs steps    =   2

     energy   old            =    -181.4280802729 Ry
     energy   new            =    -181.5775380405 Ry

     CASE: energy  _new < energy  _old

     new trust radius        =       0.0320172104 bohr
     new conv_thr            =       0.0000001688 Ry


ATOMIC_POSITIONS (crystal)
Mo            0.0000000000        0.0000000000        0.5000000000    0   0   0
S             0.6666666660        0.6666666660        0.5783442089    0   0   1
S             0.6666666660        0.6666666660        0.4216557911    0   0   1



     Writing output data file ./outdir/MoS2.save/
     NEW-OLD atomic charge density approx. for the potential

     negative rho (up, down):  3.852E-05 0.000E+00

     total cpu time spent up to now is       46.4 secs

     Self-consistent Calculation

     iteration #  1     ecut=    55.00 Ry     beta= 0.10
     Davidson diagonalization with overlap
     ethr =  1.00E-06,  avg # of iterations =  6.2

     negative rho (up, down):  3.850E-05 0.000E+00

     total cpu time spent up to now is       47.9 secs

     total energy              =    -181.57826386 Ry
     estimated scf accuracy    <       0.00015262 Ry

     iteration #  2     ecut=    55.00 Ry     beta= 0.10
     Davidson diagonalization with overlap
     ethr =  5.87E-07,  avg # of iterations =  1.0

     negative rho (up, down):  3.846E-05 0.000E+00

     total cpu time spent up to now is       48.7 secs

     total energy              =    -181.57826440 Ry
     estimated scf accuracy    <       0.00004038 Ry

     iteration #  3     ecut=    55.00 Ry     beta= 0.10
     Davidson diagonalization with overlap
     ethr =  1.55E-07,  avg # of iterations =  1.1

     negative rho (up, down):  3.841E-05 0.000E+00

     total cpu time spent up to now is       49.6 secs

     total energy              =    -181.57826258 Ry
     estimated scf accuracy    <       0.00001660 Ry

     iteration #  4     ecut=    55.00 Ry     beta= 0.10
     Davidson diagonalization with overlap
     ethr =  6.39E-08,  avg # of iterations =  2.0

     negative rho (up, down):  3.839E-05 0.000E+00

     total cpu time spent up to now is       50.5 secs

     total energy              =    -181.57826427 Ry
     estimated scf accuracy    <       0.00000146 Ry

     iteration #  5     ecut=    55.00 Ry     beta= 0.10
     Davidson diagonalization with overlap
     ethr =  5.60E-09,  avg # of iterations =  1.8

     negative rho (up, down):  3.841E-05 0.000E+00

     total cpu time spent up to now is       51.5 secs

     total energy              =    -181.57826438 Ry
     estimated scf accuracy    <       0.00000051 Ry

     iteration #  6     ecut=    55.00 Ry     beta= 0.10
     Davidson diagonalization with overlap
     ethr =  1.96E-09,  avg # of iterations =  2.0

     negative rho (up, down):  3.839E-05 0.000E+00

     total cpu time spent up to now is       52.5 secs

     total energy              =    -181.57826443 Ry
     estimated scf accuracy    <       0.00000055 Ry

     iteration #  7     ecut=    55.00 Ry     beta= 0.10
     Davidson diagonalization with overlap
     ethr =  1.96E-09,  avg # of iterations =  1.0

     negative rho (up, down):  3.841E-05 0.000E+00

     total cpu time spent up to now is       53.4 secs

     End of self-consistent calculation

          k = 0.0000 0.0000 0.0000 (  8231 PWs)   bands (ev):

   -61.9280 -36.0604 -35.8711 -35.8711 -15.0343 -13.7567  -6.5603  -3.6114
    -3.6114  -2.7625  -2.5252  -2.5252  -1.0069   1.6886   1.6886   1.9241
     1.9241   4.3366

     occupation numbers 
     1.0000   1.0000   1.0000   1.0000   1.0000   1.0000   1.0000   1.0000
     1.0000   1.0000   1.0000   1.0000   1.0000   0.0000   0.0000   0.0000
     0.0000   0.0000

          k = 0.0000 0.1283 0.0000 (  8215 PWs)   bands (ev):

   -61.9239 -36.0522 -35.9129 -35.8807 -14.8591 -13.6837  -6.3619  -3.9922
    -3.4620  -3.4288  -2.7951  -2.1142  -1.1140   1.5044   1.5073   1.7343
     1.9829   4.6388

     occupation numbers 
     1.0000   1.0000   1.0000   1.0000   1.0000   1.0000   1.0000   1.0000
     1.0000   1.0000   1.0000   1.0000   1.0000   0.0000   0.0000   0.0000
     0.0000   0.0000

          k = 0.0000 0.2566 0.0000 (  8226 PWs)   bands (ev):

   -61.9138 -36.0316 -36.0175 -35.9048 -14.3833 -13.4865  -5.9751  -4.6933
    -4.3225  -3.3464  -2.9523  -2.2382  -1.5782   1.1289   1.3667   1.6832
     2.5508   5.3136

     occupation numbers 
     1.0000   1.0000   1.0000   1.0000   1.0000   1.0000   1.0000   1.0000
     1.0000   1.0000   1.0000   1.0000   1.0000   0.0000   0.0000   0.0000
     0.0000   0.0000

          k = 0.0000 0.3849 0.0000 (  8242 PWs)   bands (ev):

   -61.9022 -36.1343 -36.0081 -35.9320 -13.7652 -13.2352  -6.1841  -5.1361
    -4.8926  -3.8406  -2.6270  -2.4016  -1.9682   1.1427   1.2829   2.3101
     2.9862   6.1483

     occupation numbers 
     1.0000   1.0000   1.0000   1.0000   1.0000   1.0000   1.0000   1.0000
     1.0000   1.0000   1.0000   1.0000   1.0000   0.0000   0.0000   0.0000
     0.0000   0.0000

          k = 0.0000 0.5132 0.0000 (  8260 PWs)   bands (ev):

   -61.8946 -36.2095 -35.9926 -35.9497 -13.2935 -13.0510  -6.6400  -5.6630
    -5.0044  -4.1164  -2.8438  -2.0625  -1.7266   1.1465   1.5992   2.7433
     3.1830   5.3099

     occupation numbers 
     1.0000   1.0000   1.0000   1.0000   1.0000   1.0000   1.0000   1.0000
     1.0000   1.0000   1.0000   1.0000   1.0000   0.0000   0.0000   0.0000
     0.0000   0.0000

          k = 0.1111 0.1925 0.0000 (  8199 PWs)   bands (ev):

   -61.9167 -36.0379 -35.9823 -35.9011 -14.5329 -13.5479  -6.0475  -4.5132
    -3.9825  -3.4470  -3.1357  -1.9533  -1.4096   1.1317   1.4002   1.4631
     2.4998   5.1184

     occupation numbers 
     1.0000   1.0000   1.0000   1.0000   1.0000   1.0000   1.0000   1.0000
     1.0000   1.0000   1.0000   1.0000   1.0000   0.0000   0.0000   0.0000
     0.0000   0.0000

          k = 0.1111 0.3208 0.0000 (  8235 PWs)   bands (ev):

   -61.9060 -36.0844 -36.0158 -35.9354 -13.9804 -13.3187  -5.9249  -4.8367
    -4.7572  -4.0320  -2.8823  -2.1913  -1.8223   0.9419   1.3811   1.7427
     3.0370   5.9448

     occupation numbers 
     1.0000   1.0000   1.0000   1.0000   1.0000   1.0000   1.0000   1.0000
     1.0000   1.0000   1.0000   1.0000   1.0000   0.0000   0.0000   0.0000
     0.0000   0.0000

          k = 0.1111 0.4491 0.0000 (  8256 PWs)   bands (ev):

   -61.8964 -36.1724 -35.9963 -35.9659 -13.4182 -13.0894  -6.3238  -5.5573
    -4.8557  -4.1622  -2.8502  -2.6409  -1.6779   1.1443   1.5056   2.3526
     3.2038   6.0585

     occupation numbers 
     1.0000   1.0000   1.0000   1.0000   1.0000   1.0000   1.0000   1.0000
     1.0000   1.0000   1.0000   1.0000   1.0000   0.0000   0.0000   0.0000
     0.0000   0.0000

          k = 0.1111-0.5774 0.0000 (  8256 PWs)   bands (ev):

   -61.8926 -36.2068 -35.9885 -35.9778 -13.1674 -12.9897  -6.5357  -5.8729
    -4.9805  -4.1575  -2.8561  -2.7717  -1.4336   1.1591   1.7667   2.7435
     3.0629   5.2759

     occupation numbers 
     1.0000   1.0000   1.0000   1.0000   1.0000   1.0000   1.0000   1.0000
     1.0000   1.0000   1.0000   1.0000   1.0000   0.0000   0.0000   0.0000
     0.0000   0.0000

          k = 0.2222 0.3849 0.0000 (  8247 PWs)   bands (ev):

   -61.8971 -36.1409 -35.9977 -35.9895 -13.4700 -13.1010  -6.0562  -5.5047
    -4.6481  -4.2846  -3.5146  -2.4193  -1.7065   1.1035   1.5083   1.9356
     3.3787   6.6550

     occupation numbers 
     1.0000   1.0000   1.0000   1.0000   1.0000   1.0000   1.0000   1.0000
     1.0000   1.0000   1.0000   1.0000   1.0000   0.0000   0.0000   0.0000
     0.0000   0.0000

          k = 0.2222-0.6415 0.0000 (  8269 PWs)   bands (ev):

   -61.8913 -36.1681 -36.0342 -35.9859 -13.0971 -12.9383  -6.0927  -6.0701
    -4.7878  -4.0905  -3.9376  -2.8754  -1.3324   0.9599   2.0283   2.1610
     3.5019   5.9065

     occupation numbers 
     1.0000   1.0000   1.0000   1.0000   1.0000   1.0000   1.0000   1.0000
     1.0000   1.0000   1.0000   1.0000   1.0000   0.0000   0.0000   0.0000
     0.0000   0.0000

          k = 0.3333-0.5774 0.0000 (  8277 PWs)   bands (ev):

   -61.8893 -36.1339 -36.0939 -35.9818 -12.9668 -12.8711  -6.3380  -5.5465
    -5.0334  -4.5543  -3.8648  -3.1525  -1.0423   0.5967   2.0185   2.4423
     3.7301   6.1277

     occupation numbers 
     1.0000   1.0000   1.0000   1.0000   1.0000   1.0000   1.0000   1.0000
     1.0000   1.0000   1.0000   1.0000   1.0000   0.0000   0.0000   0.0000
     0.0000   0.0000

     the Fermi energy is     0.2275 ev

!    total energy              =    -181.57826433 Ry
     estimated scf accuracy    <       0.00000013 Ry
     smearing contrib. (-TS)   =       0.00000000 Ry
     internal energy E=F+TS    =    -181.57826433 Ry

     The total energy is F=E-TS. E is the sum of the following terms:
     one-electron contribution =   -1105.06931079 Ry
     hartree contribution      =     552.69180839 Ry
     xc contribution           =     -29.65951311 Ry
     ewald contribution        =     400.45875118 Ry

     convergence has been achieved in   7 iterations

     negative rho (up, down):  3.841E-05 0.000E+00

     Forces acting on atoms (cartesian axes, Ry/au):

     atom    1 type  1   force =     0.00000000    0.00000000    0.00000000
     atom    2 type  2   force =     0.00000000   -0.00000000   -0.00533341
     atom    3 type  2   force =     0.00000000   -0.00000000    0.00533341
     The non-local contrib.  to forces
     atom    1 type  1   force =     0.00000000    0.00000000    0.00000000
     atom    2 type  2   force =     0.00000000    0.00000000   -0.27725788
     atom    3 type  2   force =     0.00000000   -0.00000000    0.27725788
     The ionic contribution  to forces
     atom    1 type  1   force =    -0.00000002   -0.00000001    0.00000000
     atom    2 type  2   force =     0.00000001    0.00000000   35.45508861
     atom    3 type  2   force =     0.00000001    0.00000000  -35.45508861
     The local contribution  to forces
     atom    1 type  1   force =     0.00000000   -0.00000000    0.00000000
     atom    2 type  2   force =     0.00000002    0.00000001  -35.18512203
     atom    3 type  2   force =     0.00000002    0.00000001   35.18512203
     The core correction contribution to forces
     atom    1 type  1   force =    -0.00000000    0.00000000   -0.00000000
     atom    2 type  2   force =    -0.00000000   -0.00000000    0.00271770
     atom    3 type  2   force =    -0.00000000   -0.00000000   -0.00271770
     The Hubbard contrib.    to forces
     atom    1 type  1   force =     0.00000000    0.00000000    0.00000000
     atom    2 type  2   force =     0.00000000    0.00000000    0.00000000
     atom    3 type  2   force =     0.00000000    0.00000000    0.00000000
     The SCF correction term to forces
     atom    1 type  1   force =     0.00000000    0.00000000   -0.00000000
     atom    2 type  2   force =    -0.00000000   -0.00000000   -0.00075981
     atom    3 type  2   force =    -0.00000000   -0.00000000    0.00075981

     Total force =     0.007543     Total SCF correction =     0.001075
     SCF correction compared to forces is large: reduce conv_thr to get better values
     Energy error            =      7.3E-04
     Gradient error          =      5.3E-03

     number of scf cycles    =   4
     number of bfgs steps    =   3

     energy   old            =    -181.5775380405 Ry
     energy   new            =    -181.5782643346 Ry

     CASE: energy  _new < energy  _old

     new trust radius        =       0.0147836200 bohr
     new conv_thr            =       0.0000000533 Ry


ATOMIC_POSITIONS (crystal)
Mo            0.0000000000        0.0000000000        0.5000000000    0   0   0
S             0.6666666660        0.6666666660        0.5779530511    0   0   1
S             0.6666666660        0.6666666660        0.4220469489    0   0   1



     Writing output data file ./outdir/MoS2.save/
     NEW-OLD atomic charge density approx. for the potential

     negative rho (up, down):  3.797E-05 0.000E+00

     total cpu time spent up to now is       54.9 secs

     Self-consistent Calculation

     iteration #  1     ecut=    55.00 Ry     beta= 0.10
     Davidson diagonalization with overlap
     ethr =  1.00E-06,  avg # of iterations =  5.0

     negative rho (up, down):  3.799E-05 0.000E+00

     total cpu time spent up to now is       56.1 secs

     total energy              =    -181.57834299 Ry
     estimated scf accuracy    <       0.00003437 Ry

     iteration #  2     ecut=    55.00 Ry     beta= 0.10
     Davidson diagonalization with overlap
     ethr =  1.32E-07,  avg # of iterations =  1.0

     negative rho (up, down):  3.800E-05 0.000E+00

     total cpu time spent up to now is       57.0 secs

     total energy              =    -181.57834337 Ry
     estimated scf accuracy    <       0.00000916 Ry

     iteration #  3     ecut=    55.00 Ry     beta= 0.10
     Davidson diagonalization with overlap
     ethr =  3.52E-08,  avg # of iterations =  1.3

     negative rho (up, down):  3.798E-05 0.000E+00

     total cpu time spent up to now is       57.8 secs

     total energy              =    -181.57834318 Ry
     estimated scf accuracy    <       0.00000350 Ry

     iteration #  4     ecut=    55.00 Ry     beta= 0.10
     Davidson diagonalization with overlap
     ethr =  1.35E-08,  avg # of iterations =  2.0

     negative rho (up, down):  3.799E-05 0.000E+00

     total cpu time spent up to now is       58.8 secs

     total energy              =    -181.57834353 Ry
     estimated scf accuracy    <       0.00000042 Ry

     iteration #  5     ecut=    55.00 Ry     beta= 0.10
     Davidson diagonalization with overlap
     ethr =  1.62E-09,  avg # of iterations =  1.9

     negative rho (up, down):  3.801E-05 0.000E+00

     total cpu time spent up to now is       59.7 secs

     total energy              =    -181.57834358 Ry
     estimated scf accuracy    <       0.00000010 Ry

     iteration #  6     ecut=    55.00 Ry     beta= 0.10
     Davidson diagonalization with overlap
     ethr =  3.89E-10,  avg # of iterations =  2.0

     negative rho (up, down):  3.802E-05 0.000E+00

     total cpu time spent up to now is       60.7 secs

     total energy              =    -181.57834357 Ry
     estimated scf accuracy    <       0.00000011 Ry

     iteration #  7     ecut=    55.00 Ry     beta= 0.10
     Davidson diagonalization with overlap
     ethr =  3.89E-10,  avg # of iterations =  2.0

     negative rho (up, down):  3.816E-05 0.000E+00

     total cpu time spent up to now is       61.6 secs

     End of self-consistent calculation

          k = 0.0000 0.0000 0.0000 (  8231 PWs)   bands (ev):

   -61.9293 -36.0639 -35.8766 -35.8766 -15.0650 -13.7600  -6.5871  -3.6617
    -3.6617  -2.7468  -2.5637  -2.5637  -0.9848   1.6878   1.6878   1.9426
     1.9426   4.3411

     occupation numbers 
     1.0000   1.0000   1.0000   1.0000   1.0000   1.0000   1.0000   1.0000
     1.0000   1.0000   1.0000   1.0000   1.0000   0.0000   0.0000   0.0000
     0.0000   0.0000

          k = 0.0000 0.1283 0.0000 (  8215 PWs)   bands (ev):

   -61.9252 -36.0556 -35.9187 -35.8862 -14.8893 -13.6884  -6.3899  -4.0394
    -3.4782  -3.4773  -2.8337  -2.1178  -1.0965   1.5052   1.5273   1.7504
     1.9859   4.6431

     occupation numbers 
     1.0000   1.0000   1.0000   1.0000   1.0000   1.0000   1.0000   1.0000
     1.0000   1.0000   1.0000   1.0000   1.0000   0.0000   0.0000   0.0000
     0.0000   0.0000

          k = 0.0000 0.2566 0.0000 (  8226 PWs)   bands (ev):

   -61.9150 -36.0348 -36.0238 -35.9104 -14.4127 -13.4950  -6.0095  -4.7274
    -4.3423  -3.3853  -2.9981  -2.2293  -1.5733   1.1506   1.3766   1.6889
     2.5634   5.3170

     occupation numbers 
     1.0000   1.0000   1.0000   1.0000   1.0000   1.0000   1.0000   1.0000
     1.0000   1.0000   1.0000   1.0000   1.0000   0.0000   0.0000   0.0000
     0.0000   0.0000

          k = 0.0000 0.3849 0.0000 (  8242 PWs)   bands (ev):

   -61.9034 -36.1413 -36.0111 -35.9378 -13.7945 -13.2489  -6.2215  -5.1528
    -4.9126  -3.8799  -2.6139  -2.4401  -1.9738   1.1426   1.2978   2.3230
     3.0088   6.1458

     occupation numbers 
     1.0000   1.0000   1.0000   1.0000   1.0000   1.0000   1.0000   1.0000
     1.0000   1.0000   1.0000   1.0000   1.0000   0.0000   0.0000   0.0000
     0.0000   0.0000

          k = 0.0000 0.5132 0.0000 (  8260 PWs)   bands (ev):

   -61.8958 -36.2169 -35.9955 -35.9555 -13.3236 -13.0687  -6.6670  -5.6750
    -5.0278  -4.1559  -2.8302  -2.0929  -1.7325   1.1363   1.5998   2.7593
     3.2111   5.3134

     occupation numbers 
     1.0000   1.0000   1.0000   1.0000   1.0000   1.0000   1.0000   1.0000
     1.0000   1.0000   1.0000   1.0000   1.0000   0.0000   0.0000   0.0000
     0.0000   0.0000

          k = 0.1111 0.1925 0.0000 (  8199 PWs)   bands (ev):

   -61.9180 -36.0411 -35.9885 -35.9068 -14.5625 -13.5552  -6.0791  -4.5530
    -4.0013  -3.4816  -3.1819  -1.9509  -1.4014   1.1532   1.4021   1.4753
     2.5112   5.1222

     occupation numbers 
     1.0000   1.0000   1.0000   1.0000   1.0000   1.0000   1.0000   1.0000
     1.0000   1.0000   1.0000   1.0000   1.0000   0.0000   0.0000   0.0000
     0.0000   0.0000

          k = 0.1111 0.3208 0.0000 (  8235 PWs)   bands (ev):

   -61.9072 -36.0912 -36.0188 -35.9413 -14.0095 -13.3304  -5.9650  -4.8591
    -4.7812  -4.0583  -2.9163  -2.1840  -1.8314   0.9584   1.3874   1.7495
     3.0599   5.9465

     occupation numbers 
     1.0000   1.0000   1.0000   1.0000   1.0000   1.0000   1.0000   1.0000
     1.0000   1.0000   1.0000   1.0000   1.0000   0.0000   0.0000   0.0000
     0.0000   0.0000

          k = 0.1111 0.4491 0.0000 (  8256 PWs)   bands (ev):

   -61.8976 -36.1796 -35.9992 -35.9718 -13.4478 -13.1059  -6.3554  -5.5793
    -4.8767  -4.1875  -2.8727  -2.6305  -1.6959   1.1494   1.5017   2.3678
     3.2302   6.0641

     occupation numbers 
     1.0000   1.0000   1.0000   1.0000   1.0000   1.0000   1.0000   1.0000
     1.0000   1.0000   1.0000   1.0000   1.0000   0.0000   0.0000   0.0000
     0.0000   0.0000

          k = 0.1111-0.5774 0.0000 (  8256 PWs)   bands (ev):

   -61.8937 -36.2142 -35.9914 -35.9839 -13.1976 -13.0082  -6.5602  -5.8932
    -5.0055  -4.1839  -2.8437  -2.7905  -1.4498   1.1484   1.7647   2.7671
     3.0836   5.2841

     occupation numbers 
     1.0000   1.0000   1.0000   1.0000   1.0000   1.0000   1.0000   1.0000
     1.0000   1.0000   1.0000   1.0000   1.0000   0.0000   0.0000   0.0000
     0.0000   0.0000

          k = 0.2222 0.3849 0.0000 (  8247 PWs)   bands (ev):

   -61.8983 -36.1480 -36.0006 -35.9956 -13.4994 -13.1168  -6.0913  -5.5365
    -4.6665  -4.2967  -3.5369  -2.4104  -1.7261   1.1210   1.4965   1.9490
     3.4063   6.6554

     occupation numbers 
     1.0000   1.0000   1.0000   1.0000   1.0000   1.0000   1.0000   1.0000
     1.0000   1.0000   1.0000   1.0000   1.0000   0.0000   0.0000   0.0000
     0.0000   0.0000

          k = 0.2222-0.6415 0.0000 (  8269 PWs)   bands (ev):

   -61.8925 -36.1754 -36.0404 -35.9887 -13.1272 -12.9571  -6.1246  -6.0953
    -4.8109  -4.0996  -3.9565  -2.8650  -1.3507   0.9457   2.0350   2.1860
     3.5226   5.9178

     occupation numbers 
     1.0000   1.0000   1.0000   1.0000   1.0000   1.0000   1.0000   1.0000
     1.0000   1.0000   1.0000   1.0000   1.0000   0.0000   0.0000   0.0000
     0.0000   0.0000

          k = 0.3333-0.5774 0.0000 (  8277 PWs)   bands (ev):

   -61.8905 -36.1413 -36.1002 -35.9846 -12.9972 -12.8908  -6.3728  -5.5658
    -5.0574  -4.5761  -3.8686  -3.1421  -1.0571   0.5699   2.0474   2.4603
     3.7492   6.1236

     occupation numbers 
     1.0000   1.0000   1.0000   1.0000   1.0000   1.0000   1.0000   1.0000
     1.0000   1.0000   1.0000   1.0000   1.0000   0.0000   0.0000   0.0000
     0.0000   0.0000

     the Fermi energy is     0.2278 ev

!    total energy              =    -181.57834356 Ry
     estimated scf accuracy    <          3.3E-09 Ry
     smearing contrib. (-TS)   =       0.00000000 Ry
     internal energy E=F+TS    =    -181.57834356 Ry

     The total energy is F=E-TS. E is the sum of the following terms:
     one-electron contribution =   -1107.13546674 Ry
     hartree contribution      =     553.72107216 Ry
     xc contribution           =     -29.67115116 Ry
     ewald contribution        =     401.50720218 Ry

     convergence has been achieved in   7 iterations

     negative rho (up, down):  3.816E-05 0.000E+00

     Forces acting on atoms (cartesian axes, Ry/au):

     atom    1 type  1   force =     0.00000000    0.00000000    0.00000000
     atom    2 type  2   force =    -0.00000000    0.00000000    0.00014773
     atom    3 type  2   force =     0.00000000   -0.00000000   -0.00014773
     The non-local contrib.  to forces
     atom    1 type  1   force =     0.00000000    0.00000000    0.00000000
     atom    2 type  2   force =     0.00000000    0.00000000   -0.27497973
     atom    3 type  2   force =     0.00000000    0.00000000    0.27497973
     The ionic contribution  to forces
     atom    1 type  1   force =    -0.00000002   -0.00000001    0.00000000
     atom    2 type  2   force =     0.00000001    0.00000000   35.46459618
     atom    3 type  2   force =     0.00000001    0.00000000  -35.46459618
     The local contribution  to forces
     atom    1 type  1   force =     0.00000000    0.00000000    0.00000000
     atom    2 type  2   force =     0.00000002    0.00000001  -35.19199321
     atom    3 type  2   force =     0.00000002    0.00000001   35.19199321
     The core correction contribution to forces
     atom    1 type  1   force =    -0.00000000   -0.00000000   -0.00000000
     atom    2 type  2   force =    -0.00000000   -0.00000000    0.00260704
     atom    3 type  2   force =    -0.00000000   -0.00000000   -0.00260704
     The Hubbard contrib.    to forces
     atom    1 type  1   force =     0.00000000    0.00000000    0.00000000
     atom    2 type  2   force =     0.00000000    0.00000000    0.00000000
     atom    3 type  2   force =     0.00000000    0.00000000    0.00000000
     The SCF correction term to forces
     atom    1 type  1   force =     0.00000000    0.00000000   -0.00000000
     atom    2 type  2   force =    -0.00000000   -0.00000000   -0.00008255
     atom    3 type  2   force =    -0.00000000   -0.00000000    0.00008255

     Total force =     0.000209     Total SCF correction =     0.000117
     SCF correction compared to forces is large: reduce conv_thr to get better values
     Energy error            =      7.9E-05
     Gradient error          =      1.5E-04

     bfgs converged in   5 scf cycles and   4 bfgs steps
     (criteria: energy <  1.0E-04 Ry, force <  1.0E-03 Ry/Bohr)

     End of BFGS Geometry Optimization

     Final energy   =    -181.5783435642 Ry

     File ./outdir/MoS2.bfgs deleted, as requested
Begin final coordinates

ATOMIC_POSITIONS (crystal)
Mo            0.0000000000        0.0000000000        0.5000000000    0   0   0
S             0.6666666660        0.6666666660        0.5779530511    0   0   1
S             0.6666666660        0.6666666660        0.4220469489    0   0   1
End final coordinates



     Writing output data file ./outdir/MoS2.save/

     init_run     :      0.94s CPU      1.03s WALL (       1 calls)
     electrons    :     45.87s CPU     54.37s WALL (       5 calls)
     update_pot   :      2.53s CPU      2.54s WALL (       4 calls)
     forces       :      2.94s CPU      3.32s WALL (       5 calls)

     Called by init_run:
     wfcinit      :      0.16s CPU      0.16s WALL (       1 calls)
     wfcinit:atom :      0.00s CPU      0.00s WALL (      12 calls)
     wfcinit:wfcr :      0.14s CPU      0.14s WALL (      12 calls)
     potinit      :      0.17s CPU      0.18s WALL (       1 calls)
     hinit0       :      0.47s CPU      0.47s WALL (       1 calls)

     Called by electrons:
     c_bands      :     26.48s CPU     27.37s WALL (      55 calls)
     sum_band     :      9.64s CPU     13.45s WALL (      55 calls)
     v_of_rho     :      2.03s CPU      2.35s WALL (      60 calls)
     v_h          :      0.16s CPU      0.17s WALL (      60 calls)
     v_xc         :      2.01s CPU      2.35s WALL (      65 calls)
     newd         :      7.88s CPU     11.61s WALL (      60 calls)
     mix_rho      :      0.38s CPU      0.41s WALL (      55 calls)

     Called by c_bands:
     init_us_2    :      0.60s CPU      0.62s WALL (    1392 calls)
     cegterg      :     24.67s CPU     25.53s WALL (     660 calls)

     Called by sum_band:
     sum_band:wei :      0.00s CPU      0.00s WALL (      55 calls)
     sum_band:loo :      3.04s CPU      3.19s WALL (      55 calls)
     sum_band:buf :      0.10s CPU      0.11s WALL (     660 calls)
     sum_band:ini :      0.22s CPU      0.23s WALL (     660 calls)
     sum_band:cal :      0.82s CPU      0.87s WALL (     660 calls)
     sum_band:bec :      0.01s CPU      0.01s WALL (     660 calls)
     addusdens    :      6.22s CPU      9.81s WALL (      55 calls)
     addusd:skk   :      0.02s CPU      0.03s WALL (     110 calls)
     addusd:dgemm :      2.51s CPU      5.72s WALL (     110 calls)
     addusd:qvan2 :      3.28s CPU      3.29s WALL (     110 calls)

     Called by *egterg:
     cdiaghg      :      1.11s CPU      1.13s WALL (    2319 calls)
     cegterg:over :      2.20s CPU      2.23s WALL (    1707 calls)
     cegterg:upda :      1.09s CPU      1.10s WALL (    1707 calls)
     cegterg:last :      2.44s CPU      2.46s WALL (    1356 calls)
     cdiaghg:chol :      0.12s CPU      0.13s WALL (    2319 calls)
     cdiaghg:inve :      0.02s CPU      0.03s WALL (    2319 calls)
     cdiaghg:para :      0.17s CPU      0.17s WALL (    4638 calls)
     h_psi        :     14.89s CPU     15.63s WALL (    2379 calls)
     s_psi        :      2.10s CPU      2.13s WALL (    2379 calls)
     g_psi        :      0.13s CPU      0.13s WALL (    1707 calls)

     Called by h_psi:
     h_psi:calbec :      2.98s CPU      3.14s WALL (    2379 calls)
     vloc_psi     :      9.70s CPU     10.21s WALL (    2379 calls)
     add_vuspsi   :      2.03s CPU      2.10s WALL (    2379 calls)

     General routines
     calbec       :      4.10s CPU      4.32s WALL (    3279 calls)
     fft          :      2.09s CPU      2.20s WALL (     829 calls)
     ffts         :      0.04s CPU      0.05s WALL (     115 calls)
     fftw         :      9.69s CPU     10.21s WALL (   73514 calls)
     interpolate  :      0.13s CPU      0.14s WALL (      60 calls)

     Parallel routines
     fft_scatt_xy :      1.38s CPU      1.45s WALL (   74458 calls)
     fft_scatt_yz :      3.95s CPU      4.15s WALL (   74458 calls)

     PWSCF        :     53.02s CPU   1m 2.29s WALL


   This run was terminated on:  18:52:51  18Jan2023            

=------------------------------------------------------------------------------=
   JOB DONE.
=------------------------------------------------------------------------------=
