
     Program PWSCF v.6.7MaX starts on 18Jan2023 at 17:19:16 

     This program is part of the open-source Quantum ESPRESSO suite
     for quantum simulation of materials; please cite
         "P. Giannozzi et al., J. Phys.:Condens. Matter 21 395502 (2009);
         "P. Giannozzi et al., J. Phys.:Condens. Matter 29 465901 (2017);
          URL http://www.quantum-espresso.org", 
     in publications or presentations arising from this work. More details at
     http://www.quantum-espresso.org/quote

     Parallel version (MPI), running on     8 processors

     MPI processes distributed on     1 nodes
     R & G space division:  proc/nbgrp/npool/nimage =       8
     Reading input from MoS2_1T.in

     Current dimensions of program PWSCF are:
     Max number of different atomic species (ntypx) = 10
     Max number of k-points (npk) =  40000
     Max angular momentum in pseudopotentials (lmaxx) =  3
     file Mo.pbe-spn-rrkjus_psl.1.0.0.UPF: wavefunction(s)  4S renormalized

     IMPORTANT: XC functional enforced from input :
     Exchange-correlation= PBE
                           (   1   4   3   4   0   0   0)
     Any further DFT definition will be discarded
     Please, verify this is what you really want


     Subspace diagonalization in iterative solution of the eigenvalue problem:
     one sub-group per band group will be used
     scalapack distributed-memory algorithm (size of sub-group:  2*  2 procs)


     Parallelization info
     --------------------
     sticks:   dense  smooth     PW     G-vecs:    dense   smooth      PW
     Min         126      24      7                20225     1790     331
     Max         128      25      8                20238     1817     354
     Sum        1015     199     61               161851    14489    2739



     bravais-lattice index     =           12
     lattice parameter (alat)  =       6.0471  a.u.
     unit-cell volume          =    1196.8981 (a.u.)^3
     number of atoms/cell      =            3
     number of atomic types    =            2
     number of electrons       =        26.00
     number of Kohn-Sham states=           18
     kinetic-energy cutoff     =      20.0000  Ry
     charge density cutoff     =     400.0000  Ry
     scf convergence threshold =      1.0E-06
     mixing beta               =       0.1000
     number of iterations used =            8  plain     mixing
     energy convergence thresh.=      1.0E-04
     force convergence thresh. =      1.0E-03
     Exchange-correlation= PBE
                           (   1   4   3   4   0   0   0)
     nstep                     =           50


     celldm(1)=   6.047124  celldm(2)=   1.000000  celldm(3)=   6.250000
     celldm(4)=   0.500000  celldm(5)=   0.000000  celldm(6)=   0.000000

     crystal axes: (cart. coord. in units of alat)
               a(1) = (   1.000000   0.000000   0.000000 )  
               a(2) = (   0.500000   0.866025   0.000000 )  
               a(3) = (   0.000000   0.000000   6.250000 )  

     reciprocal axes: (cart. coord. in units 2 pi/alat)
               b(1) = (  1.000000 -0.577350  0.000000 )  
               b(2) = (  0.000000  1.154701  0.000000 )  
               b(3) = (  0.000000  0.000000  0.160000 )  


     PseudoPot. # 1 for Mo read from file:
     /home/zronyj/Desktop/MoS2/pseudo/Mo.pbe-spn-rrkjus_psl.1.0.0.UPF
     MD5 check sum: 03f09b12e49601d1a456a78ce8b2d514
     Pseudo is Ultrasoft + core correction, Zval = 14.0
     Generated using &quot;atomic&quot; code by A. Dal Corso  v.6.3
     Using radial grid of 1229 points,  6 beta functions with: 
                l(1) =   0
                l(2) =   0
                l(3) =   1
                l(4) =   1
                l(5) =   2
                l(6) =   2
     Q(r) pseudized with 0 coefficients 


     PseudoPot. # 2 for S  read from file:
     /home/zronyj/Desktop/MoS2/pseudo/S.pbe-n-rrkjus_psl.1.0.0.UPF
     MD5 check sum: 9d0fe39aa2a799ea84730884c9b010f4
     Pseudo is Ultrasoft + core correction, Zval =  6.0
     Generated using &quot;atomic&quot; code by A. Dal Corso  v.6.3
     Using radial grid of 1151 points,  6 beta functions with: 
                l(1) =   0
                l(2) =   0
                l(3) =   1
                l(4) =   1
                l(5) =   2
                l(6) =   2
     Q(r) pseudized with 0 coefficients 


     atomic species   valence    mass     pseudopotential
        Mo            14.00    95.95000     Mo( 1.00)
        S              6.00    32.06500     S ( 1.00)

     12 Sym. Ops., with inversion, found


                                    s                        frac. trans.

      isym =  1     identity                                     

 cryst.   s( 1) = (     1          0          0      )
                  (     0          1          0      )
                  (     0          0          1      )

 cart.    s( 1) = (  1.0000000  0.0000000  0.0000000 )
                  (  0.0000000  1.0000000  0.0000000 )
                  (  0.0000000  0.0000000  1.0000000 )


      isym =  2     180 deg rotation - cart. axis [1,0,0]        

 cryst.   s( 2) = (     1          0          0      )
                  (     1         -1          0      )
                  (     0          0         -1      )

 cart.    s( 2) = (  1.0000000  0.0000000  0.0000000 )
                  (  0.0000000 -1.0000000  0.0000000 )
                  (  0.0000000  0.0000000 -1.0000000 )


      isym =  3     120 deg rotation - cryst. axis [0,0,1]       

 cryst.   s( 3) = (    -1          1          0      )
                  (    -1          0          0      )
                  (     0          0          1      )

 cart.    s( 3) = ( -0.5000000 -0.8660254  0.0000000 )
                  (  0.8660254 -0.5000000  0.0000000 )
                  (  0.0000000  0.0000000  1.0000000 )


      isym =  4     120 deg rotation - cryst. axis [0,0,-1]      

 cryst.   s( 4) = (     0         -1          0      )
                  (     1         -1          0      )
                  (     0          0          1      )

 cart.    s( 4) = ( -0.5000000  0.8660254  0.0000000 )
                  ( -0.8660254 -0.5000000  0.0000000 )
                  (  0.0000000  0.0000000  1.0000000 )


      isym =  5     180 deg rotation - cryst. axis [0,1,0]       

 cryst.   s( 5) = (     0         -1          0      )
                  (    -1          0          0      )
                  (     0          0         -1      )

 cart.    s( 5) = ( -0.5000000 -0.8660254  0.0000000 )
                  ( -0.8660254  0.5000000  0.0000000 )
                  (  0.0000000  0.0000000 -1.0000000 )


      isym =  6     180 deg rotation - cryst. axis [1,1,0]       

 cryst.   s( 6) = (    -1          1          0      )
                  (     0          1          0      )
                  (     0          0         -1      )

 cart.    s( 6) = ( -0.5000000  0.8660254  0.0000000 )
                  (  0.8660254  0.5000000  0.0000000 )
                  (  0.0000000  0.0000000 -1.0000000 )


      isym =  7     inversion                                    

 cryst.   s( 7) = (    -1          0          0      )
                  (     0         -1          0      )
                  (     0          0         -1      )

 cart.    s( 7) = ( -1.0000000  0.0000000  0.0000000 )
                  (  0.0000000 -1.0000000  0.0000000 )
                  (  0.0000000  0.0000000 -1.0000000 )


      isym =  8     inv. 180 deg rotation - cart. axis [1,0,0]   

 cryst.   s( 8) = (    -1          0          0      )
                  (    -1          1          0      )
                  (     0          0          1      )

 cart.    s( 8) = ( -1.0000000  0.0000000  0.0000000 )
                  (  0.0000000  1.0000000  0.0000000 )
                  (  0.0000000  0.0000000  1.0000000 )


      isym =  9     inv. 120 deg rotation - cryst. axis [0,0,1]  

 cryst.   s( 9) = (     1         -1          0      )
                  (     1          0          0      )
                  (     0          0         -1      )

 cart.    s( 9) = (  0.5000000  0.8660254  0.0000000 )
                  ( -0.8660254  0.5000000  0.0000000 )
                  (  0.0000000  0.0000000 -1.0000000 )


      isym = 10     inv. 120 deg rotation - cryst. axis [0,0,-1] 

 cryst.   s(10) = (     0          1          0      )
                  (    -1          1          0      )
                  (     0          0         -1      )

 cart.    s(10) = (  0.5000000 -0.8660254  0.0000000 )
                  (  0.8660254  0.5000000  0.0000000 )
                  (  0.0000000  0.0000000 -1.0000000 )


      isym = 11     inv. 180 deg rotation - cryst. axis [0,1,0]  

 cryst.   s(11) = (     0          1          0      )
                  (     1          0          0      )
                  (     0          0          1      )

 cart.    s(11) = (  0.5000000  0.8660254  0.0000000 )
                  (  0.8660254 -0.5000000  0.0000000 )
                  (  0.0000000  0.0000000  1.0000000 )


      isym = 12     inv. 180 deg rotation - cryst. axis [1,1,0]  

 cryst.   s(12) = (     1         -1          0      )
                  (     0         -1          0      )
                  (     0          0          1      )

 cart.    s(12) = (  0.5000000 -0.8660254  0.0000000 )
                  ( -0.8660254 -0.5000000  0.0000000 )
                  (  0.0000000  0.0000000  1.0000000 )


     point group D_3d (-3m) 
     there are  6 classes
     the character table:

       E     2C3   3C2'  i     2S6   3s_d 
A_1g   1.00  1.00  1.00  1.00  1.00  1.00
A_2g   1.00  1.00 -1.00  1.00  1.00 -1.00
E_g    2.00 -1.00  0.00  2.00 -1.00  0.00
A_1u   1.00  1.00  1.00 -1.00 -1.00 -1.00
A_2u   1.00  1.00 -1.00 -1.00 -1.00  1.00
E_u    2.00 -1.00  0.00 -2.00  1.00  0.00

     the symmetry operations in each class and the name of the first element:

     E        1
          identity                                               
     2C3      3    4
          120 deg rotation - cryst. axis [0,0,1]                 
     3C2'     2    5    6
          180 deg rotation - cart. axis [1,0,0]                  
     i        7
          inversion                                              
     2S6      9   10
          inv. 120 deg rotation - cryst. axis [0,0,1]            
     3s_d     8   11   12
          inv. 180 deg rotation - cart. axis [1,0,0]             

   Cartesian axes

     site n.     atom                  positions (alat units)
         1           Mo  tau(   1) = (   0.0000000   0.0000000   3.1250000  )
         2           S   tau(   2) = (   0.5000000   0.2886751   3.4375000  )
         3           S   tau(   3) = (   1.0000000   0.5773503   2.8125000  )

   Crystallographic axes

     site n.     atom                  positions (cryst. coord.)
         1           Mo  tau(   1) = (  0.0000000  0.0000000  0.5000000  )
         2           S   tau(   2) = (  0.3333333  0.3333333  0.5500000  )
         3           S   tau(   3) = (  0.6666667  0.6666667  0.4500000  )

     number of k points=    12  Marzari-Vanderbilt smearing, width (Ry)=  0.0001
                       cart. coord. in units 2pi/alat
        k(    1) = (   0.0000000   0.0000000   0.0000000), wk =   0.0246914
        k(    2) = (   0.0000000   0.1283001   0.0000000), wk =   0.1481481
        k(    3) = (   0.0000000   0.2566001   0.0000000), wk =   0.1481481
        k(    4) = (   0.0000000   0.3849002   0.0000000), wk =   0.1481481
        k(    5) = (   0.0000000   0.5132002   0.0000000), wk =   0.1481481
        k(    6) = (   0.1111111   0.1924501   0.0000000), wk =   0.1481481
        k(    7) = (   0.1111111   0.3207501   0.0000000), wk =   0.2962963
        k(    8) = (   0.1111111   0.4490502   0.0000000), wk =   0.2962963
        k(    9) = (   0.1111111  -0.5773503   0.0000000), wk =   0.1481481
        k(   10) = (   0.2222222   0.3849002   0.0000000), wk =   0.1481481
        k(   11) = (   0.2222222  -0.6415003   0.0000000), wk =   0.2962963
        k(   12) = (   0.3333333  -0.5773503   0.0000000), wk =   0.0493827

                       cryst. coord.
        k(    1) = (   0.0000000   0.0000000   0.0000000), wk =   0.0246914
        k(    2) = (   0.0000000   0.1111111   0.0000000), wk =   0.1481481
        k(    3) = (   0.0000000   0.2222222   0.0000000), wk =   0.1481481
        k(    4) = (   0.0000000   0.3333333   0.0000000), wk =   0.1481481
        k(    5) = (   0.0000000   0.4444444   0.0000000), wk =   0.1481481
        k(    6) = (   0.1111111   0.2222222   0.0000000), wk =   0.1481481
        k(    7) = (   0.1111111   0.3333333   0.0000000), wk =   0.2962963
        k(    8) = (   0.1111111   0.4444444   0.0000000), wk =   0.2962963
        k(    9) = (   0.1111111  -0.4444444   0.0000000), wk =   0.1481481
        k(   10) = (   0.2222222   0.4444444   0.0000000), wk =   0.1481481
        k(   11) = (   0.2222222  -0.4444444   0.0000000), wk =   0.2962963
        k(   12) = (   0.3333333  -0.3333333   0.0000000), wk =   0.0493827

     Dense  grid:   161851 G-vectors     FFT dimensions: (  40,  40, 243)

     Smooth grid:    14489 G-vectors     FFT dimensions: (  18,  18, 108)

     Dynamical RAM for                 wfc:       0.06 MB

     Dynamical RAM for     wfc (w. buffer):       0.81 MB

     Dynamical RAM for           str. fact:       0.62 MB

     Dynamical RAM for           local pot:       0.00 MB

     Dynamical RAM for          nlocal pot:       0.19 MB

     Dynamical RAM for                qrad:       3.21 MB

     Dynamical RAM for          rho,v,vnew:       2.06 MB

     Dynamical RAM for               rhoin:       0.69 MB

     Dynamical RAM for            rho*nmix:       4.94 MB

     Dynamical RAM for           G-vectors:       1.17 MB

     Dynamical RAM for          h,s,v(r/c):       0.01 MB

     Dynamical RAM for          <psi|beta>:       0.01 MB

     Dynamical RAM for                 psi:       0.12 MB

     Dynamical RAM for                hpsi:       0.12 MB

     Dynamical RAM for                spsi:       0.12 MB

     Dynamical RAM for      wfcinit/wfcrot:       0.13 MB

     Dynamical RAM for           addusdens:      58.06 MB

     Dynamical RAM for          addusforce:      58.84 MB

     Estimated static dynamical RAM per process >      16.50 MB

     Estimated max dynamical RAM per process >      75.34 MB

     Estimated total dynamical RAM >     602.70 MB

     Initial potential from superposition of free atoms

     starting charge   25.99905, renormalised to   26.00000

     negative rho (up, down):  5.889E-05 0.000E+00
     Starting wfcs are   18 randomized atomic wfcs

     total cpu time spent up to now is        1.0 secs

     Self-consistent Calculation

     iteration #  1     ecut=    20.00 Ry     beta= 0.10
     Davidson diagonalization with overlap
     ethr =  1.00E-02,  avg # of iterations =  6.1

     negative rho (up, down):  1.811E-05 0.000E+00

     total cpu time spent up to now is        1.7 secs

     total energy              =    -180.32274860 Ry
     estimated scf accuracy    <       0.27340189 Ry

     iteration #  2     ecut=    20.00 Ry     beta= 0.10
     Davidson diagonalization with overlap
     ethr =  1.05E-03,  avg # of iterations =  1.5

     negative rho (up, down):  1.382E-02 0.000E+00

     total cpu time spent up to now is        2.3 secs

     total energy              =    -180.19353396 Ry
     estimated scf accuracy    <       0.20405307 Ry

     iteration #  3     ecut=    20.00 Ry     beta= 0.10
     Davidson diagonalization with overlap
     ethr =  7.85E-04,  avg # of iterations =  6.1

     negative rho (up, down):  8.178E-03 0.000E+00

     total cpu time spent up to now is        2.9 secs

     total energy              =    -180.25728161 Ry
     estimated scf accuracy    <       0.06170235 Ry

     iteration #  4     ecut=    20.00 Ry     beta= 0.10
     Davidson diagonalization with overlap
     ethr =  2.37E-04,  avg # of iterations =  2.2

     negative rho (up, down):  1.054E-02 0.000E+00

     total cpu time spent up to now is        3.6 secs

     total energy              =    -180.25282784 Ry
     estimated scf accuracy    <       0.01935705 Ry

     iteration #  5     ecut=    20.00 Ry     beta= 0.10
     Davidson diagonalization with overlap
     ethr =  7.45E-05,  avg # of iterations =  4.2

     negative rho (up, down):  1.208E-02 0.000E+00

     total cpu time spent up to now is        4.4 secs

     total energy              =    -180.25587421 Ry
     estimated scf accuracy    <       0.00334729 Ry

     iteration #  6     ecut=    20.00 Ry     beta= 0.10
     Davidson diagonalization with overlap
     ethr =  1.29E-05,  avg # of iterations =  7.2

     negative rho (up, down):  1.211E-02 0.000E+00

     total cpu time spent up to now is        5.1 secs

     total energy              =    -180.25619801 Ry
     estimated scf accuracy    <       0.00108488 Ry

     iteration #  7     ecut=    20.00 Ry     beta= 0.10
     Davidson diagonalization with overlap
     ethr =  4.17E-06,  avg # of iterations =  2.9

     negative rho (up, down):  1.115E-02 0.000E+00

     total cpu time spent up to now is        5.7 secs

     total energy              =    -180.25640697 Ry
     estimated scf accuracy    <       0.00012866 Ry

     iteration #  8     ecut=    20.00 Ry     beta= 0.10
     Davidson diagonalization with overlap
     c_bands:  1 eigenvalues not converged
     ethr =  4.95E-07,  avg # of iterations =  7.0

     negative rho (up, down):  1.013E-02 0.000E+00

     total cpu time spent up to now is        6.3 secs

     total energy              =    -180.25644146 Ry
     estimated scf accuracy    <       0.00021673 Ry

     iteration #  9     ecut=    20.00 Ry     beta= 0.10
     Davidson diagonalization with overlap
     ethr =  4.95E-07,  avg # of iterations =  2.3

     negative rho (up, down):  9.015E-03 0.000E+00

     total cpu time spent up to now is        6.9 secs

     total energy              =    -180.25654123 Ry
     estimated scf accuracy    <       0.00001392 Ry

     iteration # 10     ecut=    20.00 Ry     beta= 0.10
     Davidson diagonalization with overlap
     ethr =  5.35E-08,  avg # of iterations =  1.8

     negative rho (up, down):  8.006E-03 0.000E+00

     total cpu time spent up to now is        7.5 secs

     total energy              =    -180.25660096 Ry
     estimated scf accuracy    <       0.00001255 Ry

     iteration # 11     ecut=    20.00 Ry     beta= 0.10
     Davidson diagonalization with overlap
     ethr =  4.83E-08,  avg # of iterations =  2.3

     total cpu time spent up to now is        8.0 secs

     End of self-consistent calculation

          k = 0.0000 0.0000 0.0000 (  1811 PWs)   bands (ev):

   -64.0836 -37.6755 -37.6755 -37.2525 -17.4135 -13.1250  -8.3160  -8.3160
    -7.6277  -2.5687  -2.1291  -2.1291  -0.9444  -0.9444   1.9734   3.5432
     3.7229   4.5590

     occupation numbers 
     1.0000   1.0000   1.0000   1.0000   1.0000   1.0000   1.0000   1.0000
     1.0000   1.0000   1.0000   1.0000   1.0000   1.0000   0.0000   0.0000
     0.0000   0.0000

          k = 0.0000 0.1283 0.0000 (  1835 PWs)   bands (ev):

   -64.0804 -37.7555 -37.7172 -37.3181 -17.1277 -13.3775  -8.3138  -8.0902
    -7.4213  -3.3071  -2.9276  -1.9526  -0.6340  -0.0925   2.0767   3.9136
     3.9589   4.6034

     occupation numbers 
     1.0000   1.0000   1.0000   1.0000   1.0000   1.0000   1.0000   1.0000
     1.0000   1.0000   1.0000   1.0000   1.0000   0.0000   0.0000   0.0000
     0.0000   0.0000

          k = 0.0000 0.2566 0.0000 (  1817 PWs)   bands (ev):

   -64.0636 -37.8993 -37.7420 -37.3038 -16.3653 -13.9005  -8.2649  -7.4575
    -6.7962  -4.8278  -3.7086  -1.2838  -0.4092   0.8014   2.2327   3.5749
     4.6531   4.8206

     occupation numbers 
     1.0000   1.0000   1.0000   1.0000   1.0000   1.0000   1.0000   1.0000
     1.0000   1.0000   1.0000   1.0000   1.0000   0.0000   0.0000   0.0000
     0.0000   0.0000

          k = 0.0000 0.3849 0.0000 (  1800 PWs)   bands (ev):

   -64.0457 -38.0889 -37.7675 -37.2547 -15.5611 -14.1653  -8.4533  -6.8108
    -6.1674  -5.4538  -3.9041  -1.9171  -0.1642   0.6780   1.5510   4.4749
     5.5482   5.7568

     occupation numbers 
     1.0000   1.0000   1.0000   1.0000   1.0000   1.0000   1.0000   1.0000
     1.0000   1.0000   1.0000   1.0000   0.8333   0.0000   0.0000   0.0000
     0.0000   0.0000

          k = 0.0000 0.5132 0.0000 (  1818 PWs)   bands (ev):

   -64.0372 -38.2677 -37.7944 -37.2708 -15.4045 -13.7330  -9.1015  -6.5585
    -5.7905  -5.0227  -3.4998  -2.6475  -0.2923  -0.0407   0.4691   5.6879
     6.4334   6.4763

     occupation numbers 
     1.0000   1.0000   1.0000   1.0000   1.0000   1.0000   1.0000   1.0000
     1.0000   1.0000   1.0000   1.0000   1.0000   0.0000   0.0000   0.0000
     0.0000   0.0000

          k = 0.1111 0.1925 0.0000 (  1807 PWs)   bands (ev):

   -64.0668 -37.8273 -37.7229 -37.2925 -16.5941 -13.7607  -8.2311  -7.6743
    -7.0008  -4.1760  -3.8785  -1.2357  -0.4079   0.5649   2.2685   4.1187
     4.3769   4.5549

     occupation numbers 
     1.0000   1.0000   1.0000   1.0000   1.0000   1.0000   1.0000   1.0000
     1.0000   1.0000   1.0000   1.0000   1.0000   0.0000   0.0000   0.0000
     0.0000   0.0000

          k = 0.1111 0.3208 0.0000 (  1794 PWs)   bands (ev):

   -64.0502 -37.9858 -37.7725 -37.2544 -15.7286 -14.2131  -8.1792  -7.1219
    -6.4061  -5.2194  -4.2507  -1.2709  -0.3209   1.0493   1.8124   3.7641
     4.7455   5.3567

     occupation numbers 
     1.0000   1.0000   1.0000   1.0000   1.0000   1.0000   1.0000   1.0000
     1.0000   1.0000   1.0000   1.0000   1.0000   0.0000   0.0000   0.0000
     0.0000   0.0000

          k = 0.1111 0.4491 0.0000 (  1803 PWs)   bands (ev):

   -64.0379 -38.1733 -37.8179 -37.2438 -15.2212 -14.1107  -8.5880  -6.9893
    -5.7685  -5.1128  -4.1443  -2.2125  -0.1957   0.1711   1.2033   4.6408
     6.0321   6.3568

     occupation numbers 
     1.0000   1.0000   1.0000   1.0000   1.0000   1.0000   1.0000   1.0000
     1.0000   1.0000   1.0000   1.0000   1.0000   0.0000   0.0000   0.0000
     0.0000   0.0000

          k = 0.1111-0.5774 0.0000 (  1802 PWs)   bands (ev):

   -64.0325 -38.2406 -37.8484 -37.2087 -15.2359 -13.7372  -9.0056  -6.8945
    -5.1727  -5.1699  -3.8505  -2.7370  -0.6022   0.0806   0.8354   5.2574
     6.1898   6.6039

     occupation numbers 
     1.0000   1.0000   1.0000   1.0000   1.0000   1.0000   1.0000   1.0000
     1.0000   1.0000   1.0000   1.0000   1.0000   0.0000   0.0000   0.0000
     0.0000   0.0000

          k = 0.2222 0.3849 0.0000 (  1804 PWs)   bands (ev):

   -64.0390 -38.1175 -37.8627 -37.2347 -14.8974 -14.5197  -8.0272  -7.4194
    -5.9721  -5.1079  -4.4397  -1.8287  -0.2470   0.2585   1.5863   3.8364
     5.8831   6.4795

     occupation numbers 
     1.0000   1.0000   1.0000   1.0000   1.0000   1.0000   1.0000   1.0000
     1.0000   1.0000   1.0000   1.0000   1.0000   0.0000   0.0000   0.0000
     0.0000   0.0000

          k = 0.2222-0.6415 0.0000 (  1810 PWs)   bands (ev):

   -64.0317 -38.1733 -37.9654 -37.2235 -14.7772 -14.1537  -8.2869  -7.4510
    -5.8717  -4.7010  -4.1960  -2.6941  -1.0130   0.4810   1.5808   4.2882
     5.5395   7.2817

     occupation numbers 
     1.0000   1.0000   1.0000   1.0000   1.0000   1.0000   1.0000   1.0000
     1.0000   1.0000   1.0000   1.0000   1.0000   0.0000   0.0000   0.0000
     0.0000   0.0000

          k = 0.3333-0.5774 0.0000 (  1806 PWs)   bands (ev):

   -64.0283 -38.0855 -38.0855 -37.2268 -14.3792 -14.3792  -7.7103  -7.7103
    -6.6205  -4.1324  -4.1324  -3.0219  -1.6219   1.4337   1.4337   4.4642
     4.4642   8.4232

     occupation numbers 
     1.0000   1.0000   1.0000   1.0000   1.0000   1.0000   1.0000   1.0000
     1.0000   1.0000   1.0000   1.0000   1.0000   0.0000   0.0000   0.0000
     0.0000   0.0000

     the Fermi energy is    -0.1634 ev

!    total energy              =    -180.25689950 Ry
     estimated scf accuracy    <       0.00000045 Ry
     smearing contrib. (-TS)   =      -0.00000063 Ry
     internal energy E=F+TS    =    -180.25689887 Ry

     The total energy is F=E-TS. E is the sum of the following terms:
     one-electron contribution =   -1248.53024682 Ry
     hartree contribution      =     623.81348626 Ry
     xc contribution           =     -30.45835853 Ry
     ewald contribution        =     474.91822022 Ry

     convergence has been achieved in  11 iterations

     Forces acting on atoms (cartesian axes, Ry/au):

     atom    1 type  1   force =    -0.00000000    0.00000000    0.00000000
     atom    2 type  2   force =    -0.00000000    0.00000000    0.51420301
     atom    3 type  2   force =    -0.00000000    0.00000000   -0.51420301
     The non-local contrib.  to forces
     atom    1 type  1   force =     0.00000000    0.00000000    0.00000000
     atom    2 type  2   force =     0.00000000    0.00000000    0.09161189
     atom    3 type  2   force =     0.00000000   -0.00000000   -0.09161189
     The ionic contribution  to forces
     atom    1 type  1   force =    -0.00000003   -0.00000002   -0.00000000
     atom    2 type  2   force =     0.00000001    0.00000001   33.23930703
     atom    3 type  2   force =     0.00000002    0.00000001  -33.23930703
     The local contribution  to forces
     atom    1 type  1   force =    -0.00000000   -0.00000000    0.00000000
     atom    2 type  2   force =     0.00000001    0.00000000  -32.80590632
     atom    3 type  2   force =     0.00000001    0.00000001   32.80590632
     The core correction contribution to forces
     atom    1 type  1   force =    -0.00000000   -0.00000000   -0.00000000
     atom    2 type  2   force =    -0.00000000   -0.00000000   -0.00951261
     atom    3 type  2   force =    -0.00000000   -0.00000000    0.00951261
     The Hubbard contrib.    to forces
     atom    1 type  1   force =     0.00000000    0.00000000    0.00000000
     atom    2 type  2   force =     0.00000000    0.00000000    0.00000000
     atom    3 type  2   force =     0.00000000    0.00000000    0.00000000
     The SCF correction term to forces
     atom    1 type  1   force =    -0.00000000   -0.00000000    0.00000000
     atom    2 type  2   force =    -0.00000000   -0.00000000   -0.00129697
     atom    3 type  2   force =    -0.00000000   -0.00000000    0.00129697

     Total force =     0.727193     Total SCF correction =     0.001834

     BFGS Geometry Optimization
     Energy error            =      0.0E+00
     Gradient error          =      5.1E-01

     number of scf cycles    =   1
     number of bfgs steps    =   0

     energy   new            =    -180.2568995021 Ry

     new trust radius        =       0.5000000000 bohr
     new conv_thr            =       0.0000010000 Ry


ATOMIC_POSITIONS (crystal)
Mo            0.0000000000        0.0000000000        0.5000000000    0   0   0
S             0.3333333330        0.3333333330        0.5632294303    0   0   1
S             0.6666666660        0.6666666660        0.4367705697    0   0   1



     Writing output data file ./outdir/MoS2.save/
     NEW-OLD atomic charge density approx. for the potential

     total cpu time spent up to now is        9.3 secs

     Self-consistent Calculation

     iteration #  1     ecut=    20.00 Ry     beta= 0.10
     Davidson diagonalization with overlap
     ethr =  1.00E-06,  avg # of iterations = 13.4

     total cpu time spent up to now is       10.2 secs

     total energy              =    -180.64934953 Ry
     estimated scf accuracy    <       0.08045151 Ry

     iteration #  2     ecut=    20.00 Ry     beta= 0.10
     Davidson diagonalization with overlap
     ethr =  3.09E-04,  avg # of iterations =  1.0

     negative rho (up, down):  8.347E-06 0.000E+00

     total cpu time spent up to now is       10.8 secs

     total energy              =    -180.64477461 Ry
     estimated scf accuracy    <       0.02515568 Ry

     iteration #  3     ecut=    20.00 Ry     beta= 0.10
     Davidson diagonalization with overlap
     ethr =  9.68E-05,  avg # of iterations =  2.0

     negative rho (up, down):  1.946E-04 0.000E+00

     total cpu time spent up to now is       11.4 secs

     total energy              =    -180.64849453 Ry
     estimated scf accuracy    <       0.00276845 Ry

     iteration #  4     ecut=    20.00 Ry     beta= 0.10
     Davidson diagonalization with overlap
     ethr =  1.06E-05,  avg # of iterations =  3.7

     negative rho (up, down):  6.218E-04 0.000E+00

     total cpu time spent up to now is       12.0 secs

     total energy              =    -180.64868278 Ry
     estimated scf accuracy    <       0.00142743 Ry

     iteration #  5     ecut=    20.00 Ry     beta= 0.10
     Davidson diagonalization with overlap
     ethr =  5.49E-06,  avg # of iterations =  3.5

     negative rho (up, down):  5.783E-04 0.000E+00

     total cpu time spent up to now is       12.6 secs

     total energy              =    -180.64873767 Ry
     estimated scf accuracy    <       0.00012889 Ry

     iteration #  6     ecut=    20.00 Ry     beta= 0.10
     Davidson diagonalization with overlap
     ethr =  4.96E-07,  avg # of iterations =  3.7

     negative rho (up, down):  5.604E-04 0.000E+00

     total cpu time spent up to now is       13.2 secs

     total energy              =    -180.64875580 Ry
     estimated scf accuracy    <       0.00013497 Ry

     iteration #  7     ecut=    20.00 Ry     beta= 0.10
     Davidson diagonalization with overlap
     ethr =  4.96E-07,  avg # of iterations =  2.0

     negative rho (up, down):  4.765E-04 0.000E+00

     total cpu time spent up to now is       13.8 secs

     total energy              =    -180.64877161 Ry
     estimated scf accuracy    <       0.00000737 Ry

     iteration #  8     ecut=    20.00 Ry     beta= 0.10
     Davidson diagonalization with overlap
     ethr =  2.84E-08,  avg # of iterations =  2.5

     negative rho (up, down):  4.068E-04 0.000E+00

     total cpu time spent up to now is       14.3 secs

     total energy              =    -180.64877263 Ry
     estimated scf accuracy    <       0.00000171 Ry

     iteration #  9     ecut=    20.00 Ry     beta= 0.10
     Davidson diagonalization with overlap
     ethr =  6.59E-09,  avg # of iterations =  2.1

     total cpu time spent up to now is       14.9 secs

     End of self-consistent calculation

          k = 0.0000 0.0000 0.0000 (  1811 PWs)   bands (ev):

   -64.3800 -37.7073 -37.7073 -37.4803 -16.1377 -13.7144  -7.2804  -6.1881
    -6.1881  -2.7371  -1.5667  -1.5667  -0.9479  -0.9479   0.4512   4.1720
     4.2885   5.0227

     occupation numbers 
     1.0000   1.0000   1.0000   1.0000   1.0000   1.0000   1.0000   1.0000
     1.0000   1.0000   1.0000   1.0000   1.0000   1.0000   0.0000   0.0000
     0.0000   0.0000

          k = 0.0000 0.1283 0.0000 (  1835 PWs)   bands (ev):

   -64.3780 -37.7665 -37.7453 -37.5500 -15.9094 -13.7704  -7.0647  -6.4939
    -6.0443  -2.8523  -2.4202  -2.2765  -0.7660  -0.0827   0.7464   3.8802
     4.5315   4.5338

     occupation numbers 
     1.0000   1.0000   1.0000   1.0000   1.0000   1.0000   1.0000   1.0000
     1.0000   1.0000   1.0000   1.0000   1.0000   0.0000   0.0000   0.0000
     0.0000   0.0000

          k = 0.0000 0.2566 0.0000 (  1817 PWs)   bands (ev):

   -64.3640 -37.8599 -37.7597 -37.5428 -15.2965 -13.8882  -6.9684  -6.3011
    -5.6862  -4.6544  -3.0624  -1.8196  -1.0616   0.7038   1.3138   3.2436
     5.2243   5.3883

     occupation numbers 
     1.0000   1.0000   1.0000   1.0000   1.0000   1.0000   1.0000   1.0000
     1.0000   1.0000   1.0000   1.0000   1.0000   0.0000   0.0000   0.0000
     0.0000   0.0000

          k = 0.0000 0.3849 0.0000 (  1800 PWs)   bands (ev):

   -64.3491 -37.9996 -37.7727 -37.5009 -14.6525 -13.8417  -7.2967  -5.9525
    -5.5317  -5.3887  -3.0371  -2.4902  -1.2572   0.8344   1.5584   4.2355
     4.7016   5.9233

     occupation numbers 
     1.0000   1.0000   1.0000   1.0000   1.0000   1.0000   1.0000   1.0000
     1.0000   1.0000   1.0000   1.0000   1.0000   0.0000   0.0000   0.0000
     0.0000   0.0000

          k = 0.0000 0.5132 0.0000 (  1818 PWs)   bands (ev):

   -64.3429 -38.1501 -37.7929 -37.5215 -14.5348 -13.3648  -8.0641  -5.8097
    -5.6079  -5.0969  -3.0633  -2.6808  -1.3998   0.6456   1.4624   5.0244
     5.2056   5.5585

     occupation numbers 
     1.0000   1.0000   1.0000   1.0000   1.0000   1.0000   1.0000   1.0000
     1.0000   1.0000   1.0000   1.0000   1.0000   0.0000   0.0000   0.0000
     0.0000   0.0000

          k = 0.1111 0.1925 0.0000 (  1807 PWs)   bands (ev):

   -64.3663 -37.8021 -37.7420 -37.5285 -15.4823 -13.8574  -6.7671  -6.6221
    -5.8021  -3.7968  -3.4395  -1.8115  -0.6282   0.3257   1.2616   3.6034
     3.8569   5.0020

     occupation numbers 
     1.0000   1.0000   1.0000   1.0000   1.0000   1.0000   1.0000   1.0000
     1.0000   1.0000   1.0000   1.0000   1.0000   0.0000   0.0000   0.0000
     0.0000   0.0000

          k = 0.1111 0.3208 0.0000 (  1794 PWs)   bands (ev):

   -64.3526 -37.9166 -37.7758 -37.4967 -14.7862 -13.9545  -6.9881  -6.0052
    -5.8001  -4.9176  -3.8119  -1.9697  -0.7587   0.6358   1.6228   3.3114
     4.3818   5.8679

     occupation numbers 
     1.0000   1.0000   1.0000   1.0000   1.0000   1.0000   1.0000   1.0000
     1.0000   1.0000   1.0000   1.0000   1.0000   0.0000   0.0000   0.0000
     0.0000   0.0000

          k = 0.1111 0.4491 0.0000 (  1803 PWs)   bands (ev):

   -64.3431 -38.0696 -37.8092 -37.4926 -14.4087 -13.6696  -7.5192  -6.3491
    -5.2871  -4.9943  -3.6843  -2.7932  -0.7705   0.7402   1.4078   3.8370
     5.4040   6.2812

     occupation numbers 
     1.0000   1.0000   1.0000   1.0000   1.0000   1.0000   1.0000   1.0000
     1.0000   1.0000   1.0000   1.0000   1.0000   0.0000   0.0000   0.0000
     0.0000   0.0000

          k = 0.1111-0.5774 0.0000 (  1802 PWs)   bands (ev):

   -64.3388 -38.1242 -37.8351 -37.4603 -14.4099 -13.3328  -7.9944  -6.1998
    -5.2351  -4.9692  -3.4516  -3.1081  -0.8514   0.7221   1.3450   4.2290
     5.4155   5.9773

     occupation numbers 
     1.0000   1.0000   1.0000   1.0000   1.0000   1.0000   1.0000   1.0000
     1.0000   1.0000   1.0000   1.0000   1.0000   0.0000   0.0000   0.0000
     0.0000   0.0000

          k = 0.2222 0.3849 0.0000 (  1804 PWs)   bands (ev):

   -64.3439 -38.0282 -37.8429 -37.4837 -14.1302 -14.0257  -6.9027  -6.7478
    -5.1172  -4.8497  -4.6119  -2.5442  -0.3032   0.7610   1.2090   3.1288
     5.3385   6.7964

     occupation numbers 
     1.0000   1.0000   1.0000   1.0000   1.0000   1.0000   1.0000   1.0000
     1.0000   1.0000   1.0000   1.0000   0.8333   0.0000   0.0000   0.0000
     0.0000   0.0000

          k = 0.2222-0.6415 0.0000 (  1810 PWs)   bands (ev):

   -64.3384 -38.0756 -37.9246 -37.4746 -14.0865 -13.6079  -7.3364  -6.6936
    -5.3841  -4.5424  -4.3652  -3.2556  -0.3245   0.9400   1.0737   3.4394
     5.0977   7.1379

     occupation numbers 
     1.0000   1.0000   1.0000   1.0000   1.0000   1.0000   1.0000   1.0000
     1.0000   1.0000   1.0000   1.0000   1.0000   0.0000   0.0000   0.0000
     0.0000   0.0000

          k = 0.3333-0.5774 0.0000 (  1806 PWs)   bands (ev):

   -64.3357 -38.0101 -38.0101 -37.4809 -13.7730 -13.7730  -6.8367  -6.8367
    -6.1138  -4.2070  -4.2070  -3.7022  -0.4347   1.1373   1.1373   3.9461
     3.9461   7.8836

     occupation numbers 
     1.0000   1.0000   1.0000   1.0000   1.0000   1.0000   1.0000   1.0000
     1.0000   1.0000   1.0000   1.0000   1.0000   0.0000   0.0000   0.0000
     0.0000   0.0000

     the Fermi energy is    -0.3024 ev

!    total energy              =    -180.64877590 Ry
     estimated scf accuracy    <       0.00000031 Ry
     smearing contrib. (-TS)   =      -0.00000063 Ry
     internal energy E=F+TS    =    -180.64877527 Ry

     The total energy is F=E-TS. E is the sum of the following terms:
     one-electron contribution =   -1181.64995663 Ry
     hartree contribution      =     590.26366322 Ry
     xc contribution           =     -29.93359878 Ry
     ewald contribution        =     440.67111692 Ry

     convergence has been achieved in   9 iterations

     Forces acting on atoms (cartesian axes, Ry/au):

     atom    1 type  1   force =     0.00000000    0.00000000    0.00000000
     atom    2 type  2   force =    -0.00000000   -0.00000000    0.26118086
     atom    3 type  2   force =     0.00000000   -0.00000000   -0.26118086
     The non-local contrib.  to forces
     atom    1 type  1   force =     0.00000000    0.00000000    0.00000000
     atom    2 type  2   force =     0.00000000    0.00000000   -0.12042650
     atom    3 type  2   force =     0.00000000   -0.00000000    0.12042650
     The ionic contribution  to forces
     atom    1 type  1   force =    -0.00000002   -0.00000001   -0.00000000
     atom    2 type  2   force =     0.00000001    0.00000000   34.97643307
     atom    3 type  2   force =     0.00000002    0.00000001  -34.97643307
     The local contribution  to forces
     atom    1 type  1   force =    -0.00000000   -0.00000000    0.00000000
     atom    2 type  2   force =     0.00000001    0.00000001  -34.59250764
     atom    3 type  2   force =     0.00000002    0.00000001   34.59250764
     The core correction contribution to forces
     atom    1 type  1   force =     0.00000000    0.00000000   -0.00000000
     atom    2 type  2   force =    -0.00000000   -0.00000000   -0.00209570
     atom    3 type  2   force =    -0.00000000   -0.00000000    0.00209570
     The Hubbard contrib.    to forces
     atom    1 type  1   force =     0.00000000    0.00000000    0.00000000
     atom    2 type  2   force =     0.00000000    0.00000000    0.00000000
     atom    3 type  2   force =     0.00000000    0.00000000    0.00000000
     The SCF correction term to forces
     atom    1 type  1   force =    -0.00000000   -0.00000000    0.00000000
     atom    2 type  2   force =    -0.00000000   -0.00000000   -0.00022236
     atom    3 type  2   force =    -0.00000000   -0.00000000    0.00022236

     Total force =     0.369366     Total SCF correction =     0.000314
     Energy error            =      3.9E-01
     Gradient error          =      2.6E-01

     number of scf cycles    =   2
     number of bfgs steps    =   1

     energy   old            =    -180.2568995021 Ry
     energy   new            =    -180.6487759023 Ry

     CASE: energy  _new < energy  _old

     new trust radius        =       0.5161225401 bohr
     new conv_thr            =       0.0000010000 Ry


ATOMIC_POSITIONS (crystal)
Mo            0.0000000000        0.0000000000        0.5000000000    0   0   0
S             0.3333333330        0.3333333330        0.5768854446    0   0   1
S             0.6666666660        0.6666666660        0.4231145554    0   0   1



     Writing output data file ./outdir/MoS2.save/
     NEW-OLD atomic charge density approx. for the potential

     negative rho (up, down):  1.328E-08 0.000E+00

     total cpu time spent up to now is       16.2 secs

     Self-consistent Calculation

     iteration #  1     ecut=    20.00 Ry     beta= 0.10
     Davidson diagonalization with overlap
     c_bands:  1 eigenvalues not converged
     c_bands:  1 eigenvalues not converged
     c_bands:  1 eigenvalues not converged
     ethr =  1.00E-06,  avg # of iterations = 14.9

     negative rho (up, down):  1.206E-08 0.000E+00

     total cpu time spent up to now is       17.1 secs

     total energy              =    -180.79923195 Ry
     estimated scf accuracy    <       0.04990360 Ry

     iteration #  2     ecut=    20.00 Ry     beta= 0.10
     Davidson diagonalization with overlap
     ethr =  1.92E-04,  avg # of iterations =  1.0

     negative rho (up, down):  2.520E-07 0.000E+00

     total cpu time spent up to now is       17.7 secs

     total energy              =    -180.79956579 Ry
     estimated scf accuracy    <       0.01063917 Ry

     iteration #  3     ecut=    20.00 Ry     beta= 0.10
     Davidson diagonalization with overlap
     ethr =  4.09E-05,  avg # of iterations =  2.0

     negative rho (up, down):  3.209E-04 0.000E+00

     total cpu time spent up to now is       18.3 secs

     total energy              =    -180.80040256 Ry
     estimated scf accuracy    <       0.00291947 Ry

     iteration #  4     ecut=    20.00 Ry     beta= 0.10
     Davidson diagonalization with overlap
     ethr =  1.12E-05,  avg # of iterations =  1.7

     negative rho (up, down):  3.787E-04 0.000E+00

     total cpu time spent up to now is       18.9 secs

     total energy              =    -180.80053386 Ry
     estimated scf accuracy    <       0.00130921 Ry

     iteration #  5     ecut=    20.00 Ry     beta= 0.10
     Davidson diagonalization with overlap
     ethr =  5.04E-06,  avg # of iterations =  4.5

     negative rho (up, down):  4.008E-04 0.000E+00

     total cpu time spent up to now is       19.5 secs

     total energy              =    -180.80064958 Ry
     estimated scf accuracy    <       0.00011548 Ry

     iteration #  6     ecut=    20.00 Ry     beta= 0.10
     Davidson diagonalization with overlap
     ethr =  4.44E-07,  avg # of iterations =  3.9

     negative rho (up, down):  3.686E-04 0.000E+00

     total cpu time spent up to now is       20.1 secs

     total energy              =    -180.80065130 Ry
     estimated scf accuracy    <       0.00009910 Ry

     iteration #  7     ecut=    20.00 Ry     beta= 0.10
     Davidson diagonalization with overlap
     ethr =  3.81E-07,  avg # of iterations =  2.0

     negative rho (up, down):  3.227E-04 0.000E+00

     total cpu time spent up to now is       20.7 secs

     total energy              =    -180.80066843 Ry
     estimated scf accuracy    <       0.00001544 Ry

     iteration #  8     ecut=    20.00 Ry     beta= 0.10
     Davidson diagonalization with overlap
     ethr =  5.94E-08,  avg # of iterations =  1.2

     negative rho (up, down):  2.644E-04 0.000E+00

     total cpu time spent up to now is       21.2 secs

     total energy              =    -180.80066928 Ry
     estimated scf accuracy    <       0.00000133 Ry

     iteration #  9     ecut=    20.00 Ry     beta= 0.10
     Davidson diagonalization with overlap
     ethr =  5.13E-09,  avg # of iterations =  2.1

     total cpu time spent up to now is       21.8 secs

     End of self-consistent calculation

          k = 0.0000 0.0000 0.0000 (  1811 PWs)   bands (ev):

   -64.5529 -37.6928 -37.6928 -37.5968 -15.1857 -13.8779  -6.7023  -4.3129
    -4.3129  -3.0776  -0.9700  -0.9700  -0.7839  -0.5259  -0.5259   3.4490
     3.4490   4.2930

     occupation numbers 
     1.0000   1.0000   1.0000   1.0000   1.0000   1.0000   1.0000   1.0000
     1.0000   1.0000   1.0000   1.0000   1.0000   1.0000   1.0000   0.0000
     0.0000   0.0000

          k = 0.0000 0.1283 0.0000 (  1835 PWs)   bands (ev):

   -64.5519 -37.7395 -37.7281 -37.6709 -14.9946 -13.8336  -6.4725  -4.9066
    -4.2191  -2.6735  -2.1821  -1.7125  -0.9873   0.0405   0.1376   2.8297
     3.3200   4.5534

     occupation numbers 
     1.0000   1.0000   1.0000   1.0000   1.0000   1.0000   1.0000   1.0000
     1.0000   1.0000   1.0000   1.0000   1.0000   0.0000   0.0000   0.0000
     0.0000   0.0000

          k = 0.0000 0.2566 0.0000 (  1817 PWs)   bands (ev):

   -64.5401 -37.8042 -37.7362 -37.6710 -14.4730 -13.6985  -5.9473  -5.4599
    -4.1273  -4.0620  -2.3587  -2.2101  -1.3867   0.5564   0.6886   2.5626
     3.3227   5.2624

     occupation numbers 
     1.0000   1.0000   1.0000   1.0000   1.0000   1.0000   1.0000   1.0000
     1.0000   1.0000   1.0000   1.0000   1.0000   0.0000   0.0000   0.0000
     0.0000   0.0000

          k = 0.0000 0.3849 0.0000 (  1800 PWs)   bands (ev):

   -64.5276 -37.9156 -37.7437 -37.6378 -13.8752 -13.4252  -6.2252  -5.6253
    -4.8596  -4.1930  -2.9163  -2.1415  -1.8429   0.9530   1.1281   3.4559
     3.5196   6.1553

     occupation numbers 
     1.0000   1.0000   1.0000   1.0000   1.0000   1.0000   1.0000   1.0000
     1.0000   1.0000   1.0000   1.0000   1.0000   0.0000   0.0000   0.0000
     0.0000   0.0000

          k = 0.0000 0.5132 0.0000 (  1818 PWs)   bands (ev):

   -64.5230 -38.0495 -37.7594 -37.6632 -13.6582 -12.9500  -7.1300  -5.6154
    -4.8767  -4.3950  -3.1510  -2.0916  -1.9681   1.1224   1.7202   3.6310
     4.3170   5.0450

     occupation numbers 
     1.0000   1.0000   1.0000   1.0000   1.0000   1.0000   1.0000   1.0000
     1.0000   1.0000   1.0000   1.0000   1.0000   0.0000   0.0000   0.0000
     0.0000   0.0000

          k = 0.1111 0.1925 0.0000 (  1807 PWs)   bands (ev):

   -64.5417 -37.7549 -37.7195 -37.6538 -14.6345 -13.7431  -6.0166  -5.4098
    -4.2028  -3.1485  -2.9237  -2.0714  -0.9258   0.2190   0.6636   2.8315
     2.9480   5.0345

     occupation numbers 
     1.0000   1.0000   1.0000   1.0000   1.0000   1.0000   1.0000   1.0000
     1.0000   1.0000   1.0000   1.0000   1.0000   0.0000   0.0000   0.0000
     0.0000   0.0000

          k = 0.1111 0.3208 0.0000 (  1794 PWs)   bands (ev):

   -64.5302 -37.8441 -37.7450 -37.6305 -14.0305 -13.5747  -5.8810  -5.2056
    -5.1332  -4.0495  -3.1798  -2.3887  -0.9901   0.2803   1.3200   2.6377
     3.5501   5.9245

     occupation numbers 
     1.0000   1.0000   1.0000   1.0000   1.0000   1.0000   1.0000   1.0000
     1.0000   1.0000   1.0000   1.0000   1.0000   0.0000   0.0000   0.0000
     0.0000   0.0000

          k = 0.1111 0.4491 0.0000 (  1803 PWs)   bands (ev):

   -64.5227 -37.9771 -37.7713 -37.6325 -13.6185 -13.1810  -6.5658  -5.7690
    -4.6450  -4.4538  -3.2229  -3.0539  -1.0492   0.7326   1.6643   2.9195
     4.2484   6.2048

     occupation numbers 
     1.0000   1.0000   1.0000   1.0000   1.0000   1.0000   1.0000   1.0000
     1.0000   1.0000   1.0000   1.0000   1.0000   0.0000   0.0000   0.0000
     0.0000   0.0000

          k = 0.1111-0.5774 0.0000 (  1802 PWs)   bands (ev):

   -64.5192 -38.0241 -37.7958 -37.6024 -13.5419 -12.8779  -7.0948  -5.5784
    -4.9679  -4.4181  -3.2285  -3.1010  -1.1136   1.1051   1.7398   3.1740
     4.4166   5.4617

     occupation numbers 
     1.0000   1.0000   1.0000   1.0000   1.0000   1.0000   1.0000   1.0000
     1.0000   1.0000   1.0000   1.0000   1.0000   0.0000   0.0000   0.0000
     0.0000   0.0000

          k = 0.2222 0.3849 0.0000 (  1804 PWs)   bands (ev):

   -64.5235 -37.9435 -37.7985 -37.6234 -13.4571 -13.4226  -5.9855  -5.8758
    -4.5785  -4.3961  -4.1584  -2.8888  -0.3303   0.0977   1.6854   2.3678
     4.2796   6.8094

     occupation numbers 
     1.0000   1.0000   1.0000   1.0000   1.0000   1.0000   1.0000   1.0000
     1.0000   1.0000   1.0000   1.0000   1.0000   0.0000   0.0000   0.0000
     0.0000   0.0000

          k = 0.2222-0.6415 0.0000 (  1810 PWs)   bands (ev):

   -64.5191 -37.9863 -37.8682 -37.6184 -13.3188 -13.0130  -6.5075  -5.8481
    -4.8410  -4.3935  -4.1885  -3.3946  -0.2828   0.6739   1.4587   2.6685
     4.2419   6.7231

     occupation numbers 
     1.0000   1.0000   1.0000   1.0000   1.0000   1.0000   1.0000   1.0000
     1.0000   1.0000   1.0000   1.0000   1.0000   0.0000   0.0000   0.0000
     0.0000   0.0000

          k = 0.3333-0.5774 0.0000 (  1806 PWs)   bands (ev):

   -64.5169 -37.9335 -37.9335 -37.6250 -13.0721 -13.0721  -5.9533  -5.9533
    -5.6966  -4.0991  -4.0991  -3.9315   0.5691   0.5691   0.6818   3.3964
     3.3964   6.6013

     occupation numbers 
     1.0000   1.0000   1.0000   1.0000   1.0000   1.0000   1.0000   1.0000
     1.0000   1.0000   1.0000   1.0000   0.0000   0.0000   0.0000   0.0000
     0.0000   0.0000

     the Fermi energy is    -0.1574 ev

!    total energy              =    -180.80067171 Ry
     estimated scf accuracy    <       0.00000027 Ry
     smearing contrib. (-TS)   =       0.00000000 Ry
     internal energy E=F+TS    =    -180.80067171 Ry

     The total energy is F=E-TS. E is the sum of the following terms:
     one-electron contribution =   -1110.05944841 Ry
     hartree contribution      =     554.46759577 Ry
     xc contribution           =     -29.47849023 Ry
     ewald contribution        =     404.26967116 Ry

     convergence has been achieved in   9 iterations

     Forces acting on atoms (cartesian axes, Ry/au):

     atom    1 type  1   force =    -0.00000000    0.00000000    0.00000000
     atom    2 type  2   force =     0.00000000    0.00000000    0.04131067
     atom    3 type  2   force =     0.00000000    0.00000000   -0.04131067
     The non-local contrib.  to forces
     atom    1 type  1   force =     0.00000000    0.00000000    0.00000000
     atom    2 type  2   force =     0.00000000    0.00000000   -0.27252300
     atom    3 type  2   force =     0.00000000    0.00000000    0.27252300
     The ionic contribution  to forces
     atom    1 type  1   force =    -0.00000001   -0.00000001   -0.00000000
     atom    2 type  2   force =     0.00000000    0.00000000   35.36718909
     atom    3 type  2   force =     0.00000001    0.00000001  -35.36718909
     The local contribution  to forces
     atom    1 type  1   force =    -0.00000000   -0.00000000    0.00000000
     atom    2 type  2   force =     0.00000001    0.00000001  -35.05573521
     atom    3 type  2   force =     0.00000002    0.00000001   35.05573521
     The core correction contribution to forces
     atom    1 type  1   force =    -0.00000000   -0.00000000   -0.00000000
     atom    2 type  2   force =    -0.00000000   -0.00000000    0.00308457
     atom    3 type  2   force =    -0.00000000   -0.00000000   -0.00308457
     The Hubbard contrib.    to forces
     atom    1 type  1   force =     0.00000000    0.00000000    0.00000000
     atom    2 type  2   force =     0.00000000    0.00000000    0.00000000
     atom    3 type  2   force =     0.00000000    0.00000000    0.00000000
     The SCF correction term to forces
     atom    1 type  1   force =    -0.00000000   -0.00000000   -0.00000000
     atom    2 type  2   force =    -0.00000000   -0.00000000   -0.00070478
     atom    3 type  2   force =    -0.00000000   -0.00000000    0.00070478

     Total force =     0.058422     Total SCF correction =     0.000997
     Energy error            =      1.5E-01
     Gradient error          =      4.1E-02

     number of scf cycles    =   3
     number of bfgs steps    =   2

     energy   old            =    -180.6487759023 Ry
     energy   new            =    -180.8006717064 Ry

     CASE: energy  _new < energy  _old

     new trust radius        =       0.0969725141 bohr
     new conv_thr            =       0.0000004131 Ry


ATOMIC_POSITIONS (crystal)
Mo            0.0000000000        0.0000000000        0.5000000000    0   0   0
S             0.3333333330        0.3333333330        0.5794512268    0   0   1
S             0.6666666660        0.6666666660        0.4205487732    0   0   1



     Writing output data file ./outdir/MoS2.save/
     NEW-OLD atomic charge density approx. for the potential

     total cpu time spent up to now is       23.1 secs

     Self-consistent Calculation

     iteration #  1     ecut=    20.00 Ry     beta= 0.10
     Davidson diagonalization with overlap
     c_bands:  1 eigenvalues not converged
     ethr =  1.00E-06,  avg # of iterations = 11.5

     total cpu time spent up to now is       24.0 secs

     total energy              =    -180.80515162 Ry
     estimated scf accuracy    <       0.00101359 Ry

     iteration #  2     ecut=    20.00 Ry     beta= 0.10
     Davidson diagonalization with overlap
     ethr =  3.90E-06,  avg # of iterations =  1.0

     negative rho (up, down):  1.496E-08 0.000E+00

     total cpu time spent up to now is       24.5 secs

     total energy              =    -180.80516736 Ry
     estimated scf accuracy    <       0.00025901 Ry

     iteration #  3     ecut=    20.00 Ry     beta= 0.10
     Davidson diagonalization with overlap
     ethr =  9.96E-07,  avg # of iterations =  1.2

     negative rho (up, down):  7.081E-05 0.000E+00

     total cpu time spent up to now is       25.1 secs

     total energy              =    -180.80517552 Ry
     estimated scf accuracy    <       0.00011486 Ry

     iteration #  4     ecut=    20.00 Ry     beta= 0.10
     Davidson diagonalization with overlap
     ethr =  4.42E-07,  avg # of iterations =  2.0

     negative rho (up, down):  5.146E-05 0.000E+00

     total cpu time spent up to now is       25.7 secs

     total energy              =    -180.80518412 Ry
     estimated scf accuracy    <       0.00001642 Ry

     iteration #  5     ecut=    20.00 Ry     beta= 0.10
     Davidson diagonalization with overlap
     ethr =  6.31E-08,  avg # of iterations =  1.6

     negative rho (up, down):  5.885E-05 0.000E+00

     total cpu time spent up to now is       26.2 secs

     total energy              =    -180.80518618 Ry
     estimated scf accuracy    <       0.00000318 Ry

     iteration #  6     ecut=    20.00 Ry     beta= 0.10
     Davidson diagonalization with overlap
     ethr =  1.22E-08,  avg # of iterations =  2.0

     negative rho (up, down):  5.129E-05 0.000E+00

     total cpu time spent up to now is       26.8 secs

     total energy              =    -180.80518643 Ry
     estimated scf accuracy    <       0.00000129 Ry

     iteration #  7     ecut=    20.00 Ry     beta= 0.10
     Davidson diagonalization with overlap
     ethr =  4.97E-09,  avg # of iterations =  1.1

     total cpu time spent up to now is       27.4 secs

     End of self-consistent calculation

          k = 0.0000 0.0000 0.0000 (  1811 PWs)   bands (ev):

   -64.5757 -37.6899 -37.6899 -37.6067 -15.0230 -13.8628  -6.5919  -3.9953
    -3.9953  -3.1285  -0.9643  -0.8645  -0.8645  -0.4187  -0.4187   3.2322
     3.2322   4.3120

     occupation numbers 
     1.0000   1.0000   1.0000   1.0000   1.0000   1.0000   1.0000   1.0000
     1.0000   1.0000   1.0000   1.0000   1.0000   1.0000   1.0000   0.0000
     0.0000   0.0000

          k = 0.0000 0.1283 0.0000 (  1835 PWs)   bands (ev):

   -64.5749 -37.7354 -37.7251 -37.6815 -14.8368 -13.8056  -6.3606  -4.6487
    -3.9055  -2.6937  -2.0687  -1.5705  -1.0675   0.0128   0.1875   2.6510
     3.1219   4.5803

     occupation numbers 
     1.0000   1.0000   1.0000   1.0000   1.0000   1.0000   1.0000   1.0000
     1.0000   1.0000   1.0000   1.0000   1.0000   0.0000   0.0000   0.0000
     0.0000   0.0000

          k = 0.0000 0.2566 0.0000 (  1817 PWs)   bands (ev):

   -64.5634 -37.7968 -37.7325 -37.6827 -14.3269 -13.6365  -5.8056  -5.2659
    -4.0017  -3.7720  -2.4198  -2.0418  -1.4305   0.4459   0.6893   2.4240
     3.1401   5.2915

     occupation numbers 
     1.0000   1.0000   1.0000   1.0000   1.0000   1.0000   1.0000   1.0000
     1.0000   1.0000   1.0000   1.0000   1.0000   0.0000   0.0000   0.0000
     0.0000   0.0000

          k = 0.0000 0.3849 0.0000 (  1800 PWs)   bands (ev):

   -64.5511 -37.9048 -37.7394 -37.6506 -13.7313 -13.3311  -6.0347  -5.5205
    -4.7545  -3.9372  -2.9680  -1.9752  -1.9008   0.9719   1.0384   3.2743
     3.3133   6.0672

     occupation numbers 
     1.0000   1.0000   1.0000   1.0000   1.0000   1.0000   1.0000   1.0000
     1.0000   1.0000   1.0000   1.0000   1.0000   0.0000   0.0000   0.0000
     0.0000   0.0000

          k = 0.0000 0.5132 0.0000 (  1818 PWs)   bands (ev):

   -64.5467 -38.0368 -37.7546 -37.6769 -13.4912 -12.8575  -6.9591  -5.5428
    -4.8177  -4.1509  -3.1395  -2.1614  -1.8339   1.1908   1.6885   3.3982
     4.0891   4.9907

     occupation numbers 
     1.0000   1.0000   1.0000   1.0000   1.0000   1.0000   1.0000   1.0000
     1.0000   1.0000   1.0000   1.0000   1.0000   0.0000   0.0000   0.0000
     0.0000   0.0000

          k = 0.1111 0.1925 0.0000 (  1807 PWs)   bands (ev):

   -64.5649 -37.7484 -37.7158 -37.6652 -14.4854 -13.6915  -5.9047  -5.1745
    -3.9302  -3.0045  -2.8617  -2.0298  -0.9857   0.1999   0.6052   2.6859
     2.7870   5.0652

     occupation numbers 
     1.0000   1.0000   1.0000   1.0000   1.0000   1.0000   1.0000   1.0000
     1.0000   1.0000   1.0000   1.0000   1.0000   0.0000   0.0000   0.0000
     0.0000   0.0000

          k = 0.1111 0.3208 0.0000 (  1794 PWs)   bands (ev):

   -64.5537 -37.8346 -37.7404 -37.6430 -13.8927 -13.4851  -5.6842  -5.0801
    -4.9876  -3.8696  -3.0630  -2.4028  -1.0074   0.2154   1.2773   2.5026
     3.3723   5.9518

     occupation numbers 
     1.0000   1.0000   1.0000   1.0000   1.0000   1.0000   1.0000   1.0000
     1.0000   1.0000   1.0000   1.0000   1.0000   0.0000   0.0000   0.0000
     0.0000   0.0000

          k = 0.1111 0.4491 0.0000 (  1803 PWs)   bands (ev):

   -64.5464 -37.9652 -37.7659 -37.6459 -13.4673 -13.0771  -6.3945  -5.6465
    -4.5512  -4.2939  -3.1369  -3.0504  -1.0634   0.7106   1.6815   2.7488
     4.0127   6.0804

     occupation numbers 
     1.0000   1.0000   1.0000   1.0000   1.0000   1.0000   1.0000   1.0000
     1.0000   1.0000   1.0000   1.0000   1.0000   0.0000   0.0000   0.0000
     0.0000   0.0000

          k = 0.1111-0.5774 0.0000 (  1802 PWs)   bands (ev):

   -64.5430 -38.0114 -37.7901 -37.6161 -13.3748 -12.7790  -6.9281  -5.4792
    -4.8918  -4.2585  -3.1755  -3.0697  -1.1299   1.1490   1.7466   2.9844
     4.2146   5.3732

     occupation numbers 
     1.0000   1.0000   1.0000   1.0000   1.0000   1.0000   1.0000   1.0000
     1.0000   1.0000   1.0000   1.0000   1.0000   0.0000   0.0000   0.0000
     0.0000   0.0000

          k = 0.2222 0.3849 0.0000 (  1804 PWs)   bands (ev):

   -64.5472 -37.9326 -37.7922 -37.6366 -13.3287 -13.2975  -5.8264  -5.6906
    -4.4849  -4.3221  -4.0080  -2.9033  -0.3317  -0.0038   1.7249   2.2263
     4.0524   6.8216

     occupation numbers 
     1.0000   1.0000   1.0000   1.0000   1.0000   1.0000   1.0000   1.0000
     1.0000   1.0000   1.0000   1.0000   1.0000   0.0000   0.0000   0.0000
     0.0000   0.0000

          k = 0.2222-0.6415 0.0000 (  1810 PWs)   bands (ev):

   -64.5429 -37.9748 -37.8605 -37.6323 -13.1672 -12.8919  -6.3504  -5.6837
    -4.7135  -4.3355  -4.1359  -3.3769  -0.3329   0.6309   1.5139   2.5366
     4.0401   6.5812

     occupation numbers 
     1.0000   1.0000   1.0000   1.0000   1.0000   1.0000   1.0000   1.0000
     1.0000   1.0000   1.0000   1.0000   1.0000   0.0000   0.0000   0.0000
     0.0000   0.0000

          k = 0.3333-0.5774 0.0000 (  1806 PWs)   bands (ev):

   -64.5408 -37.9236 -37.9236 -37.6391 -12.9314 -12.9314  -5.7802  -5.7802
    -5.5912  -4.0542  -4.0542  -3.9261   0.4641   0.4641   0.8334   3.2615
     3.2615   6.4030

     occupation numbers 
     1.0000   1.0000   1.0000   1.0000   1.0000   1.0000   1.0000   1.0000
     1.0000   1.0000   1.0000   1.0000   0.0000   0.0000   0.0000   0.0000
     0.0000   0.0000

     the Fermi energy is    -0.1486 ev

!    total energy              =    -180.80518712 Ry
     estimated scf accuracy    <       0.00000004 Ry
     smearing contrib. (-TS)   =       0.00000000 Ry
     internal energy E=F+TS    =    -180.80518712 Ry

     The total energy is F=E-TS. E is the sum of the following terms:
     one-electron contribution =   -1096.54748007 Ry
     hartree contribution      =     547.73162849 Ry
     xc contribution           =     -29.40287788 Ry
     ewald contribution        =     397.41354234 Ry

     convergence has been achieved in   7 iterations

     Forces acting on atoms (cartesian axes, Ry/au):

     atom    1 type  1   force =     0.00000000    0.00000000    0.00000000
     atom    2 type  2   force =     0.00000000   -0.00000000    0.00582404
     atom    3 type  2   force =     0.00000000    0.00000000   -0.00582404
     The non-local contrib.  to forces
     atom    1 type  1   force =     0.00000000    0.00000000    0.00000000
     atom    2 type  2   force =     0.00000000    0.00000000   -0.28900655
     atom    3 type  2   force =     0.00000000    0.00000000    0.28900655
     The ionic contribution  to forces
     atom    1 type  1   force =    -0.00000001   -0.00000001    0.00000000
     atom    2 type  2   force =     0.00000000    0.00000000   35.32975875
     atom    3 type  2   force =     0.00000001    0.00000000  -35.32975875
     The local contribution  to forces
     atom    1 type  1   force =    -0.00000000   -0.00000000    0.00000000
     atom    2 type  2   force =     0.00000001    0.00000001  -35.03849376
     atom    3 type  2   force =     0.00000002    0.00000001   35.03849376
     The core correction contribution to forces
     atom    1 type  1   force =    -0.00000000   -0.00000000   -0.00000000
     atom    2 type  2   force =    -0.00000000   -0.00000000    0.00363615
     atom    3 type  2   force =    -0.00000000   -0.00000000   -0.00363615
     The Hubbard contrib.    to forces
     atom    1 type  1   force =     0.00000000    0.00000000    0.00000000
     atom    2 type  2   force =     0.00000000    0.00000000    0.00000000
     atom    3 type  2   force =     0.00000000    0.00000000    0.00000000
     The SCF correction term to forces
     atom    1 type  1   force =    -0.00000000   -0.00000000    0.00000000
     atom    2 type  2   force =     0.00000000    0.00000000   -0.00007055
     atom    3 type  2   force =     0.00000000    0.00000000    0.00007055

     Total force =     0.008236     Total SCF correction =     0.000100
     Energy error            =      4.5E-03
     Gradient error          =      5.8E-03

     number of scf cycles    =   4
     number of bfgs steps    =   3

     energy   old            =    -180.8006717064 Ry
     energy   new            =    -180.8051871246 Ry

     CASE: energy  _new < energy  _old

     new trust radius        =       0.0159150536 bohr
     new conv_thr            =       0.0000000582 Ry


ATOMIC_POSITIONS (crystal)
Mo            0.0000000000        0.0000000000        0.5000000000    0   0   0
S             0.3333333330        0.3333333330        0.5798723210    0   0   1
S             0.6666666660        0.6666666660        0.4201276790    0   0   1



     Writing output data file ./outdir/MoS2.save/
     NEW-OLD atomic charge density approx. for the potential

     total cpu time spent up to now is       28.7 secs

     Self-consistent Calculation

     iteration #  1     ecut=    20.00 Ry     beta= 0.10
     Davidson diagonalization with overlap
     ethr =  1.00E-06,  avg # of iterations =  5.1

     total cpu time spent up to now is       29.3 secs

     total energy              =    -180.80528348 Ry
     estimated scf accuracy    <       0.00002797 Ry

     iteration #  2     ecut=    20.00 Ry     beta= 0.10
     Davidson diagonalization with overlap
     ethr =  1.08E-07,  avg # of iterations =  1.2

     total cpu time spent up to now is       29.9 secs

     total energy              =    -180.80528407 Ry
     estimated scf accuracy    <       0.00000738 Ry

     iteration #  3     ecut=    20.00 Ry     beta= 0.10
     Davidson diagonalization with overlap
     ethr =  2.84E-08,  avg # of iterations =  1.2

     negative rho (up, down):  3.564E-08 0.000E+00

     total cpu time spent up to now is       30.5 secs

     total energy              =    -180.80528431 Ry
     estimated scf accuracy    <       0.00000309 Ry

     iteration #  4     ecut=    20.00 Ry     beta= 0.10
     Davidson diagonalization with overlap
     ethr =  1.19E-08,  avg # of iterations =  2.0

     negative rho (up, down):  2.395E-08 0.000E+00

     total cpu time spent up to now is       31.1 secs

     total energy              =    -180.80528454 Ry
     estimated scf accuracy    <       0.00000056 Ry

     iteration #  5     ecut=    20.00 Ry     beta= 0.10
     Davidson diagonalization with overlap
     ethr =  2.16E-09,  avg # of iterations =  1.3

     negative rho (up, down):  2.936E-08 0.000E+00

     total cpu time spent up to now is       31.7 secs

     total energy              =    -180.80528460 Ry
     estimated scf accuracy    <       0.00000009 Ry

     iteration #  6     ecut=    20.00 Ry     beta= 0.10
     Davidson diagonalization with overlap
     ethr =  3.35E-10,  avg # of iterations =  2.0

     total cpu time spent up to now is       32.4 secs

     End of self-consistent calculation

          k = 0.0000 0.0000 0.0000 (  1811 PWs)   bands (ev):

   -64.5808 -37.6909 -37.6909 -37.6096 -14.9974 -13.8599  -6.5747  -3.9454
    -3.9454  -3.1368  -0.9932  -0.8487  -0.8487  -0.4014  -0.4014   3.1975
     3.1975   4.3182

     occupation numbers 
     1.0000   1.0000   1.0000   1.0000   1.0000   1.0000   1.0000   1.0000
     1.0000   1.0000   1.0000   1.0000   1.0000   1.0000   1.0000   0.0000
     0.0000   0.0000

          k = 0.0000 0.1283 0.0000 (  1835 PWs)   bands (ev):

   -64.5800 -37.7362 -37.7261 -37.6845 -14.8120 -13.8007  -6.3431  -4.6089
    -3.8560  -2.6964  -2.0511  -1.5482  -1.0815   0.0094   0.1949   2.6218
     3.0899   4.5883

     occupation numbers 
     1.0000   1.0000   1.0000   1.0000   1.0000   1.0000   1.0000   1.0000
     1.0000   1.0000   1.0000   1.0000   1.0000   0.0000   0.0000   0.0000
     0.0000   0.0000

          k = 0.0000 0.2566 0.0000 (  1817 PWs)   bands (ev):

   -64.5685 -37.7971 -37.7333 -37.6859 -14.3039 -13.6264  -5.7842  -5.2345
    -3.9815  -3.7259  -2.4291  -2.0152  -1.4382   0.4277   0.6885   2.4004
     3.1101   5.2997

     occupation numbers 
     1.0000   1.0000   1.0000   1.0000   1.0000   1.0000   1.0000   1.0000
     1.0000   1.0000   1.0000   1.0000   1.0000   0.0000   0.0000   0.0000
     0.0000   0.0000

          k = 0.0000 0.3849 0.0000 (  1800 PWs)   bands (ev):

   -64.5563 -37.9045 -37.7401 -37.6540 -13.7085 -13.3160  -6.0047  -5.5031
    -4.7379  -3.8963  -2.9761  -1.9490  -1.9099   0.9738   1.0228   3.2431
     3.2793   6.0372

     occupation numbers 
     1.0000   1.0000   1.0000   1.0000   1.0000   1.0000   1.0000   1.0000
     1.0000   1.0000   1.0000   1.0000   1.0000   0.0000   0.0000   0.0000
     0.0000   0.0000

          k = 0.0000 0.5132 0.0000 (  1818 PWs)   bands (ev):

   -64.5519 -38.0362 -37.7553 -37.6804 -13.4647 -12.8428  -6.9321  -5.5308
    -4.8084  -4.1116  -3.1373  -2.1723  -1.8128   1.2003   1.6804   3.3603
     4.0505   4.9793

     occupation numbers 
     1.0000   1.0000   1.0000   1.0000   1.0000   1.0000   1.0000   1.0000
     1.0000   1.0000   1.0000   1.0000   1.0000   0.0000   0.0000   0.0000
     0.0000   0.0000

          k = 0.1111 0.1925 0.0000 (  1807 PWs)   bands (ev):

   -64.5700 -37.7488 -37.7167 -37.6683 -14.4620 -13.6830  -5.8872  -5.1375
    -3.8874  -2.9812  -2.8539  -2.0206  -0.9964   0.1958   0.5959   2.6615
     2.7603   5.0740

     occupation numbers 
     1.0000   1.0000   1.0000   1.0000   1.0000   1.0000   1.0000   1.0000
     1.0000   1.0000   1.0000   1.0000   1.0000   0.0000   0.0000   0.0000
     0.0000   0.0000

          k = 0.1111 0.3208 0.0000 (  1794 PWs)   bands (ev):

   -64.5588 -37.8346 -37.7411 -37.6463 -13.8709 -13.4707  -5.6532  -5.0613
    -4.9634  -3.8417  -3.0450  -2.4033  -1.0105   0.2039   1.2697   2.4796
     3.3420   5.9592

     occupation numbers 
     1.0000   1.0000   1.0000   1.0000   1.0000   1.0000   1.0000   1.0000
     1.0000   1.0000   1.0000   1.0000   1.0000   0.0000   0.0000   0.0000
     0.0000   0.0000

          k = 0.1111 0.4491 0.0000 (  1803 PWs)   bands (ev):

   -64.5516 -37.9648 -37.7664 -37.6494 -13.4433 -13.0605  -6.3675  -5.6268
    -4.5374  -4.2676  -3.1241  -3.0481  -1.0657   0.7056   1.6822   2.7204
     3.9731   6.0532

     occupation numbers 
     1.0000   1.0000   1.0000   1.0000   1.0000   1.0000   1.0000   1.0000
     1.0000   1.0000   1.0000   1.0000   1.0000   0.0000   0.0000   0.0000
     0.0000   0.0000

          k = 0.1111-0.5774 0.0000 (  1802 PWs)   bands (ev):

   -64.5482 -38.0109 -37.7906 -37.6196 -13.3482 -12.7632  -6.9017  -5.4641
    -4.8795  -4.2321  -3.1671  -3.0641  -1.1327   1.1544   1.7446   2.9530
     4.1802   5.3577

     occupation numbers 
     1.0000   1.0000   1.0000   1.0000   1.0000   1.0000   1.0000   1.0000
     1.0000   1.0000   1.0000   1.0000   1.0000   0.0000   0.0000   0.0000
     0.0000   0.0000

          k = 0.2222 0.3849 0.0000 (  1804 PWs)   bands (ev):

   -64.5524 -37.9323 -37.7926 -37.6400 -13.3084 -13.2776  -5.8009  -5.6613
    -4.4703  -4.3101  -3.9838  -2.9048  -0.3329  -0.0207   1.7286   2.2028
     4.0139   6.8230

     occupation numbers 
     1.0000   1.0000   1.0000   1.0000   1.0000   1.0000   1.0000   1.0000
     1.0000   1.0000   1.0000   1.0000   1.0000   0.0000   0.0000   0.0000
     0.0000   0.0000

          k = 0.2222-0.6415 0.0000 (  1810 PWs)   bands (ev):

   -64.5481 -37.9745 -37.8607 -37.6358 -13.1431 -12.8727  -6.3254  -5.6577
    -4.6931  -4.3256  -4.1272  -3.3736  -0.3428   0.6230   1.5201   2.5147
     4.0053   6.5556

     occupation numbers 
     1.0000   1.0000   1.0000   1.0000   1.0000   1.0000   1.0000   1.0000
     1.0000   1.0000   1.0000   1.0000   1.0000   0.0000   0.0000   0.0000
     0.0000   0.0000

          k = 0.3333-0.5774 0.0000 (  1806 PWs)   bands (ev):

   -64.5460 -37.9234 -37.9234 -37.6427 -12.9091 -12.9091  -5.7526  -5.7526
    -5.5740  -4.0465  -4.0465  -3.9248   0.4463   0.4463   0.8549   3.2376
     3.2376   6.3716

     occupation numbers 
     1.0000   1.0000   1.0000   1.0000   1.0000   1.0000   1.0000   1.0000
     1.0000   1.0000   1.0000   1.0000   0.0000   0.0000   0.0000   0.0000
     0.0000   0.0000

     the Fermi energy is    -0.1478 ev

!    total energy              =    -180.80528462 Ry
     estimated scf accuracy    <       0.00000005 Ry
     smearing contrib. (-TS)   =       0.00000000 Ry
     internal energy E=F+TS    =    -180.80528462 Ry

     The total energy is F=E-TS. E is the sum of the following terms:
     one-electron contribution =   -1094.33370181 Ry
     hartree contribution      =     546.63015950 Ry
     xc contribution           =     -29.39087356 Ry
     ewald contribution        =     396.28913125 Ry

     convergence has been achieved in   6 iterations

     Forces acting on atoms (cartesian axes, Ry/au):

     atom    1 type  1   force =     0.00000000    0.00000000    0.00000000
     atom    2 type  2   force =     0.00000000   -0.00000000    0.00025178
     atom    3 type  2   force =     0.00000000    0.00000000   -0.00025178
     The non-local contrib.  to forces
     atom    1 type  1   force =     0.00000000    0.00000000    0.00000000
     atom    2 type  2   force =    -0.00000000   -0.00000000   -0.29145304
     atom    3 type  2   force =    -0.00000000   -0.00000000    0.29145304
     The ionic contribution  to forces
     atom    1 type  1   force =    -0.00000001   -0.00000001    0.00000000
     atom    2 type  2   force =     0.00000000    0.00000000   35.32090720
     atom    3 type  2   force =     0.00000001    0.00000000  -35.32090720
     The local contribution  to forces
     atom    1 type  1   force =    -0.00000000   -0.00000000    0.00000000
     atom    2 type  2   force =     0.00000001    0.00000001  -35.03329722
     atom    3 type  2   force =     0.00000002    0.00000001   35.03329722
     The core correction contribution to forces
     atom    1 type  1   force =    -0.00000000   -0.00000000   -0.00000000
     atom    2 type  2   force =    -0.00000000   -0.00000000    0.00371672
     atom    3 type  2   force =    -0.00000000   -0.00000000   -0.00371672
     The Hubbard contrib.    to forces
     atom    1 type  1   force =     0.00000000    0.00000000    0.00000000
     atom    2 type  2   force =     0.00000000    0.00000000    0.00000000
     atom    3 type  2   force =     0.00000000    0.00000000    0.00000000
     The SCF correction term to forces
     atom    1 type  1   force =    -0.00000000   -0.00000000   -0.00000000
     atom    2 type  2   force =     0.00000000    0.00000000    0.00037812
     atom    3 type  2   force =     0.00000000    0.00000000   -0.00037812

     Total force =     0.000356     Total SCF correction =     0.000535
     SCF correction compared to forces is large: reduce conv_thr to get better values
     Energy error            =      9.7E-05
     Gradient error          =      2.5E-04

     bfgs converged in   5 scf cycles and   4 bfgs steps
     (criteria: energy <  1.0E-04 Ry, force <  1.0E-03 Ry/Bohr)

     End of BFGS Geometry Optimization

     Final energy   =    -180.8052846166 Ry

     File ./outdir/MoS2.bfgs deleted, as requested
Begin final coordinates

ATOMIC_POSITIONS (crystal)
Mo            0.0000000000        0.0000000000        0.5000000000    0   0   0
S             0.3333333330        0.3333333330        0.5798723210    0   0   1
S             0.6666666660        0.6666666660        0.4201276790    0   0   1
End final coordinates



     Writing output data file ./outdir/MoS2.save/

     init_run     :      0.75s CPU      0.88s WALL (       1 calls)
     electrons    :     18.66s CPU     26.27s WALL (       5 calls)
     update_pot   :      1.74s CPU      1.74s WALL (       4 calls)
     forces       :      2.59s CPU      3.06s WALL (       5 calls)

     Called by init_run:
     wfcinit      :      0.04s CPU      0.04s WALL (       1 calls)
     wfcinit:atom :      0.00s CPU      0.00s WALL (      12 calls)
     wfcinit:wfcr :      0.03s CPU      0.03s WALL (      12 calls)
     potinit      :      0.17s CPU      0.18s WALL (       1 calls)
     hinit0       :      0.41s CPU      0.42s WALL (       1 calls)

     Called by electrons:
     c_bands      :      5.63s CPU      5.76s WALL (      42 calls)
     sum_band     :      5.56s CPU      9.41s WALL (      42 calls)
     v_of_rho     :      1.71s CPU      2.01s WALL (      47 calls)
     v_h          :      0.13s CPU      0.14s WALL (      47 calls)
     v_xc         :      1.73s CPU      2.06s WALL (      52 calls)
     newd         :      6.22s CPU      9.93s WALL (      47 calls)
     mix_rho      :      0.14s CPU      0.16s WALL (      42 calls)

     Called by c_bands:
     init_us_2    :      0.07s CPU      0.07s WALL (    1080 calls)
     cegterg      :      5.37s CPU      5.49s WALL (     504 calls)

     Called by sum_band:
     sum_band:wei :      0.00s CPU      0.00s WALL (      42 calls)
     sum_band:loo :      0.51s CPU      0.54s WALL (      42 calls)
     sum_band:buf :      0.01s CPU      0.01s WALL (     504 calls)
     sum_band:ini :      0.03s CPU      0.03s WALL (     504 calls)
     sum_band:cal :      0.14s CPU      0.15s WALL (     504 calls)
     sum_band:bec :      0.01s CPU      0.01s WALL (     504 calls)
     addusdens    :      4.70s CPU      8.47s WALL (      42 calls)
     addusd:skk   :      0.02s CPU      0.02s WALL (      84 calls)
     addusd:dgemm :      1.73s CPU      5.01s WALL (      84 calls)
     addusd:qvan2 :      2.64s CPU      2.66s WALL (      84 calls)

     Called by *egterg:
     cdiaghg      :      0.89s CPU      0.91s WALL (    2183 calls)
     cegterg:over :      0.50s CPU      0.51s WALL (    1727 calls)
     cegterg:upda :      0.20s CPU      0.20s WALL (    1727 calls)
     cegterg:last :      0.49s CPU      0.50s WALL (    1187 calls)
     cdiaghg:chol :      0.06s CPU      0.06s WALL (    2183 calls)
     cdiaghg:inve :      0.02s CPU      0.02s WALL (    2183 calls)
     cdiaghg:para :      0.14s CPU      0.15s WALL (    4366 calls)
     h_psi        :      2.74s CPU      2.80s WALL (    2243 calls)
     s_psi        :      0.41s CPU      0.42s WALL (    2243 calls)
     g_psi        :      0.03s CPU      0.03s WALL (    1727 calls)

     Called by h_psi:
     h_psi:calbec :      0.44s CPU      0.45s WALL (    2243 calls)
     vloc_psi     :      1.87s CPU      1.92s WALL (    2243 calls)
     add_vuspsi   :      0.41s CPU      0.42s WALL (    2243 calls)

     General routines
     calbec       :      0.65s CPU      0.67s WALL (    2987 calls)
     fft          :      1.06s CPU      1.16s WALL (     660 calls)
     ffts         :      0.01s CPU      0.01s WALL (      89 calls)
     fftw         :      1.93s CPU      1.98s WALL (   59854 calls)
     interpolate  :      0.09s CPU      0.09s WALL (      47 calls)

     Parallel routines
     fft_scatt_xy :      0.27s CPU      0.28s WALL (   60603 calls)
     fft_scatt_yz :      1.06s CPU      1.13s WALL (   60603 calls)

     PWSCF        :     24.49s CPU     33.03s WALL


   This run was terminated on:  17:19:49  18Jan2023            

=------------------------------------------------------------------------------=
   JOB DONE.
=------------------------------------------------------------------------------=
