
     Program PWSCF v.6.7MaX starts on 18Jan2023 at 18:54: 0 

     This program is part of the open-source Quantum ESPRESSO suite
     for quantum simulation of materials; please cite
         "P. Giannozzi et al., J. Phys.:Condens. Matter 21 395502 (2009);
         "P. Giannozzi et al., J. Phys.:Condens. Matter 29 465901 (2017);
          URL http://www.quantum-espresso.org", 
     in publications or presentations arising from this work. More details at
     http://www.quantum-espresso.org/quote

     Parallel version (MPI), running on     8 processors

     MPI processes distributed on     1 nodes
     R & G space division:  proc/nbgrp/npool/nimage =       8
     Reading input from MoS2_2H.in

     Current dimensions of program PWSCF are:
     Max number of different atomic species (ntypx) = 10
     Max number of k-points (npk) =  40000
     Max angular momentum in pseudopotentials (lmaxx) =  3
     file Mo.pbe-spn-rrkjus_psl.1.0.0.UPF: wavefunction(s)  4S renormalized

     IMPORTANT: XC functional enforced from input :
     Exchange-correlation= PBE
                           (   1   4   3   4   0   0   0)
     Any further DFT definition will be discarded
     Please, verify this is what you really want


     Subspace diagonalization in iterative solution of the eigenvalue problem:
     one sub-group per band group will be used
     scalapack distributed-memory algorithm (size of sub-group:  2*  2 procs)


     Parallelization info
     --------------------
     sticks:   dense  smooth     PW     G-vecs:    dense   smooth      PW
     Min         126      50     15                20225     5095     873
     Max         128      52     16                20238     5098     900
     Sum        1015     409    121               161851    40773    7057



     bravais-lattice index     =           12
     lattice parameter (alat)  =       6.0471  a.u.
     unit-cell volume          =    1196.8981 (a.u.)^3
     number of atoms/cell      =            3
     number of atomic types    =            2
     number of electrons       =        26.00
     number of Kohn-Sham states=           18
     kinetic-energy cutoff     =      40.0000  Ry
     charge density cutoff     =     400.0000  Ry
     scf convergence threshold =      1.0E-06
     mixing beta               =       0.1000
     number of iterations used =            8  plain     mixing
     energy convergence thresh.=      1.0E-04
     force convergence thresh. =      1.0E-03
     Exchange-correlation= PBE
                           (   1   4   3   4   0   0   0)
     nstep                     =           50


     celldm(1)=   6.047124  celldm(2)=   1.000000  celldm(3)=   6.250000
     celldm(4)=   0.500000  celldm(5)=   0.000000  celldm(6)=   0.000000

     crystal axes: (cart. coord. in units of alat)
               a(1) = (   1.000000   0.000000   0.000000 )  
               a(2) = (   0.500000   0.866025   0.000000 )  
               a(3) = (   0.000000   0.000000   6.250000 )  

     reciprocal axes: (cart. coord. in units 2 pi/alat)
               b(1) = (  1.000000 -0.577350  0.000000 )  
               b(2) = (  0.000000  1.154701  0.000000 )  
               b(3) = (  0.000000  0.000000  0.160000 )  


     PseudoPot. # 1 for Mo read from file:
     /home/zronyj/Desktop/MoS2/pseudo/Mo.pbe-spn-rrkjus_psl.1.0.0.UPF
     MD5 check sum: 03f09b12e49601d1a456a78ce8b2d514
     Pseudo is Ultrasoft + core correction, Zval = 14.0
     Generated using &quot;atomic&quot; code by A. Dal Corso  v.6.3
     Using radial grid of 1229 points,  6 beta functions with: 
                l(1) =   0
                l(2) =   0
                l(3) =   1
                l(4) =   1
                l(5) =   2
                l(6) =   2
     Q(r) pseudized with 0 coefficients 


     PseudoPot. # 2 for S  read from file:
     /home/zronyj/Desktop/MoS2/pseudo/S.pbe-n-rrkjus_psl.1.0.0.UPF
     MD5 check sum: 9d0fe39aa2a799ea84730884c9b010f4
     Pseudo is Ultrasoft + core correction, Zval =  6.0
     Generated using &quot;atomic&quot; code by A. Dal Corso  v.6.3
     Using radial grid of 1151 points,  6 beta functions with: 
                l(1) =   0
                l(2) =   0
                l(3) =   1
                l(4) =   1
                l(5) =   2
                l(6) =   2
     Q(r) pseudized with 0 coefficients 


     atomic species   valence    mass     pseudopotential
        Mo            14.00    95.95000     Mo( 1.00)
        S              6.00    32.06500     S ( 1.00)

     12 Sym. Ops. (no inversion) found


                                    s                        frac. trans.

      isym =  1     identity                                     

 cryst.   s( 1) = (     1          0          0      )
                  (     0          1          0      )
                  (     0          0          1      )

 cart.    s( 1) = (  1.0000000  0.0000000  0.0000000 )
                  (  0.0000000  1.0000000  0.0000000 )
                  (  0.0000000  0.0000000  1.0000000 )


      isym =  2     180 deg rotation - cart. axis [0,1,0]        

 cryst.   s( 2) = (    -1          0          0      )
                  (    -1          1          0      )
                  (     0          0         -1      )

 cart.    s( 2) = ( -1.0000000  0.0000000  0.0000000 )
                  (  0.0000000  1.0000000  0.0000000 )
                  (  0.0000000  0.0000000 -1.0000000 )


      isym =  3     120 deg rotation - cryst. axis [0,0,1]       

 cryst.   s( 3) = (    -1          1          0      )
                  (    -1          0          0      )
                  (     0          0          1      )

 cart.    s( 3) = ( -0.5000000 -0.8660254  0.0000000 )
                  (  0.8660254 -0.5000000  0.0000000 )
                  (  0.0000000  0.0000000  1.0000000 )


      isym =  4     120 deg rotation - cryst. axis [0,0,-1]      

 cryst.   s( 4) = (     0         -1          0      )
                  (     1         -1          0      )
                  (     0          0          1      )

 cart.    s( 4) = ( -0.5000000  0.8660254  0.0000000 )
                  ( -0.8660254 -0.5000000  0.0000000 )
                  (  0.0000000  0.0000000  1.0000000 )


      isym =  5     180 deg rotation - cryst. axis [1,-1,0]      

 cryst.   s( 5) = (     1         -1          0      )
                  (     0         -1          0      )
                  (     0          0         -1      )

 cart.    s( 5) = (  0.5000000 -0.8660254  0.0000000 )
                  ( -0.8660254 -0.5000000  0.0000000 )
                  (  0.0000000  0.0000000 -1.0000000 )


      isym =  6     180 deg rotation - cryst. axis [2,1,0]       

 cryst.   s( 6) = (     0          1          0      )
                  (     1          0          0      )
                  (     0          0         -1      )

 cart.    s( 6) = (  0.5000000  0.8660254  0.0000000 )
                  (  0.8660254 -0.5000000  0.0000000 )
                  (  0.0000000  0.0000000 -1.0000000 )


      isym =  7     inv. 180 deg rotation - cart. axis [0,0,1]   

 cryst.   s( 7) = (     1          0          0      )
                  (     0          1          0      )
                  (     0          0         -1      )

 cart.    s( 7) = (  1.0000000  0.0000000  0.0000000 )
                  (  0.0000000  1.0000000  0.0000000 )
                  (  0.0000000  0.0000000 -1.0000000 )


      isym =  8     inv. 180 deg rotation - cart. axis [1,0,0]   

 cryst.   s( 8) = (    -1          0          0      )
                  (    -1          1          0      )
                  (     0          0          1      )

 cart.    s( 8) = ( -1.0000000  0.0000000  0.0000000 )
                  (  0.0000000  1.0000000  0.0000000 )
                  (  0.0000000  0.0000000  1.0000000 )


      isym =  9     inv.  60 deg rotation - cryst. axis [0,0,1]  

 cryst.   s( 9) = (     0         -1          0      )
                  (     1         -1          0      )
                  (     0          0         -1      )

 cart.    s( 9) = ( -0.5000000  0.8660254  0.0000000 )
                  ( -0.8660254 -0.5000000  0.0000000 )
                  (  0.0000000  0.0000000 -1.0000000 )


      isym = 10     inv.  60 deg rotation - cryst. axis [0,0,-1] 

 cryst.   s(10) = (    -1          1          0      )
                  (    -1          0          0      )
                  (     0          0         -1      )

 cart.    s(10) = ( -0.5000000 -0.8660254  0.0000000 )
                  (  0.8660254 -0.5000000  0.0000000 )
                  (  0.0000000  0.0000000 -1.0000000 )


      isym = 11     inv. 180 deg rotation - cryst. axis [0,1,0]  

 cryst.   s(11) = (     0          1          0      )
                  (     1          0          0      )
                  (     0          0          1      )

 cart.    s(11) = (  0.5000000  0.8660254  0.0000000 )
                  (  0.8660254 -0.5000000  0.0000000 )
                  (  0.0000000  0.0000000  1.0000000 )


      isym = 12     inv. 180 deg rotation - cryst. axis [1,1,0]  

 cryst.   s(12) = (     1         -1          0      )
                  (     0         -1          0      )
                  (     0          0          1      )

 cart.    s(12) = (  0.5000000 -0.8660254  0.0000000 )
                  ( -0.8660254 -0.5000000  0.0000000 )
                  (  0.0000000  0.0000000  1.0000000 )


     point group D_3h (-62m)
     there are  6 classes
     the character table:

       E     2C3   3C2   s_h   2S3   3s_v 
A'_1   1.00  1.00  1.00  1.00  1.00  1.00
A'_2   1.00  1.00 -1.00  1.00  1.00 -1.00
E'     2.00 -1.00  0.00  2.00 -1.00  0.00
A''1   1.00  1.00  1.00 -1.00 -1.00 -1.00
A''2   1.00  1.00 -1.00 -1.00 -1.00  1.00
E''    2.00 -1.00  0.00 -2.00  1.00  0.00

     the symmetry operations in each class and the name of the first element:

     E        1
          identity                                               
     2C3      3    4
          120 deg rotation - cryst. axis [0,0,1]                 
     3C2      2    6    5
          180 deg rotation - cart. axis [0,1,0]                  
     s_h      7
          inv. 180 deg rotation - cart. axis [0,0,1]             
     2S3      9   10
          inv.  60 deg rotation - cryst. axis [0,0,1]            
     3s_v     8   11   12
          inv. 180 deg rotation - cart. axis [1,0,0]             

   Cartesian axes

     site n.     atom                  positions (alat units)
         1           Mo  tau(   1) = (   0.0000000   0.0000000   3.1250000  )
         2           S   tau(   2) = (   1.0000000   0.5773503   3.4375000  )
         3           S   tau(   3) = (   1.0000000   0.5773503   2.8125000  )

   Crystallographic axes

     site n.     atom                  positions (cryst. coord.)
         1           Mo  tau(   1) = (  0.0000000  0.0000000  0.5000000  )
         2           S   tau(   2) = (  0.6666667  0.6666667  0.5500000  )
         3           S   tau(   3) = (  0.6666667  0.6666667  0.4500000  )

     number of k points=    12  Marzari-Vanderbilt smearing, width (Ry)=  0.0000
                       cart. coord. in units 2pi/alat
        k(    1) = (   0.0000000   0.0000000   0.0000000), wk =   0.0246914
        k(    2) = (   0.0000000   0.1283001   0.0000000), wk =   0.1481481
        k(    3) = (   0.0000000   0.2566001   0.0000000), wk =   0.1481481
        k(    4) = (   0.0000000   0.3849002   0.0000000), wk =   0.1481481
        k(    5) = (   0.0000000   0.5132002   0.0000000), wk =   0.1481481
        k(    6) = (   0.1111111   0.1924501   0.0000000), wk =   0.1481481
        k(    7) = (   0.1111111   0.3207501   0.0000000), wk =   0.2962963
        k(    8) = (   0.1111111   0.4490502   0.0000000), wk =   0.2962963
        k(    9) = (   0.1111111  -0.5773503   0.0000000), wk =   0.1481481
        k(   10) = (   0.2222222   0.3849002   0.0000000), wk =   0.1481481
        k(   11) = (   0.2222222  -0.6415003   0.0000000), wk =   0.2962963
        k(   12) = (   0.3333333  -0.5773503   0.0000000), wk =   0.0493827

                       cryst. coord.
        k(    1) = (   0.0000000   0.0000000   0.0000000), wk =   0.0246914
        k(    2) = (   0.0000000   0.1111111   0.0000000), wk =   0.1481481
        k(    3) = (   0.0000000   0.2222222   0.0000000), wk =   0.1481481
        k(    4) = (   0.0000000   0.3333333   0.0000000), wk =   0.1481481
        k(    5) = (   0.0000000   0.4444444   0.0000000), wk =   0.1481481
        k(    6) = (   0.1111111   0.2222222   0.0000000), wk =   0.1481481
        k(    7) = (   0.1111111   0.3333333   0.0000000), wk =   0.2962963
        k(    8) = (   0.1111111   0.4444444   0.0000000), wk =   0.2962963
        k(    9) = (   0.1111111  -0.4444444   0.0000000), wk =   0.1481481
        k(   10) = (   0.2222222   0.4444444   0.0000000), wk =   0.1481481
        k(   11) = (   0.2222222  -0.4444444   0.0000000), wk =   0.2962963
        k(   12) = (   0.3333333  -0.3333333   0.0000000), wk =   0.0493827

     Dense  grid:   161851 G-vectors     FFT dimensions: (  40,  40, 243)

     Smooth grid:    40773 G-vectors     FFT dimensions: (  25,  25, 160)

     Dynamical RAM for                 wfc:       0.18 MB

     Dynamical RAM for     wfc (w. buffer):       2.28 MB

     Dynamical RAM for           str. fact:       0.62 MB

     Dynamical RAM for           local pot:       0.00 MB

     Dynamical RAM for          nlocal pot:       0.53 MB

     Dynamical RAM for                qrad:       3.21 MB

     Dynamical RAM for          rho,v,vnew:       2.06 MB

     Dynamical RAM for               rhoin:       0.69 MB

     Dynamical RAM for            rho*nmix:       4.94 MB

     Dynamical RAM for           G-vectors:       1.20 MB

     Dynamical RAM for          h,s,v(r/c):       0.01 MB

     Dynamical RAM for          <psi|beta>:       0.01 MB

     Dynamical RAM for                 psi:       0.35 MB

     Dynamical RAM for                hpsi:       0.35 MB

     Dynamical RAM for                spsi:       0.35 MB

     Dynamical RAM for      wfcinit/wfcrot:       0.36 MB

     Dynamical RAM for           addusdens:      58.06 MB

     Dynamical RAM for          addusforce:      58.84 MB

     Estimated static dynamical RAM per process >      18.34 MB

     Estimated max dynamical RAM per process >      77.18 MB

     Estimated total dynamical RAM >     617.42 MB

     Initial potential from superposition of free atoms

     starting charge   25.99905, renormalised to   26.00000

     negative rho (up, down):  5.823E-05 0.000E+00
     Starting wfcs are   18 randomized atomic wfcs

     total cpu time spent up to now is        1.2 secs

     Self-consistent Calculation

     iteration #  1     ecut=    40.00 Ry     beta= 0.10
     Davidson diagonalization with overlap
     ethr =  1.00E-02,  avg # of iterations =  4.3

     negative rho (up, down):  3.732E-05 0.000E+00

     total cpu time spent up to now is        2.2 secs

     total energy              =    -180.99651858 Ry
     estimated scf accuracy    <       0.41455099 Ry

     iteration #  2     ecut=    40.00 Ry     beta= 0.10
     Davidson diagonalization with overlap
     ethr =  1.59E-03,  avg # of iterations =  1.8

     negative rho (up, down):  9.223E-05 0.000E+00

     total cpu time spent up to now is        3.1 secs

     total energy              =    -180.97599030 Ry
     estimated scf accuracy    <       0.16390327 Ry

     iteration #  3     ecut=    40.00 Ry     beta= 0.10
     Davidson diagonalization with overlap
     ethr =  6.30E-04,  avg # of iterations =  3.2

     negative rho (up, down):  2.704E-04 0.000E+00

     total cpu time spent up to now is        3.8 secs

     total energy              =    -180.97795712 Ry
     estimated scf accuracy    <       0.03995652 Ry

     iteration #  4     ecut=    40.00 Ry     beta= 0.10
     Davidson diagonalization with overlap
     ethr =  1.54E-04,  avg # of iterations =  4.2

     negative rho (up, down):  4.131E-04 0.000E+00

     total cpu time spent up to now is        5.1 secs

     total energy              =    -180.97522855 Ry
     estimated scf accuracy    <       0.01711009 Ry

     iteration #  5     ecut=    40.00 Ry     beta= 0.10
     Davidson diagonalization with overlap
     ethr =  6.58E-05,  avg # of iterations =  2.1

     negative rho (up, down):  4.972E-04 0.000E+00

     total cpu time spent up to now is        6.0 secs

     total energy              =    -180.97459720 Ry
     estimated scf accuracy    <       0.02432019 Ry

     iteration #  6     ecut=    40.00 Ry     beta= 0.10
     Davidson diagonalization with overlap
     ethr =  6.58E-05,  avg # of iterations =  3.8

     negative rho (up, down):  5.209E-04 0.000E+00

     total cpu time spent up to now is        6.8 secs

     total energy              =    -180.97535068 Ry
     estimated scf accuracy    <       0.02887608 Ry

     iteration #  7     ecut=    40.00 Ry     beta= 0.10
     Davidson diagonalization with overlap
     ethr =  6.58E-05,  avg # of iterations =  1.7

     negative rho (up, down):  5.395E-04 0.000E+00

     total cpu time spent up to now is        7.6 secs

     total energy              =    -180.97930882 Ry
     estimated scf accuracy    <       0.00026984 Ry

     iteration #  8     ecut=    40.00 Ry     beta= 0.10
     Davidson diagonalization with overlap
     ethr =  1.04E-06,  avg # of iterations =  7.3

     negative rho (up, down):  4.825E-04 0.000E+00

     total cpu time spent up to now is        8.7 secs

     total energy              =    -180.97936251 Ry
     estimated scf accuracy    <       0.00784655 Ry

     iteration #  9     ecut=    40.00 Ry     beta= 0.10
     Davidson diagonalization with overlap
     ethr =  1.04E-06,  avg # of iterations =  1.0

     negative rho (up, down):  4.562E-04 0.000E+00

     total cpu time spent up to now is        9.4 secs

     total energy              =    -180.97924793 Ry
     estimated scf accuracy    <       0.00057471 Ry

     iteration # 10     ecut=    40.00 Ry     beta= 0.10
     Davidson diagonalization with overlap
     ethr =  1.04E-06,  avg # of iterations =  2.9

     negative rho (up, down):  4.213E-04 0.000E+00

     total cpu time spent up to now is       10.2 secs

     total energy              =    -180.97922127 Ry
     estimated scf accuracy    <       0.00023933 Ry

     iteration # 11     ecut=    40.00 Ry     beta= 0.10
     Davidson diagonalization with overlap
     ethr =  9.21E-07,  avg # of iterations =  2.4

     negative rho (up, down):  3.870E-04 0.000E+00

     total cpu time spent up to now is       10.9 secs

     total energy              =    -180.97925430 Ry
     estimated scf accuracy    <       0.00001561 Ry

     iteration # 12     ecut=    40.00 Ry     beta= 0.10
     Davidson diagonalization with overlap
     ethr =  6.00E-08,  avg # of iterations =  2.3

     negative rho (up, down):  3.455E-04 0.000E+00

     total cpu time spent up to now is       11.7 secs

     total energy              =    -180.97925753 Ry
     estimated scf accuracy    <       0.00000453 Ry

     iteration # 13     ecut=    40.00 Ry     beta= 0.10
     Davidson diagonalization with overlap
     ethr =  1.74E-08,  avg # of iterations =  3.5

     negative rho (up, down):  3.096E-04 0.000E+00

     total cpu time spent up to now is       12.8 secs

     total energy              =    -180.97926218 Ry
     estimated scf accuracy    <       0.00002100 Ry

     iteration # 14     ecut=    40.00 Ry     beta= 0.10
     Davidson diagonalization with overlap
     ethr =  1.74E-08,  avg # of iterations =  1.0

     negative rho (up, down):  2.774E-04 0.000E+00

     total cpu time spent up to now is       13.6 secs

     total energy              =    -180.97926180 Ry
     estimated scf accuracy    <       0.00002522 Ry

     iteration # 15     ecut=    40.00 Ry     beta= 0.10
     Davidson diagonalization with overlap
     ethr =  1.74E-08,  avg # of iterations =  1.0

     negative rho (up, down):  2.493E-04 0.000E+00

     total cpu time spent up to now is       14.5 secs

     total energy              =    -180.97925878 Ry
     estimated scf accuracy    <       0.00002313 Ry

     iteration # 16     ecut=    40.00 Ry     beta= 0.10
     Davidson diagonalization with overlap
     ethr =  1.74E-08,  avg # of iterations =  1.8

     negative rho (up, down):  2.236E-04 0.000E+00

     total cpu time spent up to now is       15.6 secs

     total energy              =    -180.97925921 Ry
     estimated scf accuracy    <       0.00001173 Ry

     iteration # 17     ecut=    40.00 Ry     beta= 0.10
     Davidson diagonalization with overlap
     ethr =  1.74E-08,  avg # of iterations =  1.0

     negative rho (up, down):  2.010E-04 0.000E+00

     total cpu time spent up to now is       16.3 secs

     total energy              =    -180.97925451 Ry
     estimated scf accuracy    <       0.00001148 Ry

     iteration # 18     ecut=    40.00 Ry     beta= 0.10
     Davidson diagonalization with overlap
     ethr =  1.74E-08,  avg # of iterations =  3.0

     negative rho (up, down):  5.210E-05 0.000E+00

     total cpu time spent up to now is       17.1 secs

     End of self-consistent calculation

          k = 0.0000 0.0000 0.0000 (  5021 PWs)   bands (ev):

   -60.8070 -35.3961 -35.3961 -35.0398 -18.8466 -12.6099  -8.4122  -7.9338
    -7.9338  -4.2336  -4.2336   0.5403   1.9251   2.3140   2.3140   2.9240
     4.3800   4.6732

     occupation numbers 
     1.0000   1.0000   1.0000   1.0000   1.0000   1.0000   1.0000   1.0000
     1.0000   1.0000   1.0000   0.0000   0.0000   0.0000   0.0000   0.0000
     0.0000   0.0000

          k = 0.0000 0.1283 0.0000 (  5077 PWs)   bands (ev):

   -60.8001 -35.4834 -35.4130 -35.0258 -18.6282 -12.6717  -8.5489  -7.7673
    -7.6595  -4.4852  -4.3780   0.6263   1.4706   2.3412   2.8203   3.5070
     3.9816   4.1700

     occupation numbers 
     1.0000   1.0000   1.0000   1.0000   1.0000   1.0000   1.0000   1.0000
     1.0000   1.0000   1.0000   0.0000   0.0000   0.0000   0.0000   0.0000
     0.0000   0.0000

          k = 0.0000 0.2566 0.0000 (  5105 PWs)   bands (ev):

   -60.7827 -35.6978 -35.4555 -34.9901 -18.0857 -12.8278  -8.7891  -7.2346
    -6.8848  -5.0160  -4.6917   0.0425   0.4280   3.0871   3.1142   3.3583
     4.0402   4.9837

     occupation numbers 
     1.0000   1.0000   1.0000   1.0000   1.0000   1.0000   1.0000   1.0000
     1.0000   1.0000   1.0000   1.0000   0.0000   0.0000   0.0000   0.0000
     0.0000   0.0000

          k = 0.0000 0.3849 0.0000 (  5126 PWs)   bands (ev):

   -60.7629 -35.9314 -35.5033 -34.9492 -17.4982 -13.0046  -8.7448  -6.5606
    -5.7884  -5.5036  -5.0055  -1.3749   0.1869   1.8675   2.1063   4.4015
     5.3904   5.7628

     occupation numbers 
     1.0000   1.0000   1.0000   1.0000   1.0000   1.0000   1.0000   1.0000
     1.0000   1.0000   1.0000   1.0000   1.0000   0.0000   0.0000   0.0000
     0.0000   0.0000

          k = 0.0000 0.5132 0.0000 (  5112 PWs)   bands (ev):

   -60.7498 -36.0785 -35.5342 -34.9223 -17.1418 -13.1193  -8.3969  -6.2948
    -5.7783  -5.2009  -4.8278  -1.7431   0.1382   0.4457   0.8889   5.1435
     6.2655   6.4185

     occupation numbers 
     1.0000   1.0000   1.0000   1.0000   1.0000   1.0000   1.0000   1.0000
     1.0000   1.0000   1.0000   1.0000   1.0000   0.0000   0.0000   0.0000
     0.0000   0.0000

          k = 0.1111 0.1925 0.0000 (  5108 PWs)   bands (ev):

   -60.7880 -35.6274 -35.4494 -35.0009 -18.2463 -12.7786  -8.7246  -7.4840
    -7.0721  -5.0524  -4.4117   0.4917   0.6245   2.4655   3.1385   3.6595
     3.9091   4.7979

     occupation numbers 
     1.0000   1.0000   1.0000   1.0000   1.0000   1.0000   1.0000   1.0000
     1.0000   1.0000   1.0000   0.0000   0.0000   0.0000   0.0000   0.0000
     0.0000   0.0000

          k = 0.1111 0.3208 0.0000 (  5085 PWs)   bands (ev):

   -60.7694 -35.8357 -35.5098 -34.9626 -17.6747 -12.9345  -8.7702  -6.8960
    -6.1191  -5.8403  -4.3655  -0.9685   0.3794   1.8006   3.0435   3.2799
     5.4251   5.5426

     occupation numbers 
     1.0000   1.0000   1.0000   1.0000   1.0000   1.0000   1.0000   1.0000
     1.0000   1.0000   1.0000   1.0000   0.5000   0.0000   0.0000   0.0000
     0.0000   0.0000

          k = 0.1111 0.4491 0.0000 (  5114 PWs)   bands (ev):

   -60.7529 -36.0116 -35.5631 -34.9286 -17.1974 -13.0641  -8.4501  -6.4430
    -6.3335  -5.1897  -4.2962  -1.9919   0.1298   0.2950   2.1275   4.4564
     6.3346   6.3696

     occupation numbers 
     1.0000   1.0000   1.0000   1.0000   1.0000   1.0000   1.0000   1.0000
     1.0000   1.0000   1.0000   1.0000   1.0000   1.0000   0.0000   0.0000
     0.0000   0.0000

          k = 0.1111-0.5774 0.0000 (  5110 PWs)   bands (ev):

   -60.7464 -36.0794 -35.5841 -34.9152 -17.0190 -13.1133  -8.1194  -6.6635
    -6.2942  -4.7325  -4.2651  -2.0978  -0.5957   0.0512   1.7143   5.0894
     6.1966   6.4453

     occupation numbers 
     1.0000   1.0000   1.0000   1.0000   1.0000   1.0000   1.0000   1.0000
     1.0000   1.0000   1.0000   1.0000   1.0000   1.0000   0.0000   0.0000
     0.0000   0.0000

          k = 0.2222 0.3849 0.0000 (  5114 PWs)   bands (ev):

   -60.7541 -35.9587 -35.6027 -34.9312 -17.2056 -13.0257  -8.4183  -6.7778
    -6.4094  -5.3616  -3.7813  -2.1172   0.1608   0.2424   2.6018   3.8186
     6.3943   6.7198

     occupation numbers 
     1.0000   1.0000   1.0000   1.0000   1.0000   1.0000   1.0000   1.0000
     1.0000   1.0000   1.0000   1.0000   1.0000   1.0000   0.0000   0.0000
     0.0000   0.0000

          k = 0.2222-0.6415 0.0000 (  5158 PWs)   bands (ev):

   -60.7441 -36.0258 -35.6751 -34.9106 -16.9044 -13.0677  -7.7260  -7.3389
    -6.1604  -5.2600  -3.3044  -2.6106  -0.9641  -0.1997   2.6794   4.6949
     6.3521   6.6569

     occupation numbers 
     1.0000   1.0000   1.0000   1.0000   1.0000   1.0000   1.0000   1.0000
     1.0000   1.0000   1.0000   1.0000   1.0000   1.0000   0.0000   0.0000
     0.0000   0.0000

          k = 0.3333-0.5774 0.0000 (  5172 PWs)   bands (ev):

   -60.7407 -36.0075 -35.7439 -34.9034 -16.7821 -13.0553  -7.6798  -6.7473
    -6.3965  -5.9102  -2.7638  -2.5727  -1.5600  -0.5286   3.3026   4.9255
     5.7268   6.7760

     occupation numbers 
     1.0000   1.0000   1.0000   1.0000   1.0000   1.0000   1.0000   1.0000
     1.0000   1.0000   1.0000   1.0000   1.0000   1.0000   0.0000   0.0000
     0.0000   0.0000

     the Fermi energy is     0.3795 ev

!    total energy              =    -180.97925685 Ry
     estimated scf accuracy    <       0.00000005 Ry
     smearing contrib. (-TS)   =      -0.00000049 Ry
     internal energy E=F+TS    =    -180.97925636 Ry

     The total energy is F=E-TS. E is the sum of the following terms:
     one-electron contribution =   -1253.38611198 Ry
     hartree contribution      =     627.14620429 Ry
     xc contribution           =     -30.81429935 Ry
     ewald contribution        =     476.07495068 Ry

     convergence has been achieved in  18 iterations

     negative rho (up, down):  5.210E-05 0.000E+00

     Forces acting on atoms (cartesian axes, Ry/au):

     atom    1 type  1   force =     0.00000000    0.00000000    0.00000000
     atom    2 type  2   force =     0.00000000    0.00000000    0.55114312
     atom    3 type  2   force =     0.00000000    0.00000000   -0.55114312
     The non-local contrib.  to forces
     atom    1 type  1   force =     0.00000000    0.00000000    0.00000000
     atom    2 type  2   force =     0.00000000    0.00000000   -0.16258501
     atom    3 type  2   force =     0.00000000    0.00000000    0.16258501
     The ionic contribution  to forces
     atom    1 type  1   force =    -0.00000005   -0.00000003   -0.00000000
     atom    2 type  2   force =     0.00000002    0.00000001   34.63553153
     atom    3 type  2   force =     0.00000002    0.00000001  -34.63553153
     The local contribution  to forces
     atom    1 type  1   force =     0.00000000    0.00000000    0.00000000
     atom    2 type  2   force =     0.00000001    0.00000001  -33.91595153
     atom    3 type  2   force =     0.00000001    0.00000001   33.91595153
     The core correction contribution to forces
     atom    1 type  1   force =    -0.00000000   -0.00000000   -0.00000000
     atom    2 type  2   force =    -0.00000000   -0.00000000   -0.00589249
     atom    3 type  2   force =    -0.00000000   -0.00000000    0.00589249
     The Hubbard contrib.    to forces
     atom    1 type  1   force =     0.00000000    0.00000000    0.00000000
     atom    2 type  2   force =     0.00000000    0.00000000    0.00000000
     atom    3 type  2   force =     0.00000000    0.00000000    0.00000000
     The SCF correction term to forces
     atom    1 type  1   force =     0.00000000    0.00000000   -0.00000000
     atom    2 type  2   force =    -0.00000000   -0.00000000    0.00004061
     atom    3 type  2   force =    -0.00000000   -0.00000000   -0.00004061

     Total force =     0.779434     Total SCF correction =     0.000057

     BFGS Geometry Optimization
     Energy error            =      0.0E+00
     Gradient error          =      5.5E-01

     number of scf cycles    =   1
     number of bfgs steps    =   0

     energy   new            =    -180.9792568467 Ry

     new trust radius        =       0.5000000000 bohr
     new conv_thr            =       0.0000010000 Ry


ATOMIC_POSITIONS (crystal)
Mo            0.0000000000        0.0000000000        0.5000000000    0   0   0
S             0.6666666660        0.6666666660        0.5632294303    0   0   1
S             0.6666666660        0.6666666660        0.4367705697    0   0   1



     Writing output data file ./outdir/MoS2.save/
     NEW-OLD atomic charge density approx. for the potential

     negative rho (up, down):  5.607E-05 0.000E+00

     total cpu time spent up to now is       18.7 secs

     Self-consistent Calculation

     iteration #  1     ecut=    40.00 Ry     beta= 0.10
     Davidson diagonalization with overlap
     ethr =  1.00E-06,  avg # of iterations = 12.8

     negative rho (up, down):  5.336E-05 0.000E+00

     total cpu time spent up to now is       20.4 secs

     total energy              =    -181.42689738 Ry
     estimated scf accuracy    <       0.20802761 Ry

     iteration #  2     ecut=    40.00 Ry     beta= 0.10
     Davidson diagonalization with overlap
     ethr =  8.00E-04,  avg # of iterations =  1.0

     negative rho (up, down):  5.449E-05 0.000E+00

     total cpu time spent up to now is       21.1 secs

     total energy              =    -181.41117101 Ry
     estimated scf accuracy    <       0.06708197 Ry

     iteration #  3     ecut=    40.00 Ry     beta= 0.10
     Davidson diagonalization with overlap
     ethr =  2.58E-04,  avg # of iterations =  2.0

     negative rho (up, down):  5.346E-05 0.000E+00

     total cpu time spent up to now is       22.0 secs

     total energy              =    -181.42088008 Ry
     estimated scf accuracy    <       0.00707290 Ry

     iteration #  4     ecut=    40.00 Ry     beta= 0.10
     Davidson diagonalization with overlap
     ethr =  2.72E-05,  avg # of iterations =  2.0

     negative rho (up, down):  8.362E-05 0.000E+00

     total cpu time spent up to now is       22.9 secs

     total energy              =    -181.42295788 Ry
     estimated scf accuracy    <       0.00812166 Ry

     iteration #  5     ecut=    40.00 Ry     beta= 0.10
     Davidson diagonalization with overlap
     ethr =  2.72E-05,  avg # of iterations =  1.0

     negative rho (up, down):  9.449E-05 0.000E+00

     total cpu time spent up to now is       23.6 secs

     total energy              =    -181.42232066 Ry
     estimated scf accuracy    <       0.00463973 Ry

     iteration #  6     ecut=    40.00 Ry     beta= 0.10
     Davidson diagonalization with overlap
     ethr =  1.78E-05,  avg # of iterations =  1.0

     negative rho (up, down):  9.081E-05 0.000E+00

     total cpu time spent up to now is       24.3 secs

     total energy              =    -181.42232306 Ry
     estimated scf accuracy    <       0.00120533 Ry

     iteration #  7     ecut=    40.00 Ry     beta= 0.10
     Davidson diagonalization with overlap
     ethr =  4.64E-06,  avg # of iterations =  2.2

     negative rho (up, down):  9.014E-05 0.000E+00

     total cpu time spent up to now is       25.0 secs

     total energy              =    -181.42225669 Ry
     estimated scf accuracy    <       0.00046431 Ry

     iteration #  8     ecut=    40.00 Ry     beta= 0.10
     Davidson diagonalization with overlap
     ethr =  1.79E-06,  avg # of iterations =  4.8

     negative rho (up, down):  8.312E-05 0.000E+00

     total cpu time spent up to now is       25.8 secs

     total energy              =    -181.42229988 Ry
     estimated scf accuracy    <       0.00005953 Ry

     iteration #  9     ecut=    40.00 Ry     beta= 0.10
     Davidson diagonalization with overlap
     ethr =  2.29E-07,  avg # of iterations =  1.7

     negative rho (up, down):  7.790E-05 0.000E+00

     total cpu time spent up to now is       26.5 secs

     total energy              =    -181.42229563 Ry
     estimated scf accuracy    <       0.00003370 Ry

     iteration # 10     ecut=    40.00 Ry     beta= 0.10
     Davidson diagonalization with overlap
     ethr =  1.30E-07,  avg # of iterations =  2.0

     negative rho (up, down):  7.231E-05 0.000E+00

     total cpu time spent up to now is       27.2 secs

     total energy              =    -181.42229947 Ry
     estimated scf accuracy    <       0.00001201 Ry

     iteration # 11     ecut=    40.00 Ry     beta= 0.10
     Davidson diagonalization with overlap
     ethr =  4.62E-08,  avg # of iterations =  1.0

     negative rho (up, down):  6.778E-05 0.000E+00

     total cpu time spent up to now is       27.9 secs

     total energy              =    -181.42229661 Ry
     estimated scf accuracy    <       0.00001057 Ry

     iteration # 12     ecut=    40.00 Ry     beta= 0.10
     Davidson diagonalization with overlap
     ethr =  4.07E-08,  avg # of iterations =  2.0

     negative rho (up, down):  6.392E-05 0.000E+00

     total cpu time spent up to now is       28.8 secs

     total energy              =    -181.42229684 Ry
     estimated scf accuracy    <       0.00000257 Ry

     iteration # 13     ecut=    40.00 Ry     beta= 0.10
     Davidson diagonalization with overlap
     ethr =  9.88E-09,  avg # of iterations =  2.0

     negative rho (up, down):  4.132E-05 0.000E+00

     total cpu time spent up to now is       29.6 secs

     End of self-consistent calculation

          k = 0.0000 0.0000 0.0000 (  5021 PWs)   bands (ev):

   -62.1023 -36.3060 -36.2840 -36.2840 -16.6942 -13.7076  -7.8340  -6.0283
    -6.0283  -4.0918  -4.0918  -1.7887   0.0266   1.5516   1.5516   2.7923
     2.7923   3.8926

     occupation numbers 
     1.0000   1.0000   1.0000   1.0000   1.0000   1.0000   1.0000   1.0000
     1.0000   1.0000   1.0000   1.0000   0.0000   0.0000   0.0000   0.0000
     0.0000   0.0000

          k = 0.0000 0.1283 0.0000 (  5077 PWs)   bands (ev):

   -62.0973 -36.3403 -36.2961 -36.2951 -16.4991 -13.7015  -7.7111  -6.2269
    -5.7973  -4.4563  -4.3538  -1.5403  -0.2913   1.4391   1.9781   2.3761
     2.4686   4.6297

     occupation numbers 
     1.0000   1.0000   1.0000   1.0000   1.0000   1.0000   1.0000   1.0000
     1.0000   1.0000   1.0000   1.0000   0.8333   0.0000   0.0000   0.0000
     0.0000   0.0000

          k = 0.0000 0.2566 0.0000 (  5105 PWs)   bands (ev):

   -62.0846 -36.4801 -36.3265 -36.2672 -15.9912 -13.6861  -7.6502  -6.2770
    -5.1561  -5.1073  -4.8988  -1.5182  -1.2906   1.7713   1.8376   1.9709
     2.9265   5.3244

     occupation numbers 
     1.0000   1.0000   1.0000   1.0000   1.0000   1.0000   1.0000   1.0000
     1.0000   1.0000   1.0000   1.0000   1.0000   0.0000   0.0000   0.0000
     0.0000   0.0000

          k = 0.0000 0.3849 0.0000 (  5126 PWs)   bands (ev):

   -62.0701 -36.6352 -36.3609 -36.2353 -15.3869 -13.6687  -7.8312  -5.9027
    -5.6744  -5.3942  -4.2862  -2.2249  -1.8061   1.0581   1.6379   2.7819
     3.8294   5.8674

     occupation numbers 
     1.0000   1.0000   1.0000   1.0000   1.0000   1.0000   1.0000   1.0000
     1.0000   1.0000   1.0000   1.0000   1.0000   0.0000   0.0000   0.0000
     0.0000   0.0000

          k = 0.0000 0.5132 0.0000 (  5112 PWs)   bands (ev):

   -62.0606 -36.7342 -36.3831 -36.2143 -14.9764 -13.6571  -7.8323  -6.0039
    -5.9683  -5.6718  -3.5776  -2.1461  -1.9743   0.5600   1.0046   3.3658
     4.3234   5.5006

     occupation numbers 
     1.0000   1.0000   1.0000   1.0000   1.0000   1.0000   1.0000   1.0000
     1.0000   1.0000   1.0000   1.0000   1.0000   0.0000   0.0000   0.0000
     0.0000   0.0000

          k = 0.1111 0.1925 0.0000 (  5108 PWs)   bands (ev):

   -62.0884 -36.4335 -36.3222 -36.2756 -16.1466 -13.6897  -7.6076  -6.3533
    -5.3583  -4.9990  -4.7084  -1.3569  -0.9727   1.3939   1.8569   2.1122
     2.8200   5.1795

     occupation numbers 
     1.0000   1.0000   1.0000   1.0000   1.0000   1.0000   1.0000   1.0000
     1.0000   1.0000   1.0000   1.0000   1.0000   0.0000   0.0000   0.0000
     0.0000   0.0000

          k = 0.1111 0.3208 0.0000 (  5085 PWs)   bands (ev):

   -62.0748 -36.5697 -36.3656 -36.2457 -15.5848 -13.6671  -7.7015  -6.0416
    -5.8603  -4.9110  -4.6713  -2.0210  -1.5148   1.1674   1.8374   1.9423
     3.8765   5.8515

     occupation numbers 
     1.0000   1.0000   1.0000   1.0000   1.0000   1.0000   1.0000   1.0000
     1.0000   1.0000   1.0000   1.0000   1.0000   0.0000   0.0000   0.0000
     0.0000   0.0000

          k = 0.1111 0.4491 0.0000 (  5114 PWs)   bands (ev):

   -62.0628 -36.6865 -36.4040 -36.2193 -15.0682 -13.6416  -7.7207  -6.5401
    -5.8010  -4.9564  -4.0859  -2.4679  -1.8687   0.6003   1.4620   2.8686
     4.3230   6.0714

     occupation numbers 
     1.0000   1.0000   1.0000   1.0000   1.0000   1.0000   1.0000   1.0000
     1.0000   1.0000   1.0000   1.0000   1.0000   0.0000   0.0000   0.0000
     0.0000   0.0000

          k = 0.1111-0.5774 0.0000 (  5110 PWs)   bands (ev):

   -62.0580 -36.7319 -36.4192 -36.2088 -14.8588 -13.6297  -7.6091  -6.7920
    -5.9939  -4.9504  -3.7703  -2.3018  -2.0239   0.1395   1.3856   3.4187
     4.1520   5.6723

     occupation numbers 
     1.0000   1.0000   1.0000   1.0000   1.0000   1.0000   1.0000   1.0000
     1.0000   1.0000   1.0000   1.0000   1.0000   0.0000   0.0000   0.0000
     0.0000   0.0000

          k = 0.2222 0.3849 0.0000 (  5114 PWs)   bands (ev):

   -62.0637 -36.6469 -36.4338 -36.2212 -15.1013 -13.6253  -7.5823  -6.7955
    -5.6432  -4.6252  -4.5492  -2.6037  -1.7212   0.6098   1.6274   2.3478
     4.5549   6.4796

     occupation numbers 
     1.0000   1.0000   1.0000   1.0000   1.0000   1.0000   1.0000   1.0000
     1.0000   1.0000   1.0000   1.0000   1.0000   0.0000   0.0000   0.0000
     0.0000   0.0000

          k = 0.2222-0.6415 0.0000 (  5158 PWs)   bands (ev):

   -62.0564 -36.6859 -36.4890 -36.2052 -14.7757 -13.5839  -7.3721  -7.1702
    -5.7440  -4.7748  -4.2738  -2.4212  -2.1348  -0.2743   2.0881   3.0416
     4.4038   6.1991

     occupation numbers 
     1.0000   1.0000   1.0000   1.0000   1.0000   1.0000   1.0000   1.0000
     1.0000   1.0000   1.0000   1.0000   1.0000   0.0000   0.0000   0.0000
     0.0000   0.0000

          k = 0.3333-0.5774 0.0000 (  5172 PWs)   bands (ev):

   -62.0539 -36.6577 -36.5509 -36.1996 -14.6582 -13.5506  -7.6930  -6.3070
    -6.0732  -5.4947  -3.8538  -2.4285  -2.0364  -1.0069   2.7519   3.1618
     4.4294   5.7920

     occupation numbers 
     1.0000   1.0000   1.0000   1.0000   1.0000   1.0000   1.0000   1.0000
     1.0000   1.0000   1.0000   1.0000   1.0000   1.0000   0.0000   0.0000
     0.0000   0.0000

     the Fermi energy is    -0.2912 ev

!    total energy              =    -181.42229722 Ry
     estimated scf accuracy    <       0.00000007 Ry
     smearing contrib. (-TS)   =      -0.00000006 Ry
     internal energy E=F+TS    =    -181.42229715 Ry

     The total energy is F=E-TS. E is the sum of the following terms:
     one-electron contribution =   -1184.17379671 Ry
     hartree contribution      =     591.91422112 Ry
     xc contribution           =     -30.18088675 Ry
     ewald contribution        =     441.01816519 Ry

     convergence has been achieved in  13 iterations

     negative rho (up, down):  4.132E-05 0.000E+00

     Forces acting on atoms (cartesian axes, Ry/au):

     atom    1 type  1   force =    -0.00000000    0.00000000    0.00000000
     atom    2 type  2   force =     0.00000000    0.00000000    0.30127090
     atom    3 type  2   force =     0.00000000    0.00000000   -0.30127090
     The non-local contrib.  to forces
     atom    1 type  1   force =     0.00000000    0.00000000    0.00000000
     atom    2 type  2   force =     0.00000000   -0.00000000   -0.17229403
     atom    3 type  2   force =     0.00000000   -0.00000000    0.17229403
     The ionic contribution  to forces
     atom    1 type  1   force =    -0.00000003   -0.00000002    0.00000000
     atom    2 type  2   force =     0.00000001    0.00000001   35.39352689
     atom    3 type  2   force =     0.00000001    0.00000001  -35.39352689
     The local contribution  to forces
     atom    1 type  1   force =    -0.00000000    0.00000000    0.00000000
     atom    2 type  2   force =     0.00000002    0.00000001  -34.91763661
     atom    3 type  2   force =     0.00000002    0.00000001   34.91763661
     The core correction contribution to forces
     atom    1 type  1   force =     0.00000000   -0.00000000   -0.00000000
     atom    2 type  2   force =    -0.00000000   -0.00000000   -0.00178533
     atom    3 type  2   force =    -0.00000000   -0.00000000    0.00178533
     The Hubbard contrib.    to forces
     atom    1 type  1   force =     0.00000000    0.00000000    0.00000000
     atom    2 type  2   force =     0.00000000    0.00000000    0.00000000
     atom    3 type  2   force =     0.00000000    0.00000000    0.00000000
     The SCF correction term to forces
     atom    1 type  1   force =     0.00000000    0.00000000    0.00000000
     atom    2 type  2   force =    -0.00000000   -0.00000000   -0.00054003
     atom    3 type  2   force =    -0.00000000   -0.00000000    0.00054003

     Total force =     0.426061     Total SCF correction =     0.000764
     Energy error            =      4.4E-01
     Gradient error          =      3.0E-01

     number of scf cycles    =   2
     number of bfgs steps    =   1

     energy   old            =    -180.9792568467 Ry
     energy   new            =    -181.4222972158 Ry

     CASE: energy  _new < energy  _old

     new trust radius        =       0.6028499326 bohr
     new conv_thr            =       0.0000010000 Ry


ATOMIC_POSITIONS (crystal)
Mo            0.0000000000        0.0000000000        0.5000000000    0   0   0
S             0.6666666660        0.6666666660        0.5791801526    0   0   1
S             0.6666666660        0.6666666660        0.4208198474    0   0   1



     Writing output data file ./outdir/MoS2.save/
     NEW-OLD atomic charge density approx. for the potential

     negative rho (up, down):  4.837E-05 0.000E+00

     total cpu time spent up to now is       30.9 secs

     Self-consistent Calculation

     iteration #  1     ecut=    40.00 Ry     beta= 0.10
     Davidson diagonalization with overlap
     c_bands:  1 eigenvalues not converged
     ethr =  1.00E-06,  avg # of iterations = 14.5

     negative rho (up, down):  4.709E-05 0.000E+00

     total cpu time spent up to now is       32.7 secs

     total energy              =    -181.57315731 Ry
     estimated scf accuracy    <       0.03516643 Ry

     iteration #  2     ecut=    40.00 Ry     beta= 0.10
     Davidson diagonalization with overlap
     ethr =  1.35E-04,  avg # of iterations =  1.0

     negative rho (up, down):  4.824E-05 0.000E+00

     total cpu time spent up to now is       33.4 secs

     total energy              =    -181.57245258 Ry
     estimated scf accuracy    <       0.01312112 Ry

     iteration #  3     ecut=    40.00 Ry     beta= 0.10
     Davidson diagonalization with overlap
     ethr =  5.05E-05,  avg # of iterations =  1.0

     negative rho (up, down):  1.192E-04 0.000E+00

     total cpu time spent up to now is       34.2 secs

     total energy              =    -181.57126484 Ry
     estimated scf accuracy    <       0.00632735 Ry

     iteration #  4     ecut=    40.00 Ry     beta= 0.10
     Davidson diagonalization with overlap
     ethr =  2.43E-05,  avg # of iterations =  2.0

     negative rho (up, down):  1.291E-04 0.000E+00

     total cpu time spent up to now is       35.0 secs

     total energy              =    -181.57187318 Ry
     estimated scf accuracy    <       0.00058811 Ry

     iteration #  5     ecut=    40.00 Ry     beta= 0.10
     Davidson diagonalization with overlap
     ethr =  2.26E-06,  avg # of iterations =  3.9

     negative rho (up, down):  1.428E-04 0.000E+00

     total cpu time spent up to now is       35.7 secs

     total energy              =    -181.57185646 Ry
     estimated scf accuracy    <       0.00036853 Ry

     iteration #  6     ecut=    40.00 Ry     beta= 0.10
     Davidson diagonalization with overlap
     ethr =  1.42E-06,  avg # of iterations =  2.0

     negative rho (up, down):  1.286E-04 0.000E+00

     total cpu time spent up to now is       36.5 secs

     total energy              =    -181.57194918 Ry
     estimated scf accuracy    <       0.00009029 Ry

     iteration #  7     ecut=    40.00 Ry     beta= 0.10
     Davidson diagonalization with overlap
     ethr =  3.47E-07,  avg # of iterations =  1.0

     negative rho (up, down):  1.183E-04 0.000E+00

     total cpu time spent up to now is       37.2 secs

     total energy              =    -181.57190824 Ry
     estimated scf accuracy    <       0.00006998 Ry

     iteration #  8     ecut=    40.00 Ry     beta= 0.10
     Davidson diagonalization with overlap
     ethr =  2.69E-07,  avg # of iterations =  2.0

     negative rho (up, down):  1.076E-04 0.000E+00

     total cpu time spent up to now is       38.3 secs

     total energy              =    -181.57192799 Ry
     estimated scf accuracy    <       0.00000218 Ry

     iteration #  9     ecut=    40.00 Ry     beta= 0.10
     Davidson diagonalization with overlap
     ethr =  8.38E-09,  avg # of iterations =  2.3

     negative rho (up, down):  9.800E-05 0.000E+00

     total cpu time spent up to now is       39.3 secs

     total energy              =    -181.57192706 Ry
     estimated scf accuracy    <       0.00000259 Ry

     iteration # 10     ecut=    40.00 Ry     beta= 0.10
     Davidson diagonalization with overlap
     ethr =  8.38E-09,  avg # of iterations =  2.0

     negative rho (up, down):  3.792E-05 0.000E+00

     total cpu time spent up to now is       40.3 secs

     End of self-consistent calculation

          k = 0.0000 0.0000 0.0000 (  5021 PWs)   bands (ev):

   -61.9188 -36.0557 -35.8628 -35.8628 -14.9728 -13.7507  -6.5069  -3.5079
    -3.5079  -2.7963  -2.4453  -2.4453  -1.0531   1.6894   1.6894   1.8855
     1.8855   4.3082

     occupation numbers 
     1.0000   1.0000   1.0000   1.0000   1.0000   1.0000   1.0000   1.0000
     1.0000   1.0000   1.0000   1.0000   1.0000   0.0000   0.0000   0.0000
     0.0000   0.0000

          k = 0.0000 0.1283 0.0000 (  5077 PWs)   bands (ev):

   -61.9148 -36.0477 -35.9041 -35.8722 -14.7984 -13.6750  -6.3062  -3.8956
    -3.4337  -3.3278  -2.7154  -2.1049  -1.1509   1.4650   1.5013   1.7000
     1.9756   4.6071

     occupation numbers 
     1.0000   1.0000   1.0000   1.0000   1.0000   1.0000   1.0000   1.0000
     1.0000   1.0000   1.0000   1.0000   1.0000   0.0000   0.0000   0.0000
     0.0000   0.0000

          k = 0.0000 0.2566 0.0000 (  5105 PWs)   bands (ev):

   -61.9046 -36.0274 -36.0073 -35.8961 -14.3244 -13.4700  -5.9059  -4.6245
    -4.2827  -3.2660  -2.8587  -2.2573  -1.5895   1.0824   1.3447   1.6701
     2.5236   5.2862

     occupation numbers 
     1.0000   1.0000   1.0000   1.0000   1.0000   1.0000   1.0000   1.0000
     1.0000   1.0000   1.0000   1.0000   1.0000   0.0000   0.0000   0.0000
     0.0000   0.0000

          k = 0.0000 0.3849 0.0000 (  5126 PWs)   bands (ev):

   -61.8930 -36.1228 -36.0043 -35.9231 -13.7066 -13.2080  -6.1081  -5.1024
    -4.8530  -3.7595  -2.6551  -2.3233  -1.9581   1.1411   1.2501   2.2818
     2.9382   6.1445

     occupation numbers 
     1.0000   1.0000   1.0000   1.0000   1.0000   1.0000   1.0000   1.0000
     1.0000   1.0000   1.0000   1.0000   1.0000   0.0000   0.0000   0.0000
     0.0000   0.0000

          k = 0.0000 0.5132 0.0000 (  5112 PWs)   bands (ev):

   -61.8854 -36.1970 -35.9891 -35.9406 -13.2333 -13.0152  -6.5858  -5.6389
    -4.9566  -4.0348  -2.8727  -2.0010  -1.7163   1.1666   1.5952   2.7082
     3.1238   5.3007

     occupation numbers 
     1.0000   1.0000   1.0000   1.0000   1.0000   1.0000   1.0000   1.0000
     1.0000   1.0000   1.0000   1.0000   1.0000   0.0000   0.0000   0.0000
     0.0000   0.0000

          k = 0.1111 0.1925 0.0000 (  5108 PWs)   bands (ev):

   -61.9077 -36.0336 -35.9726 -35.8926 -14.4736 -13.5340  -5.9844  -4.4323
    -3.9454  -3.3759  -3.0415  -1.9578  -1.4275   1.0857   1.3948   1.4363
     2.4745   5.0877

     occupation numbers 
     1.0000   1.0000   1.0000   1.0000   1.0000   1.0000   1.0000   1.0000
     1.0000   1.0000   1.0000   1.0000   1.0000   0.0000   0.0000   0.0000
     0.0000   0.0000

          k = 0.1111 0.3208 0.0000 (  5085 PWs)   bands (ev):

   -61.8968 -36.0734 -36.0119 -35.9264 -13.9221 -13.2954  -5.8431  -4.7923
    -4.7087  -3.9780  -2.8140  -2.2063  -1.8035   0.9053   1.3680   1.7276
     2.9884   5.9245

     occupation numbers 
     1.0000   1.0000   1.0000   1.0000   1.0000   1.0000   1.0000   1.0000
     1.0000   1.0000   1.0000   1.0000   1.0000   0.0000   0.0000   0.0000
     0.0000   0.0000

          k = 0.1111 0.4491 0.0000 (  5114 PWs)   bands (ev):

   -61.8872 -36.1604 -35.9927 -35.9565 -13.3590 -13.0564  -6.2601  -5.5131
    -4.8134  -4.1099  -2.8055  -2.6626  -1.6422   1.1303   1.5134   2.3193
     3.1479   6.0435

     occupation numbers 
     1.0000   1.0000   1.0000   1.0000   1.0000   1.0000   1.0000   1.0000
     1.0000   1.0000   1.0000   1.0000   1.0000   0.0000   0.0000   0.0000
     0.0000   0.0000

          k = 0.1111-0.5774 0.0000 (  5110 PWs)   bands (ev):

   -61.8834 -36.1943 -35.9851 -35.9684 -13.1068 -12.9521  -6.4866  -5.8324
    -4.9294  -4.1026  -2.8822  -2.7343  -1.4023   1.1789   1.7688   2.6924
     3.0196   5.2577

     occupation numbers 
     1.0000   1.0000   1.0000   1.0000   1.0000   1.0000   1.0000   1.0000
     1.0000   1.0000   1.0000   1.0000   1.0000   0.0000   0.0000   0.0000
     0.0000   0.0000

          k = 0.2222 0.3849 0.0000 (  5114 PWs)   bands (ev):

   -61.8879 -36.1292 -35.9941 -35.9799 -13.4112 -13.0692  -5.9847  -5.4397
    -4.6117  -4.2600  -3.4699  -2.4382  -1.6676   1.0651   1.5308   1.9064
     3.3209   6.6482

     occupation numbers 
     1.0000   1.0000   1.0000   1.0000   1.0000   1.0000   1.0000   1.0000
     1.0000   1.0000   1.0000   1.0000   1.0000   0.0000   0.0000   0.0000
     0.0000   0.0000

          k = 0.2222-0.6415 0.0000 (  5158 PWs)   bands (ev):

   -61.8821 -36.1560 -36.0241 -35.9825 -13.0368 -12.9003  -6.0277  -6.0198
    -4.7410  -4.0722  -3.9001  -2.8976  -1.2977   0.9858   2.0123   2.1075
     3.4578   5.8809

     occupation numbers 
     1.0000   1.0000   1.0000   1.0000   1.0000   1.0000   1.0000   1.0000
     1.0000   1.0000   1.0000   1.0000   1.0000   0.0000   0.0000   0.0000
     0.0000   0.0000

          k = 0.3333-0.5774 0.0000 (  5172 PWs)   bands (ev):

   -61.8801 -36.1216 -36.0837 -35.9785 -12.9060 -12.8313  -6.2665  -5.5077
    -4.9858  -4.5101  -3.8580  -3.1744  -1.0154   0.6496   1.9572   2.4016
     3.6891   6.1340

     occupation numbers 
     1.0000   1.0000   1.0000   1.0000   1.0000   1.0000   1.0000   1.0000
     1.0000   1.0000   1.0000   1.0000   1.0000   0.0000   0.0000   0.0000
     0.0000   0.0000

     the Fermi energy is     0.2203 ev

!    total energy              =    -181.57192753 Ry
     estimated scf accuracy    <       0.00000013 Ry
     smearing contrib. (-TS)   =       0.00000000 Ry
     internal energy E=F+TS    =    -181.57192753 Ry

     The total energy is F=E-TS. E is the sum of the following terms:
     one-electron contribution =   -1100.65188047 Ry
     hartree contribution      =     550.49478483 Ry
     xc contribution           =     -29.63392607 Ry
     ewald contribution        =     398.21909417 Ry

     convergence has been achieved in  10 iterations

     negative rho (up, down):  3.792E-05 0.000E+00

     Forces acting on atoms (cartesian axes, Ry/au):

     atom    1 type  1   force =     0.00000000    0.00000000    0.00000000
     atom    2 type  2   force =     0.00000000   -0.00000000   -0.01664801
     atom    3 type  2   force =    -0.00000000   -0.00000000    0.01664801
     The non-local contrib.  to forces
     atom    1 type  1   force =     0.00000000    0.00000000    0.00000000
     atom    2 type  2   force =    -0.00000000    0.00000000   -0.28187438
     atom    3 type  2   force =     0.00000000   -0.00000000    0.28187438
     The ionic contribution  to forces
     atom    1 type  1   force =    -0.00000002   -0.00000001   -0.00000000
     atom    2 type  2   force =     0.00000001    0.00000000   35.43298213
     atom    3 type  2   force =     0.00000001    0.00000000  -35.43298213
     The local contribution  to forces
     atom    1 type  1   force =    -0.00000000   -0.00000000    0.00000000
     atom    2 type  2   force =     0.00000002    0.00000001  -35.17014745
     atom    3 type  2   force =     0.00000002    0.00000001   35.17014745
     The core correction contribution to forces
     atom    1 type  1   force =    -0.00000000   -0.00000000   -0.00000000
     atom    2 type  2   force =    -0.00000000   -0.00000000    0.00293753
     atom    3 type  2   force =    -0.00000000   -0.00000000   -0.00293753
     The Hubbard contrib.    to forces
     atom    1 type  1   force =     0.00000000    0.00000000    0.00000000
     atom    2 type  2   force =     0.00000000    0.00000000    0.00000000
     atom    3 type  2   force =     0.00000000    0.00000000    0.00000000
     The SCF correction term to forces
     atom    1 type  1   force =     0.00000000    0.00000000    0.00000000
     atom    2 type  2   force =    -0.00000000   -0.00000000   -0.00054583
     atom    3 type  2   force =    -0.00000000   -0.00000000    0.00054583

     Total force =     0.023544     Total SCF correction =     0.000772
     Energy error            =      1.5E-01
     Gradient error          =      1.7E-02

     number of scf cycles    =   3
     number of bfgs steps    =   2

     energy   old            =    -181.4222972158 Ry
     energy   new            =    -181.5719275313 Ry

     CASE: energy  _new < energy  _old

     new trust radius        =       0.0315685831 bohr
     new conv_thr            =       0.0000001665 Ry


ATOMIC_POSITIONS (crystal)
Mo            0.0000000000        0.0000000000        0.5000000000    0   0   0
S             0.6666666660        0.6666666660        0.5783448838    0   0   1
S             0.6666666660        0.6666666660        0.4216551162    0   0   1



     Writing output data file ./outdir/MoS2.save/
     NEW-OLD atomic charge density approx. for the potential

     negative rho (up, down):  3.726E-05 0.000E+00

     total cpu time spent up to now is       42.0 secs

     Self-consistent Calculation

     iteration #  1     ecut=    40.00 Ry     beta= 0.10
     Davidson diagonalization with overlap
     ethr =  1.00E-06,  avg # of iterations =  6.2

     negative rho (up, down):  3.723E-05 0.000E+00

     total cpu time spent up to now is       43.2 secs

     total energy              =    -181.57262830 Ry
     estimated scf accuracy    <       0.00014198 Ry

     iteration #  2     ecut=    40.00 Ry     beta= 0.10
     Davidson diagonalization with overlap
     ethr =  5.46E-07,  avg # of iterations =  1.0

     negative rho (up, down):  3.725E-05 0.000E+00

     total cpu time spent up to now is       43.9 secs

     total energy              =    -181.57262869 Ry
     estimated scf accuracy    <       0.00003885 Ry

     iteration #  3     ecut=    40.00 Ry     beta= 0.10
     Davidson diagonalization with overlap
     ethr =  1.49E-07,  avg # of iterations =  1.0

     negative rho (up, down):  4.018E-05 0.000E+00

     total cpu time spent up to now is       44.6 secs

     total energy              =    -181.57262696 Ry
     estimated scf accuracy    <       0.00001628 Ry

     iteration #  4     ecut=    40.00 Ry     beta= 0.10
     Davidson diagonalization with overlap
     ethr =  6.26E-08,  avg # of iterations =  2.0

     negative rho (up, down):  3.958E-05 0.000E+00

     total cpu time spent up to now is       45.3 secs

     total energy              =    -181.57262868 Ry
     estimated scf accuracy    <       0.00000148 Ry

     iteration #  5     ecut=    40.00 Ry     beta= 0.10
     Davidson diagonalization with overlap
     ethr =  5.70E-09,  avg # of iterations =  1.6

     negative rho (up, down):  4.034E-05 0.000E+00

     total cpu time spent up to now is       46.0 secs

     total energy              =    -181.57262875 Ry
     estimated scf accuracy    <       0.00000056 Ry

     iteration #  6     ecut=    40.00 Ry     beta= 0.10
     Davidson diagonalization with overlap
     ethr =  2.15E-09,  avg # of iterations =  2.3

     negative rho (up, down):  3.966E-05 0.000E+00

     total cpu time spent up to now is       46.8 secs

     total energy              =    -181.57262884 Ry
     estimated scf accuracy    <       0.00000070 Ry

     iteration #  7     ecut=    40.00 Ry     beta= 0.10
     Davidson diagonalization with overlap
     ethr =  2.15E-09,  avg # of iterations =  1.0

     negative rho (up, down):  3.924E-05 0.000E+00

     total cpu time spent up to now is       47.5 secs

     total energy              =    -181.57262880 Ry
     estimated scf accuracy    <       0.00000021 Ry

     iteration #  8     ecut=    40.00 Ry     beta= 0.10
     Davidson diagonalization with overlap
     ethr =  8.12E-10,  avg # of iterations =  2.0

     negative rho (up, down):  3.723E-05 0.000E+00

     total cpu time spent up to now is       48.2 secs

     End of self-consistent calculation

          k = 0.0000 0.0000 0.0000 (  5021 PWs)   bands (ev):

   -61.9206 -36.0620 -35.8727 -35.8727 -15.0350 -13.7572  -6.5612  -3.6110
    -3.6110  -2.7629  -2.5252  -2.5252  -1.0054   1.6896   1.6896   1.9256
     1.9256   4.3366

     occupation numbers 
     1.0000   1.0000   1.0000   1.0000   1.0000   1.0000   1.0000   1.0000
     1.0000   1.0000   1.0000   1.0000   1.0000   0.0000   0.0000   0.0000
     0.0000   0.0000

          k = 0.0000 0.1283 0.0000 (  5077 PWs)   bands (ev):

   -61.9166 -36.0538 -35.9145 -35.8822 -14.8598 -13.6842  -6.3629  -3.9924
    -3.4625  -3.4290  -2.7954  -2.1146  -1.1130   1.5050   1.5085   1.7353
     1.9839   4.6386

     occupation numbers 
     1.0000   1.0000   1.0000   1.0000   1.0000   1.0000   1.0000   1.0000
     1.0000   1.0000   1.0000   1.0000   1.0000   0.0000   0.0000   0.0000
     0.0000   0.0000

          k = 0.0000 0.2566 0.0000 (  5105 PWs)   bands (ev):

   -61.9063 -36.0332 -36.0190 -35.9063 -14.3841 -13.4871  -5.9760  -4.6941
    -4.3230  -3.3467  -2.9529  -2.2386  -1.5778   1.1299   1.3672   1.6841
     2.5521   5.3135

     occupation numbers 
     1.0000   1.0000   1.0000   1.0000   1.0000   1.0000   1.0000   1.0000
     1.0000   1.0000   1.0000   1.0000   1.0000   0.0000   0.0000   0.0000
     0.0000   0.0000

          k = 0.0000 0.3849 0.0000 (  5126 PWs)   bands (ev):

   -61.8946 -36.1358 -36.0097 -35.9335 -13.7660 -13.2359  -6.1850  -5.1367
    -4.8934  -3.8412  -2.6273  -2.4023  -1.9680   1.1430   1.2838   2.3111
     2.9875   6.1484

     occupation numbers 
     1.0000   1.0000   1.0000   1.0000   1.0000   1.0000   1.0000   1.0000
     1.0000   1.0000   1.0000   1.0000   1.0000   0.0000   0.0000   0.0000
     0.0000   0.0000

          k = 0.0000 0.5132 0.0000 (  5112 PWs)   bands (ev):

   -61.8869 -36.2108 -35.9942 -35.9512 -13.2943 -13.0516  -6.6411  -5.6636
    -5.0048  -4.1169  -2.8439  -2.0631  -1.7265   1.1475   1.5999   2.7444
     3.1847   5.3102

     occupation numbers 
     1.0000   1.0000   1.0000   1.0000   1.0000   1.0000   1.0000   1.0000
     1.0000   1.0000   1.0000   1.0000   1.0000   0.0000   0.0000   0.0000
     0.0000   0.0000

          k = 0.1111 0.1925 0.0000 (  5108 PWs)   bands (ev):

   -61.9094 -36.0395 -35.9839 -35.9028 -14.5337 -13.5485  -6.0485  -4.5139
    -3.9830  -3.4475  -3.1363  -1.9537  -1.4091   1.1327   1.4009   1.4637
     2.5007   5.1183

     occupation numbers 
     1.0000   1.0000   1.0000   1.0000   1.0000   1.0000   1.0000   1.0000
     1.0000   1.0000   1.0000   1.0000   1.0000   0.0000   0.0000   0.0000
     0.0000   0.0000

          k = 0.1111 0.3208 0.0000 (  5085 PWs)   bands (ev):

   -61.8984 -36.0859 -36.0174 -35.9370 -13.9812 -13.3193  -5.9256  -4.8374
    -4.7577  -4.0324  -2.8829  -2.1916  -1.8218   0.9430   1.3824   1.7439
     3.0386   5.9448

     occupation numbers 
     1.0000   1.0000   1.0000   1.0000   1.0000   1.0000   1.0000   1.0000
     1.0000   1.0000   1.0000   1.0000   1.0000   0.0000   0.0000   0.0000
     0.0000   0.0000

          k = 0.1111 0.4491 0.0000 (  5114 PWs)   bands (ev):

   -61.8887 -36.1738 -35.9979 -35.9674 -13.4190 -13.0901  -6.3248  -5.5579
    -4.8563  -4.1626  -2.8507  -2.6411  -1.6779   1.1451   1.5064   2.3538
     3.2053   6.0589

     occupation numbers 
     1.0000   1.0000   1.0000   1.0000   1.0000   1.0000   1.0000   1.0000
     1.0000   1.0000   1.0000   1.0000   1.0000   0.0000   0.0000   0.0000
     0.0000   0.0000

          k = 0.1111-0.5774 0.0000 (  5110 PWs)   bands (ev):

   -61.8849 -36.2082 -35.9901 -35.9794 -13.1682 -12.9903  -6.5367  -5.8736
    -4.9809  -4.1579  -2.8562  -2.7722  -1.4336   1.1599   1.7675   2.7450
     3.0642   5.2763

     occupation numbers 
     1.0000   1.0000   1.0000   1.0000   1.0000   1.0000   1.0000   1.0000
     1.0000   1.0000   1.0000   1.0000   1.0000   0.0000   0.0000   0.0000
     0.0000   0.0000

          k = 0.2222 0.3849 0.0000 (  5114 PWs)   bands (ev):

   -61.8894 -36.1424 -35.9993 -35.9910 -13.4708 -13.1016  -6.0570  -5.5054
    -4.6488  -4.2849  -3.5154  -2.4196  -1.7065   1.1044   1.5090   1.9369
     3.3806   6.6553

     occupation numbers 
     1.0000   1.0000   1.0000   1.0000   1.0000   1.0000   1.0000   1.0000
     1.0000   1.0000   1.0000   1.0000   1.0000   0.0000   0.0000   0.0000
     0.0000   0.0000

          k = 0.2222-0.6415 0.0000 (  5158 PWs)   bands (ev):

   -61.8836 -36.1695 -36.0356 -35.9875 -13.0979 -12.9390  -6.0935  -6.0712
    -4.7886  -4.0910  -3.9385  -2.8756  -1.3329   0.9602   2.0285   2.1623
     3.5035   5.9066

     occupation numbers 
     1.0000   1.0000   1.0000   1.0000   1.0000   1.0000   1.0000   1.0000
     1.0000   1.0000   1.0000   1.0000   1.0000   0.0000   0.0000   0.0000
     0.0000   0.0000

          k = 0.3333-0.5774 0.0000 (  5172 PWs)   bands (ev):

   -61.8815 -36.1353 -36.0953 -35.9834 -12.9677 -12.8718  -6.3388  -5.5475
    -5.0345  -4.5551  -3.8654  -3.1526  -1.0431   0.5969   2.0197   2.4427
     3.7318   6.1274

     occupation numbers 
     1.0000   1.0000   1.0000   1.0000   1.0000   1.0000   1.0000   1.0000
     1.0000   1.0000   1.0000   1.0000   1.0000   0.0000   0.0000   0.0000
     0.0000   0.0000

     the Fermi energy is     0.2265 ev

!    total energy              =    -181.57262878 Ry
     estimated scf accuracy    <       0.00000004 Ry
     smearing contrib. (-TS)   =       0.00000000 Ry
     internal energy E=F+TS    =    -181.57262878 Ry

     The total energy is F=E-TS. E is the sum of the following terms:
     one-electron contribution =   -1105.05670478 Ry
     hartree contribution      =     552.68577728 Ry
     xc contribution           =     -29.65864359 Ry
     ewald contribution        =     400.45694231 Ry

     convergence has been achieved in   8 iterations

     negative rho (up, down):  3.723E-05 0.000E+00

     Forces acting on atoms (cartesian axes, Ry/au):

     atom    1 type  1   force =     0.00000000    0.00000000    0.00000000
     atom    2 type  2   force =     0.00000000   -0.00000000   -0.00523439
     atom    3 type  2   force =    -0.00000000   -0.00000000    0.00523439
     The non-local contrib.  to forces
     atom    1 type  1   force =     0.00000000    0.00000000    0.00000000
     atom    2 type  2   force =     0.00000000    0.00000000   -0.27708945
     atom    3 type  2   force =     0.00000000   -0.00000000    0.27708945
     The ionic contribution  to forces
     atom    1 type  1   force =    -0.00000002   -0.00000001    0.00000000
     atom    2 type  2   force =     0.00000001    0.00000000   35.45507174
     atom    3 type  2   force =     0.00000001    0.00000000  -35.45507174
     The local contribution  to forces
     atom    1 type  1   force =    -0.00000000   -0.00000000    0.00000000
     atom    2 type  2   force =     0.00000002    0.00000001  -35.18562315
     atom    3 type  2   force =     0.00000002    0.00000001   35.18562315
     The core correction contribution to forces
     atom    1 type  1   force =    -0.00000000   -0.00000000   -0.00000000
     atom    2 type  2   force =    -0.00000000   -0.00000000    0.00270999
     atom    3 type  2   force =    -0.00000000   -0.00000000   -0.00270999
     The Hubbard contrib.    to forces
     atom    1 type  1   force =     0.00000000    0.00000000    0.00000000
     atom    2 type  2   force =     0.00000000    0.00000000    0.00000000
     atom    3 type  2   force =     0.00000000    0.00000000    0.00000000
     The SCF correction term to forces
     atom    1 type  1   force =     0.00000000    0.00000000   -0.00000000
     atom    2 type  2   force =    -0.00000000   -0.00000000   -0.00030352
     atom    3 type  2   force =    -0.00000000   -0.00000000    0.00030352

     Total force =     0.007403     Total SCF correction =     0.000429
     Energy error            =      7.0E-04
     Gradient error          =      5.2E-03

     number of scf cycles    =   4
     number of bfgs steps    =   3

     energy   old            =    -181.5719275313 Ry
     energy   new            =    -181.5726287831 Ry

     CASE: energy  _new < energy  _old

     new trust radius        =       0.0144776364 bohr
     new conv_thr            =       0.0000000523 Ry


ATOMIC_POSITIONS (crystal)
Mo            0.0000000000        0.0000000000        0.5000000000    0   0   0
S             0.6666666660        0.6666666660        0.5779618221    0   0   1
S             0.6666666660        0.6666666660        0.4220381779    0   0   1



     Writing output data file ./outdir/MoS2.save/
     NEW-OLD atomic charge density approx. for the potential

     negative rho (up, down):  3.678E-05 0.000E+00

     total cpu time spent up to now is       49.6 secs

     Self-consistent Calculation

     iteration #  1     ecut=    40.00 Ry     beta= 0.10
     Davidson diagonalization with overlap
     ethr =  1.00E-06,  avg # of iterations =  5.0

     negative rho (up, down):  3.680E-05 0.000E+00

     total cpu time spent up to now is       50.5 secs

     total energy              =    -181.57270278 Ry
     estimated scf accuracy    <       0.00002954 Ry

     iteration #  2     ecut=    40.00 Ry     beta= 0.10
     Davidson diagonalization with overlap
     ethr =  1.14E-07,  avg # of iterations =  1.2

     negative rho (up, down):  3.682E-05 0.000E+00

     total cpu time spent up to now is       51.2 secs

     total energy              =    -181.57270311 Ry
     estimated scf accuracy    <       0.00000856 Ry

     iteration #  3     ecut=    40.00 Ry     beta= 0.10
     Davidson diagonalization with overlap
     ethr =  3.29E-08,  avg # of iterations =  1.3

     negative rho (up, down):  3.748E-05 0.000E+00

     total cpu time spent up to now is       51.9 secs

     total energy              =    -181.57270290 Ry
     estimated scf accuracy    <       0.00000338 Ry

     iteration #  4     ecut=    40.00 Ry     beta= 0.10
     Davidson diagonalization with overlap
     ethr =  1.30E-08,  avg # of iterations =  2.0

     negative rho (up, down):  3.739E-05 0.000E+00

     total cpu time spent up to now is       52.8 secs

     total energy              =    -181.57270326 Ry
     estimated scf accuracy    <       0.00000040 Ry

     iteration #  5     ecut=    40.00 Ry     beta= 0.10
     Davidson diagonalization with overlap
     ethr =  1.54E-09,  avg # of iterations =  1.8

     negative rho (up, down):  3.752E-05 0.000E+00

     total cpu time spent up to now is       53.7 secs

     total energy              =    -181.57270329 Ry
     estimated scf accuracy    <       0.00000012 Ry

     iteration #  6     ecut=    40.00 Ry     beta= 0.10
     Davidson diagonalization with overlap
     ethr =  4.72E-10,  avg # of iterations =  2.2

     negative rho (up, down):  3.741E-05 0.000E+00

     total cpu time spent up to now is       54.5 secs

     total energy              =    -181.57270328 Ry
     estimated scf accuracy    <       0.00000010 Ry

     iteration #  7     ecut=    40.00 Ry     beta= 0.10
     Davidson diagonalization with overlap
     ethr =  4.01E-10,  avg # of iterations =  2.0

     negative rho (up, down):  3.698E-05 0.000E+00

     total cpu time spent up to now is       55.4 secs

     End of self-consistent calculation

          k = 0.0000 0.0000 0.0000 (  5021 PWs)   bands (ev):

   -61.9217 -36.0651 -35.8779 -35.8779 -15.0644 -13.7599  -6.5869  -3.6597
    -3.6597  -2.7470  -2.5624  -2.5624  -0.9833   1.6892   1.6892   1.9440
     1.9440   4.3415

     occupation numbers 
     1.0000   1.0000   1.0000   1.0000   1.0000   1.0000   1.0000   1.0000
     1.0000   1.0000   1.0000   1.0000   1.0000   0.0000   0.0000   0.0000
     0.0000   0.0000

          k = 0.0000 0.1283 0.0000 (  5077 PWs)   bands (ev):

   -61.9177 -36.0569 -35.9199 -35.8875 -14.8888 -13.6883  -6.3897  -4.0381
    -3.4769  -3.4768  -2.8327  -2.1176  -1.0955   1.5062   1.5284   1.7515
     1.9871   4.6434

     occupation numbers 
     1.0000   1.0000   1.0000   1.0000   1.0000   1.0000   1.0000   1.0000
     1.0000   1.0000   1.0000   1.0000   1.0000   0.0000   0.0000   0.0000
     0.0000   0.0000

          k = 0.0000 0.2566 0.0000 (  5105 PWs)   bands (ev):

   -61.9073 -36.0361 -36.0250 -35.9116 -14.4122 -13.4948  -6.0091  -4.7270
    -4.3419  -3.3844  -2.9973  -2.2294  -1.5726   1.1515   1.3773   1.6900
     2.5647   5.3174

     occupation numbers 
     1.0000   1.0000   1.0000   1.0000   1.0000   1.0000   1.0000   1.0000
     1.0000   1.0000   1.0000   1.0000   1.0000   0.0000   0.0000   0.0000
     0.0000   0.0000

          k = 0.0000 0.3849 0.0000 (  5126 PWs)   bands (ev):

   -61.8956 -36.1424 -36.0124 -35.9390 -13.7940 -13.2487  -6.2211  -5.1526
    -4.9124  -3.8792  -2.6139  -2.4395  -1.9732   1.1432   1.2988   2.3241
     3.0100   6.1463

     occupation numbers 
     1.0000   1.0000   1.0000   1.0000   1.0000   1.0000   1.0000   1.0000
     1.0000   1.0000   1.0000   1.0000   1.0000   0.0000   0.0000   0.0000
     0.0000   0.0000

          k = 0.0000 0.5132 0.0000 (  5112 PWs)   bands (ev):

   -61.8879 -36.2179 -35.9968 -35.9567 -13.3231 -13.0684  -6.6671  -5.6751
    -5.0272  -4.1551  -2.8301  -2.0923  -1.7320   1.1378   1.6008   2.7605
     3.2126   5.3140

     occupation numbers 
     1.0000   1.0000   1.0000   1.0000   1.0000   1.0000   1.0000   1.0000
     1.0000   1.0000   1.0000   1.0000   1.0000   0.0000   0.0000   0.0000
     0.0000   0.0000

          k = 0.1111 0.1925 0.0000 (  5108 PWs)   bands (ev):

   -61.9105 -36.0424 -35.9897 -35.9081 -14.5620 -13.5551  -6.0788  -4.5523
    -4.0009  -3.4810  -3.1810  -1.9508  -1.4008   1.1541   1.4032   1.4761
     2.5123   5.1225

     occupation numbers 
     1.0000   1.0000   1.0000   1.0000   1.0000   1.0000   1.0000   1.0000
     1.0000   1.0000   1.0000   1.0000   1.0000   0.0000   0.0000   0.0000
     0.0000   0.0000

          k = 0.1111 0.3208 0.0000 (  5085 PWs)   bands (ev):

   -61.8994 -36.0923 -36.0201 -35.9424 -14.0090 -13.3302  -5.9643  -4.8589
    -4.7808  -4.0577  -2.9158  -2.1840  -1.8304   0.9594   1.3889   1.7509
     3.0613   5.9469

     occupation numbers 
     1.0000   1.0000   1.0000   1.0000   1.0000   1.0000   1.0000   1.0000
     1.0000   1.0000   1.0000   1.0000   1.0000   0.0000   0.0000   0.0000
     0.0000   0.0000

          k = 0.1111 0.4491 0.0000 (  5114 PWs)   bands (ev):

   -61.8897 -36.1807 -36.0005 -35.9730 -13.4473 -13.1056  -6.3553  -5.5791
    -4.8763  -4.1870  -2.8724  -2.6304  -1.6951   1.1504   1.5029   2.3691
     3.2316   6.0648

     occupation numbers 
     1.0000   1.0000   1.0000   1.0000   1.0000   1.0000   1.0000   1.0000
     1.0000   1.0000   1.0000   1.0000   1.0000   0.0000   0.0000   0.0000
     0.0000   0.0000

          k = 0.1111-0.5774 0.0000 (  5110 PWs)   bands (ev):

   -61.8858 -36.2152 -35.9927 -35.9850 -13.1971 -13.0079  -6.5603  -5.8931
    -5.0048  -4.1834  -2.8436  -2.7903  -1.4489   1.1498   1.7659   2.7684
     3.0849   5.2846

     occupation numbers 
     1.0000   1.0000   1.0000   1.0000   1.0000   1.0000   1.0000   1.0000
     1.0000   1.0000   1.0000   1.0000   1.0000   0.0000   0.0000   0.0000
     0.0000   0.0000

          k = 0.2222 0.3849 0.0000 (  5114 PWs)   bands (ev):

   -61.8904 -36.1491 -36.0019 -35.9967 -13.4989 -13.1165  -6.0910  -5.5361
    -4.6662  -4.2964  -3.5369  -2.4103  -1.7253   1.1220   1.4978   1.9503
     3.4080   6.6560

     occupation numbers 
     1.0000   1.0000   1.0000   1.0000   1.0000   1.0000   1.0000   1.0000
     1.0000   1.0000   1.0000   1.0000   1.0000   0.0000   0.0000   0.0000
     0.0000   0.0000

          k = 0.2222-0.6415 0.0000 (  5158 PWs)   bands (ev):

   -61.8845 -36.1764 -36.0416 -35.9900 -13.1267 -12.9568  -6.1244  -6.0954
    -4.8107  -4.0995  -3.9565  -2.8649  -1.3504   0.9467   2.0354   2.1871
     3.5242   5.9180

     occupation numbers 
     1.0000   1.0000   1.0000   1.0000   1.0000   1.0000   1.0000   1.0000
     1.0000   1.0000   1.0000   1.0000   1.0000   0.0000   0.0000   0.0000
     0.0000   0.0000

          k = 0.3333-0.5774 0.0000 (  5172 PWs)   bands (ev):

   -61.8825 -36.1423 -36.1012 -35.9859 -12.9968 -12.8904  -6.3726  -5.5660
    -5.0576  -4.5759  -3.8688  -3.1419  -1.0571   0.5711   2.0482   2.4607
     3.7510   6.1237

     occupation numbers 
     1.0000   1.0000   1.0000   1.0000   1.0000   1.0000   1.0000   1.0000
     1.0000   1.0000   1.0000   1.0000   1.0000   0.0000   0.0000   0.0000
     0.0000   0.0000

     the Fermi energy is     0.2270 ev

!    total energy              =    -181.57270330 Ry
     estimated scf accuracy    <       0.00000003 Ry
     smearing contrib. (-TS)   =       0.00000000 Ry
     internal energy E=F+TS    =    -181.57270330 Ry

     The total energy is F=E-TS. E is the sum of the following terms:
     one-electron contribution =   -1107.07903537 Ry
     hartree contribution      =     553.69268818 Ry
     xc contribution           =     -29.67004583 Ry
     ewald contribution        =     401.48368972 Ry

     convergence has been achieved in   7 iterations

     negative rho (up, down):  3.698E-05 0.000E+00

     Forces acting on atoms (cartesian axes, Ry/au):

     atom    1 type  1   force =     0.00000000   -0.00000000    0.00000000
     atom    2 type  2   force =     0.00000000    0.00000000    0.00018460
     atom    3 type  2   force =     0.00000000    0.00000000   -0.00018460
     The non-local contrib.  to forces
     atom    1 type  1   force =    -0.00000000   -0.00000000    0.00000000
     atom    2 type  2   force =     0.00000000   -0.00000000   -0.27489684
     atom    3 type  2   force =     0.00000000    0.00000000    0.27489684
     The ionic contribution  to forces
     atom    1 type  1   force =    -0.00000002   -0.00000001    0.00000000
     atom    2 type  2   force =     0.00000001    0.00000000   35.46438890
     atom    3 type  2   force =     0.00000001    0.00000000  -35.46438890
     The local contribution  to forces
     atom    1 type  1   force =     0.00000000   -0.00000000    0.00000000
     atom    2 type  2   force =     0.00000002    0.00000001  -35.19204144
     atom    3 type  2   force =     0.00000002    0.00000001   35.19204144
     The core correction contribution to forces
     atom    1 type  1   force =     0.00000000   -0.00000000   -0.00000000
     atom    2 type  2   force =    -0.00000000   -0.00000000    0.00260512
     atom    3 type  2   force =    -0.00000000   -0.00000000   -0.00260512
     The Hubbard contrib.    to forces
     atom    1 type  1   force =     0.00000000    0.00000000    0.00000000
     atom    2 type  2   force =     0.00000000    0.00000000    0.00000000
     atom    3 type  2   force =     0.00000000    0.00000000    0.00000000
     The SCF correction term to forces
     atom    1 type  1   force =     0.00000000    0.00000000    0.00000000
     atom    2 type  2   force =     0.00000000    0.00000000    0.00012886
     atom    3 type  2   force =     0.00000000    0.00000000   -0.00012886

     Total force =     0.000261     Total SCF correction =     0.000182
     SCF correction compared to forces is large: reduce conv_thr to get better values
     Energy error            =      7.5E-05
     Gradient error          =      1.8E-04

     bfgs converged in   5 scf cycles and   4 bfgs steps
     (criteria: energy <  1.0E-04 Ry, force <  1.0E-03 Ry/Bohr)

     End of BFGS Geometry Optimization

     Final energy   =    -181.5727033037 Ry

     File ./outdir/MoS2.bfgs deleted, as requested
Begin final coordinates

ATOMIC_POSITIONS (crystal)
Mo            0.0000000000        0.0000000000        0.5000000000    0   0   0
S             0.6666666660        0.6666666660        0.5779618221    0   0   1
S             0.6666666660        0.6666666660        0.4220381779    0   0   1
End final coordinates



     Writing output data file ./outdir/MoS2.save/

     init_run     :      0.93s CPU      1.05s WALL (       1 calls)
     electrons    :     37.48s CPU     48.25s WALL (       5 calls)
     update_pot   :      2.05s CPU      2.06s WALL (       4 calls)
     forces       :      3.09s CPU      3.55s WALL (       5 calls)

     Called by init_run:
     wfcinit      :      0.16s CPU      0.17s WALL (       1 calls)
     wfcinit:atom :      0.00s CPU      0.00s WALL (      12 calls)
     wfcinit:wfcr :      0.15s CPU      0.15s WALL (      12 calls)
     potinit      :      0.17s CPU      0.18s WALL (       1 calls)
     hinit0       :      0.45s CPU      0.46s WALL (       1 calls)

     Called by electrons:
     c_bands      :     17.87s CPU     18.72s WALL (      56 calls)
     sum_band     :      9.35s CPU     14.64s WALL (      56 calls)
     v_of_rho     :      2.22s CPU      2.66s WALL (      61 calls)
     v_h          :      0.18s CPU      0.19s WALL (      61 calls)
     v_xc         :      2.24s CPU      2.71s WALL (      66 calls)
     newd         :      8.32s CPU     12.93s WALL (      61 calls)
     mix_rho      :      0.31s CPU      0.32s WALL (      56 calls)

     Called by c_bands:
     init_us_2    :      0.35s CPU      0.36s WALL (    1416 calls)
     cegterg      :     16.68s CPU     17.50s WALL (     672 calls)

     Called by sum_band:
     sum_band:wei :      0.00s CPU      0.00s WALL (      56 calls)
     sum_band:loo :      1.93s CPU      2.07s WALL (      56 calls)
     sum_band:buf :      0.06s CPU      0.06s WALL (     672 calls)
     sum_band:ini :      0.13s CPU      0.13s WALL (     672 calls)
     sum_band:cal :      0.57s CPU      0.61s WALL (     672 calls)
     sum_band:bec :      0.01s CPU      0.02s WALL (     672 calls)
     addusdens    :      6.93s CPU     12.01s WALL (      56 calls)
     addusd:skk   :      0.03s CPU      0.06s WALL (     112 calls)
     addusd:dgemm :      2.53s CPU      6.91s WALL (     112 calls)
     addusd:qvan2 :      3.83s CPU      3.84s WALL (     112 calls)

     Called by *egterg:
     cdiaghg      :      1.25s CPU      1.28s WALL (    2401 calls)
     cegterg:over :      1.71s CPU      1.75s WALL (    1777 calls)
     cegterg:upda :      0.76s CPU      0.77s WALL (    1777 calls)
     cegterg:last :      1.75s CPU      1.77s WALL (    1379 calls)
     cdiaghg:chol :      0.13s CPU      0.14s WALL (    2401 calls)
     cdiaghg:inve :      0.03s CPU      0.03s WALL (    2401 calls)
     cdiaghg:para :      0.19s CPU      0.20s WALL (    4802 calls)
     h_psi        :      9.22s CPU      9.86s WALL (    2461 calls)
     s_psi        :      1.37s CPU      1.44s WALL (    2461 calls)
     g_psi        :      0.08s CPU      0.09s WALL (    1777 calls)

     Called by h_psi:
     h_psi:calbec :      1.69s CPU      1.84s WALL (    2461 calls)
     vloc_psi     :      6.11s CPU      6.49s WALL (    2461 calls)
     add_vuspsi   :      1.33s CPU      1.43s WALL (    2461 calls)

     General routines
     calbec       :      2.48s CPU      2.68s WALL (    3373 calls)
     fft          :      1.35s CPU      1.53s WALL (     842 calls)
     ffts         :      0.03s CPU      0.04s WALL (     117 calls)
     fftw         :      6.19s CPU      6.58s WALL (   75040 calls)
     interpolate  :      0.14s CPU      0.15s WALL (      61 calls)

     Parallel routines
     fft_scatt_xy :      0.87s CPU      0.93s WALL (   75999 calls)
     fft_scatt_yz :      3.27s CPU      3.56s WALL (   75999 calls)

     PWSCF        :     44.34s CPU     56.09s WALL


   This run was terminated on:  18:54:56  18Jan2023            

=------------------------------------------------------------------------------=
   JOB DONE.
=------------------------------------------------------------------------------=
