
     Program PWSCF v.6.7MaX starts on 18Jan2023 at 19:10: 1 

     This program is part of the open-source Quantum ESPRESSO suite
     for quantum simulation of materials; please cite
         "P. Giannozzi et al., J. Phys.:Condens. Matter 21 395502 (2009);
         "P. Giannozzi et al., J. Phys.:Condens. Matter 29 465901 (2017);
          URL http://www.quantum-espresso.org", 
     in publications or presentations arising from this work. More details at
     http://www.quantum-espresso.org/quote

     Parallel version (MPI), running on     8 processors

     MPI processes distributed on     1 nodes
     R & G space division:  proc/nbgrp/npool/nimage =       8
     Reading input from MoS2_2H.in

     Current dimensions of program PWSCF are:
     Max number of different atomic species (ntypx) = 10
     Max number of k-points (npk) =  40000
     Max angular momentum in pseudopotentials (lmaxx) =  3
     file Mo.pbe-spn-rrkjus_psl.1.0.0.UPF: wavefunction(s)  4S renormalized

     IMPORTANT: XC functional enforced from input :
     Exchange-correlation= PBE
                           (   1   4   3   4   0   0   0)
     Any further DFT definition will be discarded
     Please, verify this is what you really want


     Subspace diagonalization in iterative solution of the eigenvalue problem:
     one sub-group per band group will be used
     scalapack distributed-memory algorithm (size of sub-group:  2*  2 procs)


     Parallelization info
     --------------------
     sticks:   dense  smooth     PW     G-vecs:    dense   smooth      PW
     Min         129      52     15                20855     5280     883
     Max         130      53     16                20882     5301     910
     Sum        1039     421    121               166987    42345    7129



     bravais-lattice index     =           12
     lattice parameter (alat)  =       6.1416  a.u.
     unit-cell volume          =    1234.5934 (a.u.)^3
     number of atoms/cell      =            3
     number of atomic types    =            2
     number of electrons       =        26.00
     number of Kohn-Sham states=           18
     kinetic-energy cutoff     =      40.0000  Ry
     charge density cutoff     =     400.0000  Ry
     scf convergence threshold =      1.0E-06
     mixing beta               =       0.1000
     number of iterations used =            8  plain     mixing
     energy convergence thresh.=      1.0E-04
     force convergence thresh. =      1.0E-03
     Exchange-correlation= PBE
                           (   1   4   3   4   0   0   0)
     nstep                     =           50


     celldm(1)=   6.141610  celldm(2)=   1.000000  celldm(3)=   6.153846
     celldm(4)=   0.500000  celldm(5)=   0.000000  celldm(6)=   0.000000

     crystal axes: (cart. coord. in units of alat)
               a(1) = (   1.000000   0.000000   0.000000 )  
               a(2) = (   0.500000   0.866025   0.000000 )  
               a(3) = (   0.000000   0.000000   6.153846 )  

     reciprocal axes: (cart. coord. in units 2 pi/alat)
               b(1) = (  1.000000 -0.577350  0.000000 )  
               b(2) = (  0.000000  1.154701  0.000000 )  
               b(3) = (  0.000000  0.000000  0.162500 )  


     PseudoPot. # 1 for Mo read from file:
     /home/zronyj/Desktop/MoS2/pseudo/Mo.pbe-spn-rrkjus_psl.1.0.0.UPF
     MD5 check sum: 03f09b12e49601d1a456a78ce8b2d514
     Pseudo is Ultrasoft + core correction, Zval = 14.0
     Generated using &quot;atomic&quot; code by A. Dal Corso  v.6.3
     Using radial grid of 1229 points,  6 beta functions with: 
                l(1) =   0
                l(2) =   0
                l(3) =   1
                l(4) =   1
                l(5) =   2
                l(6) =   2
     Q(r) pseudized with 0 coefficients 


     PseudoPot. # 2 for S  read from file:
     /home/zronyj/Desktop/MoS2/pseudo/S.pbe-n-rrkjus_psl.1.0.0.UPF
     MD5 check sum: 9d0fe39aa2a799ea84730884c9b010f4
     Pseudo is Ultrasoft + core correction, Zval =  6.0
     Generated using &quot;atomic&quot; code by A. Dal Corso  v.6.3
     Using radial grid of 1151 points,  6 beta functions with: 
                l(1) =   0
                l(2) =   0
                l(3) =   1
                l(4) =   1
                l(5) =   2
                l(6) =   2
     Q(r) pseudized with 0 coefficients 


     atomic species   valence    mass     pseudopotential
        Mo            14.00    95.95000     Mo( 1.00)
        S              6.00    32.06500     S ( 1.00)

     12 Sym. Ops. (no inversion) found


                                    s                        frac. trans.

      isym =  1     identity                                     

 cryst.   s( 1) = (     1          0          0      )
                  (     0          1          0      )
                  (     0          0          1      )

 cart.    s( 1) = (  1.0000000  0.0000000  0.0000000 )
                  (  0.0000000  1.0000000  0.0000000 )
                  (  0.0000000  0.0000000  1.0000000 )


      isym =  2     180 deg rotation - cart. axis [0,1,0]        

 cryst.   s( 2) = (    -1          0          0      )
                  (    -1          1          0      )
                  (     0          0         -1      )

 cart.    s( 2) = ( -1.0000000  0.0000000  0.0000000 )
                  (  0.0000000  1.0000000  0.0000000 )
                  (  0.0000000  0.0000000 -1.0000000 )


      isym =  3     120 deg rotation - cryst. axis [0,0,1]       

 cryst.   s( 3) = (    -1          1          0      )
                  (    -1          0          0      )
                  (     0          0          1      )

 cart.    s( 3) = ( -0.5000000 -0.8660254  0.0000000 )
                  (  0.8660254 -0.5000000  0.0000000 )
                  (  0.0000000  0.0000000  1.0000000 )


      isym =  4     120 deg rotation - cryst. axis [0,0,-1]      

 cryst.   s( 4) = (     0         -1          0      )
                  (     1         -1          0      )
                  (     0          0          1      )

 cart.    s( 4) = ( -0.5000000  0.8660254  0.0000000 )
                  ( -0.8660254 -0.5000000  0.0000000 )
                  (  0.0000000  0.0000000  1.0000000 )


      isym =  5     180 deg rotation - cryst. axis [1,-1,0]      

 cryst.   s( 5) = (     1         -1          0      )
                  (     0         -1          0      )
                  (     0          0         -1      )

 cart.    s( 5) = (  0.5000000 -0.8660254  0.0000000 )
                  ( -0.8660254 -0.5000000  0.0000000 )
                  (  0.0000000  0.0000000 -1.0000000 )


      isym =  6     180 deg rotation - cryst. axis [2,1,0]       

 cryst.   s( 6) = (     0          1          0      )
                  (     1          0          0      )
                  (     0          0         -1      )

 cart.    s( 6) = (  0.5000000  0.8660254  0.0000000 )
                  (  0.8660254 -0.5000000  0.0000000 )
                  (  0.0000000  0.0000000 -1.0000000 )


      isym =  7     inv. 180 deg rotation - cart. axis [0,0,1]   

 cryst.   s( 7) = (     1          0          0      )
                  (     0          1          0      )
                  (     0          0         -1      )

 cart.    s( 7) = (  1.0000000  0.0000000  0.0000000 )
                  (  0.0000000  1.0000000  0.0000000 )
                  (  0.0000000  0.0000000 -1.0000000 )


      isym =  8     inv. 180 deg rotation - cart. axis [1,0,0]   

 cryst.   s( 8) = (    -1          0          0      )
                  (    -1          1          0      )
                  (     0          0          1      )

 cart.    s( 8) = ( -1.0000000  0.0000000  0.0000000 )
                  (  0.0000000  1.0000000  0.0000000 )
                  (  0.0000000  0.0000000  1.0000000 )


      isym =  9     inv.  60 deg rotation - cryst. axis [0,0,1]  

 cryst.   s( 9) = (     0         -1          0      )
                  (     1         -1          0      )
                  (     0          0         -1      )

 cart.    s( 9) = ( -0.5000000  0.8660254  0.0000000 )
                  ( -0.8660254 -0.5000000  0.0000000 )
                  (  0.0000000  0.0000000 -1.0000000 )


      isym = 10     inv.  60 deg rotation - cryst. axis [0,0,-1] 

 cryst.   s(10) = (    -1          1          0      )
                  (    -1          0          0      )
                  (     0          0         -1      )

 cart.    s(10) = ( -0.5000000 -0.8660254  0.0000000 )
                  (  0.8660254 -0.5000000  0.0000000 )
                  (  0.0000000  0.0000000 -1.0000000 )


      isym = 11     inv. 180 deg rotation - cryst. axis [0,1,0]  

 cryst.   s(11) = (     0          1          0      )
                  (     1          0          0      )
                  (     0          0          1      )

 cart.    s(11) = (  0.5000000  0.8660254  0.0000000 )
                  (  0.8660254 -0.5000000  0.0000000 )
                  (  0.0000000  0.0000000  1.0000000 )


      isym = 12     inv. 180 deg rotation - cryst. axis [1,1,0]  

 cryst.   s(12) = (     1         -1          0      )
                  (     0         -1          0      )
                  (     0          0          1      )

 cart.    s(12) = (  0.5000000 -0.8660254  0.0000000 )
                  ( -0.8660254 -0.5000000  0.0000000 )
                  (  0.0000000  0.0000000  1.0000000 )


     point group D_3h (-62m)
     there are  6 classes
     the character table:

       E     2C3   3C2   s_h   2S3   3s_v 
A'_1   1.00  1.00  1.00  1.00  1.00  1.00
A'_2   1.00  1.00 -1.00  1.00  1.00 -1.00
E'     2.00 -1.00  0.00  2.00 -1.00  0.00
A''1   1.00  1.00  1.00 -1.00 -1.00 -1.00
A''2   1.00  1.00 -1.00 -1.00 -1.00  1.00
E''    2.00 -1.00  0.00 -2.00  1.00  0.00

     the symmetry operations in each class and the name of the first element:

     E        1
          identity                                               
     2C3      3    4
          120 deg rotation - cryst. axis [0,0,1]                 
     3C2      2    6    5
          180 deg rotation - cart. axis [0,1,0]                  
     s_h      7
          inv. 180 deg rotation - cart. axis [0,0,1]             
     2S3      9   10
          inv.  60 deg rotation - cryst. axis [0,0,1]            
     3s_v     8   11   12
          inv. 180 deg rotation - cart. axis [1,0,0]             

   Cartesian axes

     site n.     atom                  positions (alat units)
         1           Mo  tau(   1) = (   0.0000000   0.0000000   3.0769231  )
         2           S   tau(   2) = (   1.0000000   0.5773503   3.3846154  )
         3           S   tau(   3) = (   1.0000000   0.5773503   2.7692308  )

   Crystallographic axes

     site n.     atom                  positions (cryst. coord.)
         1           Mo  tau(   1) = (  0.0000000  0.0000000  0.5000000  )
         2           S   tau(   2) = (  0.6666667  0.6666667  0.5500000  )
         3           S   tau(   3) = (  0.6666667  0.6666667  0.4500000  )

     number of k points=    12  Marzari-Vanderbilt smearing, width (Ry)=  0.0001
                       cart. coord. in units 2pi/alat
        k(    1) = (   0.0000000   0.0000000   0.0000000), wk =   0.0246914
        k(    2) = (   0.0000000   0.1283001   0.0000000), wk =   0.1481481
        k(    3) = (   0.0000000   0.2566001   0.0000000), wk =   0.1481481
        k(    4) = (   0.0000000   0.3849002   0.0000000), wk =   0.1481481
        k(    5) = (   0.0000000   0.5132002   0.0000000), wk =   0.1481481
        k(    6) = (   0.1111111   0.1924501   0.0000000), wk =   0.1481481
        k(    7) = (   0.1111111   0.3207501   0.0000000), wk =   0.2962963
        k(    8) = (   0.1111111   0.4490502   0.0000000), wk =   0.2962963
        k(    9) = (   0.1111111  -0.5773503   0.0000000), wk =   0.1481481
        k(   10) = (   0.2222222   0.3849002   0.0000000), wk =   0.1481481
        k(   11) = (   0.2222222  -0.6415003   0.0000000), wk =   0.2962963
        k(   12) = (   0.3333333  -0.5773503   0.0000000), wk =   0.0493827

                       cryst. coord.
        k(    1) = (   0.0000000   0.0000000   0.0000000), wk =   0.0246914
        k(    2) = (   0.0000000   0.1111111   0.0000000), wk =   0.1481481
        k(    3) = (   0.0000000   0.2222222   0.0000000), wk =   0.1481481
        k(    4) = (   0.0000000   0.3333333   0.0000000), wk =   0.1481481
        k(    5) = (   0.0000000   0.4444444   0.0000000), wk =   0.1481481
        k(    6) = (   0.1111111   0.2222222   0.0000000), wk =   0.1481481
        k(    7) = (   0.1111111   0.3333333   0.0000000), wk =   0.2962963
        k(    8) = (   0.1111111   0.4444444   0.0000000), wk =   0.2962963
        k(    9) = (   0.1111111  -0.4444444   0.0000000), wk =   0.1481481
        k(   10) = (   0.2222222   0.4444444   0.0000000), wk =   0.1481481
        k(   11) = (   0.2222222  -0.4444444   0.0000000), wk =   0.2962963
        k(   12) = (   0.3333333  -0.3333333   0.0000000), wk =   0.0493827

     Dense  grid:   166987 G-vectors     FFT dimensions: (  40,  40, 243)

     Smooth grid:    42345 G-vectors     FFT dimensions: (  25,  25, 160)

     Dynamical RAM for                 wfc:       0.18 MB

     Dynamical RAM for     wfc (w. buffer):       2.35 MB

     Dynamical RAM for           str. fact:       0.64 MB

     Dynamical RAM for           local pot:       0.00 MB

     Dynamical RAM for          nlocal pot:       0.54 MB

     Dynamical RAM for                qrad:       3.21 MB

     Dynamical RAM for          rho,v,vnew:       2.09 MB

     Dynamical RAM for               rhoin:       0.70 MB

     Dynamical RAM for            rho*nmix:       5.10 MB

     Dynamical RAM for           G-vectors:       1.24 MB

     Dynamical RAM for          h,s,v(r/c):       0.01 MB

     Dynamical RAM for          <psi|beta>:       0.01 MB

     Dynamical RAM for                 psi:       0.36 MB

     Dynamical RAM for                hpsi:       0.36 MB

     Dynamical RAM for                spsi:       0.36 MB

     Dynamical RAM for      wfcinit/wfcrot:       0.37 MB

     Dynamical RAM for           addusdens:      59.90 MB

     Dynamical RAM for          addusforce:      60.71 MB

     Estimated static dynamical RAM per process >      18.71 MB

     Estimated max dynamical RAM per process >      79.42 MB

     Estimated total dynamical RAM >     635.37 MB

     Initial potential from superposition of free atoms

     starting charge   25.99905, renormalised to   26.00000

     negative rho (up, down):  6.246E-05 0.000E+00
     Starting wfcs are   18 randomized atomic wfcs

     total cpu time spent up to now is        1.1 secs

     Self-consistent Calculation

     iteration #  1     ecut=    40.00 Ry     beta= 0.10
     Davidson diagonalization with overlap
     ethr =  1.00E-02,  avg # of iterations =  4.3

     negative rho (up, down):  4.129E-05 0.000E+00

     total cpu time spent up to now is        1.9 secs

     total energy              =    -181.05823473 Ry
     estimated scf accuracy    <       0.37409372 Ry

     iteration #  2     ecut=    40.00 Ry     beta= 0.10
     Davidson diagonalization with overlap
     ethr =  1.44E-03,  avg # of iterations =  1.8

     negative rho (up, down):  9.087E-05 0.000E+00

     total cpu time spent up to now is        2.6 secs

     total energy              =    -181.04311502 Ry
     estimated scf accuracy    <       0.14605351 Ry

     iteration #  3     ecut=    40.00 Ry     beta= 0.10
     Davidson diagonalization with overlap
     ethr =  5.62E-04,  avg # of iterations =  3.7

     negative rho (up, down):  3.650E-04 0.000E+00

     total cpu time spent up to now is        3.4 secs

     total energy              =    -181.03463788 Ry
     estimated scf accuracy    <       0.04442446 Ry

     iteration #  4     ecut=    40.00 Ry     beta= 0.10
     Davidson diagonalization with overlap
     ethr =  1.71E-04,  avg # of iterations =  4.8

     negative rho (up, down):  2.689E-04 0.000E+00

     total cpu time spent up to now is        4.2 secs

     total energy              =    -181.04406818 Ry
     estimated scf accuracy    <       0.07991906 Ry

     iteration #  5     ecut=    40.00 Ry     beta= 0.10
     Davidson diagonalization with overlap
     ethr =  1.71E-04,  avg # of iterations =  1.1

     negative rho (up, down):  4.352E-04 0.000E+00

     total cpu time spent up to now is        4.9 secs

     total energy              =    -181.04005185 Ry
     estimated scf accuracy    <       0.03421437 Ry

     iteration #  6     ecut=    40.00 Ry     beta= 0.10
     Davidson diagonalization with overlap
     ethr =  1.32E-04,  avg # of iterations =  1.1

     negative rho (up, down):  5.085E-04 0.000E+00

     total cpu time spent up to now is        5.6 secs

     total energy              =    -181.04100587 Ry
     estimated scf accuracy    <       0.00594904 Ry

     iteration #  7     ecut=    40.00 Ry     beta= 0.10
     Davidson diagonalization with overlap
     ethr =  2.29E-05,  avg # of iterations =  3.5

     negative rho (up, down):  5.953E-04 0.000E+00

     total cpu time spent up to now is        6.4 secs

     total energy              =    -181.04168281 Ry
     estimated scf accuracy    <       0.00104677 Ry

     iteration #  8     ecut=    40.00 Ry     beta= 0.10
     Davidson diagonalization with overlap
     ethr =  4.03E-06,  avg # of iterations =  4.2

     negative rho (up, down):  5.128E-04 0.000E+00

     total cpu time spent up to now is        7.2 secs

     total energy              =    -181.04189525 Ry
     estimated scf accuracy    <       0.00127539 Ry

     iteration #  9     ecut=    40.00 Ry     beta= 0.10
     Davidson diagonalization with overlap
     ethr =  4.03E-06,  avg # of iterations =  1.0

     negative rho (up, down):  4.769E-04 0.000E+00

     total cpu time spent up to now is        7.9 secs

     total energy              =    -181.04144197 Ry
     estimated scf accuracy    <       0.00124484 Ry

     iteration # 10     ecut=    40.00 Ry     beta= 0.10
     Davidson diagonalization with overlap
     ethr =  4.03E-06,  avg # of iterations =  2.1

     negative rho (up, down):  4.244E-04 0.000E+00

     total cpu time spent up to now is        8.7 secs

     total energy              =    -181.04160510 Ry
     estimated scf accuracy    <       0.00014750 Ry

     iteration # 11     ecut=    40.00 Ry     beta= 0.10
     Davidson diagonalization with overlap
     ethr =  5.67E-07,  avg # of iterations =  1.0

     negative rho (up, down):  3.806E-04 0.000E+00

     total cpu time spent up to now is        9.4 secs

     total energy              =    -181.04159871 Ry
     estimated scf accuracy    <       0.00014828 Ry

     iteration # 12     ecut=    40.00 Ry     beta= 0.10
     Davidson diagonalization with overlap
     ethr =  5.67E-07,  avg # of iterations =  1.1

     negative rho (up, down):  3.437E-04 0.000E+00

     total cpu time spent up to now is       10.1 secs

     total energy              =    -181.04157543 Ry
     estimated scf accuracy    <       0.00011236 Ry

     iteration # 13     ecut=    40.00 Ry     beta= 0.10
     Davidson diagonalization with overlap
     ethr =  4.32E-07,  avg # of iterations =  1.2

     negative rho (up, down):  3.130E-04 0.000E+00

     total cpu time spent up to now is       10.8 secs

     total energy              =    -181.04157355 Ry
     estimated scf accuracy    <       0.00050118 Ry

     iteration # 14     ecut=    40.00 Ry     beta= 0.10
     Davidson diagonalization with overlap
     ethr =  4.32E-07,  avg # of iterations =  1.1

     negative rho (up, down):  2.780E-04 0.000E+00

     total cpu time spent up to now is       11.5 secs

     total energy              =    -181.04157950 Ry
     estimated scf accuracy    <       0.00001387 Ry

     iteration # 15     ecut=    40.00 Ry     beta= 0.10
     Davidson diagonalization with overlap
     ethr =  5.33E-08,  avg # of iterations =  1.2

     negative rho (up, down):  2.499E-04 0.000E+00

     total cpu time spent up to now is       12.2 secs

     total energy              =    -181.04153104 Ry
     estimated scf accuracy    <       0.00082337 Ry

     iteration # 16     ecut=    40.00 Ry     beta= 0.10
     Davidson diagonalization with overlap
     ethr =  5.33E-08,  avg # of iterations =  2.7

     negative rho (up, down):  2.249E-04 0.000E+00

     total cpu time spent up to now is       12.9 secs

     total energy              =    -181.04158174 Ry
     estimated scf accuracy    <       0.00005324 Ry

     iteration # 17     ecut=    40.00 Ry     beta= 0.10
     Davidson diagonalization with overlap
     ethr =  5.33E-08,  avg # of iterations =  1.0

     negative rho (up, down):  2.021E-04 0.000E+00

     total cpu time spent up to now is       13.6 secs

     total energy              =    -181.04158488 Ry
     estimated scf accuracy    <       0.00003489 Ry

     iteration # 18     ecut=    40.00 Ry     beta= 0.10
     Davidson diagonalization with overlap
     ethr =  5.33E-08,  avg # of iterations =  1.1

     negative rho (up, down):  1.822E-04 0.000E+00

     total cpu time spent up to now is       14.3 secs

     total energy              =    -181.04158383 Ry
     estimated scf accuracy    <       0.00004504 Ry

     iteration # 19     ecut=    40.00 Ry     beta= 0.10
     Davidson diagonalization with overlap
     ethr =  5.33E-08,  avg # of iterations =  1.0

     negative rho (up, down):  1.651E-04 0.000E+00

     total cpu time spent up to now is       15.0 secs

     total energy              =    -181.04158764 Ry
     estimated scf accuracy    <       0.00004011 Ry

     iteration # 20     ecut=    40.00 Ry     beta= 0.10
     Davidson diagonalization with overlap
     ethr =  5.33E-08,  avg # of iterations =  1.0

     negative rho (up, down):  1.498E-04 0.000E+00

     total cpu time spent up to now is       15.7 secs

     total energy              =    -181.04158562 Ry
     estimated scf accuracy    <       0.00005560 Ry

     iteration # 21     ecut=    40.00 Ry     beta= 0.10
     Davidson diagonalization with overlap
     ethr =  5.33E-08,  avg # of iterations =  1.1

     negative rho (up, down):  1.364E-04 0.000E+00

     total cpu time spent up to now is       16.4 secs

     total energy              =    -181.04158555 Ry
     estimated scf accuracy    <       0.00004670 Ry

     iteration # 22     ecut=    40.00 Ry     beta= 0.10
     Davidson diagonalization with overlap
     ethr =  5.33E-08,  avg # of iterations =  1.0

     negative rho (up, down):  1.249E-04 0.000E+00

     total cpu time spent up to now is       17.1 secs

     total energy              =    -181.04158600 Ry
     estimated scf accuracy    <       0.00004576 Ry

     iteration # 23     ecut=    40.00 Ry     beta= 0.10
     Davidson diagonalization with overlap
     ethr =  5.33E-08,  avg # of iterations =  1.1

     negative rho (up, down):  1.149E-04 0.000E+00

     total cpu time spent up to now is       17.8 secs

     total energy              =    -181.04158602 Ry
     estimated scf accuracy    <       0.00004724 Ry

     iteration # 24     ecut=    40.00 Ry     beta= 0.10
     Davidson diagonalization with overlap
     ethr =  5.33E-08,  avg # of iterations =  1.0

     negative rho (up, down):  1.044E-04 0.000E+00

     total cpu time spent up to now is       18.5 secs

     total energy              =    -181.04156569 Ry
     estimated scf accuracy    <       0.00004745 Ry

     iteration # 25     ecut=    40.00 Ry     beta= 0.10
     Davidson diagonalization with overlap
     ethr =  5.33E-08,  avg # of iterations =  2.8

     negative rho (up, down):  9.767E-05 0.000E+00

     total cpu time spent up to now is       19.2 secs

     total energy              =    -181.04147104 Ry
     estimated scf accuracy    <       0.00364432 Ry

     iteration # 26     ecut=    40.00 Ry     beta= 0.10
     Davidson diagonalization with overlap
     ethr =  5.33E-08,  avg # of iterations =  3.0

     negative rho (up, down):  9.116E-05 0.000E+00

     total cpu time spent up to now is       20.0 secs

     total energy              =    -181.04158451 Ry
     estimated scf accuracy    <       0.00004140 Ry

     iteration # 27     ecut=    40.00 Ry     beta= 0.10
     Davidson diagonalization with overlap
     ethr =  5.33E-08,  avg # of iterations =  1.1

     negative rho (up, down):  8.561E-05 0.000E+00

     total cpu time spent up to now is       20.7 secs

     total energy              =    -181.04158454 Ry
     estimated scf accuracy    <       0.00003994 Ry

     iteration # 28     ecut=    40.00 Ry     beta= 0.10
     Davidson diagonalization with overlap
     ethr =  5.33E-08,  avg # of iterations =  1.0

     negative rho (up, down):  8.090E-05 0.000E+00

     total cpu time spent up to now is       21.4 secs

     total energy              =    -181.04158300 Ry
     estimated scf accuracy    <       0.00004026 Ry

     iteration # 29     ecut=    40.00 Ry     beta= 0.10
     Davidson diagonalization with overlap
     ethr =  5.33E-08,  avg # of iterations =  1.0

     negative rho (up, down):  7.701E-05 0.000E+00

     total cpu time spent up to now is       22.1 secs

     total energy              =    -181.04158705 Ry
     estimated scf accuracy    <       0.00003492 Ry

     iteration # 30     ecut=    40.00 Ry     beta= 0.10
     Davidson diagonalization with overlap
     ethr =  5.33E-08,  avg # of iterations =  1.0

     negative rho (up, down):  7.358E-05 0.000E+00

     total cpu time spent up to now is       22.8 secs

     total energy              =    -181.04158493 Ry
     estimated scf accuracy    <       0.00005172 Ry

     iteration # 31     ecut=    40.00 Ry     beta= 0.10
     Davidson diagonalization with overlap
     ethr =  5.33E-08,  avg # of iterations =  1.0

     negative rho (up, down):  7.076E-05 0.000E+00

     total cpu time spent up to now is       23.5 secs

     total energy              =    -181.04158369 Ry
     estimated scf accuracy    <       0.00004336 Ry

     iteration # 32     ecut=    40.00 Ry     beta= 0.10
     Davidson diagonalization with overlap
     ethr =  5.33E-08,  avg # of iterations =  1.0

     negative rho (up, down):  6.840E-05 0.000E+00

     total cpu time spent up to now is       24.2 secs

     total energy              =    -181.04158288 Ry
     estimated scf accuracy    <       0.00003779 Ry

     iteration # 33     ecut=    40.00 Ry     beta= 0.10
     Davidson diagonalization with overlap
     ethr =  5.33E-08,  avg # of iterations =  1.0

     negative rho (up, down):  6.643E-05 0.000E+00

     total cpu time spent up to now is       24.9 secs

     total energy              =    -181.04158344 Ry
     estimated scf accuracy    <       0.00003434 Ry

     iteration # 34     ecut=    40.00 Ry     beta= 0.10
     Davidson diagonalization with overlap
     ethr =  5.33E-08,  avg # of iterations =  1.0

     negative rho (up, down):  6.431E-05 0.000E+00

     total cpu time spent up to now is       25.6 secs

     total energy              =    -181.04156800 Ry
     estimated scf accuracy    <       0.00003618 Ry

     iteration # 35     ecut=    40.00 Ry     beta= 0.10
     Davidson diagonalization with overlap
     ethr =  5.33E-08,  avg # of iterations =  2.6

     negative rho (up, down):  6.301E-05 0.000E+00

     total cpu time spent up to now is       26.3 secs

     total energy              =    -181.04151156 Ry
     estimated scf accuracy    <       0.00362692 Ry

     iteration # 36     ecut=    40.00 Ry     beta= 0.10
     Davidson diagonalization with overlap
     ethr =  5.33E-08,  avg # of iterations =  2.0

     negative rho (up, down):  6.192E-05 0.000E+00

     total cpu time spent up to now is       27.1 secs

     total energy              =    -181.04158067 Ry
     estimated scf accuracy    <       0.00002511 Ry

     iteration # 37     ecut=    40.00 Ry     beta= 0.10
     Davidson diagonalization with overlap
     ethr =  5.33E-08,  avg # of iterations =  1.0

     negative rho (up, down):  6.106E-05 0.000E+00

     total cpu time spent up to now is       27.8 secs

     total energy              =    -181.04158044 Ry
     estimated scf accuracy    <       0.00002397 Ry

     iteration # 38     ecut=    40.00 Ry     beta= 0.10
     Davidson diagonalization with overlap
     ethr =  5.33E-08,  avg # of iterations =  1.0

     negative rho (up, down):  6.034E-05 0.000E+00

     total cpu time spent up to now is       28.5 secs

     total energy              =    -181.04157971 Ry
     estimated scf accuracy    <       0.00002325 Ry

     iteration # 39     ecut=    40.00 Ry     beta= 0.10
     Davidson diagonalization with overlap
     ethr =  5.33E-08,  avg # of iterations =  1.0

     negative rho (up, down):  5.978E-05 0.000E+00

     total cpu time spent up to now is       29.2 secs

     total energy              =    -181.04157953 Ry
     estimated scf accuracy    <       0.00002060 Ry

     iteration # 40     ecut=    40.00 Ry     beta= 0.10
     Davidson diagonalization with overlap
     ethr =  5.33E-08,  avg # of iterations =  1.0

     negative rho (up, down):  5.934E-05 0.000E+00

     total cpu time spent up to now is       29.9 secs

     total energy              =    -181.04158043 Ry
     estimated scf accuracy    <       0.00001975 Ry

     iteration # 41     ecut=    40.00 Ry     beta= 0.10
     Davidson diagonalization with overlap
     ethr =  5.33E-08,  avg # of iterations =  1.0

     negative rho (up, down):  5.899E-05 0.000E+00

     total cpu time spent up to now is       30.6 secs

     total energy              =    -181.04158124 Ry
     estimated scf accuracy    <       0.00002334 Ry

     iteration # 42     ecut=    40.00 Ry     beta= 0.10
     Davidson diagonalization with overlap
     ethr =  5.33E-08,  avg # of iterations =  1.0

     negative rho (up, down):  5.872E-05 0.000E+00

     total cpu time spent up to now is       31.3 secs

     total energy              =    -181.04158052 Ry
     estimated scf accuracy    <       0.00002670 Ry

     iteration # 43     ecut=    40.00 Ry     beta= 0.10
     Davidson diagonalization with overlap
     ethr =  5.33E-08,  avg # of iterations =  1.0

     negative rho (up, down):  5.846E-05 0.000E+00

     total cpu time spent up to now is       32.0 secs

     total energy              =    -181.04158042 Ry
     estimated scf accuracy    <       0.00002407 Ry

     iteration # 44     ecut=    40.00 Ry     beta= 0.10
     Davidson diagonalization with overlap
     ethr =  5.33E-08,  avg # of iterations =  1.0

     negative rho (up, down):  5.819E-05 0.000E+00

     total cpu time spent up to now is       32.7 secs

     total energy              =    -181.04156982 Ry
     estimated scf accuracy    <       0.00002352 Ry

     iteration # 45     ecut=    40.00 Ry     beta= 0.10
     Davidson diagonalization with overlap
     ethr =  5.33E-08,  avg # of iterations =  2.1

     negative rho (up, down):  5.791E-05 0.000E+00

     total cpu time spent up to now is       33.4 secs

     total energy              =    -181.04153820 Ry
     estimated scf accuracy    <       0.00366334 Ry

     iteration # 46     ecut=    40.00 Ry     beta= 0.10
     Davidson diagonalization with overlap
     ethr =  5.33E-08,  avg # of iterations =  2.0

     negative rho (up, down):  5.779E-05 0.000E+00

     total cpu time spent up to now is       34.2 secs

     total energy              =    -181.04157884 Ry
     estimated scf accuracy    <       0.00001628 Ry

     iteration # 47     ecut=    40.00 Ry     beta= 0.10
     Davidson diagonalization with overlap
     ethr =  5.33E-08,  avg # of iterations =  1.0

     negative rho (up, down):  5.769E-05 0.000E+00

     total cpu time spent up to now is       34.8 secs

     total energy              =    -181.04158003 Ry
     estimated scf accuracy    <       0.00001520 Ry

     iteration # 48     ecut=    40.00 Ry     beta= 0.10
     Davidson diagonalization with overlap
     ethr =  5.33E-08,  avg # of iterations =  1.0

     negative rho (up, down):  5.762E-05 0.000E+00

     total cpu time spent up to now is       35.6 secs

     total energy              =    -181.04158038 Ry
     estimated scf accuracy    <       0.00002176 Ry

     iteration # 49     ecut=    40.00 Ry     beta= 0.10
     Davidson diagonalization with overlap
     ethr =  5.33E-08,  avg # of iterations =  1.0

     negative rho (up, down):  5.755E-05 0.000E+00

     total cpu time spent up to now is       36.3 secs

     total energy              =    -181.04158089 Ry
     estimated scf accuracy    <       0.00002271 Ry

     iteration # 50     ecut=    40.00 Ry     beta= 0.10
     Davidson diagonalization with overlap
     ethr =  5.33E-08,  avg # of iterations =  1.0

     negative rho (up, down):  5.750E-05 0.000E+00

     total cpu time spent up to now is       37.0 secs

     total energy              =    -181.04158076 Ry
     estimated scf accuracy    <       0.00002512 Ry

     iteration # 51     ecut=    40.00 Ry     beta= 0.10
     Davidson diagonalization with overlap
     ethr =  5.33E-08,  avg # of iterations =  1.0

     negative rho (up, down):  5.745E-05 0.000E+00

     total cpu time spent up to now is       37.7 secs

     total energy              =    -181.04158066 Ry
     estimated scf accuracy    <       0.00002468 Ry

     iteration # 52     ecut=    40.00 Ry     beta= 0.10
     Davidson diagonalization with overlap
     ethr =  5.33E-08,  avg # of iterations =  1.0

     negative rho (up, down):  5.741E-05 0.000E+00

     total cpu time spent up to now is       38.4 secs

     total energy              =    -181.04158113 Ry
     estimated scf accuracy    <       0.00002439 Ry

     iteration # 53     ecut=    40.00 Ry     beta= 0.10
     Davidson diagonalization with overlap
     ethr =  5.33E-08,  avg # of iterations =  1.0

     negative rho (up, down):  5.739E-05 0.000E+00

     total cpu time spent up to now is       39.1 secs

     total energy              =    -181.04157945 Ry
     estimated scf accuracy    <       0.00002629 Ry

     iteration # 54     ecut=    40.00 Ry     beta= 0.10
     Davidson diagonalization with overlap
     ethr =  5.33E-08,  avg # of iterations =  1.0

     negative rho (up, down):  5.739E-05 0.000E+00

     total cpu time spent up to now is       39.7 secs

     total energy              =    -181.04157098 Ry
     estimated scf accuracy    <       0.00002007 Ry

     iteration # 55     ecut=    40.00 Ry     beta= 0.10
     Davidson diagonalization with overlap
     ethr =  5.33E-08,  avg # of iterations =  2.0

     negative rho (up, down):  5.728E-05 0.000E+00

     total cpu time spent up to now is       40.5 secs

     total energy              =    -181.04155101 Ry
     estimated scf accuracy    <       0.00362475 Ry

     iteration # 56     ecut=    40.00 Ry     beta= 0.10
     Davidson diagonalization with overlap
     ethr =  5.33E-08,  avg # of iterations =  2.0

     negative rho (up, down):  5.727E-05 0.000E+00

     total cpu time spent up to now is       41.2 secs

     total energy              =    -181.04157837 Ry
     estimated scf accuracy    <       0.00000445 Ry

     iteration # 57     ecut=    40.00 Ry     beta= 0.10
     Davidson diagonalization with overlap
     ethr =  1.71E-08,  avg # of iterations =  1.0

     negative rho (up, down):  5.726E-05 0.000E+00

     total cpu time spent up to now is       41.9 secs

     total energy              =    -181.04157844 Ry
     estimated scf accuracy    <       0.00000591 Ry

     iteration # 58     ecut=    40.00 Ry     beta= 0.10
     Davidson diagonalization with overlap
     ethr =  1.71E-08,  avg # of iterations =  1.0

     negative rho (up, down):  5.726E-05 0.000E+00

     total cpu time spent up to now is       42.6 secs

     total energy              =    -181.04157842 Ry
     estimated scf accuracy    <       0.00000708 Ry

     iteration # 59     ecut=    40.00 Ry     beta= 0.10
     Davidson diagonalization with overlap
     ethr =  1.71E-08,  avg # of iterations =  1.0

     negative rho (up, down):  5.726E-05 0.000E+00

     total cpu time spent up to now is       43.3 secs

     total energy              =    -181.04157829 Ry
     estimated scf accuracy    <       0.00000593 Ry

     iteration # 60     ecut=    40.00 Ry     beta= 0.10
     Davidson diagonalization with overlap
     ethr =  1.71E-08,  avg # of iterations =  1.0

     negative rho (up, down):  5.729E-05 0.000E+00

     total cpu time spent up to now is       44.0 secs

     End of self-consistent calculation

          k = 0.0000 0.0000 0.0000 (  5321 PWs)   bands (ev):

   -60.6960 -35.2710 -35.2710 -34.8916 -18.7205 -12.6045  -8.2262  -7.7662
    -7.7662  -4.1115  -4.1115   0.5582   1.9046   2.2476   2.2476   2.8703
     4.2620   4.4836

     occupation numbers 
     1.0000   1.0000   1.0000   1.0000   1.0000   1.0000   1.0000   1.0000
     1.0000   1.0000   1.0000   0.0000   0.0000   0.0000   0.0000   0.0000
     0.0000   0.0000

          k = 0.0000 0.1283 0.0000 (  5259 PWs)   bands (ev):

   -60.6904 -35.3457 -35.2855 -34.8797 -18.5215 -12.6544  -8.3537  -7.6148
    -7.5107  -4.3511  -4.2521   0.6281   1.4431   2.2697   2.7302   3.4352
     3.8328   3.9997

     occupation numbers 
     1.0000   1.0000   1.0000   1.0000   1.0000   1.0000   1.0000   1.0000
     1.0000   1.0000   1.0000   0.0000   0.0000   0.0000   0.0000   0.0000
     0.0000   0.0000

          k = 0.0000 0.2566 0.0000 (  5251 PWs)   bands (ev):

   -60.6762 -35.5300 -35.3220 -34.8495 -18.0246 -12.7804  -8.5861  -7.1296
    -6.7927  -4.8592  -4.5681   0.0560   0.4262   2.9526   2.9974   3.2255
     3.8919   4.8331

     occupation numbers 
     1.0000   1.0000   1.0000   1.0000   1.0000   1.0000   1.0000   1.0000
     1.0000   1.0000   1.0000   1.0000   0.0000   0.0000   0.0000   0.0000
     0.0000   0.0000

          k = 0.0000 0.3849 0.0000 (  5257 PWs)   bands (ev):

   -60.6600 -35.7316 -35.3631 -34.8149 -17.4795 -12.9228  -8.5668  -6.5260
    -5.7855  -5.3269  -4.8937  -1.2814   0.1929   1.7826   1.9464   4.2291
     5.1785   5.6131

     occupation numbers 
     1.0000   1.0000   1.0000   1.0000   1.0000   1.0000   1.0000   1.0000
     1.0000   1.0000   1.0000   1.0000   1.0000   0.0000   0.0000   0.0000
     0.0000   0.0000

          k = 0.0000 0.5132 0.0000 (  5278 PWs)   bands (ev):

   -60.6495 -35.8591 -35.3897 -34.7921 -17.1426 -13.0151  -8.2756  -6.2854
    -5.5910  -5.0990  -4.9193  -1.6299   0.1430   0.3571   0.8677   5.0077
     6.0145   6.3004

     occupation numbers 
     1.0000   1.0000   1.0000   1.0000   1.0000   1.0000   1.0000   1.0000
     1.0000   1.0000   1.0000   1.0000   1.0000   0.9544   0.0000   0.0000
     0.0000   0.0000

          k = 0.1111 0.1925 0.0000 (  5244 PWs)   bands (ev):

   -60.6805 -35.4694 -35.3167 -34.8586 -18.1725 -12.7408  -8.5216  -7.3534
    -6.9704  -4.8935  -4.2932   0.4848   0.6061   2.3960   3.0041   3.5474
     3.7626   4.6394

     occupation numbers 
     1.0000   1.0000   1.0000   1.0000   1.0000   1.0000   1.0000   1.0000
     1.0000   1.0000   1.0000   0.0000   0.0000   0.0000   0.0000   0.0000
     0.0000   0.0000

          k = 0.1111 0.3208 0.0000 (  5277 PWs)   bands (ev):

   -60.6653 -35.6490 -35.3685 -34.8262 -17.6464 -12.8665  -8.5762  -6.8202
    -6.0985  -5.6478  -4.2696  -0.9098   0.3596   1.6915   2.9128   3.1785
     5.2081   5.3834

     occupation numbers 
     1.0000   1.0000   1.0000   1.0000   1.0000   1.0000   1.0000   1.0000
     1.0000   1.0000   1.0000   1.0000   0.0228   0.0000   0.0000   0.0000
     0.0000   0.0000

          k = 0.1111 0.4491 0.0000 (  5293 PWs)   bands (ev):

   -60.6520 -35.8012 -35.4143 -34.7975 -17.2010 -12.9706  -8.3017  -6.3246
    -6.2263  -5.2540  -4.2258  -1.8735   0.1224   0.2499   2.0302   4.3177
     6.1189   6.2138

     occupation numbers 
     1.0000   1.0000   1.0000   1.0000   1.0000   1.0000   1.0000   1.0000
     1.0000   1.0000   1.0000   1.0000   1.0000   1.0000   0.0000   0.0000
     0.0000   0.0000

          k = 0.1111-0.5774 0.0000 (  5300 PWs)   bands (ev):

   -60.6467 -35.8600 -35.4323 -34.7861 -17.0323 -13.0101  -8.0169  -6.4384
    -6.2821  -4.8512  -4.2059  -1.9806  -0.5814   0.0485   1.6352   4.9561
     6.0204   6.3403

     occupation numbers 
     1.0000   1.0000   1.0000   1.0000   1.0000   1.0000   1.0000   1.0000
     1.0000   1.0000   1.0000   1.0000   1.0000   1.0000   0.0000   0.0000
     0.0000   0.0000

          k = 0.2222 0.3849 0.0000 (  5284 PWs)   bands (ev):

   -60.6529 -35.7557 -35.4479 -34.7996 -17.2141 -12.9398  -8.2555  -6.5374
    -6.3904  -5.4230  -3.7353  -2.0033   0.1311   0.2048   2.5133   3.7268
     6.2196   6.4671

     occupation numbers 
     1.0000   1.0000   1.0000   1.0000   1.0000   1.0000   1.0000   1.0000
     1.0000   1.0000   1.0000   1.0000   1.0000   1.0000   0.0000   0.0000
     0.0000   0.0000

          k = 0.2222-0.6415 0.0000 (  5280 PWs)   bands (ev):

   -60.6448 -35.8140 -35.5099 -34.7822 -16.9350 -12.9732  -7.6273  -7.0683
    -6.1750  -5.3340  -3.3043  -2.4954  -0.9028  -0.2064   2.5594   4.6072
     6.2181   6.4282

     occupation numbers 
     1.0000   1.0000   1.0000   1.0000   1.0000   1.0000   1.0000   1.0000
     1.0000   1.0000   1.0000   1.0000   1.0000   1.0000   0.0000   0.0000
     0.0000   0.0000

          k = 0.3333-0.5774 0.0000 (  5268 PWs)   bands (ev):

   -60.6420 -35.7987 -35.5685 -34.7762 -16.8250 -12.9632  -7.3867  -6.7632
    -6.3218  -5.9498  -2.8111  -2.5264  -1.4147  -0.5112   3.1064   4.8869
     5.6570   6.4496

     occupation numbers 
     1.0000   1.0000   1.0000   1.0000   1.0000   1.0000   1.0000   1.0000
     1.0000   1.0000   1.0000   1.0000   1.0000   1.0000   0.0000   0.0000
     0.0000   0.0000

     the Fermi energy is     0.3582 ev

!    total energy              =    -181.04157749 Ry
     estimated scf accuracy    <       0.00000095 Ry
     smearing contrib. (-TS)   =      -0.00000027 Ry
     internal energy E=F+TS    =    -181.04157722 Ry

     The total energy is F=E-TS. E is the sum of the following terms:
     one-electron contribution =   -1217.85443236 Ry
     hartree contribution      =     609.41108890 Ry
     xc contribution           =     -30.70715578 Ry
     ewald contribution        =     458.10892202 Ry

     convergence has been achieved in  60 iterations

     negative rho (up, down):  5.729E-05 0.000E+00

     Forces acting on atoms (cartesian axes, Ry/au):

     atom    1 type  1   force =     0.00000000    0.00000000    0.00000000
     atom    2 type  2   force =     0.00000000    0.00000000    0.46951122
     atom    3 type  2   force =     0.00000000    0.00000000   -0.46951122
     The non-local contrib.  to forces
     atom    1 type  1   force =     0.00000000    0.00000000    0.00000000
     atom    2 type  2   force =     0.00000000   -0.00000000   -0.17530962
     atom    3 type  2   force =     0.00000000    0.00000000    0.17530962
     The ionic contribution  to forces
     atom    1 type  1   force =    -0.00000005   -0.00000003    0.00000000
     atom    2 type  2   force =     0.00000002    0.00000001   33.43263455
     atom    3 type  2   force =     0.00000002    0.00000001  -33.43263455
     The local contribution  to forces
     atom    1 type  1   force =    -0.00000000    0.00000000    0.00000000
     atom    2 type  2   force =     0.00000002    0.00000001  -32.78438669
     atom    3 type  2   force =     0.00000002    0.00000001   32.78438669
     The core correction contribution to forces
     atom    1 type  1   force =     0.00000000   -0.00000000   -0.00000000
     atom    2 type  2   force =    -0.00000000   -0.00000000   -0.00520375
     atom    3 type  2   force =    -0.00000000   -0.00000000    0.00520375
     The Hubbard contrib.    to forces
     atom    1 type  1   force =     0.00000000    0.00000000    0.00000000
     atom    2 type  2   force =     0.00000000    0.00000000    0.00000000
     atom    3 type  2   force =     0.00000000    0.00000000    0.00000000
     The SCF correction term to forces
     atom    1 type  1   force =    -0.00000000   -0.00000000   -0.00000000
     atom    2 type  2   force =     0.00000000    0.00000000    0.00177673
     atom    3 type  2   force =     0.00000000    0.00000000   -0.00177673

     Total force =     0.663989     Total SCF correction =     0.002513

     BFGS Geometry Optimization
     Energy error            =      0.0E+00
     Gradient error          =      4.7E-01

     number of scf cycles    =   1
     number of bfgs steps    =   0

     energy   new            =    -181.0415774884 Ry

     new trust radius        =       0.4695112173 bohr
     new conv_thr            =       0.0000010000 Ry


ATOMIC_POSITIONS (crystal)
Mo            0.0000000000        0.0000000000        0.5000000000    0   0   0
S             0.6666666660        0.6666666660        0.5624227318    0   0   1
S             0.6666666660        0.6666666660        0.4375772682    0   0   1



     Writing output data file ./outdir/MoS2.save/
     NEW-OLD atomic charge density approx. for the potential

     negative rho (up, down):  6.114E-05 0.000E+00

     total cpu time spent up to now is       45.4 secs

     Self-consistent Calculation

     iteration #  1     ecut=    40.00 Ry     beta= 0.10
     Davidson diagonalization with overlap
     ethr =  1.00E-06,  avg # of iterations = 13.1

     negative rho (up, down):  5.789E-05 0.000E+00

     total cpu time spent up to now is       47.0 secs

     total energy              =    -181.42843275 Ry
     estimated scf accuracy    <       0.25972720 Ry

     iteration #  2     ecut=    40.00 Ry     beta= 0.10
     Davidson diagonalization with overlap
     ethr =  9.99E-04,  avg # of iterations =  1.0

     negative rho (up, down):  5.804E-05 0.000E+00

     total cpu time spent up to now is       47.7 secs

     total energy              =    -181.40826294 Ry
     estimated scf accuracy    <       0.08322964 Ry

     iteration #  3     ecut=    40.00 Ry     beta= 0.10
     Davidson diagonalization with overlap
     ethr =  3.20E-04,  avg # of iterations =  2.4

     negative rho (up, down):  5.754E-05 0.000E+00

     total cpu time spent up to now is       48.5 secs

     total energy              =    -181.42375935 Ry
     estimated scf accuracy    <       0.00697713 Ry

     iteration #  4     ecut=    40.00 Ry     beta= 0.10
     Davidson diagonalization with overlap
     ethr =  2.68E-05,  avg # of iterations =  2.9

     negative rho (up, down):  1.002E-04 0.000E+00

     total cpu time spent up to now is       49.2 secs

     total energy              =    -181.42461621 Ry
     estimated scf accuracy    <       0.00575390 Ry

     iteration #  5     ecut=    40.00 Ry     beta= 0.10
     Davidson diagonalization with overlap
     ethr =  2.21E-05,  avg # of iterations =  1.2

     negative rho (up, down):  9.313E-05 0.000E+00

     total cpu time spent up to now is       49.9 secs

     total energy              =    -181.42514054 Ry
     estimated scf accuracy    <       0.00026909 Ry

     iteration #  6     ecut=    40.00 Ry     beta= 0.10
     Davidson diagonalization with overlap
     ethr =  1.03E-06,  avg # of iterations =  3.3

     negative rho (up, down):  9.351E-05 0.000E+00

     total cpu time spent up to now is       50.7 secs

     total energy              =    -181.42507630 Ry
     estimated scf accuracy    <       0.00033948 Ry

     iteration #  7     ecut=    40.00 Ry     beta= 0.10
     Davidson diagonalization with overlap
     ethr =  1.03E-06,  avg # of iterations =  2.0

     negative rho (up, down):  8.810E-05 0.000E+00

     total cpu time spent up to now is       51.4 secs

     total energy              =    -181.42508788 Ry
     estimated scf accuracy    <       0.00010851 Ry

     iteration #  8     ecut=    40.00 Ry     beta= 0.10
     Davidson diagonalization with overlap
     ethr =  4.17E-07,  avg # of iterations =  2.0

     negative rho (up, down):  8.287E-05 0.000E+00

     total cpu time spent up to now is       52.2 secs

     total energy              =    -181.42509725 Ry
     estimated scf accuracy    <       0.00001840 Ry

     iteration #  9     ecut=    40.00 Ry     beta= 0.10
     Davidson diagonalization with overlap
     ethr =  7.08E-08,  avg # of iterations =  2.0

     negative rho (up, down):  7.746E-05 0.000E+00

     total cpu time spent up to now is       52.9 secs

     total energy              =    -181.42509851 Ry
     estimated scf accuracy    <       0.00000186 Ry

     iteration # 10     ecut=    40.00 Ry     beta= 0.10
     Davidson diagonalization with overlap
     ethr =  7.15E-09,  avg # of iterations =  3.1

     negative rho (up, down):  4.703E-05 0.000E+00

     total cpu time spent up to now is       53.7 secs

     End of self-consistent calculation

          k = 0.0000 0.0000 0.0000 (  5321 PWs)   bands (ev):

   -62.1767 -36.3728 -36.3728 -36.3491 -16.7255 -13.6697  -7.7684  -6.1520
    -6.1520  -4.1895  -4.1895  -1.6839   0.0446   1.3778   1.3778   2.6272
     2.6272   3.6068

     occupation numbers 
     1.0000   1.0000   1.0000   1.0000   1.0000   1.0000   1.0000   1.0000
     1.0000   1.0000   1.0000   1.0000   0.0000   0.0000   0.0000   0.0000
     0.0000   0.0000

          k = 0.0000 0.1283 0.0000 (  5259 PWs)   bands (ev):

   -62.1725 -36.4212 -36.3832 -36.3399 -16.5443 -13.6650  -7.6592  -6.3289
    -5.9331  -4.5011  -4.4358  -1.4789  -0.2975   1.2751   1.7878   2.2564
     2.3098   4.3366

     occupation numbers 
     1.0000   1.0000   1.0000   1.0000   1.0000   1.0000   1.0000   1.0000
     1.0000   1.0000   1.0000   1.0000   0.0000   0.0000   0.0000   0.0000
     0.0000   0.0000

          k = 0.0000 0.2566 0.0000 (  5251 PWs)   bands (ev):

   -62.1621 -36.5421 -36.4095 -36.3163 -16.0736 -13.6527  -7.6252  -6.3489
    -5.3271  -5.0898  -4.9528  -1.4828  -1.3064   1.6151   1.6671   1.8675
     2.7083   5.1229

     occupation numbers 
     1.0000   1.0000   1.0000   1.0000   1.0000   1.0000   1.0000   1.0000
     1.0000   1.0000   1.0000   1.0000   1.0000   0.0000   0.0000   0.0000
     0.0000   0.0000

          k = 0.0000 0.3849 0.0000 (  5257 PWs)   bands (ev):

   -62.1502 -36.6764 -36.4392 -36.2893 -15.5156 -13.6380  -7.8013  -5.9771
    -5.6214  -5.4247  -4.5041  -2.2266  -1.7578   0.8883   1.4345   2.5977
     3.6036   5.6392

     occupation numbers 
     1.0000   1.0000   1.0000   1.0000   1.0000   1.0000   1.0000   1.0000
     1.0000   1.0000   1.0000   1.0000   1.0000   0.0000   0.0000   0.0000
     0.0000   0.0000

          k = 0.0000 0.5132 0.0000 (  5278 PWs)   bands (ev):

   -62.1425 -36.7624 -36.4585 -36.2717 -15.1382 -13.6277  -7.8012  -5.9949
    -5.9355  -5.6902  -3.8323  -2.1895  -1.9139   0.3703   0.6875   3.2149
     4.1059   5.3941

     occupation numbers 
     1.0000   1.0000   1.0000   1.0000   1.0000   1.0000   1.0000   1.0000
     1.0000   1.0000   1.0000   1.0000   1.0000   0.0000   0.0000   0.0000
     0.0000   0.0000

          k = 0.1111 0.1925 0.0000 (  5244 PWs)   bands (ev):

   -62.1653 -36.5018 -36.4057 -36.3234 -16.2176 -13.6556  -7.5787  -6.4278
    -5.5179  -5.0339  -4.7225  -1.3354  -0.9934   1.2426   1.7118   2.0112
     2.6013   4.9918

     occupation numbers 
     1.0000   1.0000   1.0000   1.0000   1.0000   1.0000   1.0000   1.0000
     1.0000   1.0000   1.0000   1.0000   1.0000   0.0000   0.0000   0.0000
     0.0000   0.0000

          k = 0.1111 0.3208 0.0000 (  5277 PWs)   bands (ev):

   -62.1541 -36.6198 -36.4431 -36.2982 -15.6985 -13.6367  -7.6795  -6.1188
    -5.8455  -4.9015  -4.8610  -2.0290  -1.5035   0.9940   1.7015   1.7849
     3.6408   5.6283

     occupation numbers 
     1.0000   1.0000   1.0000   1.0000   1.0000   1.0000   1.0000   1.0000
     1.0000   1.0000   1.0000   1.0000   1.0000   0.0000   0.0000   0.0000
     0.0000   0.0000

          k = 0.1111 0.4491 0.0000 (  5293 PWs)   bands (ev):

   -62.1443 -36.7211 -36.4764 -36.2758 -15.2235 -13.6147  -7.6919  -6.4847
    -5.8671  -4.9521  -4.2839  -2.5024  -1.8328   0.3421   1.2745   2.6993
     4.1284   5.8849

     occupation numbers 
     1.0000   1.0000   1.0000   1.0000   1.0000   1.0000   1.0000   1.0000
     1.0000   1.0000   1.0000   1.0000   1.0000   0.0000   0.0000   0.0000
     0.0000   0.0000

          k = 0.1111-0.5774 0.0000 (  5300 PWs)   bands (ev):

   -62.1404 -36.7605 -36.4895 -36.2670 -15.0317 -13.6043  -7.5866  -6.7217
    -6.0142  -4.9532  -3.9867  -2.3642  -1.9731  -0.1426   1.1443   3.2430
     4.0049   5.5697

     occupation numbers 
     1.0000   1.0000   1.0000   1.0000   1.0000   1.0000   1.0000   1.0000
     1.0000   1.0000   1.0000   1.0000   1.0000   0.0000   0.0000   0.0000
     0.0000   0.0000

          k = 0.2222 0.3849 0.0000 (  5284 PWs)   bands (ev):

   -62.1450 -36.6870 -36.5017 -36.2775 -15.2548 -13.6009  -7.5579  -6.7318
    -5.7483  -4.6842  -4.6102  -2.6414  -1.7190   0.3330   1.4954   2.2046
     4.3323   6.2583

     occupation numbers 
     1.0000   1.0000   1.0000   1.0000   1.0000   1.0000   1.0000   1.0000
     1.0000   1.0000   1.0000   1.0000   1.0000   0.0000   0.0000   0.0000
     0.0000   0.0000

          k = 0.2222-0.6415 0.0000 (  5280 PWs)   bands (ev):

   -62.1390 -36.7212 -36.5491 -36.2639 -14.9574 -13.5655  -7.2737  -7.1574
    -5.8024  -4.8833  -4.2813  -2.5192  -2.1040  -0.5401   1.8549   2.9253
     4.1827   6.0142

     occupation numbers 
     1.0000   1.0000   1.0000   1.0000   1.0000   1.0000   1.0000   1.0000
     1.0000   1.0000   1.0000   1.0000   1.0000   0.4167   0.0000   0.0000
     0.0000   0.0000

          k = 0.3333-0.5774 0.0000 (  5268 PWs)   bands (ev):

   -62.1369 -36.6979 -36.6015 -36.2593 -14.8508 -13.5374  -7.5752  -6.3352
    -6.0791  -5.5851  -3.8827  -2.3820  -2.1775  -1.2211   2.4455   3.1231
     4.1127   5.6099

     occupation numbers 
     1.0000   1.0000   1.0000   1.0000   1.0000   1.0000   1.0000   1.0000
     1.0000   1.0000   1.0000   1.0000   1.0000   1.0000   0.0000   0.0000
     0.0000   0.0000

     the Fermi energy is    -0.5401 ev

!    total energy              =    -181.42509881 Ry
     estimated scf accuracy    <       0.00000100 Ry
     smearing contrib. (-TS)   =      -0.00000506 Ry
     internal energy E=F+TS    =    -181.42509375 Ry

     The total energy is F=E-TS. E is the sum of the following terms:
     one-electron contribution =   -1154.81365817 Ry
     hartree contribution      =     577.15536976 Ry
     xc contribution           =     -30.12484114 Ry
     ewald contribution        =     426.35803581 Ry

     convergence has been achieved in  10 iterations

     negative rho (up, down):  4.703E-05 0.000E+00

     Forces acting on atoms (cartesian axes, Ry/au):

     atom    1 type  1   force =     0.00000000   -0.00000000    0.00000000
     atom    2 type  2   force =     0.00000000   -0.00000000    0.27491444
     atom    3 type  2   force =     0.00000000   -0.00000000   -0.27491444
     The non-local contrib.  to forces
     atom    1 type  1   force =     0.00000000    0.00000000    0.00000000
     atom    2 type  2   force =     0.00000000    0.00000000   -0.17449756
     atom    3 type  2   force =    -0.00000000   -0.00000000    0.17449756
     The ionic contribution  to forces
     atom    1 type  1   force =    -0.00000003   -0.00000002    0.00000000
     atom    2 type  2   force =     0.00000002    0.00000001   34.13188451
     atom    3 type  2   force =     0.00000002    0.00000001  -34.13188451
     The local contribution  to forces
     atom    1 type  1   force =    -0.00000000    0.00000000    0.00000000
     atom    2 type  2   force =     0.00000002    0.00000001  -33.68035864
     atom    3 type  2   force =     0.00000002    0.00000001   33.68035864
     The core correction contribution to forces
     atom    1 type  1   force =     0.00000000   -0.00000000   -0.00000000
     atom    2 type  2   force =    -0.00000000   -0.00000000   -0.00141726
     atom    3 type  2   force =    -0.00000000   -0.00000000    0.00141726
     The Hubbard contrib.    to forces
     atom    1 type  1   force =     0.00000000    0.00000000    0.00000000
     atom    2 type  2   force =     0.00000000    0.00000000    0.00000000
     atom    3 type  2   force =     0.00000000    0.00000000    0.00000000
     The SCF correction term to forces
     atom    1 type  1   force =    -0.00000000   -0.00000000    0.00000000
     atom    2 type  2   force =     0.00000000    0.00000000   -0.00069662
     atom    3 type  2   force =     0.00000000    0.00000000    0.00069662

     Total force =     0.388788     Total SCF correction =     0.000985
     Energy error            =      3.8E-01
     Gradient error          =      2.7E-01

     number of scf cycles    =   2
     number of bfgs steps    =   1

     energy   old            =    -181.0415774884 Ry
     energy   new            =    -181.4250988104 Ry

     CASE: energy  _new < energy  _old

     new trust radius        =       0.5164623391 bohr
     new conv_thr            =       0.0000010000 Ry


ATOMIC_POSITIONS (crystal)
Mo            0.0000000000        0.0000000000        0.5000000000    0   0   0
S             0.6666666660        0.6666666660        0.5760877368    0   0   1
S             0.6666666660        0.6666666660        0.4239122632    0   0   1



     Writing output data file ./outdir/MoS2.save/
     NEW-OLD atomic charge density approx. for the potential

     negative rho (up, down):  5.578E-05 0.000E+00

     total cpu time spent up to now is       55.1 secs

     Self-consistent Calculation

     iteration #  1     ecut=    40.00 Ry     beta= 0.10
     Davidson diagonalization with overlap
     c_bands:  1 eigenvalues not converged
     ethr =  1.00E-06,  avg # of iterations = 13.9

     negative rho (up, down):  5.431E-05 0.000E+00

     total cpu time spent up to now is       56.7 secs

     total energy              =    -181.57017216 Ry
     estimated scf accuracy    <       0.03235672 Ry

     iteration #  2     ecut=    40.00 Ry     beta= 0.10
     Davidson diagonalization with overlap
     ethr =  1.24E-04,  avg # of iterations =  1.0

     negative rho (up, down):  5.517E-05 0.000E+00

     total cpu time spent up to now is       57.4 secs

     total energy              =    -181.56962742 Ry
     estimated scf accuracy    <       0.01061323 Ry

     iteration #  3     ecut=    40.00 Ry     beta= 0.10
     Davidson diagonalization with overlap
     ethr =  4.08E-05,  avg # of iterations =  1.4

     negative rho (up, down):  1.189E-04 0.000E+00

     total cpu time spent up to now is       58.1 secs

     total energy              =    -181.56918769 Ry
     estimated scf accuracy    <       0.00434160 Ry

     iteration #  4     ecut=    40.00 Ry     beta= 0.10
     Davidson diagonalization with overlap
     ethr =  1.67E-05,  avg # of iterations =  2.0

     negative rho (up, down):  1.229E-04 0.000E+00

     total cpu time spent up to now is       58.8 secs

     total energy              =    -181.56953984 Ry
     estimated scf accuracy    <       0.00059336 Ry

     iteration #  5     ecut=    40.00 Ry     beta= 0.10
     Davidson diagonalization with overlap
     ethr =  2.28E-06,  avg # of iterations =  3.8

     negative rho (up, down):  1.328E-04 0.000E+00

     total cpu time spent up to now is       59.6 secs

     total energy              =    -181.56960444 Ry
     estimated scf accuracy    <       0.00025425 Ry

     iteration #  6     ecut=    40.00 Ry     beta= 0.10
     Davidson diagonalization with overlap
     ethr =  9.78E-07,  avg # of iterations =  2.0

     negative rho (up, down):  1.231E-04 0.000E+00

     total cpu time spent up to now is       60.4 secs

     total energy              =    -181.56963566 Ry
     estimated scf accuracy    <       0.00008694 Ry

     iteration #  7     ecut=    40.00 Ry     beta= 0.10
     Davidson diagonalization with overlap
     ethr =  3.34E-07,  avg # of iterations =  1.0

     negative rho (up, down):  1.138E-04 0.000E+00

     total cpu time spent up to now is       61.1 secs

     total energy              =    -181.56962344 Ry
     estimated scf accuracy    <       0.00002903 Ry

     iteration #  8     ecut=    40.00 Ry     beta= 0.10
     Davidson diagonalization with overlap
     ethr =  1.12E-07,  avg # of iterations =  2.0

     negative rho (up, down):  1.037E-04 0.000E+00

     total cpu time spent up to now is       61.8 secs

     total energy              =    -181.56963279 Ry
     estimated scf accuracy    <       0.00000248 Ry

     iteration #  9     ecut=    40.00 Ry     beta= 0.10
     Davidson diagonalization with overlap
     ethr =  9.55E-09,  avg # of iterations =  1.8

     negative rho (up, down):  9.514E-05 0.000E+00

     total cpu time spent up to now is       62.5 secs

     total energy              =    -181.56963265 Ry
     estimated scf accuracy    <       0.00000100 Ry

     iteration # 10     ecut=    40.00 Ry     beta= 0.10
     Davidson diagonalization with overlap
     ethr =  3.86E-09,  avg # of iterations =  2.2

     negative rho (up, down):  4.378E-05 0.000E+00

     total cpu time spent up to now is       63.3 secs

     End of self-consistent calculation

          k = 0.0000 0.0000 0.0000 (  5321 PWs)   bands (ev):

   -62.1512 -36.2690 -36.1412 -36.1412 -15.2127 -13.8041  -6.7136  -4.0684
    -4.0684  -2.9457  -2.9457  -2.7093  -0.9482   1.3943   1.3943   1.7410
     1.7410   4.1414

     occupation numbers 
     1.0000   1.0000   1.0000   1.0000   1.0000   1.0000   1.0000   1.0000
     1.0000   1.0000   1.0000   1.0000   1.0000   0.0000   0.0000   0.0000
     0.0000   0.0000

          k = 0.0000 0.1283 0.0000 (  5259 PWs)   bands (ev):

   -62.1478 -36.2619 -36.1777 -36.1495 -15.0473 -13.7437  -6.5325  -4.4135
    -3.8921  -3.6523  -3.1995  -2.2505  -1.1008   1.2295   1.3829   1.5486
     1.6957   4.4723

     occupation numbers 
     1.0000   1.0000   1.0000   1.0000   1.0000   1.0000   1.0000   1.0000
     1.0000   1.0000   1.0000   1.0000   1.0000   0.0000   0.0000   0.0000
     0.0000   0.0000

          k = 0.0000 0.2566 0.0000 (  5251 PWs)   bands (ev):

   -62.1393 -36.2691 -36.2439 -36.1706 -14.6016 -13.5815  -6.1995  -5.0151
    -4.4885  -3.7229  -3.4265  -2.2960  -1.6519   1.0675   1.1575   1.4310
     2.2987   5.1314

     occupation numbers 
     1.0000   1.0000   1.0000   1.0000   1.0000   1.0000   1.0000   1.0000
     1.0000   1.0000   1.0000   1.0000   1.0000   0.0000   0.0000   0.0000
     0.0000   0.0000

          k = 0.0000 0.3849 0.0000 (  5257 PWs)   bands (ev):

   -62.1296 -36.3714 -36.2233 -36.1943 -14.0320 -13.3776  -6.4143  -5.2472
    -5.1157  -4.1950  -2.8655  -2.6337  -2.0987   0.8624   1.1389   2.0880
     2.7901   5.8762

     occupation numbers 
     1.0000   1.0000   1.0000   1.0000   1.0000   1.0000   1.0000   1.0000
     1.0000   1.0000   1.0000   1.0000   1.0000   0.0000   0.0000   0.0000
     0.0000   0.0000

          k = 0.0000 0.5132 0.0000 (  5278 PWs)   bands (ev):

   -62.1233 -36.4373 -36.2099 -36.2098 -13.6074 -13.2303  -6.7896  -5.7245
    -5.2021  -4.4593  -2.8318  -2.4916  -1.8891   0.7722   1.2692   2.5540
     3.0258   5.0840

     occupation numbers 
     1.0000   1.0000   1.0000   1.0000   1.0000   1.0000   1.0000   1.0000
     1.0000   1.0000   1.0000   1.0000   1.0000   0.0000   0.0000   0.0000
     0.0000   0.0000

          k = 0.1111 0.1925 0.0000 (  5244 PWs)   bands (ev):

   -62.1419 -36.2494 -36.2384 -36.1674 -14.7412 -13.6318  -6.2540  -4.8719
    -4.1621  -3.7821  -3.6002  -2.0761  -1.4676   1.0557   1.1409   1.2788
     2.2402   4.9452

     occupation numbers 
     1.0000   1.0000   1.0000   1.0000   1.0000   1.0000   1.0000   1.0000
     1.0000   1.0000   1.0000   1.0000   1.0000   0.0000   0.0000   0.0000
     0.0000   0.0000

          k = 0.1111 0.3208 0.0000 (  5277 PWs)   bands (ev):

   -62.1328 -36.3278 -36.2301 -36.1973 -14.2287 -13.4444  -6.1802  -5.0928
    -4.9468  -4.2644  -3.2791  -2.2754  -1.9890   0.8258   1.1614   1.5065
     2.8349   5.7336

     occupation numbers 
     1.0000   1.0000   1.0000   1.0000   1.0000   1.0000   1.0000   1.0000
     1.0000   1.0000   1.0000   1.0000   1.0000   0.0000   0.0000   0.0000
     0.0000   0.0000

          k = 0.1111 0.4491 0.0000 (  5293 PWs)   bands (ev):

   -62.1247 -36.4049 -36.2238 -36.2130 -13.7178 -13.2594  -6.5132  -5.6950
    -5.0704  -4.3887  -3.1550  -2.6733  -1.9415   0.8820   1.1868   2.1588
     3.0422   5.8062

     occupation numbers 
     1.0000   1.0000   1.0000   1.0000   1.0000   1.0000   1.0000   1.0000
     1.0000   1.0000   1.0000   1.0000   1.0000   0.0000   0.0000   0.0000
     0.0000   0.0000

          k = 0.1111-0.5774 0.0000 (  5300 PWs)   bands (ev):

   -62.1216 -36.4350 -36.2343 -36.2063 -13.4945 -13.1798  -6.6724  -5.9837
    -5.1870  -4.3977  -3.0624  -2.8582  -1.7029   0.7617   1.4118   2.5904
     2.8959   5.1042

     occupation numbers 
     1.0000   1.0000   1.0000   1.0000   1.0000   1.0000   1.0000   1.0000
     1.0000   1.0000   1.0000   1.0000   1.0000   0.0000   0.0000   0.0000
     0.0000   0.0000

          k = 0.2222 0.3849 0.0000 (  5284 PWs)   bands (ev):

   -62.1253 -36.3775 -36.2443 -36.2143 -13.7634 -13.2672  -6.2748  -5.7106
    -4.8905  -4.4011  -3.7587  -2.4884  -1.9798   0.9877   1.0950   1.7596
     3.1949   6.3875

     occupation numbers 
     1.0000   1.0000   1.0000   1.0000   1.0000   1.0000   1.0000   1.0000
     1.0000   1.0000   1.0000   1.0000   1.0000   0.0000   0.0000   0.0000
     0.0000   0.0000

          k = 0.2222-0.6415 0.0000 (  5280 PWs)   bands (ev):

   -62.1205 -36.4015 -36.2831 -36.2040 -13.4301 -13.1357  -6.2626  -6.2254
    -5.0086  -4.2073  -4.1613  -2.9035  -1.6197   0.5437   1.7440   2.0986
     3.2395   5.7243

     occupation numbers 
     1.0000   1.0000   1.0000   1.0000   1.0000   1.0000   1.0000   1.0000
     1.0000   1.0000   1.0000   1.0000   1.0000   0.0000   0.0000   0.0000
     0.0000   0.0000

          k = 0.3333-0.5774 0.0000 (  5268 PWs)   bands (ev):

   -62.1188 -36.3734 -36.3334 -36.2004 -13.3144 -13.0806  -6.5087  -5.6839
    -5.2130  -4.8042  -3.9629  -3.1653  -1.3187   0.1155   2.0222   2.2016
     3.4013   5.8132

     occupation numbers 
     1.0000   1.0000   1.0000   1.0000   1.0000   1.0000   1.0000   1.0000
     1.0000   1.0000   1.0000   1.0000   1.0000   0.0000   0.0000   0.0000
     0.0000   0.0000

     the Fermi energy is    -0.0358 ev

!    total energy              =    -181.56963290 Ry
     estimated scf accuracy    <       0.00000038 Ry
     smearing contrib. (-TS)   =       0.00000000 Ry
     internal energy E=F+TS    =    -181.56963290 Ry

     The total energy is F=E-TS. E is the sum of the following terms:
     one-electron contribution =   -1085.63921583 Ry
     hartree contribution      =     542.76797005 Ry
     xc contribution           =     -29.65504503 Ry
     ewald contribution        =     390.95665791 Ry

     convergence has been achieved in  10 iterations

     negative rho (up, down):  4.378E-05 0.000E+00

     Forces acting on atoms (cartesian axes, Ry/au):

     atom    1 type  1   force =     0.00000000    0.00000000    0.00000000
     atom    2 type  2   force =     0.00000000    0.00000000    0.01603341
     atom    3 type  2   force =     0.00000000    0.00000000   -0.01603341
     The non-local contrib.  to forces
     atom    1 type  1   force =    -0.00000000   -0.00000000    0.00000000
     atom    2 type  2   force =     0.00000000   -0.00000000   -0.27317556
     atom    3 type  2   force =     0.00000000   -0.00000000    0.27317556
     The ionic contribution  to forces
     atom    1 type  1   force =    -0.00000002   -0.00000001    0.00000000
     atom    2 type  2   force =     0.00000001    0.00000001   34.29464231
     atom    3 type  2   force =     0.00000001    0.00000001  -34.29464231
     The local contribution  to forces
     atom    1 type  1   force =    -0.00000000    0.00000000    0.00000000
     atom    2 type  2   force =     0.00000002    0.00000001  -34.00840804
     atom    3 type  2   force =     0.00000002    0.00000001   34.00840804
     The core correction contribution to forces
     atom    1 type  1   force =    -0.00000000   -0.00000000   -0.00000000
     atom    2 type  2   force =    -0.00000000   -0.00000000    0.00264506
     atom    3 type  2   force =    -0.00000000   -0.00000000   -0.00264506
     The Hubbard contrib.    to forces
     atom    1 type  1   force =     0.00000000    0.00000000    0.00000000
     atom    2 type  2   force =     0.00000000    0.00000000    0.00000000
     atom    3 type  2   force =     0.00000000    0.00000000    0.00000000
     The SCF correction term to forces
     atom    1 type  1   force =     0.00000000    0.00000000   -0.00000000
     atom    2 type  2   force =    -0.00000000   -0.00000000    0.00032964
     atom    3 type  2   force =    -0.00000000   -0.00000000   -0.00032964

     Total force =     0.022675     Total SCF correction =     0.000466
     Energy error            =      1.4E-01
     Gradient error          =      1.6E-02

     number of scf cycles    =   3
     number of bfgs steps    =   2

     energy   old            =    -181.4250988104 Ry
     energy   new            =    -181.5696328997 Ry

     CASE: energy  _new < energy  _old

     new trust radius        =       0.0319863221 bohr
     new conv_thr            =       0.0000001603 Ry


ATOMIC_POSITIONS (crystal)
Mo            0.0000000000        0.0000000000        0.5000000000    0   0   0
S             0.6666666660        0.6666666660        0.5769340585    0   0   1
S             0.6666666660        0.6666666660        0.4230659415    0   0   1



     Writing output data file ./outdir/MoS2.save/
     NEW-OLD atomic charge density approx. for the potential

     negative rho (up, down):  4.545E-05 0.000E+00

     total cpu time spent up to now is       64.7 secs

     Self-consistent Calculation

     iteration #  1     ecut=    40.00 Ry     beta= 0.10
     Davidson diagonalization with overlap
     ethr =  1.00E-06,  avg # of iterations =  6.0

     negative rho (up, down):  4.526E-05 0.000E+00

     total cpu time spent up to now is       65.7 secs

     total energy              =    -181.57025547 Ry
     estimated scf accuracy    <       0.00007310 Ry

     iteration #  2     ecut=    40.00 Ry     beta= 0.10
     Davidson diagonalization with overlap
     ethr =  2.81E-07,  avg # of iterations =  1.2

     negative rho (up, down):  4.518E-05 0.000E+00

     total cpu time spent up to now is       66.4 secs

     total energy              =    -181.57025356 Ry
     estimated scf accuracy    <       0.00003266 Ry

     iteration #  3     ecut=    40.00 Ry     beta= 0.10
     Davidson diagonalization with overlap
     ethr =  1.26E-07,  avg # of iterations =  1.0

     negative rho (up, down):  4.792E-05 0.000E+00

     total cpu time spent up to now is       67.1 secs

     total energy              =    -181.57025118 Ry
     estimated scf accuracy    <       0.00001586 Ry

     iteration #  4     ecut=    40.00 Ry     beta= 0.10
     Davidson diagonalization with overlap
     ethr =  6.10E-08,  avg # of iterations =  2.0

     negative rho (up, down):  4.727E-05 0.000E+00

     total cpu time spent up to now is       67.9 secs

     total energy              =    -181.57025290 Ry
     estimated scf accuracy    <       0.00000111 Ry

     iteration #  5     ecut=    40.00 Ry     beta= 0.10
     Davidson diagonalization with overlap
     ethr =  4.26E-09,  avg # of iterations =  1.7

     negative rho (up, down):  4.788E-05 0.000E+00

     total cpu time spent up to now is       68.6 secs

     total energy              =    -181.57025291 Ry
     estimated scf accuracy    <       0.00000061 Ry

     iteration #  6     ecut=    40.00 Ry     beta= 0.10
     Davidson diagonalization with overlap
     ethr =  2.36E-09,  avg # of iterations =  2.0

     negative rho (up, down):  4.715E-05 0.000E+00

     total cpu time spent up to now is       69.4 secs

     total energy              =    -181.57025299 Ry
     estimated scf accuracy    <       0.00000050 Ry

     iteration #  7     ecut=    40.00 Ry     beta= 0.10
     Davidson diagonalization with overlap
     ethr =  1.93E-09,  avg # of iterations =  1.0

     negative rho (up, down):  4.383E-05 0.000E+00

     total cpu time spent up to now is       70.0 secs

     End of self-consistent calculation

          k = 0.0000 0.0000 0.0000 (  5321 PWs)   bands (ev):

   -62.1490 -36.2627 -36.1299 -36.1299 -15.1420 -13.7975  -6.6551  -3.9579
    -3.9579  -2.8654  -2.8654  -2.7468  -0.9971   1.3956   1.3956   1.6992
     1.6992   4.1455

     occupation numbers 
     1.0000   1.0000   1.0000   1.0000   1.0000   1.0000   1.0000   1.0000
     1.0000   1.0000   1.0000   1.0000   1.0000   0.0000   0.0000   0.0000
     0.0000   0.0000

          k = 0.0000 0.1283 0.0000 (  5259 PWs)   bands (ev):

   -62.1457 -36.2557 -36.1658 -36.1381 -14.9775 -13.7343  -6.4714  -4.3102
    -3.7838  -3.6100  -3.1192  -2.2581  -1.1391   1.2277   1.3383   1.5124
     1.6895   4.4808

     occupation numbers 
     1.0000   1.0000   1.0000   1.0000   1.0000   1.0000   1.0000   1.0000
     1.0000   1.0000   1.0000   1.0000   1.0000   0.0000   0.0000   0.0000
     0.0000   0.0000

          k = 0.0000 0.2566 0.0000 (  5251 PWs)   bands (ev):

   -62.1372 -36.2560 -36.2380 -36.1589 -14.5334 -13.5644  -6.1240  -4.9409
    -4.4460  -3.6421  -3.3257  -2.3209  -1.6636   1.0210   1.1353   1.4199
     2.2728   5.1412

     occupation numbers 
     1.0000   1.0000   1.0000   1.0000   1.0000   1.0000   1.0000   1.0000
     1.0000   1.0000   1.0000   1.0000   1.0000   0.0000   0.0000   0.0000
     0.0000   0.0000

          k = 0.0000 0.3849 0.0000 (  5257 PWs)   bands (ev):

   -62.1276 -36.3570 -36.2178 -36.1824 -13.9639 -13.3500  -6.3338  -5.2132
    -5.0706  -4.1135  -2.7797  -2.6657  -2.0869   0.8620   1.1103   2.0623
     2.7427   5.8913

     occupation numbers 
     1.0000   1.0000   1.0000   1.0000   1.0000   1.0000   1.0000   1.0000
     1.0000   1.0000   1.0000   1.0000   1.0000   0.0000   0.0000   0.0000
     0.0000   0.0000

          k = 0.0000 0.5132 0.0000 (  5278 PWs)   bands (ev):

   -62.1213 -36.4220 -36.2046 -36.1977 -13.5377 -13.1948  -6.7306  -5.6998
    -5.1519  -4.3774  -2.8651  -2.4225  -1.8748   0.7935   1.2773   2.5205
     2.9660   5.0729

     occupation numbers 
     1.0000   1.0000   1.0000   1.0000   1.0000   1.0000   1.0000   1.0000
     1.0000   1.0000   1.0000   1.0000   1.0000   0.0000   0.0000   0.0000
     0.0000   0.0000

          k = 0.1111 0.1925 0.0000 (  5244 PWs)   bands (ev):

   -62.1398 -36.2434 -36.2257 -36.1558 -14.6726 -13.6171  -6.1848  -4.7853
    -4.1181  -3.7105  -3.4985  -2.0904  -1.4863   1.0109   1.1369   1.2497
     2.2170   4.9561

     occupation numbers 
     1.0000   1.0000   1.0000   1.0000   1.0000   1.0000   1.0000   1.0000
     1.0000   1.0000   1.0000   1.0000   1.0000   0.0000   0.0000   0.0000
     0.0000   0.0000

          k = 0.1111 0.3208 0.0000 (  5277 PWs)   bands (ev):

   -62.1308 -36.3139 -36.2244 -36.1853 -14.1609 -13.4206  -6.0939  -5.0420
    -4.8937  -4.2110  -3.1995  -2.2973  -1.9746   0.7990   1.1413   1.4930
     2.7876   5.7447

     occupation numbers 
     1.0000   1.0000   1.0000   1.0000   1.0000   1.0000   1.0000   1.0000
     1.0000   1.0000   1.0000   1.0000   1.0000   0.0000   0.0000   0.0000
     0.0000   0.0000

          k = 0.1111 0.4491 0.0000 (  5293 PWs)   bands (ev):

   -62.1228 -36.3900 -36.2115 -36.2077 -13.6489 -13.2263  -6.4448  -5.6471
    -5.0244  -4.3373  -3.1012  -2.7010  -1.9043   0.8860   1.1867   2.1286
     2.9849   5.7968

     occupation numbers 
     1.0000   1.0000   1.0000   1.0000   1.0000   1.0000   1.0000   1.0000
     1.0000   1.0000   1.0000   1.0000   1.0000   0.0000   0.0000   0.0000
     0.0000   0.0000

          k = 0.1111-0.5774 0.0000 (  5300 PWs)   bands (ev):

   -62.1197 -36.4197 -36.2219 -36.2011 -13.4244 -13.1426  -6.6187  -5.9392
    -5.1338  -4.3450  -3.0175  -2.8891  -1.6669   0.7912   1.4194   2.5470
     2.8450   5.0819

     occupation numbers 
     1.0000   1.0000   1.0000   1.0000   1.0000   1.0000   1.0000   1.0000
     1.0000   1.0000   1.0000   1.0000   1.0000   0.0000   0.0000   0.0000
     0.0000   0.0000

          k = 0.2222 0.3849 0.0000 (  5284 PWs)   bands (ev):

   -62.1234 -36.3629 -36.2317 -36.2090 -13.6951 -13.2353  -6.1993  -5.6435
    -4.8482  -4.3765  -3.7086  -2.5123  -1.9375   0.9597   1.1167   1.7334
     3.1360   6.3916

     occupation numbers 
     1.0000   1.0000   1.0000   1.0000   1.0000   1.0000   1.0000   1.0000
     1.0000   1.0000   1.0000   1.0000   1.0000   0.0000   0.0000   0.0000
     0.0000   0.0000

          k = 0.2222-0.6415 0.0000 (  5280 PWs)   bands (ev):

   -62.1186 -36.3865 -36.2701 -36.1988 -13.3603 -13.0980  -6.1954  -6.1707
    -4.9590  -4.1892  -4.1192  -2.9302  -1.5769   0.5841   1.7298   2.0467
     3.1957   5.6993

     occupation numbers 
     1.0000   1.0000   1.0000   1.0000   1.0000   1.0000   1.0000   1.0000
     1.0000   1.0000   1.0000   1.0000   1.0000   0.0000   0.0000   0.0000
     0.0000   0.0000

          k = 0.3333-0.5774 0.0000 (  5268 PWs)   bands (ev):

   -62.1169 -36.3582 -36.3204 -36.1953 -13.2440 -13.0412  -6.4363  -5.6423
    -5.1608  -4.7565  -3.9549  -3.1919  -1.2828   0.1780   1.9594   2.1700
     3.3648   5.8210

     occupation numbers 
     1.0000   1.0000   1.0000   1.0000   1.0000   1.0000   1.0000   1.0000
     1.0000   1.0000   1.0000   1.0000   1.0000   0.0000   0.0000   0.0000
     0.0000   0.0000

     the Fermi energy is    -0.0318 ev

!    total energy              =    -181.57025289 Ry
     estimated scf accuracy    <       0.00000011 Ry
     smearing contrib. (-TS)   =       0.00000000 Ry
     internal energy E=F+TS    =    -181.57025289 Ry

     The total energy is F=E-TS. E is the sum of the following terms:
     one-electron contribution =   -1081.33916747 Ry
     hartree contribution      =     540.63592097 Ry
     xc contribution           =     -29.63014598 Ry
     ewald contribution        =     388.76313959 Ry

     convergence has been achieved in   7 iterations

     negative rho (up, down):  4.383E-05 0.000E+00

     Forces acting on atoms (cartesian axes, Ry/au):

     atom    1 type  1   force =     0.00000000    0.00000000    0.00000000
     atom    2 type  2   force =     0.00000000    0.00000000    0.00337086
     atom    3 type  2   force =     0.00000000    0.00000000   -0.00337086
     The non-local contrib.  to forces
     atom    1 type  1   force =     0.00000000    0.00000000    0.00000000
     atom    2 type  2   force =     0.00000000    0.00000000   -0.27804465
     atom    3 type  2   force =     0.00000000    0.00000000    0.27804465
     The ionic contribution  to forces
     atom    1 type  1   force =    -0.00000002   -0.00000001    0.00000000
     atom    2 type  2   force =     0.00000001    0.00000001   34.28169779
     atom    3 type  2   force =     0.00000001    0.00000001  -34.28169779
     The local contribution  to forces
     atom    1 type  1   force =     0.00000000    0.00000000    0.00000000
     atom    2 type  2   force =     0.00000002    0.00000001  -34.00384151
     atom    3 type  2   force =     0.00000002    0.00000001   34.00384151
     The core correction contribution to forces
     atom    1 type  1   force =    -0.00000000    0.00000000   -0.00000000
     atom    2 type  2   force =    -0.00000000   -0.00000000    0.00286394
     atom    3 type  2   force =    -0.00000000   -0.00000000   -0.00286394
     The Hubbard contrib.    to forces
     atom    1 type  1   force =     0.00000000    0.00000000    0.00000000
     atom    2 type  2   force =     0.00000000    0.00000000    0.00000000
     atom    3 type  2   force =     0.00000000    0.00000000    0.00000000
     The SCF correction term to forces
     atom    1 type  1   force =    -0.00000000   -0.00000000   -0.00000000
     atom    2 type  2   force =     0.00000000    0.00000000    0.00069528
     atom    3 type  2   force =     0.00000000    0.00000000   -0.00069528

     Total force =     0.004767     Total SCF correction =     0.000983
     SCF correction compared to forces is large: reduce conv_thr to get better values
     Energy error            =      6.2E-04
     Gradient error          =      3.4E-03

     number of scf cycles    =   4
     number of bfgs steps    =   3

     energy   old            =    -181.5696328997 Ry
     energy   new            =    -181.5702528922 Ry

     CASE: energy  _new < energy  _old

     new trust radius        =       0.0085149717 bohr
     new conv_thr            =       0.0000000337 Ry


ATOMIC_POSITIONS (crystal)
Mo            0.0000000000        0.0000000000        0.5000000000    0   0   0
S             0.6666666660        0.6666666660        0.5771593549    0   0   1
S             0.6666666660        0.6666666660        0.4228406451    0   0   1



     Writing output data file ./outdir/MoS2.save/
     NEW-OLD atomic charge density approx. for the potential

     negative rho (up, down):  4.404E-05 0.000E+00

     total cpu time spent up to now is       71.4 secs

     Self-consistent Calculation

     iteration #  1     ecut=    40.00 Ry     beta= 0.10
     Davidson diagonalization with overlap
     ethr =  1.00E-06,  avg # of iterations =  5.0

     Threshold (ethr) on eigenvalues was too large:
     Diagonalizing with lowered threshold

     Davidson diagonalization with overlap
     ethr =  3.71E-08,  avg # of iterations =  3.7

     negative rho (up, down):  4.401E-05 0.000E+00

     total cpu time spent up to now is       72.8 secs

     total energy              =    -181.57028491 Ry
     estimated scf accuracy    <       0.00001132 Ry

     iteration #  2     ecut=    40.00 Ry     beta= 0.10
     Davidson diagonalization with overlap
     ethr =  4.35E-08,  avg # of iterations =  1.0

     negative rho (up, down):  4.400E-05 0.000E+00

     total cpu time spent up to now is       73.5 secs

     total energy              =    -181.57028494 Ry
     estimated scf accuracy    <       0.00000296 Ry

     iteration #  3     ecut=    40.00 Ry     beta= 0.10
     Davidson diagonalization with overlap
     ethr =  1.14E-08,  avg # of iterations =  1.3

     negative rho (up, down):  4.417E-05 0.000E+00

     total cpu time spent up to now is       74.2 secs

     total energy              =    -181.57028489 Ry
     estimated scf accuracy    <       0.00000115 Ry

     iteration #  4     ecut=    40.00 Ry     beta= 0.10
     Davidson diagonalization with overlap
     ethr =  4.41E-09,  avg # of iterations =  2.0

     negative rho (up, down):  4.415E-05 0.000E+00

     total cpu time spent up to now is       74.9 secs

     total energy              =    -181.57028499 Ry
     estimated scf accuracy    <       0.00000011 Ry

     iteration #  5     ecut=    40.00 Ry     beta= 0.10
     Davidson diagonalization with overlap
     ethr =  4.08E-10,  avg # of iterations =  2.0

     negative rho (up, down):  4.380E-05 0.000E+00

     total cpu time spent up to now is       75.7 secs

     End of self-consistent calculation

          k = 0.0000 0.0000 0.0000 (  5321 PWs)   bands (ev):

   -62.1488 -36.2615 -36.1270 -36.1270 -15.1237 -13.7959  -6.6398  -3.9287
    -3.9287  -2.8442  -2.8442  -2.7568  -1.0101   1.3958   1.3958   1.6882
     1.6882   4.1439

     occupation numbers 
     1.0000   1.0000   1.0000   1.0000   1.0000   1.0000   1.0000   1.0000
     1.0000   1.0000   1.0000   1.0000   1.0000   0.0000   0.0000   0.0000
     0.0000   0.0000

          k = 0.0000 0.1283 0.0000 (  5259 PWs)   bands (ev):

   -62.1455 -36.2545 -36.1629 -36.1352 -14.9594 -13.7320  -6.4555  -4.2829
    -3.7551  -3.5994  -3.0979  -2.2597  -1.1493   1.2270   1.3265   1.5027
     1.6876   4.4792

     occupation numbers 
     1.0000   1.0000   1.0000   1.0000   1.0000   1.0000   1.0000   1.0000
     1.0000   1.0000   1.0000   1.0000   1.0000   0.0000   0.0000   0.0000
     0.0000   0.0000

          k = 0.0000 0.2566 0.0000 (  5251 PWs)   bands (ev):

   -62.1371 -36.2527 -36.2369 -36.1559 -14.5157 -13.5600  -6.1043  -4.9213
    -4.4348  -3.6207  -3.2991  -2.3275  -1.6667   1.0086   1.1295   1.4168
     2.2656   5.1404

     occupation numbers 
     1.0000   1.0000   1.0000   1.0000   1.0000   1.0000   1.0000   1.0000
     1.0000   1.0000   1.0000   1.0000   1.0000   0.0000   0.0000   0.0000
     0.0000   0.0000

          k = 0.0000 0.3849 0.0000 (  5257 PWs)   bands (ev):

   -62.1275 -36.3533 -36.2168 -36.1794 -13.9464 -13.3429  -6.3125  -5.2041
    -5.0589  -4.0919  -2.7572  -2.6742  -2.0837   0.8620   1.1025   2.0553
     2.7299   5.8939

     occupation numbers 
     1.0000   1.0000   1.0000   1.0000   1.0000   1.0000   1.0000   1.0000
     1.0000   1.0000   1.0000   1.0000   1.0000   0.0000   0.0000   0.0000
     0.0000   0.0000

          k = 0.0000 0.5132 0.0000 (  5278 PWs)   bands (ev):

   -62.1212 -36.4181 -36.2037 -36.1947 -13.5197 -13.1855  -6.7149  -5.6932
    -5.1387  -4.3556  -2.8740  -2.4045  -1.8710   0.7992   1.2791   2.5115
     2.9499   5.0699

     occupation numbers 
     1.0000   1.0000   1.0000   1.0000   1.0000   1.0000   1.0000   1.0000
     1.0000   1.0000   1.0000   1.0000   1.0000   0.0000   0.0000   0.0000
     0.0000   0.0000

          k = 0.1111 0.1925 0.0000 (  5244 PWs)   bands (ev):

   -62.1396 -36.2422 -36.2225 -36.1528 -14.6548 -13.6134  -6.1667  -4.7623
    -4.1068  -3.6914  -3.4716  -2.0940  -1.4912   0.9988   1.1357   1.2421
     2.2106   4.9550

     occupation numbers 
     1.0000   1.0000   1.0000   1.0000   1.0000   1.0000   1.0000   1.0000
     1.0000   1.0000   1.0000   1.0000   1.0000   0.0000   0.0000   0.0000
     0.0000   0.0000

          k = 0.1111 0.3208 0.0000 (  5277 PWs)   bands (ev):

   -62.1306 -36.3104 -36.2234 -36.1823 -14.1434 -13.4145  -6.0711  -5.0287
    -4.8798  -4.1968  -3.1787  -2.3031  -1.9705   0.7915   1.1362   1.4893
     2.7749   5.7448

     occupation numbers 
     1.0000   1.0000   1.0000   1.0000   1.0000   1.0000   1.0000   1.0000
     1.0000   1.0000   1.0000   1.0000   1.0000   0.0000   0.0000   0.0000
     0.0000   0.0000

          k = 0.1111 0.4491 0.0000 (  5293 PWs)   bands (ev):

   -62.1227 -36.3862 -36.2085 -36.2068 -13.6312 -13.2177  -6.4267  -5.6345
    -5.0124  -4.3236  -3.0871  -2.7083  -1.8943   0.8864   1.1871   2.1203
     2.9696   5.7938

     occupation numbers 
     1.0000   1.0000   1.0000   1.0000   1.0000   1.0000   1.0000   1.0000
     1.0000   1.0000   1.0000   1.0000   1.0000   0.0000   0.0000   0.0000
     0.0000   0.0000

          k = 0.1111-0.5774 0.0000 (  5300 PWs)   bands (ev):

   -62.1196 -36.4158 -36.2188 -36.2002 -13.4064 -13.1329  -6.6044  -5.9274
    -5.1199  -4.3309  -3.0059  -2.8974  -1.6574   0.7987   1.4213   2.5350
     2.8317   5.0759

     occupation numbers 
     1.0000   1.0000   1.0000   1.0000   1.0000   1.0000   1.0000   1.0000
     1.0000   1.0000   1.0000   1.0000   1.0000   0.0000   0.0000   0.0000
     0.0000   0.0000

          k = 0.2222 0.3849 0.0000 (  5284 PWs)   bands (ev):

   -62.1233 -36.3592 -36.2286 -36.2080 -13.6775 -13.2270  -6.1793  -5.6256
    -4.8373  -4.3700  -3.6954  -2.5186  -1.9262   0.9513   1.1231   1.7262
     3.1202   6.3916

     occupation numbers 
     1.0000   1.0000   1.0000   1.0000   1.0000   1.0000   1.0000   1.0000
     1.0000   1.0000   1.0000   1.0000   1.0000   0.0000   0.0000   0.0000
     0.0000   0.0000

          k = 0.2222-0.6415 0.0000 (  5280 PWs)   bands (ev):

   -62.1185 -36.3828 -36.2669 -36.1979 -13.3423 -13.0882  -6.1776  -6.1561
    -4.9459  -4.1844  -4.1081  -2.9373  -1.5656   0.5942   1.7260   2.0327
     3.1840   5.6925

     occupation numbers 
     1.0000   1.0000   1.0000   1.0000   1.0000   1.0000   1.0000   1.0000
     1.0000   1.0000   1.0000   1.0000   1.0000   0.0000   0.0000   0.0000
     0.0000   0.0000

          k = 0.3333-0.5774 0.0000 (  5268 PWs)   bands (ev):

   -62.1168 -36.3543 -36.3172 -36.1944 -13.2259 -13.0309  -6.4169  -5.6313
    -5.1468  -4.7442  -3.9528  -3.1990  -1.2733   0.1941   1.9426   2.1615
     3.3548   5.8230

     occupation numbers 
     1.0000   1.0000   1.0000   1.0000   1.0000   1.0000   1.0000   1.0000
     1.0000   1.0000   1.0000   1.0000   1.0000   0.0000   0.0000   0.0000
     0.0000   0.0000

     the Fermi energy is    -0.0319 ev

!    total energy              =    -181.57028499 Ry
     estimated scf accuracy    <       0.00000003 Ry
     smearing contrib. (-TS)   =       0.00000000 Ry
     internal energy E=F+TS    =    -181.57028499 Ry

     The total energy is F=E-TS. E is the sum of the following terms:
     one-electron contribution =   -1080.18875258 Ry
     hartree contribution      =     540.06279249 Ry
     xc contribution           =     -29.62368179 Ry
     ewald contribution        =     388.17935690 Ry

     convergence has been achieved in   5 iterations

     negative rho (up, down):  4.380E-05 0.000E+00

     Forces acting on atoms (cartesian axes, Ry/au):

     atom    1 type  1   force =    -0.00000000    0.00000000    0.00000000
     atom    2 type  2   force =     0.00000000    0.00000000    0.00025480
     atom    3 type  2   force =     0.00000000    0.00000000   -0.00025480
     The non-local contrib.  to forces
     atom    1 type  1   force =    -0.00000000   -0.00000000    0.00000000
     atom    2 type  2   force =     0.00000000   -0.00000000   -0.27932710
     atom    3 type  2   force =     0.00000000   -0.00000000    0.27932710
     The ionic contribution  to forces
     atom    1 type  1   force =    -0.00000002   -0.00000001    0.00000000
     atom    2 type  2   force =     0.00000001    0.00000001   34.27782937
     atom    3 type  2   force =     0.00000001    0.00000001  -34.27782937
     The local contribution  to forces
     atom    1 type  1   force =     0.00000000    0.00000000    0.00000000
     atom    2 type  2   force =     0.00000002    0.00000001  -34.00127340
     atom    3 type  2   force =     0.00000002    0.00000001   34.00127340
     The core correction contribution to forces
     atom    1 type  1   force =     0.00000000   -0.00000000   -0.00000000
     atom    2 type  2   force =    -0.00000000   -0.00000000    0.00292698
     atom    3 type  2   force =    -0.00000000   -0.00000000   -0.00292698
     The Hubbard contrib.    to forces
     atom    1 type  1   force =     0.00000000    0.00000000    0.00000000
     atom    2 type  2   force =     0.00000000    0.00000000    0.00000000
     atom    3 type  2   force =     0.00000000    0.00000000    0.00000000
     The SCF correction term to forces
     atom    1 type  1   force =    -0.00000000   -0.00000000    0.00000000
     atom    2 type  2   force =     0.00000000    0.00000000    0.00009894
     atom    3 type  2   force =     0.00000000    0.00000000   -0.00009894

     Total force =     0.000360     Total SCF correction =     0.000140
     SCF correction compared to forces is large: reduce conv_thr to get better values
     Energy error            =      3.2E-05
     Gradient error          =      2.5E-04

     bfgs converged in   5 scf cycles and   4 bfgs steps
     (criteria: energy <  1.0E-04 Ry, force <  1.0E-03 Ry/Bohr)

     End of BFGS Geometry Optimization

     Final energy   =    -181.5702849886 Ry

     File ./outdir/MoS2.bfgs deleted, as requested
Begin final coordinates

ATOMIC_POSITIONS (crystal)
Mo            0.0000000000        0.0000000000        0.5000000000    0   0   0
S             0.6666666660        0.6666666660        0.5771593549    0   0   1
S             0.6666666660        0.6666666660        0.4228406451    0   0   1
End final coordinates



     Writing output data file ./outdir/MoS2.save/

     init_run     :      0.78s CPU      0.87s WALL (       1 calls)
     electrons    :     52.64s CPU     69.17s WALL (       5 calls)
     update_pot   :      1.89s CPU      1.91s WALL (       4 calls)
     forces       :      2.96s CPU      3.36s WALL (       5 calls)

     Called by init_run:
     wfcinit      :      0.09s CPU      0.09s WALL (       1 calls)
     wfcinit:atom :      0.00s CPU      0.00s WALL (      12 calls)
     wfcinit:wfcr :      0.08s CPU      0.08s WALL (      12 calls)
     potinit      :      0.18s CPU      0.19s WALL (       1 calls)
     hinit0       :      0.35s CPU      0.35s WALL (       1 calls)

     Called by electrons:
     c_bands      :     22.99s CPU     24.21s WALL (      93 calls)
     sum_band     :     13.57s CPU     21.64s WALL (      93 calls)
     v_of_rho     :      3.23s CPU      3.79s WALL (      97 calls)
     v_h          :      0.26s CPU      0.27s WALL (      97 calls)
     v_xc         :      3.12s CPU      3.69s WALL (     102 calls)
     newd         :     12.70s CPU     19.68s WALL (      97 calls)
     mix_rho      :      0.49s CPU      0.52s WALL (      93 calls)

     Called by c_bands:
     init_us_2    :      0.54s CPU      0.57s WALL (    2304 calls)
     cegterg      :     21.10s CPU     22.26s WALL (    1116 calls)

     Called by sum_band:
     sum_band:wei :      0.01s CPU      0.01s WALL (      93 calls)
     sum_band:loo :      2.72s CPU      2.92s WALL (      93 calls)
     sum_band:buf :      0.08s CPU      0.08s WALL (    1116 calls)
     sum_band:ini :      0.21s CPU      0.22s WALL (    1116 calls)
     sum_band:cal :      0.84s CPU      0.90s WALL (    1116 calls)
     sum_band:bec :      0.02s CPU      0.02s WALL (    1116 calls)
     addusdens    :     10.46s CPU     18.21s WALL (      93 calls)
     addusd:skk   :      0.05s CPU      0.07s WALL (     186 calls)
     addusd:dgemm :      4.42s CPU     11.13s WALL (     186 calls)
     addusd:qvan2 :      5.37s CPU      5.39s WALL (     186 calls)

     Called by *egterg:
     cdiaghg      :      1.49s CPU      1.53s WALL (    3271 calls)
     cegterg:over :      1.97s CPU      2.02s WALL (    2215 calls)
     cegterg:upda :      0.90s CPU      0.92s WALL (    2215 calls)
     cegterg:last :      1.81s CPU      1.84s WALL (    1837 calls)
     cdiaghg:chol :      0.15s CPU      0.15s WALL (    3271 calls)
     cdiaghg:inve :      0.03s CPU      0.03s WALL (    3271 calls)
     cdiaghg:para :      0.23s CPU      0.23s WALL (    6542 calls)
     h_psi        :     12.11s CPU     12.99s WALL (    3343 calls)
     s_psi        :      1.98s CPU      2.09s WALL (    3343 calls)
     g_psi        :      0.12s CPU      0.12s WALL (    2215 calls)

     Called by h_psi:
     h_psi:calbec :      2.22s CPU      2.45s WALL (    3343 calls)
     vloc_psi     :      7.80s CPU      8.28s WALL (    3343 calls)
     add_vuspsi   :      1.93s CPU      2.10s WALL (    3343 calls)

     General routines
     calbec       :      3.25s CPU      3.56s WALL (    4699 calls)
     fft          :      1.63s CPU      1.80s WALL (    1311 calls)
     ffts         :      0.04s CPU      0.05s WALL (     190 calls)
     fftw         :      7.85s CPU      8.36s WALL (  114446 calls)
     interpolate  :      0.19s CPU      0.20s WALL (      97 calls)

     Parallel routines
     fft_scatt_xy :      1.21s CPU      1.30s WALL (  115947 calls)
     fft_scatt_yz :      3.58s CPU      3.85s WALL (  115947 calls)

     PWSCF        :     59.01s CPU   1m16.37s WALL


   This run was terminated on:  19:11:18  18Jan2023            

=------------------------------------------------------------------------------=
   JOB DONE.
=------------------------------------------------------------------------------=
